\relax 
\providecommand\hyper@newdestlabel[2]{}
\citation{Harville98book_matrix}
\@writefile{toc}{\contentsline {chapter}{\numberline {8}Appendix - Proof of Lemmas}{53}{chapter.145}\protected@file@percent }
\@writefile{cot}{\contentsline {chapter}{\numberline {8}Appendix - Proof of Lemmas}{53}{chapter.145}\protected@file@percent }
\@writefile{lof}{\addvspace {10\p@ }}
\@writefile{fol}{\addvspace {10\p@ }}
\@writefile{lot}{\addvspace {10\p@ }}
\@writefile{tol}{\addvspace {10\p@ }}
\newlabel{chap:AppndSec}{{8}{53}{Appendix - Proof of Lemmas}{chapter.145}{}}
\@writefile{toc}{\contentsline {section}{\numberline {\@@number {8.1}}Proof of Lemma \ref  {lemma:AugMaxDetLemma}}{53}{section.146}\protected@file@percent }
\@writefile{cot}{\contentsline {section}{\numberline {\@@number {8.1}}Proof of Lemma \ref  {lemma:AugMaxDetLemma}}{53}{section.146}\protected@file@percent }
\newlabel{sec:AugmentDetLemmaProof}{{\@@number {8.1}}{53}{Proof of Lemma \ref {lemma:AugMaxDetLemma}}{section.146}{}}
\newlabel{eq:AugmentCovMat}{{A1}{53}{Proof of Lemma \ref {lemma:AugMaxDetLemma}}{equation.147}{}}
\newlabel{eq:AugmentCovMatInverse}{{A2}{53}{Proof of Lemma \ref {lemma:AugMaxDetLemma}}{equation.148}{}}
\newlabel{eq:AugmentInfoooMatInverse}{{A3}{53}{Proof of Lemma \ref {lemma:AugMaxDetLemma}}{equation.149}{}}
\newlabel{eq:AugmentDetLemma}{{A4}{54}{Proof of Lemma \ref {lemma:AugMaxDetLemma}}{equation.150}{}}
\newlabel{eq:AugmentDetLemma2}{{A5}{54}{Proof of Lemma \ref {lemma:AugMaxDetLemma}}{equation.151}{}}
\newlabel{eq:AugmentDetLemma3}{{A6}{54}{Proof of Lemma \ref {lemma:AugMaxDetLemma}}{equation.152}{}}
\newlabel{eq:AugmentDetLemma4}{{A7}{54}{Proof of Lemma \ref {lemma:AugMaxDetLemma}}{equation.153}{}}
\newlabel{eq:AugmentDetLemma88}{{A8}{54}{Proof of Lemma \ref {lemma:AugMaxDetLemma}}{equation.154}{}}
\@writefile{toc}{\contentsline {section}{\numberline {\@@number {8.2}}Proof of Lemma \ref  {lemma:AugMaxDetExtLemma}}{54}{section.155}\protected@file@percent }
\@writefile{cot}{\contentsline {section}{\numberline {\@@number {8.2}}Proof of Lemma \ref  {lemma:AugMaxDetExtLemma}}{54}{section.155}\protected@file@percent }
\newlabel{sec:AugmentDetExtLemmaProof}{{\@@number {8.2}}{54}{Proof of Lemma \ref {lemma:AugMaxDetExtLemma}}{section.155}{}}
\newlabel{eq:AugmentDetLemma90}{{A12}{55}{Proof of Lemma \ref {lemma:AugMaxDetExtLemma}}{equation.159}{}}
\newlabel{eq:AugmentDetLemma9}{{A13}{55}{Proof of Lemma \ref {lemma:AugMaxDetExtLemma}}{equation.160}{}}
\@writefile{toc}{\contentsline {section}{\numberline {\@@number {8.3}}Proof of Lemma \ref  {lemma:FocNewEntropyLemma}}{55}{section.161}\protected@file@percent }
\@writefile{cot}{\contentsline {section}{\numberline {\@@number {8.3}}Proof of Lemma \ref  {lemma:FocNewEntropyLemma}}{55}{section.161}\protected@file@percent }
\newlabel{sec:FocusedNewProof}{{\@@number {8.3}}{55}{Proof of Lemma \ref {lemma:FocNewEntropyLemma}}{section.161}{}}
\newlabel{eq:CovInfoMatPartitioned}{{B14}{55}{Proof of Lemma \ref {lemma:FocNewEntropyLemma}}{equation.162}{}}
\newlabel{eq:MargCovDeterminantLemma}{{B15}{55}{Proof of Lemma \ref {lemma:FocNewEntropyLemma}}{equation.163}{}}
\newlabel{eq:RPartition}{{B16}{55}{Proof of Lemma \ref {lemma:FocNewEntropyLemma}}{equation.164}{}}
\newlabel{eq:PosteriorRMatrixAugment}{{B17}{56}{Proof of Lemma \ref {lemma:FocNewEntropyLemma}}{equation.165}{}}
\newlabel{eq:PosteriorFMatrixDetAugment}{{B18}{56}{Proof of Lemma \ref {lemma:FocNewEntropyLemma}}{equation.166}{}}
\newlabel{eq:ObjFuncPosteriorInfoDeterminantFocusedAugmentProof}{{B19}{56}{Proof of Lemma \ref {lemma:FocNewEntropyLemma}}{equation.167}{}}
\@writefile{toc}{\contentsline {section}{\numberline {\@@number {8.4}}Proof of Lemma \ref  {lemma:FocNewEntropyExtLemma}}{56}{section.168}\protected@file@percent }
\@writefile{cot}{\contentsline {section}{\numberline {\@@number {8.4}}Proof of Lemma \ref  {lemma:FocNewEntropyExtLemma}}{56}{section.168}\protected@file@percent }
\newlabel{sec:FocusedNewExtProof}{{\@@number {8.4}}{56}{Proof of Lemma \ref {lemma:FocNewEntropyExtLemma}}{section.168}{}}
\newlabel{eq:FocusedNewExtProof11}{{B20}{56}{Proof of Lemma \ref {lemma:FocNewEntropyExtLemma}}{equation.169}{}}
\newlabel{eq:ObjFuncPosteriorInfoDeterminantFocusedAugmentExtProof}{{B22}{56}{Proof of Lemma \ref {lemma:FocNewEntropyExtLemma}}{equation.171}{}}
\@writefile{toc}{\contentsline {section}{\numberline {\@@number {8.5}}Proof of Lemma \ref  {lemma:FocOldEntropyLemma}}{57}{section.172}\protected@file@percent }
\@writefile{cot}{\contentsline {section}{\numberline {\@@number {8.5}}Proof of Lemma \ref  {lemma:FocOldEntropyLemma}}{57}{section.172}\protected@file@percent }
\newlabel{sec:FocusedOldProof}{{\@@number {8.5}}{57}{Proof of Lemma \ref {lemma:FocOldEntropyLemma}}{section.172}{}}
\newlabel{eq:PriorCovInfoMatPartitioned}{{C23}{57}{Proof of Lemma \ref {lemma:FocOldEntropyLemma}}{equation.173}{}}
\newlabel{eq:CovInfoMatPartitioned2}{{C24}{57}{Proof of Lemma \ref {lemma:FocOldEntropyLemma}}{equation.174}{}}
\newlabel{eq:CovInfoMatRPartitioned3}{{C25}{57}{Proof of Lemma \ref {lemma:FocOldEntropyLemma}}{equation.175}{}}
\newlabel{eq:RPartition}{{C26}{57}{Proof of Lemma \ref {lemma:FocOldEntropyLemma}}{equation.176}{}}
\newlabel{eq:PartitionDetLemma}{{C27}{58}{Proof of Lemma \ref {lemma:FocOldEntropyLemma}}{equation.177}{}}
\newlabel{eq:SMatrixPreDef}{{C28}{58}{Proof of Lemma \ref {lemma:FocOldEntropyLemma}}{equation.178}{}}
\newlabel{eq:PosteriorFMatrixRatio}{{C29}{58}{Proof of Lemma \ref {lemma:FocOldEntropyLemma}}{equation.179}{}}
\newlabel{eq:ObjFuncPosteriorIGFocusedProof}{{C30}{58}{Proof of Lemma \ref {lemma:FocOldEntropyLemma}}{equation.180}{}}
\newlabel{eq:SMatrixDefProof}{{C31}{58}{Proof of Lemma \ref {lemma:FocOldEntropyLemma}}{equation.181}{}}
\@writefile{toc}{\contentsline {section}{\numberline {\@@number {8.6}}Proof of Lemma \ref  {lemma:FocOldEntropyExtLemma}}{58}{section.182}\protected@file@percent }
\@writefile{cot}{\contentsline {section}{\numberline {\@@number {8.6}}Proof of Lemma \ref  {lemma:FocOldEntropyExtLemma}}{58}{section.182}\protected@file@percent }
\newlabel{sec:FocusedOldExtProof}{{\@@number {8.6}}{58}{Proof of Lemma \ref {lemma:FocOldEntropyExtLemma}}{section.182}{}}
\newlabel{eq:FocusedOldExtProof11}{{C33}{58}{Proof of Lemma \ref {lemma:FocOldEntropyExtLemma}}{equation.184}{}}
\newlabel{eq:S1MatrixDefProof}{{C35}{59}{Proof of Lemma \ref {lemma:FocOldEntropyExtLemma}}{equation.186}{}}
\newlabel{eq:FocusedOldExtProof12}{{C36}{59}{Proof of Lemma \ref {lemma:FocOldEntropyExtLemma}}{equation.187}{}}
\newlabel{eq:ObjFuncPosteriorIGFocusedExtProof}{{C37}{59}{Proof of Lemma \ref {lemma:FocOldEntropyExtLemma}}{equation.188}{}}
\@writefile{toc}{\contentsline {section}{\numberline {\@@number {8.7}}SLAM Solution - focus on last pose $X^F_{k+L} \equiv x_{k+L}$}{59}{section.189}\protected@file@percent }
\@writefile{cot}{\contentsline {section}{\numberline {\@@number {8.7}}SLAM Solution - focus on last pose $X^F_{k+L} \equiv x_{k+L}$}{59}{section.189}\protected@file@percent }
\newlabel{sec:SLAMFocNewProof}{{\@@number {8.7}}{59}{SLAM Solution - focus on last pose $X^F_{k+L} \equiv x_{k+L}$}{section.189}{}}
\newlabel{eq:SLAMBUNewStruct}{{C38}{60}{SLAM Solution - focus on last pose $X^F_{k+L} \equiv x_{k+L}$}{equation.190}{}}
\newlabel{eq:SLAMCMatrixDefExt41}{{C39}{60}{SLAM Solution - focus on last pose $X^F_{k+L} \equiv x_{k+L}$}{equation.191}{}}
\newlabel{eq:SLAMBUNewTildaStruct}{{C40}{60}{SLAM Solution - focus on last pose $X^F_{k+L} \equiv x_{k+L}$}{equation.192}{}}
\newlabel{eq:SLAMDUnewStruct}{{C41}{61}{SLAM Solution - focus on last pose $X^F_{k+L} \equiv x_{k+L}$}{equation.193}{}}
\newlabel{eq:SLAMCondInfMatDefExt}{{C42}{61}{SLAM Solution - focus on last pose $X^F_{k+L} \equiv x_{k+L}$}{equation.194}{}}
\newlabel{eq:SLAMFocNwEntropy}{{C43}{61}{SLAM Solution - focus on last pose $X^F_{k+L} \equiv x_{k+L}$}{equation.195}{}}
\@writefile{toc}{\contentsline {section}{\numberline {\@@number {8.8}}SLAM Solution - focus on mapped landmarks $X^F_{k+L} \equiv L_{k}$}{61}{section.196}\protected@file@percent }
\@writefile{cot}{\contentsline {section}{\numberline {\@@number {8.8}}SLAM Solution - focus on mapped landmarks $X^F_{k+L} \equiv L_{k}$}{61}{section.196}\protected@file@percent }
\newlabel{sec:SLAMFocOldProof}{{\@@number {8.8}}{61}{SLAM Solution - focus on mapped landmarks $X^F_{k+L} \equiv L_{k}$}{section.196}{}}
\newlabel{eq:SLAMBOldUStruct}{{C44}{62}{SLAM Solution - focus on mapped landmarks $X^F_{k+L} \equiv L_{k}$}{equation.197}{}}
\newlabel{eq:SLAMCMatrixDefExt60}{{C45}{62}{SLAM Solution - focus on mapped landmarks $X^F_{k+L} \equiv L_{k}$}{equation.198}{}}
\newlabel{eq:SLAMS2MatrixDefExt61}{{C46}{62}{SLAM Solution - focus on mapped landmarks $X^F_{k+L} \equiv L_{k}$}{equation.199}{}}
\newlabel{eq:SLAMS2MatrixDefExt62}{{C47}{62}{SLAM Solution - focus on mapped landmarks $X^F_{k+L} \equiv L_{k}$}{equation.200}{}}
\newlabel{eq:SLAMS3MatrixDefExt61}{{C48}{62}{SLAM Solution - focus on mapped landmarks $X^F_{k+L} \equiv L_{k}$}{equation.201}{}}
\newlabel{eq:SLAMSMatrixDefExt61}{{C49}{62}{SLAM Solution - focus on mapped landmarks $X^F_{k+L} \equiv L_{k}$}{equation.202}{}}
\newlabel{eq:SLAMSMatrixDefExt62}{{C50}{62}{SLAM Solution - focus on mapped landmarks $X^F_{k+L} \equiv L_{k}$}{equation.203}{}}
\newlabel{eq:SLAMSMatrixDefExt68}{{C51}{63}{SLAM Solution - focus on mapped landmarks $X^F_{k+L} \equiv L_{k}$}{equation.204}{}}
\newlabel{eq:SLAMSMatrixDefExt69}{{C52}{63}{SLAM Solution - focus on mapped landmarks $X^F_{k+L} \equiv L_{k}$}{equation.205}{}}
\newlabel{eq:SLAMSMatrixDefExt71}{{C53}{63}{SLAM Solution - focus on mapped landmarks $X^F_{k+L} \equiv L_{k}$}{equation.206}{}}
\@writefile{toc}{\contentsline {section}{\numberline {\@@number {8.9}}Proof of Lemmas \ref  {lemma:MIBasicLemma} and \ref  {lemma:MIAdvancedLemma}}{64}{section.208}\protected@file@percent }
\@writefile{cot}{\contentsline {section}{\numberline {\@@number {8.9}}Proof of Lemmas \ref  {lemma:MIBasicLemma} and \ref  {lemma:MIAdvancedLemma}}{64}{section.208}\protected@file@percent }
\newlabel{sec:MILemmaProof}{{\@@number {8.9}}{64}{Proof of Lemmas \ref {lemma:MIBasicLemma} and \ref {lemma:MIAdvancedLemma}}{section.208}{}}
\newlabel{eq:MutualInfoDefProof}{{C55}{64}{Proof of Lemma \ref {lemma:MIBasicLemma}}{equation.210}{}}
\newlabel{eq:MutualInfoWithCovMatsProof}{{C56}{64}{Proof of Lemma \ref {lemma:MIBasicLemma}}{equation.211}{}}
\newlabel{eq:MutualInfoWithInfoMatsProof}{{C57}{64}{Proof of Lemma \ref {lemma:MIBasicLemma}}{equation.212}{}}
\newlabel{eq:MargAndCondDeterminantsRelationAB}{{C58}{64}{Proof of Lemma \ref {lemma:MIAdvancedLemma}}{equation.214}{}}
\newlabel{eq:MargCovDeterminantA}{{C59}{64}{Proof of Lemma \ref {lemma:MIAdvancedLemma}}{equation.215}{}}
\newlabel{eq:MargCovDeterminantB}{{C60}{64}{Proof of Lemma \ref {lemma:MIAdvancedLemma}}{equation.216}{}}
\newlabel{eq:MargCovDeterminantAB}{{C61}{65}{Proof of Lemma \ref {lemma:MIAdvancedLemma}}{equation.217}{}}
\newlabel{eq:CondDeterminantsWithInfoMats}{{C62}{65}{Proof of Lemma \ref {lemma:MIAdvancedLemma}}{equation.218}{}}
\newlabel{eq:MutualInfoWithInfoMatsExtendedProof}{{C63}{65}{Proof of Lemma \ref {lemma:MIAdvancedLemma}}{equation.219}{}}
\@setckpt{main/appendix2}{
\setcounter{page}{66}
\setcounter{equation}{63}
\setcounter{enumi}{6}
\setcounter{enumii}{0}
\setcounter{enumiii}{0}
\setcounter{enumiv}{0}
\setcounter{footnote}{0}
\setcounter{mpfootnote}{0}
\setcounter{part}{0}
\setcounter{chapter}{8}
\setcounter{section}{9}
\setcounter{subsection}{0}
\setcounter{subsubsection}{0}
\setcounter{paragraph}{0}
\setcounter{subparagraph}{0}
\setcounter{figure}{0}
\setcounter{table}{0}
\setcounter{ALG@line}{0}
\setcounter{ALG@rem}{0}
\setcounter{ALG@nested}{0}
\setcounter{ALG@Lnr}{3}
\setcounter{ALG@blocknr}{17}
\setcounter{ALG@storecount}{0}
\setcounter{ALG@tmpcounter}{0}
\setcounter{float@type}{8}
\setcounter{algorithm}{0}
\setcounter{Item}{16}
\setcounter{Hfootnote}{0}
\setcounter{bookmark@seq@number}{38}
\setcounter{endNonectr}{14}
\setcounter{currNonectr}{0}
\setcounter{parentequation}{0}
\setcounter{changebargrey}{65}
\setcounter{max@tocdepth}{2}
\setcounter{max@secnumdepth}{2}
\setcounter{currtheoremctr}{0}
\setcounter{endtheoremctr}{0}
\setcounter{theorem}{0}
\setcounter{currtheorem*ctr}{0}
\setcounter{endtheorem*ctr}{0}
\setcounter{theorem*}{0}
\setcounter{currlemmactr}{8}
\setcounter{endlemmactr}{0}
\setcounter{lemma}{0}
\setcounter{currcorollaryctr}{0}
\setcounter{endcorollaryctr}{0}
\setcounter{currcorollary*ctr}{0}
\setcounter{endcorollary*ctr}{0}
\setcounter{corollary*}{0}
\setcounter{currpropositionctr}{0}
\setcounter{endpropositionctr}{0}
\setcounter{currproposition*ctr}{0}
\setcounter{endproposition*ctr}{0}
\setcounter{proposition*}{0}
\setcounter{currclaimctr}{0}
\setcounter{endclaimctr}{0}
\setcounter{currdefinitionctr}{0}
\setcounter{enddefinitionctr}{0}
\setcounter{currobservationctr}{0}
\setcounter{endobservationctr}{0}
\setcounter{currexamplectr}{0}
\setcounter{endexamplectr}{0}
\setcounter{currproofsketchctr}{0}
\setcounter{endproofsketchctr}{0}
\setcounter{proofsketch}{0}
\setcounter{currproof-attemptctr}{0}
\setcounter{endproof-attemptctr}{0}
\setcounter{proof-attempt}{0}
\setcounter{currfactctr}{0}
\setcounter{endfactctr}{0}
\setcounter{currassumptionctr}{0}
\setcounter{endassumptionctr}{0}
\setcounter{currremarkctr}{0}
\setcounter{endremarkctr}{0}
\setcounter{remark}{0}
\setcounter{currnotectr}{0}
\setcounter{endnotectr}{0}
\setcounter{note}{0}
\setcounter{currnotesctr}{0}
\setcounter{endnotesctr}{0}
\setcounter{notes}{0}
\setcounter{currquestionctr}{0}
\setcounter{endquestionctr}{0}
\setcounter{currconjecturectr}{0}
\setcounter{endconjecturectr}{0}
\setcounter{currhypothesisctr}{0}
\setcounter{endhypothesisctr}{0}
\setcounter{proof}{0}
\setcounter{currproofctr}{0}
\setcounter{endproofctr}{0}
\setcounter{caption@flags}{0}
\setcounter{continuedfloat}{0}
\setcounter{KVtest}{0}
\setcounter{subfigure}{0}
\setcounter{subfigure@save}{0}
\setcounter{lofdepth}{1}
\setcounter{subtable}{0}
\setcounter{subtable@save}{0}
\setcounter{lotdepth}{1}
\setcounter{pp@next@reset}{0}
\setcounter{r@tfl@t}{0}
\setcounter{tkz@gr@a}{0}
\setcounter{tkz@gr@b}{0}
\setcounter{tkz@gr@c}{0}
\setcounter{tkz@gr@e}{0}
\setcounter{tkz@gr@d}{0}
\setcounter{tkz@gr@p}{0}
\setcounter{tkz@gr@i}{0}
\setcounter{tkz@gr@n}{0}
\setcounter{tkz@gr@ta}{0}
\setcounter{tkz@gr@tb}{0}
\setcounter{BAenumi}{0}
\setcounter{section@level}{1}
}
