\relax 
\providecommand\hyper@newdestlabel[2]{}
\citation{Krause08jmlr,Zimmerman06env,Zhu06jabes,Indelman16ral}
\@writefile{toc}{\contentsline {chapter}{\numberline {4}Application to Different Problem Domains}{37}{chapter.99}\protected@file@percent }
\@writefile{cot}{\contentsline {chapter}{\numberline {4}Application to Different Problem Domains}{37}{chapter.99}\protected@file@percent }
\@writefile{lof}{\addvspace {10\p@ }}
\@writefile{fol}{\addvspace {10\p@ }}
\@writefile{lot}{\addvspace {10\p@ }}
\@writefile{tol}{\addvspace {10\p@ }}
\newlabel{chap:SpecCases}{{4}{37}{Application to Different Problem Domains}{chapter.99}{}}
\@writefile{toc}{\contentsline {section}{\numberline {\@@number {4.1}}Sensor Deployment}{37}{section.100}\protected@file@percent }
\@writefile{cot}{\contentsline {section}{\numberline {\@@number {4.1}}Sensor Deployment}{37}{section.100}\protected@file@percent }
\newlabel{sec:SDSection}{{\@@number {4.1}}{37}{Sensor Deployment}{section.100}{}}
\newlabel{eq:SensrDplMeasurementModel}{{\@@number {4.1}}{37}{Sensor Deployment}{equation.101}{}}
\newlabel{eq:SensrLocsPrior}{{\@@number {4.2}}{37}{Sensor Deployment}{equation.102}{}}
\newlabel{eq:SDGaussianPDF}{{\@@number {4.3}}{38}{Sensor Deployment}{equation.103}{}}
\newlabel{eq:SDFutureBeliefPDF}{{\@@number {4.4}}{38}{Sensor Deployment}{equation.104}{}}
\newlabel{eq:SensrDplmntObjFuncIGGen}{{\@@number {4.5}}{39}{Sensor Deployment}{equation.105}{}}
\newlabel{sec:SDEnhancedApproach}{{\@@number {4.1}}{39}{Solution - \srudl }{section*.106}{}}
\citation{Kaess09ras}
\newlabel{eq:SensrDplmntObjFuncIGEnhanced}{{\@@number {4.6}}{40}{Solution - \srudl }{equation.107}{}}
\newlabel{eq:SensrDplmntCombinedEnhancedMatStrctr}{{\@@number {4.7}}{40}{Solution - \srudl }{equation.108}{}}
\@writefile{toc}{\contentsline {section}{\numberline {\@@number {4.2}}Augmented BSP in Unknown Environments}{40}{section.109}\protected@file@percent }
\@writefile{cot}{\contentsline {section}{\numberline {\@@number {4.2}}Augmented BSP in Unknown Environments}{40}{section.109}\protected@file@percent }
\newlabel{sec:SLAMPSection}{{\@@number {4.2}}{40}{Augmented BSP in Unknown Environments}{section.109}{}}
\citation{Stachniss05rss}
\citation{Prentice09ijrr,AghaMohammadi14ijrr}
\citation{Indelman15isrr}
\newlabel{eq:MotionModel}{{\@@number {4.8}}{41}{Augmented BSP in Unknown Environments}{equation.110}{}}
\newlabel{eq:ObservModel}{{\@@number {4.9}}{41}{Augmented BSP in Unknown Environments}{equation.111}{}}
\newlabel{eq:MotionModel2}{{\@@number {4.10}}{41}{Augmented BSP in Unknown Environments}{equation.112}{}}
\newlabel{eq:SLAMGaussianPDF}{{\@@number {4.11}}{41}{Augmented BSP in Unknown Environments}{equation.113}{}}
\newlabel{eq:SLAMBeliefPropogation}{{\@@number {4.12}}{41}{Augmented BSP in Unknown Environments}{equation.114}{}}
\citation{Indelman15ijrr}
\newlabel{eq:SLAMPosteriorInfoMatrixBSSigm}{{\@@number {4.13}}{42}{Augmented BSP in Unknown Environments}{equation.115}{}}
\newlabel{sec:SLAMApproach}{{\@@number {4.2}}{42}{Solution - \rudl applied to SLAM}{section*.116}{}}
\newlabel{eq:SLAMDnewStruct}{{\@@number {4.14}}{43}{Solution - \rudl applied to SLAM}{equation.117}{}}
\newlabel{eq:SLAMBStruct}{{\@@number {4.16}}{44}{Solution - \rudl applied to SLAM}{equation.119}{}}
\newlabel{eq:SLAMBOldStruct}{{\@@number {4.17}}{44}{Solution - \rudl applied to SLAM}{equation.120}{}}
\newlabel{eq:SLAMBNewStruct}{{\@@number {4.18}}{44}{Solution - \rudl applied to SLAM}{equation.121}{}}
\citation{Indelman15ijrr,VanDenBerg12ijrr}
\newlabel{eq:SLAMCMatrixDefExt22}{{\@@number {4.19}}{45}{Solution - \rudl applied to SLAM}{equation.122}{}}
\newlabel{eq:SLAMC2MatrixDefExt22}{{\@@number {4.20}}{45}{Solution - \rudl applied to SLAM}{equation.123}{}}
\newlabel{eq:SLAMCMatrixDefExt23}{{\@@number {4.21}}{45}{Solution - \rudl applied to SLAM}{equation.124}{}}
\newlabel{eq:SLAMCMatrixDefExt25}{{\@@number {4.22}}{45}{Solution - \rudl applied to SLAM}{equation.125}{}}
\newlabel{eq:SLAMObjFuncIG11}{{\@@number {4.23}}{45}{Solution - \rudl applied to SLAM}{equation.126}{}}
\citation{Kaess12ijrr}
\citation{Ila10tro,Kretzchmar12ijrr,Paull16icra}
\citation{Vial11iros,Mazuran14rss,CarlevarisBianco14tro,Huang13ecmr}
\@writefile{toc}{\contentsline {section}{\numberline {\@@number {4.3}}Graph Reduction}{46}{section.127}\protected@file@percent }
\@writefile{cot}{\contentsline {section}{\numberline {\@@number {4.3}}Graph Reduction}{46}{section.127}\protected@file@percent }
\newlabel{sec:GraphReduction}{{\@@number {4.3}}{46}{Graph Reduction}{section.127}{}}
\newlabel{eq:ObjFuncGRVarSelect}{{\@@number {4.24}}{46}{Graph Reduction}{equation.128}{}}
\newlabel{eq:ObjFuncGRVarSelectEnhanced}{{\@@number {4.25}}{46}{Graph Reduction}{equation.129}{}}
\newlabel{eq:ObjFuncGRVarSelectReduced}{{\@@number {4.26}}{46}{Graph Reduction}{equation.130}{}}
\@setckpt{main/applications}{
\setcounter{page}{47}
\setcounter{equation}{26}
\setcounter{enumi}{7}
\setcounter{enumii}{0}
\setcounter{enumiii}{0}
\setcounter{enumiv}{0}
\setcounter{footnote}{0}
\setcounter{mpfootnote}{0}
\setcounter{part}{0}
\setcounter{chapter}{4}
\setcounter{section}{3}
\setcounter{subsection}{0}
\setcounter{subsubsection}{0}
\setcounter{paragraph}{0}
\setcounter{subparagraph}{0}
\setcounter{figure}{0}
\setcounter{table}{0}
\setcounter{ALG@line}{0}
\setcounter{ALG@rem}{0}
\setcounter{ALG@nested}{0}
\setcounter{ALG@Lnr}{3}
\setcounter{ALG@blocknr}{17}
\setcounter{ALG@storecount}{0}
\setcounter{ALG@tmpcounter}{0}
\setcounter{float@type}{8}
\setcounter{algorithm}{0}
\setcounter{Item}{7}
\setcounter{Hfootnote}{0}
\setcounter{bookmark@seq@number}{24}
\setcounter{endNonectr}{12}
\setcounter{currNonectr}{0}
\setcounter{parentequation}{0}
\setcounter{changebargrey}{65}
\setcounter{max@tocdepth}{2}
\setcounter{max@secnumdepth}{2}
\setcounter{currtheoremctr}{0}
\setcounter{endtheoremctr}{0}
\setcounter{theorem}{0}
\setcounter{currtheorem*ctr}{0}
\setcounter{endtheorem*ctr}{0}
\setcounter{theorem*}{0}
\setcounter{currlemmactr}{8}
\setcounter{endlemmactr}{0}
\setcounter{lemma}{0}
\setcounter{currcorollaryctr}{0}
\setcounter{endcorollaryctr}{0}
\setcounter{currcorollary*ctr}{0}
\setcounter{endcorollary*ctr}{0}
\setcounter{corollary*}{0}
\setcounter{currpropositionctr}{0}
\setcounter{endpropositionctr}{0}
\setcounter{currproposition*ctr}{0}
\setcounter{endproposition*ctr}{0}
\setcounter{proposition*}{0}
\setcounter{currclaimctr}{0}
\setcounter{endclaimctr}{0}
\setcounter{currdefinitionctr}{0}
\setcounter{enddefinitionctr}{0}
\setcounter{currobservationctr}{0}
\setcounter{endobservationctr}{0}
\setcounter{currexamplectr}{0}
\setcounter{endexamplectr}{0}
\setcounter{currproofsketchctr}{0}
\setcounter{endproofsketchctr}{0}
\setcounter{proofsketch}{0}
\setcounter{currproof-attemptctr}{0}
\setcounter{endproof-attemptctr}{0}
\setcounter{proof-attempt}{0}
\setcounter{currfactctr}{0}
\setcounter{endfactctr}{0}
\setcounter{currassumptionctr}{0}
\setcounter{endassumptionctr}{0}
\setcounter{currremarkctr}{0}
\setcounter{endremarkctr}{0}
\setcounter{remark}{0}
\setcounter{currnotectr}{0}
\setcounter{endnotectr}{0}
\setcounter{note}{0}
\setcounter{currnotesctr}{0}
\setcounter{endnotesctr}{0}
\setcounter{notes}{0}
\setcounter{currquestionctr}{0}
\setcounter{endquestionctr}{0}
\setcounter{currconjecturectr}{0}
\setcounter{endconjecturectr}{0}
\setcounter{currhypothesisctr}{0}
\setcounter{endhypothesisctr}{0}
\setcounter{proof}{0}
\setcounter{currproofctr}{0}
\setcounter{endproofctr}{0}
\setcounter{caption@flags}{0}
\setcounter{continuedfloat}{0}
\setcounter{KVtest}{0}
\setcounter{subfigure}{0}
\setcounter{subfigure@save}{0}
\setcounter{lofdepth}{1}
\setcounter{subtable}{0}
\setcounter{subtable@save}{0}
\setcounter{lotdepth}{1}
\setcounter{pp@next@reset}{0}
\setcounter{r@tfl@t}{0}
\setcounter{tkz@gr@a}{0}
\setcounter{tkz@gr@b}{0}
\setcounter{tkz@gr@c}{0}
\setcounter{tkz@gr@e}{0}
\setcounter{tkz@gr@d}{0}
\setcounter{tkz@gr@p}{0}
\setcounter{tkz@gr@i}{0}
\setcounter{tkz@gr@n}{0}
\setcounter{tkz@gr@ta}{0}
\setcounter{tkz@gr@tb}{0}
\setcounter{BAenumi}{0}
\setcounter{section@level}{1}
}
