\relax 
\providecommand\hyper@newdestlabel[2]{}
\citation{Harville98book_matrix}
\citation{Davison05iccv,Kaess09ras}
\citation{Kschischang01it}
\citation{Kaess12ijrr,Kaess08tro}
\@writefile{toc}{\contentsline {chapter}{\numberline {3}Approach}{17}{chapter.34}\protected@file@percent }
\@writefile{cot}{\contentsline {chapter}{\numberline {3}Approach}{17}{chapter.34}\protected@file@percent }
\@writefile{lof}{\addvspace {10\p@ }}
\@writefile{fol}{\addvspace {10\p@ }}
\@writefile{lot}{\addvspace {10\p@ }}
\@writefile{tol}{\addvspace {10\p@ }}
\newlabel{chap:Approach}{{3}{17}{Approach}{chapter.34}{}}
\@writefile{toc}{\contentsline {section}{\numberline {\@@number {3.1}}BSP as Factor Graph}{17}{section.35}\protected@file@percent }
\@writefile{cot}{\contentsline {section}{\numberline {\@@number {3.1}}BSP as Factor Graph}{17}{section.35}\protected@file@percent }
\newlabel{sec:BSP_FG}{{\@@number {3.1}}{17}{BSP as Factor Graph}{section.35}{}}
\newlabel{eq:PostFGnaugDef}{{\@@number {3.1}}{18}{BSP as Factor Graph}{equation.36}{}}
\newlabel{eq:FSetAugDef}{{\@@number {3.2}}{18}{BSP as Factor Graph}{equation.37}{}}
\newlabel{eq:FNewSetDef}{{\@@number {3.3}}{18}{BSP as Factor Graph}{equation.38}{}}
\newlabel{eq:FConnSetDef}{{\@@number {3.4}}{18}{BSP as Factor Graph}{equation.39}{}}
\newlabel{eq:PostFGaugDef}{{\@@number {3.5}}{18}{BSP as Factor Graph}{equation.40}{}}
\citation{VanDenBerg12ijrr,Indelman15ijrr,Platt10rss}
\citation{Harville98book_matrix}
\citation{Ila10tro,Mu15rss}
\@writefile{lot}{\contentsline {table}{\numberline {\@@number {3.1}}{\ignorespaces  Different partitions of state variables in BSP\relax }}{20}{table.caption.43}\protected@file@percent }
\providecommand*\caption@xref[2]{\@setref\relax\@undefined{#1}}
\newlabel{tab:NotationsDM}{{\@@number {3.1}}{20}{Different partitions of state variables in BSP\relax }{table.caption.43}{}}
\@writefile{toc}{\contentsline {section}{\numberline {\@@number {3.2}}BSP via Matrix Determinant Lemma}{20}{section.41}\protected@file@percent }
\@writefile{cot}{\contentsline {section}{\numberline {\@@number {3.2}}BSP via Matrix Determinant Lemma}{20}{section.41}\protected@file@percent }
\newlabel{sec:DMApp}{{\@@number {3.2}}{20}{BSP via Matrix Determinant Lemma}{section.41}{}}
\@writefile{toc}{\contentsline {subsection}{\numberline {\@@number {\@@number {3.2}.1}}Unfocused Case}{20}{subsection.42}\protected@file@percent }
\@writefile{cot}{\contentsline {subsection}{\numberline {\@@number {\@@number {3.2}.1}}Unfocused Case}{20}{subsection.42}\protected@file@percent }
\newlabel{sec:UnfocusedDM}{{\@@number {\@@number {3.2}.1}}{20}{Unfocused Case}{subsection.42}{}}
\newlabel{eq:ObjFuncPosteriorTau}{{\@@number {3.6}}{20}{Unfocused Case}{equation.44}{}}
\citation{Golub80laa,Kaess09ras}
\citation{Indelman15acc,Indelman16ral}
\newlabel{eq:ObjFuncPosteriorTauShort}{{\@@number {3.7}}{21}{Unfocused Case}{equation.45}{}}
\citation{ouellette1981schur}
\@writefile{toc}{\contentsline {subsection}{\numberline {\@@number {\@@number {3.2}.2}}Focused Case}{22}{subsection.46}\protected@file@percent }
\@writefile{cot}{\contentsline {subsection}{\numberline {\@@number {\@@number {3.2}.2}}Focused Case}{22}{subsection.46}\protected@file@percent }
\newlabel{sec:FocusedDM}{{\@@number {\@@number {3.2}.2}}{22}{Focused Case}{subsection.46}{}}
\newlabel{eq:CovInfoMatPartitionedDM}{{\@@number {3.8}}{22}{Focused Case}{equation.47}{}}
\newlabel{eq:DetOfFocusedSet}{{\@@number {3.9}}{22}{Focused Case}{equation.48}{}}
\newlabel{eq:ObjFuncPosteriorDeterminantFocusedPart}{{\@@number {3.10}}{22}{Focused Case}{equation.49}{}}
\newlabel{eq:ObjFuncPosteriorIGFocusedDM}{{\@@number {3.11}}{22}{Focused Case}{equation.50}{}}
\newlabel{eq:CondPriorRelax}{{\@@number {3.12}}{23}{Focused Case}{equation.51}{}}
\newlabel{eq:ObjFuncPosteriorIGFocusedDMFinal}{{\@@number {3.13}}{23}{Focused Case}{equation.52}{}}
\newlabel{eq:FocUnFocRelation}{{\@@number {3.14}}{23}{Focused Case}{equation.53}{}}
\@writefile{toc}{\contentsline {section}{\numberline {\@@number {3.3}}Augmented BSP via AMDL}{23}{section.54}\protected@file@percent }
\@writefile{cot}{\contentsline {section}{\numberline {\@@number {3.3}}Augmented BSP via AMDL}{23}{section.54}\protected@file@percent }
\newlabel{sec:GenBSPApproach}{{\@@number {3.3}}{23}{Augmented BSP via AMDL}{section.54}{}}
\@writefile{toc}{\contentsline {subsection}{\numberline {\@@number {\@@number {3.3}.1}}Augmented Matrix Determinant Lemma (AMDL)}{23}{subsection.55}\protected@file@percent }
\@writefile{cot}{\contentsline {subsection}{\numberline {\@@number {\@@number {3.3}.1}}Augmented Matrix Determinant Lemma (AMDL)}{23}{subsection.55}\protected@file@percent }
\newlabel{sec:AugmentDetLemma}{{\@@number {\@@number {3.3}.1}}{23}{Augmented Matrix Determinant Lemma (AMDL)}{subsection.55}{}}
\@writefile{thm}{\contentsline {lemma}{{Lemma}{\beginL 3.3\endL .{1}}{}}{23}{lemma.56}\protected@file@percent }
\newlabel{lemma:AugMaxDetLemma}{{\@@number {3.3}.{1}}{23}{Augmented Matrix Determinant Lemma (AMDL)}{lemma.56}{}}
\newlabel{eq:AugmentDetLemma8}{{\@@number {3.15}}{23}{Augmented Matrix Determinant Lemma (AMDL)}{equation.57}{}}
\newlabel{eq:AugmentDetLemmaGeneralForm}{{\@@number {3.16}}{24}{Augmented Matrix Determinant Lemma (AMDL)}{equation.58}{}}
\newlabel{eq:BSPAStruct}{{\@@number {3.17}}{24}{Augmented Matrix Determinant Lemma (AMDL)}{equation.59}{}}
\@writefile{thm}{\contentsline {lemma}{{Lemma}{\beginL 3.3\endL .{2}}{}}{24}{lemma.60}\protected@file@percent }
\newlabel{lemma:AugMaxDetExtLemma}{{\@@number {3.3}.{2}}{24}{Augmented Matrix Determinant Lemma (AMDL)}{lemma.60}{}}
\newlabel{eq:AugmentDetLemmaExd}{{\@@number {3.18}}{24}{Augmented Matrix Determinant Lemma (AMDL)}{equation.61}{}}
\@writefile{lot}{\contentsline {table}{\numberline {\@@number {3.2}}{\ignorespaces  Different partitions of state variables in Augmented BSP\relax }}{25}{table.caption.63}\protected@file@percent }
\newlabel{tab:Notations}{{\@@number {3.2}}{25}{Different partitions of state variables in Augmented BSP\relax }{table.caption.63}{}}
\@writefile{toc}{\contentsline {subsection}{\numberline {\@@number {\@@number {3.3}.2}}Unfocused Augmented BSP through IG}{25}{subsection.62}\protected@file@percent }
\@writefile{cot}{\contentsline {subsection}{\numberline {\@@number {\@@number {3.3}.2}}Unfocused Augmented BSP through IG}{25}{subsection.62}\protected@file@percent }
\newlabel{sec:UnfocusedBSP}{{\@@number {\@@number {3.3}.2}}{25}{Unfocused Augmented BSP through IG}{subsection.62}{}}
\newlabel{eq:PosteriorLambdaMatrixAugment}{{\@@number {3.19}}{25}{Unfocused Augmented BSP through IG}{equation.64}{}}
\newlabel{eq:IGinBSP}{{\@@number {3.20}}{25}{Unfocused Augmented BSP through IG}{equation.65}{}}
\newlabel{eq:CMatrixDef}{{\@@number {3.21}}{26}{Unfocused Augmented BSP through IG}{equation.66}{}}
\newlabel{eq:IGinBSPExt}{{\@@number {3.22}}{26}{Unfocused Augmented BSP through IG}{equation.67}{}}
\newlabel{eq:CMatrixDefExt}{{\@@number {3.23}}{26}{Unfocused Augmented BSP through IG}{equation.68}{}}
\newlabel{eq:CMatrixDefExt2}{{\@@number {3.24}}{26}{Unfocused Augmented BSP through IG}{equation.69}{}}
\citation{Kaess12ijrr}
\citation{Davis04toms}
\@writefile{toc}{\contentsline {subsection}{\numberline {\@@number {\@@number {3.3}.3}}Focused Augmented BSP}{27}{subsection.70}\protected@file@percent }
\@writefile{cot}{\contentsline {subsection}{\numberline {\@@number {\@@number {3.3}.3}}Focused Augmented BSP}{27}{subsection.70}\protected@file@percent }
\newlabel{sec:FocusedBSP}{{\@@number {\@@number {3.3}.3}}{27}{Focused Augmented BSP}{subsection.70}{}}
\@writefile{toc}{\contentsline {subsubsection}{\textbf  {\texttt  {Focused Augmented BSP ($X^F_{k+L} \subseteq X_{new}$)}} - focused variables belong to $G(a)$ }{27}{section*.71}\protected@file@percent }
\@writefile{cot}{\contentsline {subsubsection}{\textbf  {\texttt  {Focused Augmented BSP ($X^F_{k+L} \subseteq X_{new}$)}} - focused variables belong to $G(a)$ }{27}{section*.71}\protected@file@percent }
\newlabel{sec:FocusedNew}{{\@@number {\@@number {3.3}.3}}{27}{\textbf {\texttt {Focused Augmented BSP ($X^F_{k+L} \subseteq X_{new}$)}} - focused variables belong to $G(a)$}{section*.71}{}}
\@writefile{thm}{\contentsline {lemma}{{Lemma}{\beginL 3.3\endL .{3}}{}}{27}{lemma.72}\protected@file@percent }
\newlabel{lemma:FocNewEntropyLemma}{{\@@number {3.3}.{3}}{27}{\textbf {\texttt {Focused Augmented BSP ($X^F_{k+L} \subseteq X_{new}$)}} - focused variables belong to $G(a)$}{lemma.72}{}}
\newlabel{eq:ObjFuncPosteriorInfoDeterminantFocusedAugment}{{\@@number {3.25}}{27}{\textbf {\texttt {Focused Augmented BSP ($X^F_{k+L} \subseteq X_{new}$)}} - focused variables belong to $G(a)$}{equation.73}{}}
\citation{Walls15iros,VanDenBerg12ijrr}
\newlabel{eq:ObjFuncPosteriorInfoDeterminantFocusedAugmentTerm}{{\@@number {3.26}}{28}{\textbf {\texttt {Focused Augmented BSP ($X^F_{k+L} \subseteq X_{new}$)}} - focused variables belong to $G(a)$}{equation.74}{}}
\@writefile{thm}{\contentsline {lemma}{{Lemma}{\beginL 3.3\endL .{4}}{}}{28}{lemma.75}\protected@file@percent }
\newlabel{lemma:FocNewEntropyExtLemma}{{\@@number {3.3}.{4}}{28}{\textbf {\texttt {Focused Augmented BSP ($X^F_{k+L} \subseteq X_{new}$)}} - focused variables belong to $G(a)$}{lemma.75}{}}
\newlabel{eq:ObjFuncPosteriorInfoDeterminantFocusedAugmentExt}{{\@@number {3.27}}{28}{\textbf {\texttt {Focused Augmented BSP ($X^F_{k+L} \subseteq X_{new}$)}} - focused variables belong to $G(a)$}{equation.76}{}}
\@writefile{toc}{\contentsline {subsubsection}{\textbf  {\texttt  {Focused Augmented BSP ($X^F_{k+L} \subseteq X_{old}$)}} - focused variables belong to $G_k$}{29}{section*.77}\protected@file@percent }
\@writefile{cot}{\contentsline {subsubsection}{\textbf  {\texttt  {Focused Augmented BSP ($X^F_{k+L} \subseteq X_{old}$)}} - focused variables belong to $G_k$}{29}{section*.77}\protected@file@percent }
\newlabel{sec:FocusedOld}{{\@@number {\@@number {3.3}.3}}{29}{\textbf {\texttt {Focused Augmented BSP ($X^F_{k+L} \subseteq X_{old}$)}} - focused variables belong to $G_k$}{section*.77}{}}
\@writefile{thm}{\contentsline {lemma}{{Lemma}{\beginL 3.3\endL .{5}}{}}{29}{lemma.78}\protected@file@percent }
\newlabel{lemma:FocOldEntropyLemma}{{\@@number {3.3}.{5}}{29}{\textbf {\texttt {Focused Augmented BSP ($X^F_{k+L} \subseteq X_{old}$)}} - focused variables belong to $G_k$}{lemma.78}{}}
\newlabel{eq:ObjFuncPosteriorIGFocused}{{\@@number {3.28}}{29}{\textbf {\texttt {Focused Augmented BSP ($X^F_{k+L} \subseteq X_{old}$)}} - focused variables belong to $G_k$}{equation.79}{}}
\newlabel{eq:SMatrixDef}{{\@@number {3.29}}{29}{\textbf {\texttt {Focused Augmented BSP ($X^F_{k+L} \subseteq X_{old}$)}} - focused variables belong to $G_k$}{equation.80}{}}
\@writefile{thm}{\contentsline {lemma}{{Lemma}{\beginL 3.3\endL .{6}}{}}{29}{lemma.81}\protected@file@percent }
\newlabel{lemma:FocOldEntropyExtLemma}{{\@@number {3.3}.{6}}{29}{\textbf {\texttt {Focused Augmented BSP ($X^F_{k+L} \subseteq X_{old}$)}} - focused variables belong to $G_k$}{lemma.81}{}}
\newlabel{eq:ObjFuncPosteriorIGFocusedExt}{{\@@number {3.30}}{29}{\textbf {\texttt {Focused Augmented BSP ($X^F_{k+L} \subseteq X_{old}$)}} - focused variables belong to $G_k$}{equation.82}{}}
\newlabel{eq:SMatrixDefExt}{{\@@number {3.31}}{29}{\textbf {\texttt {Focused Augmented BSP ($X^F_{k+L} \subseteq X_{old}$)}} - focused variables belong to $G_k$}{equation.83}{}}
\@writefile{lot}{\contentsline {table}{\numberline {\@@number {3.3}}{\ignorespaces  Different problems and required entries of prior covariance. BSP - short for non-augmented belief space planning, Augmented BSP - augmented belief space planning.\relax }}{30}{table.caption.85}\protected@file@percent }
\newlabel{tab:RequiredCovTable}{{\@@number {3.3}}{30}{Different problems and required entries of prior covariance. BSP - short for non-augmented belief space planning, Augmented BSP - augmented belief space planning.\relax }{table.caption.85}{}}
\@writefile{toc}{\contentsline {section}{\numberline {\@@number {3.4}}Re-use Calculations Technique}{30}{section.84}\protected@file@percent }
\@writefile{cot}{\contentsline {section}{\numberline {\@@number {3.4}}Re-use Calculations Technique}{30}{section.84}\protected@file@percent }
\newlabel{sec:ReuseSec}{{\@@number {3.4}}{30}{Re-use Calculations Technique}{section.84}{}}
\citation{Kaess09ras}
\citation{Ila15icra}
\citation{Golub80laa,Kaess09ras}
\citation{Kaess09ras,Ila15icra}
\newlabel{eq:PriorCondMatrix}{{\@@number {3.32}}{31}{Re-use Calculations Technique}{equation.86}{}}
\citation{Davison05iccv,Kaess09ras}
\citation{Bai16iros}
\citation{CarlevarisBianco14tro}
\citation{Davison05iccv,Kaess09ras}
\citation{Davison05iccv,Kaess09ras}
\@writefile{toc}{\contentsline {section}{\numberline {\@@number {3.5}}Connection to Mutual Information Approach and Theoretical Meaning of IG}{32}{section.87}\protected@file@percent }
\@writefile{cot}{\contentsline {section}{\numberline {\@@number {3.5}}Connection to Mutual Information Approach and Theoretical Meaning of IG}{32}{section.87}\protected@file@percent }
\newlabel{sec:MIbyInfoMat}{{\@@number {3.5}}{32}{Connection to Mutual Information Approach and Theoretical Meaning of IG}{section.87}{}}
\newlabel{eq:MutualCandState}{{\@@number {3.33}}{32}{Connection to Mutual Information Approach and Theoretical Meaning of IG}{equation.88}{}}
\newlabel{eq:WCovMatrix}{{\@@number {3.34}}{32}{Connection to Mutual Information Approach and Theoretical Meaning of IG}{equation.89}{}}
\citation{Davison05iccv}
\citation{Kaess09ras}
\citation{Kaess09ras}
\newlabel{eq:MutualInfoDef}{{\@@number {3.35}}{33}{Connection to Mutual Information Approach and Theoretical Meaning of IG}{equation.90}{}}
\newlabel{eq:IGWithNoiseDM}{{\@@number {3.36}}{33}{Connection to Mutual Information Approach and Theoretical Meaning of IG}{equation.91}{}}
\citation{Kaess12ijrr}
\newlabel{eq:IGWithEntropyDM}{{\@@number {3.37}}{34}{Connection to Mutual Information Approach and Theoretical Meaning of IG}{equation.92}{}}
\newlabel{eq:IGFocDM_SecTerm}{{\@@number {3.38}}{34}{Connection to Mutual Information Approach and Theoretical Meaning of IG}{equation.93}{}}
\@writefile{toc}{\contentsline {section}{\numberline {\@@number {3.6}}Mutual Information - Fast Calculation via Information Matrix}{34}{section.94}\protected@file@percent }
\@writefile{cot}{\contentsline {section}{\numberline {\@@number {3.6}}Mutual Information - Fast Calculation via Information Matrix}{34}{section.94}\protected@file@percent }
\newlabel{sec:MIbyInfoMat2}{{\@@number {3.6}}{34}{Mutual Information - Fast Calculation via Information Matrix}{section.94}{}}
\@writefile{thm}{\contentsline {lemma}{{Lemma}{\beginL 3.6\endL .{1}}{}}{34}{lemma.95}\protected@file@percent }
\newlabel{lemma:MIBasicLemma}{{\@@number {3.6}.{1}}{34}{Mutual Information - Fast Calculation via Information Matrix}{lemma.95}{}}
\newlabel{eq:MutualInfoWithInfoMats}{{\@@number {3.39}}{35}{Mutual Information - Fast Calculation via Information Matrix}{equation.96}{}}
\@writefile{thm}{\contentsline {lemma}{{Lemma}{\beginL 3.6\endL .{2}}{}}{35}{lemma.97}\protected@file@percent }
\newlabel{lemma:MIAdvancedLemma}{{\@@number {3.6}.{2}}{35}{Mutual Information - Fast Calculation via Information Matrix}{lemma.97}{}}
\newlabel{eq:MutualInfoWithInfoMatsExtended}{{\@@number {3.40}}{35}{Mutual Information - Fast Calculation via Information Matrix}{equation.98}{}}
\@setckpt{main/approach}{
\setcounter{page}{36}
\setcounter{equation}{40}
\setcounter{enumi}{7}
\setcounter{enumii}{0}
\setcounter{enumiii}{0}
\setcounter{enumiv}{0}
\setcounter{footnote}{0}
\setcounter{mpfootnote}{0}
\setcounter{part}{0}
\setcounter{chapter}{3}
\setcounter{section}{6}
\setcounter{subsection}{0}
\setcounter{subsubsection}{0}
\setcounter{paragraph}{0}
\setcounter{subparagraph}{0}
\setcounter{figure}{0}
\setcounter{table}{3}
\setcounter{ALG@line}{0}
\setcounter{ALG@rem}{0}
\setcounter{ALG@nested}{0}
\setcounter{ALG@Lnr}{3}
\setcounter{ALG@blocknr}{17}
\setcounter{ALG@storecount}{0}
\setcounter{ALG@tmpcounter}{0}
\setcounter{float@type}{8}
\setcounter{algorithm}{0}
\setcounter{Item}{7}
\setcounter{Hfootnote}{0}
\setcounter{bookmark@seq@number}{20}
\setcounter{endNonectr}{12}
\setcounter{currNonectr}{0}
\setcounter{parentequation}{0}
\setcounter{changebargrey}{65}
\setcounter{max@tocdepth}{2}
\setcounter{max@secnumdepth}{2}
\setcounter{currtheoremctr}{0}
\setcounter{endtheoremctr}{0}
\setcounter{theorem}{0}
\setcounter{currtheorem*ctr}{0}
\setcounter{endtheorem*ctr}{0}
\setcounter{theorem*}{0}
\setcounter{currlemmactr}{8}
\setcounter{endlemmactr}{0}
\setcounter{lemma}{2}
\setcounter{currcorollaryctr}{0}
\setcounter{endcorollaryctr}{0}
\setcounter{currcorollary*ctr}{0}
\setcounter{endcorollary*ctr}{0}
\setcounter{corollary*}{0}
\setcounter{currpropositionctr}{0}
\setcounter{endpropositionctr}{0}
\setcounter{currproposition*ctr}{0}
\setcounter{endproposition*ctr}{0}
\setcounter{proposition*}{0}
\setcounter{currclaimctr}{0}
\setcounter{endclaimctr}{0}
\setcounter{currdefinitionctr}{0}
\setcounter{enddefinitionctr}{0}
\setcounter{currobservationctr}{0}
\setcounter{endobservationctr}{0}
\setcounter{currexamplectr}{0}
\setcounter{endexamplectr}{0}
\setcounter{currproofsketchctr}{0}
\setcounter{endproofsketchctr}{0}
\setcounter{proofsketch}{0}
\setcounter{currproof-attemptctr}{0}
\setcounter{endproof-attemptctr}{0}
\setcounter{proof-attempt}{0}
\setcounter{currfactctr}{0}
\setcounter{endfactctr}{0}
\setcounter{currassumptionctr}{0}
\setcounter{endassumptionctr}{0}
\setcounter{currremarkctr}{0}
\setcounter{endremarkctr}{0}
\setcounter{remark}{0}
\setcounter{currnotectr}{0}
\setcounter{endnotectr}{0}
\setcounter{note}{0}
\setcounter{currnotesctr}{0}
\setcounter{endnotesctr}{0}
\setcounter{notes}{0}
\setcounter{currquestionctr}{0}
\setcounter{endquestionctr}{0}
\setcounter{currconjecturectr}{0}
\setcounter{endconjecturectr}{0}
\setcounter{currhypothesisctr}{0}
\setcounter{endhypothesisctr}{0}
\setcounter{proof}{0}
\setcounter{currproofctr}{0}
\setcounter{endproofctr}{0}
\setcounter{caption@flags}{0}
\setcounter{continuedfloat}{0}
\setcounter{KVtest}{0}
\setcounter{subfigure}{0}
\setcounter{subfigure@save}{0}
\setcounter{lofdepth}{1}
\setcounter{subtable}{0}
\setcounter{subtable@save}{0}
\setcounter{lotdepth}{1}
\setcounter{pp@next@reset}{0}
\setcounter{r@tfl@t}{0}
\setcounter{tkz@gr@a}{0}
\setcounter{tkz@gr@b}{0}
\setcounter{tkz@gr@c}{0}
\setcounter{tkz@gr@e}{0}
\setcounter{tkz@gr@d}{0}
\setcounter{tkz@gr@p}{0}
\setcounter{tkz@gr@i}{0}
\setcounter{tkz@gr@n}{0}
\setcounter{tkz@gr@ta}{0}
\setcounter{tkz@gr@tb}{0}
\setcounter{BAenumi}{0}
\setcounter{section@level}{1}
}
