\relax 
\providecommand\hyper@newdestlabel[2]{}
\citation{Kaess12ijrr}
\@writefile{toc}{\contentsline {chapter}{\numberline {2}Notations and Problem Formulation}{11}{chapter.16}\protected@file@percent }
\@writefile{cot}{\contentsline {chapter}{\numberline {2}Notations and Problem Formulation}{11}{chapter.16}\protected@file@percent }
\@writefile{lof}{\addvspace {10\p@ }}
\@writefile{fol}{\addvspace {10\p@ }}
\@writefile{lot}{\addvspace {10\p@ }}
\@writefile{tol}{\addvspace {10\p@ }}
\newlabel{chap:ProbDef}{{2}{11}{Notations and Problem Formulation}{chapter.16}{}}
\newlabel{eq:FactorPDF}{{\@@number {2.1}}{11}{Notations and Problem Formulation}{equation.17}{}}
\newlabel{eq:FactorModel}{{\@@number {2.2}}{11}{Notations and Problem Formulation}{equation.18}{}}
\newlabel{eq:FactorModel2}{{\@@number {2.3}}{11}{Notations and Problem Formulation}{equation.19}{}}
\newlabel{eq:FactorBeliefPropogation}{{\@@number {2.6}}{12}{Notations and Problem Formulation}{equation.22}{}}
\citation{Indelman15ijrr}
\citation{Indelman15ijrr}
\citation{VanDenBerg12ijrr,Kim14ijrr,Indelman15ijrr}
\citation{Indelman15ijrr}
\citation{Indelman15ijrr,Chaves15iros,Walls15iros}
\newlabel{eq:FactorPosteriorInfoMatrixBSSigmDM}{{\@@number {2.7}}{13}{Notations and Problem Formulation}{equation.23}{}}
\newlabel{eq:FactorPosteriorInfoMatrixBSSigmBSP}{{\@@number {2.8}}{13}{Notations and Problem Formulation}{equation.24}{}}
\newlabel{eq:FactorPosteriorInfoMatrixBSDM}{{\@@number {2.9}}{13}{Notations and Problem Formulation}{equation.25}{}}
\newlabel{eq:FactorPosteriorInfoMatrixBSBSP}{{\@@number {2.10}}{13}{Notations and Problem Formulation}{equation.26}{}}
\newlabel{eq:AMatrixComb}{{\@@number {2.11}}{13}{Notations and Problem Formulation}{equation.27}{}}
\citation{Indelman15ijrr}
\newlabel{eq:GeneralBSPObjFunc}{{\@@number {2.12}}{14}{Notations and Problem Formulation}{equation.28}{}}
\newlabel{eq:ObjFuncInformation}{{\@@number {2.13}}{14}{Notations and Problem Formulation}{equation.29}{}}
\newlabel{eq:ObjFuncInformationIGGeneral}{{\@@number {2.14}}{14}{Notations and Problem Formulation}{equation.30}{}}
\newlabel{eq:EntropyPriorDM}{{\@@number {2.15}}{14}{Notations and Problem Formulation}{equation.31}{}}
\newlabel{eq:EntropyPriorBSP}{{\@@number {2.16}}{14}{Notations and Problem Formulation}{equation.32}{}}
\citation{Krause08jmlr,Levine13nips,Mu15rss}
\citation{Krause08jmlr,Levine13nips}
\citation{Mu15rss}
\newlabel{eq:ObjFuncPosteriorDeterminantFocused}{{\@@number {2.17}}{15}{Notations and Problem Formulation}{equation.33}{}}
\@setckpt{main/notations&formulation}{
\setcounter{page}{16}
\setcounter{equation}{17}
\setcounter{enumi}{7}
\setcounter{enumii}{0}
\setcounter{enumiii}{0}
\setcounter{enumiv}{0}
\setcounter{footnote}{0}
\setcounter{mpfootnote}{0}
\setcounter{part}{0}
\setcounter{chapter}{2}
\setcounter{section}{0}
\setcounter{subsection}{0}
\setcounter{subsubsection}{0}
\setcounter{paragraph}{0}
\setcounter{subparagraph}{0}
\setcounter{figure}{0}
\setcounter{table}{0}
\setcounter{ALG@line}{0}
\setcounter{ALG@rem}{0}
\setcounter{ALG@nested}{0}
\setcounter{ALG@Lnr}{3}
\setcounter{ALG@blocknr}{17}
\setcounter{ALG@storecount}{0}
\setcounter{ALG@tmpcounter}{0}
\setcounter{float@type}{8}
\setcounter{algorithm}{0}
\setcounter{Item}{7}
\setcounter{Hfootnote}{0}
\setcounter{bookmark@seq@number}{8}
\setcounter{endNonectr}{4}
\setcounter{currNonectr}{0}
\setcounter{parentequation}{0}
\setcounter{changebargrey}{65}
\setcounter{max@tocdepth}{2}
\setcounter{max@secnumdepth}{2}
\setcounter{currtheoremctr}{0}
\setcounter{endtheoremctr}{0}
\setcounter{theorem}{0}
\setcounter{currtheorem*ctr}{0}
\setcounter{endtheorem*ctr}{0}
\setcounter{theorem*}{0}
\setcounter{currlemmactr}{0}
\setcounter{endlemmactr}{0}
\setcounter{lemma}{0}
\setcounter{currcorollaryctr}{0}
\setcounter{endcorollaryctr}{0}
\setcounter{currcorollary*ctr}{0}
\setcounter{endcorollary*ctr}{0}
\setcounter{corollary*}{0}
\setcounter{currpropositionctr}{0}
\setcounter{endpropositionctr}{0}
\setcounter{currproposition*ctr}{0}
\setcounter{endproposition*ctr}{0}
\setcounter{proposition*}{0}
\setcounter{currclaimctr}{0}
\setcounter{endclaimctr}{0}
\setcounter{currdefinitionctr}{0}
\setcounter{enddefinitionctr}{0}
\setcounter{currobservationctr}{0}
\setcounter{endobservationctr}{0}
\setcounter{currexamplectr}{0}
\setcounter{endexamplectr}{0}
\setcounter{currproofsketchctr}{0}
\setcounter{endproofsketchctr}{0}
\setcounter{proofsketch}{0}
\setcounter{currproof-attemptctr}{0}
\setcounter{endproof-attemptctr}{0}
\setcounter{proof-attempt}{0}
\setcounter{currfactctr}{0}
\setcounter{endfactctr}{0}
\setcounter{currassumptionctr}{0}
\setcounter{endassumptionctr}{0}
\setcounter{currremarkctr}{0}
\setcounter{endremarkctr}{0}
\setcounter{remark}{0}
\setcounter{currnotectr}{0}
\setcounter{endnotectr}{0}
\setcounter{note}{0}
\setcounter{currnotesctr}{0}
\setcounter{endnotesctr}{0}
\setcounter{notes}{0}
\setcounter{currquestionctr}{0}
\setcounter{endquestionctr}{0}
\setcounter{currconjecturectr}{0}
\setcounter{endconjecturectr}{0}
\setcounter{currhypothesisctr}{0}
\setcounter{endhypothesisctr}{0}
\setcounter{proof}{0}
\setcounter{currproofctr}{0}
\setcounter{endproofctr}{0}
\setcounter{caption@flags}{0}
\setcounter{continuedfloat}{0}
\setcounter{KVtest}{0}
\setcounter{subfigure}{0}
\setcounter{subfigure@save}{0}
\setcounter{lofdepth}{1}
\setcounter{subtable}{0}
\setcounter{subtable@save}{0}
\setcounter{lotdepth}{1}
\setcounter{pp@next@reset}{0}
\setcounter{r@tfl@t}{0}
\setcounter{tkz@gr@a}{0}
\setcounter{tkz@gr@b}{0}
\setcounter{tkz@gr@c}{0}
\setcounter{tkz@gr@e}{0}
\setcounter{tkz@gr@d}{0}
\setcounter{tkz@gr@p}{0}
\setcounter{tkz@gr@i}{0}
\setcounter{tkz@gr@n}{0}
\setcounter{tkz@gr@ta}{0}
\setcounter{tkz@gr@tb}{0}
\setcounter{BAenumi}{0}
\setcounter{section@level}{1}
}
