\relax 
\providecommand\hyper@newdestlabel[2]{}
\citation{Dellaert12tr,Kaess12ijrr}
\@writefile{toc}{\contentsline {chapter}{\numberline {6}Results}{55}{chapter.149}\protected@file@percent }
\@writefile{cot}{\contentsline {chapter}{\numberline {6}Results}{55}{chapter.149}\protected@file@percent }
\@writefile{lof}{\addvspace {10\p@ }}
\@writefile{fol}{\addvspace {10\p@ }}
\@writefile{lot}{\addvspace {10\p@ }}
\@writefile{tol}{\addvspace {10\p@ }}
\newlabel{chap:Res}{{6}{55}{Results}{chapter.149}{}}
\@writefile{toc}{\contentsline {section}{\numberline {\@@number {6.1}}Sensor Deployment (\texttt  {\emph  {focused}} and \texttt  {\emph  {unfocused}} )}{55}{section.151}\protected@file@percent }
\@writefile{cot}{\contentsline {section}{\numberline {\@@number {6.1}}Sensor Deployment (\texttt  {\emph  {focused}} and \texttt  {\emph  {unfocused}} )}{55}{section.151}\protected@file@percent }
\newlabel{subsec:SensorDepl}{{\@@number {6.1}}{55}{Sensor Deployment (\focused and \unfocused )}{section.151}{}}
\@writefile{lot}{\contentsline {table}{\numberline {\@@number {6.1}}{\ignorespaces  Considered approaches in different problems from Chapter \ref  {chap:Res}, along with their appropriate equations.\relax }}{56}{table.caption.150}\protected@file@percent }
\newlabel{tab:SimAppMapping}{{\@@number {6.1}}{56}{Considered approaches in different problems from Chapter \ref {chap:Res}, along with their appropriate equations.\relax }{table.caption.150}{}}
\@writefile{toc}{\contentsline {section}{\numberline {\@@number {6.2}}Measurement Selection in SLAM}{57}{section.164}\protected@file@percent }
\@writefile{cot}{\contentsline {section}{\numberline {\@@number {6.2}}Measurement Selection in SLAM}{57}{section.164}\protected@file@percent }
\newlabel{subsec:MSResults}{{\@@number {6.2}}{57}{Measurement Selection in SLAM}{section.164}{}}
\citation{Dellaert12tr,Kaess12ijrr}
\citation{Kim14ijrr}
\citation{Kim14ijrr,Indelman15ijrr}
\@writefile{toc}{\contentsline {section}{\numberline {\@@number {6.3}}Autonomous Navigation in Unknown Environment}{58}{section.170}\protected@file@percent }
\@writefile{cot}{\contentsline {section}{\numberline {\@@number {6.3}}Autonomous Navigation in Unknown Environment}{58}{section.170}\protected@file@percent }
\newlabel{subsec:ANResults}{{\@@number {6.3}}{58}{Autonomous Navigation in Unknown Environment}{section.170}{}}
\citation{Kaess09ras}
\citation{Kaess12ijrr}
\newlabel{eq:ResSLAMObj}{{\@@number {6.1}}{59}{Autonomous Navigation in Unknown Environment}{equation.200}{}}
\citation{Guivant2012victoria_dataset}
\newlabel{fig:UnfocFig-a}{{\@@number {6.1}a}{61}{Subfigure 6 \protect \@@number {6.1}a}{subfigure.153}{}}
\newlabel{sub@fig:UnfocFig-a}{{(a)}{a}{Subfigure 6 \@@number {6.1}a\relax }{subfigure.153}{}}
\newlabel{fig:UnfocFig-b}{{\@@number {6.1}b}{61}{Subfigure 6 \protect \@@number {6.1}b}{subfigure.154}{}}
\newlabel{sub@fig:UnfocFig-b}{{(b)}{b}{Subfigure 6 \@@number {6.1}b\relax }{subfigure.154}{}}
\newlabel{fig:UnfocFig-d}{{\@@number {6.1}c}{61}{Subfigure 6 \protect \@@number {6.1}c}{subfigure.155}{}}
\newlabel{sub@fig:UnfocFig-d}{{(c)}{c}{Subfigure 6 \@@number {6.1}c\relax }{subfigure.155}{}}
\newlabel{fig:UnfocFig-e}{{\@@number {6.1}d}{61}{Subfigure 6 \protect \@@number {6.1}d}{subfigure.156}{}}
\newlabel{sub@fig:UnfocFig-e}{{(d)}{d}{Subfigure 6 \@@number {6.1}d\relax }{subfigure.156}{}}
\newlabel{fig:UnfocFig-c}{{\@@number {6.1}e}{61}{Subfigure 6 \protect \@@number {6.1}e}{subfigure.157}{}}
\newlabel{sub@fig:UnfocFig-c}{{(e)}{e}{Subfigure 6 \@@number {6.1}e\relax }{subfigure.157}{}}
\newlabel{fig:UnfocFig-f}{{\@@number {6.1}f}{61}{Subfigure 6 \protect \@@number {6.1}f}{subfigure.158}{}}
\newlabel{sub@fig:UnfocFig-f}{{(f)}{f}{Subfigure 6 \@@number {6.1}f\relax }{subfigure.158}{}}
\@writefile{lof}{\contentsline {figure}{\numberline {\@@number {6.1}}{\ignorespaces  \texttt  {\emph  {Unfocused}} sensor deployment scenario. Running time for calculating impact of a single action as a function of state dimension $n$ (a) and as a function of Jacobian $A$'s height $m$ (b). In (a), $m=2$, while in (b) $n=625$. \emph  {rAMDL} \texttt  {\emph  {Unfocused}} \texttt  {\emph  {Objective}} represents only calculation time of candidates' impacts (IG objective for all actions), without one-time calculation of prior covariance; \emph  {Covariance Inverse} represents the time it took to calculate covariance matrix $\Sigma _k$ from dense information matrix $\Lambda _k$, $\Sigma _k = \Lambda _k^{-1}$. (c) Running time for sequential decision making, i.e.~evaluating impact of all candidate actions, each representing candidate locations of $2$ sensors. (d) prior and final uncertainty of the field, with red dots marking selected locations. (e) number of action candidates per decision. (f) running time for sequential decision making, with number of candidates limited to 100. \relax }}{61}{figure.caption.152}\protected@file@percent }
\newlabel{fig:UnfocFig}{{\@@number {6.1}}{61}{\Unfocused sensor deployment scenario. Running time for calculating impact of a single action as a function of state dimension $n$ (a) and as a function of Jacobian $A$'s height $m$ (b). In (a), $m=2$, while in (b) $n=625$. \rudl \Unfocused \texttt {\emph {Objective}} represents only calculation time of candidates' impacts (IG objective for all actions), without one-time calculation of prior covariance; \emph {Covariance Inverse} represents the time it took to calculate covariance matrix $\Sigma _k$ from dense information matrix $\Lambda _k$, $\Sigma _k = \Lambda _k^{-1}$. (c) Running time for sequential decision making, i.e.~evaluating impact of all candidate actions, each representing candidate locations of $2$ sensors. (d) prior and final uncertainty of the field, with red dots marking selected locations. (e) number of action candidates per decision. (f) running time for sequential decision making, with number of candidates limited to 100. \relax }{figure.caption.152}{}}
\@writefile{lof}{\contentsline {subfigure}{\numberline{(a)}{\ignorespaces {}}}{61}{subfigure.1.1}\protected@file@percent }
\@writefile{lof}{\contentsline {subfigure}{\numberline{(b)}{\ignorespaces {}}}{61}{subfigure.1.2}\protected@file@percent }
\@writefile{lof}{\contentsline {subfigure}{\numberline{(c)}{\ignorespaces {}}}{61}{subfigure.1.3}\protected@file@percent }
\@writefile{lof}{\contentsline {subfigure}{\numberline{(d)}{\ignorespaces {}}}{61}{subfigure.1.4}\protected@file@percent }
\@writefile{lof}{\contentsline {subfigure}{\numberline{(e)}{\ignorespaces {}}}{61}{subfigure.1.5}\protected@file@percent }
\@writefile{lof}{\contentsline {subfigure}{\numberline{(f)}{\ignorespaces {}}}{61}{subfigure.1.6}\protected@file@percent }
\newlabel{fig:FocMultipleFig-b}{{\@@number {6.2}a}{62}{Subfigure 6 \protect \@@number {6.2}a}{subfigure.160}{}}
\newlabel{sub@fig:FocMultipleFig-b}{{(a)}{a}{Subfigure 6 \@@number {6.2}a\relax }{subfigure.160}{}}
\newlabel{fig:FocMultipleFig-c}{{\@@number {6.2}b}{62}{Subfigure 6 \protect \@@number {6.2}b}{subfigure.161}{}}
\newlabel{sub@fig:FocMultipleFig-c}{{(b)}{b}{Subfigure 6 \@@number {6.2}b\relax }{subfigure.161}{}}
\newlabel{fig:FocMultipleFig-d}{{\@@number {6.2}c}{62}{Subfigure 6 \protect \@@number {6.2}c}{subfigure.162}{}}
\newlabel{sub@fig:FocMultipleFig-d}{{(c)}{c}{Subfigure 6 \@@number {6.2}c\relax }{subfigure.162}{}}
\newlabel{fig:FocMultipleFig-e}{{\@@number {6.2}d}{62}{Subfigure 6 \protect \@@number {6.2}d}{subfigure.163}{}}
\newlabel{sub@fig:FocMultipleFig-e}{{(d)}{d}{Subfigure 6 \@@number {6.2}d\relax }{subfigure.163}{}}
\@writefile{lof}{\contentsline {figure}{\numberline {\@@number {6.2}}{\ignorespaces \texttt  {\emph  {Focused}} sensor deployment scenario, (a) overall time it took to make decision with different approaches; \emph  {rAMDL} \texttt  {\emph  {Focused}} \texttt  {\emph  {Objective}} represents only calculation of candidates' impacts (IG objective for all actions) while \emph  {rAMDL} \texttt  {\emph  {Focused}} - both one-time calculation of prior covariance $\Sigma _{k}$ and candidates' evaluation. (b) Final uncertainty of the field, with red dots marking selected locations. (c) \texttt  {\emph  {Focused}} set of variables (green circles) and locations selected by algorithm (red dots). (d) Overall system entropy (above) and entropy of \texttt  {\emph  {focused}} set (bottom) after each decision, with blue line representing \texttt  {\emph  {unfocused}} algorithm, and red line - \texttt  {\emph  {focused}} algorithm. Note - all \texttt  {\emph  {unfocused}} methods make exactly the same decisions, with difference only in their runtime complexity. Same is also true for all \texttt  {\emph  {focused}} methods.\relax }}{62}{figure.caption.159}\protected@file@percent }
\newlabel{fig:FocMultipleFig}{{\@@number {6.2}}{62}{\Focused sensor deployment scenario, (a) overall time it took to make decision with different approaches; \rudl \Focused \texttt {\emph {Objective}} represents only calculation of candidates' impacts (IG objective for all actions) while \rudl \Focused - both one-time calculation of prior covariance $\Sigma _{k}$ and candidates' evaluation. (b) Final uncertainty of the field, with red dots marking selected locations. (c) \Focused set of variables (green circles) and locations selected by algorithm (red dots). (d) Overall system entropy (above) and entropy of \focused set (bottom) after each decision, with blue line representing \unfocused algorithm, and red line - \focused algorithm. Note - all \unfocused methods make exactly the same decisions, with difference only in their runtime complexity. Same is also true for all \focused methods.\relax }{figure.caption.159}{}}
\@writefile{lof}{\contentsline {subfigure}{\numberline{(a)}{\ignorespaces {}}}{62}{subfigure.2.1}\protected@file@percent }
\@writefile{lof}{\contentsline {subfigure}{\numberline{(b)}{\ignorespaces {}}}{62}{subfigure.2.2}\protected@file@percent }
\@writefile{lof}{\contentsline {subfigure}{\numberline{(c)}{\ignorespaces {}}}{62}{subfigure.2.3}\protected@file@percent }
\@writefile{lof}{\contentsline {subfigure}{\numberline{(d)}{\ignorespaces {}}}{62}{subfigure.2.4}\protected@file@percent }
\newlabel{fig:MsrSlctFig-a}{{\@@number {6.3}a}{63}{Subfigure 6 \protect \@@number {6.3}a}{subfigure.166}{}}
\newlabel{sub@fig:MsrSlctFig-a}{{(a)}{a}{Subfigure 6 \@@number {6.3}a\relax }{subfigure.166}{}}
\newlabel{fig:MsrSlctFig-b}{{\@@number {6.3}b}{63}{Subfigure 6 \protect \@@number {6.3}b}{subfigure.167}{}}
\newlabel{sub@fig:MsrSlctFig-b}{{(b)}{b}{Subfigure 6 \@@number {6.3}b\relax }{subfigure.167}{}}
\newlabel{fig:MsrSlctFig-c}{{\@@number {6.3}c}{63}{Subfigure 6 \protect \@@number {6.3}c}{subfigure.168}{}}
\newlabel{sub@fig:MsrSlctFig-c}{{(c)}{c}{Subfigure 6 \@@number {6.3}c\relax }{subfigure.168}{}}
\newlabel{fig:MsrSlctFig-d}{{\@@number {6.3}d}{63}{Subfigure 6 \protect \@@number {6.3}d}{subfigure.169}{}}
\newlabel{sub@fig:MsrSlctFig-d}{{(d)}{d}{Subfigure 6 \@@number {6.3}d\relax }{subfigure.169}{}}
\@writefile{lof}{\contentsline {figure}{\numberline {\@@number {6.3}}{\ignorespaces  Measurement selection scenario, (a) simulated trajectory of robot; black dots are the landmarks, blue marks and surrounding ellipses are the estimated trajectory along with the uncertainty covariance for each time instant, red mark is robot's initial pose; (b) number of measurement candidates per decision; (c) state's dimension $n$ per decision; (d) overall time it took to evaluate impacts of pose's all measurements, with different approaches; \emph  {rAMDL} \texttt  {\emph  {Unfocused}} \texttt  {\emph  {Objective}} represents only calculation of candidates' impacts (IG objective for all actions) while \emph  {rAMDL} \texttt  {\emph  {Unfocused}} - both one-time calculation of marginal covariance $\Sigma _{k}^{M,X_{All}}$ and candidates' evaluation.\relax }}{63}{figure.caption.165}\protected@file@percent }
\newlabel{fig:MsrSlctFig}{{\@@number {6.3}}{63}{Measurement selection scenario, (a) simulated trajectory of robot; black dots are the landmarks, blue marks and surrounding ellipses are the estimated trajectory along with the uncertainty covariance for each time instant, red mark is robot's initial pose; (b) number of measurement candidates per decision; (c) state's dimension $n$ per decision; (d) overall time it took to evaluate impacts of pose's all measurements, with different approaches; \rudl \Unfocused \texttt {\emph {Objective}} represents only calculation of candidates' impacts (IG objective for all actions) while \rudl \Unfocused - both one-time calculation of marginal covariance $\Sigma _{k}^{M,X_{All}}$ and candidates' evaluation.\relax }{figure.caption.165}{}}
\@writefile{lof}{\contentsline {subfigure}{\numberline{(a)}{\ignorespaces {}}}{63}{subfigure.3.1}\protected@file@percent }
\@writefile{lof}{\contentsline {subfigure}{\numberline{(b)}{\ignorespaces {}}}{63}{subfigure.3.2}\protected@file@percent }
\@writefile{lof}{\contentsline {subfigure}{\numberline{(c)}{\ignorespaces {}}}{63}{subfigure.3.3}\protected@file@percent }
\@writefile{lof}{\contentsline {subfigure}{\numberline{(d)}{\ignorespaces {}}}{63}{subfigure.3.4}\protected@file@percent }
\newlabel{fig:AutoNavFigA-a}{{\@@number {6.4}a}{64}{Subfigure 6 \protect \@@number {6.4}a}{subfigure.172}{}}
\newlabel{sub@fig:AutoNavFigA-a}{{(a)}{a}{Subfigure 6 \@@number {6.4}a\relax }{subfigure.172}{}}
\newlabel{fig:AutoNavFigA-b}{{\@@number {6.4}b}{64}{Subfigure 6 \protect \@@number {6.4}b}{subfigure.173}{}}
\newlabel{sub@fig:AutoNavFigA-b}{{(b)}{b}{Subfigure 6 \@@number {6.4}b\relax }{subfigure.173}{}}
\newlabel{fig:AutoNavFigA-c}{{\@@number {6.4}c}{64}{Subfigure 6 \protect \@@number {6.4}c}{subfigure.174}{}}
\newlabel{sub@fig:AutoNavFigA-c}{{(c)}{c}{Subfigure 6 \@@number {6.4}c\relax }{subfigure.174}{}}
\newlabel{fig:AutoNavFigA-d}{{\@@number {6.4}d}{64}{Subfigure 6 \protect \@@number {6.4}d}{subfigure.175}{}}
\newlabel{sub@fig:AutoNavFigA-d}{{(d)}{d}{Subfigure 6 \@@number {6.4}d\relax }{subfigure.175}{}}
\@writefile{lof}{\contentsline {figure}{\numberline {\@@number {6.4}}{\ignorespaces  \texttt  {\emph  {Focused}} BSP scenario with \texttt  {\emph  {focused}} robot's last pose. (a) Dimensions of the BSP problem (state dimension, average number of new factor terms, average number of new variables, average number of old involved variables) at each time; (b) Number of action candidates at each time; (c) Final robot trajectory. Blue dots are mapped landmarks, red line with small ellipses is estimated trajectory with pose covariances, blue line is the real trajectory, red pluses with numbers beside them are robot's goals. Green mark is robot's start position; (d) Zoom-in of robot's trajectory near goal 12. \relax }}{64}{figure.caption.171}\protected@file@percent }
\newlabel{fig:AutoNavFigA}{{\@@number {6.4}}{64}{\Focused BSP scenario with \focused robot's last pose. (a) Dimensions of the BSP problem (state dimension, average number of new factor terms, average number of new variables, average number of old involved variables) at each time; (b) Number of action candidates at each time; (c) Final robot trajectory. Blue dots are mapped landmarks, red line with small ellipses is estimated trajectory with pose covariances, blue line is the real trajectory, red pluses with numbers beside them are robot's goals. Green mark is robot's start position; (d) Zoom-in of robot's trajectory near goal 12. \relax }{figure.caption.171}{}}
\@writefile{lof}{\contentsline {subfigure}{\numberline{(a)}{\ignorespaces {}}}{64}{subfigure.4.1}\protected@file@percent }
\@writefile{lof}{\contentsline {subfigure}{\numberline{(b)}{\ignorespaces {}}}{64}{subfigure.4.2}\protected@file@percent }
\@writefile{lof}{\contentsline {subfigure}{\numberline{(c)}{\ignorespaces {}}}{64}{subfigure.4.3}\protected@file@percent }
\@writefile{lof}{\contentsline {subfigure}{\numberline{(d)}{\ignorespaces {}}}{64}{subfigure.4.4}\protected@file@percent }
\newlabel{fig:AutoNavFigB-a}{{\@@number {6.5}a}{65}{Subfigure 6 \protect \@@number {6.5}a}{subfigure.177}{}}
\newlabel{sub@fig:AutoNavFigB-a}{{(a)}{a}{Subfigure 6 \@@number {6.5}a\relax }{subfigure.177}{}}
\newlabel{fig:AutoNavFigB-b}{{\@@number {6.5}b}{65}{Subfigure 6 \protect \@@number {6.5}b}{subfigure.178}{}}
\newlabel{sub@fig:AutoNavFigB-b}{{(b)}{b}{Subfigure 6 \@@number {6.5}b\relax }{subfigure.178}{}}
\newlabel{fig:AutoNavFigB-c}{{\@@number {6.5}c}{65}{Subfigure 6 \protect \@@number {6.5}c}{subfigure.179}{}}
\newlabel{sub@fig:AutoNavFigB-c}{{(c)}{c}{Subfigure 6 \@@number {6.5}c\relax }{subfigure.179}{}}
\newlabel{fig:AutoNavFigB-d}{{\@@number {6.5}d}{65}{Subfigure 6 \protect \@@number {6.5}d}{subfigure.180}{}}
\newlabel{sub@fig:AutoNavFigB-d}{{(d)}{d}{Subfigure 6 \@@number {6.5}d\relax }{subfigure.180}{}}
\@writefile{lof}{\contentsline {figure}{\numberline {\@@number {6.5}}{\ignorespaces  \texttt  {\emph  {Focused}} BSP scenario with \texttt  {\emph  {focused}} robot's last pose. (a) Running time of planning, i.e.~evaluating impact of all candidate actions, each representing possible trajectory; Results are shown both for \texttt  {\emph  {focused}} and \texttt  {\emph  {unfocused}} cases; (b) Zoom of fastest approaches from (a); (c) \texttt  {\emph  {Focused}} approaches from (b). Note that \emph  {iSAM} \texttt  {\emph  {Focused}} is not depicted because as seen in (a) it is much slower comparing to other \texttt  {\emph  {focused}} techniques; (d) \texttt  {\emph  {Unfocused}} approaches from (b). The lowest line, labeled \emph  {Marginal Cov}, represents time it took to calculate prior marginal covariance $\Sigma _{k}^{M,X_{All}}$ in \emph  {rAMDL} approach (see Section \ref  {sec:ReuseSec}). As can be seen, while \emph  {rAMDL} technique (\texttt  {\emph  {Unfocused}} and \texttt  {\emph  {Focused}} ) is faster than \emph  {From-Scratch} and \emph  {iSAM}, the \emph  {rAMDL-Extended} gives even better performance. Further, it is interesting to note that performance of \texttt  {\emph  {Unfocused}} and \texttt  {\emph  {Focused}} \emph  {rAMDL} is almost the same, as also performance of \texttt  {\emph  {Unfocused}} and \texttt  {\emph  {Focused}} \emph  {rAMDL-Extended} . \relax }}{65}{figure.caption.176}\protected@file@percent }
\newlabel{fig:AutoNavFigB}{{\@@number {6.5}}{65}{\Focused BSP scenario with \focused robot's last pose. (a) Running time of planning, i.e.~evaluating impact of all candidate actions, each representing possible trajectory; Results are shown both for \focused and \unfocused cases; (b) Zoom of fastest approaches from (a); (c) \Focused approaches from (b). Note that \emph {iSAM} \Focused is not depicted because as seen in (a) it is much slower comparing to other \focused techniques; (d) \Unfocused approaches from (b). The lowest line, labeled \emph {Marginal Cov}, represents time it took to calculate prior marginal covariance $\Sigma _{k}^{M,X_{All}}$ in \emph {rAMDL} approach (see Section \ref {sec:ReuseSec}). As can be seen, while \rudl technique (\Unfocused and \Focused ) is faster than \emph {From-Scratch} and \emph {iSAM}, the \rudle gives even better performance. Further, it is interesting to note that performance of \Unfocused and \Focused \rudl is almost the same, as also performance of \Unfocused and \Focused \rudle . \relax }{figure.caption.176}{}}
\@writefile{lof}{\contentsline {subfigure}{\numberline{(a)}{\ignorespaces {}}}{65}{subfigure.5.1}\protected@file@percent }
\@writefile{lof}{\contentsline {subfigure}{\numberline{(b)}{\ignorespaces {}}}{65}{subfigure.5.2}\protected@file@percent }
\@writefile{lof}{\contentsline {subfigure}{\numberline{(c)}{\ignorespaces {}}}{65}{subfigure.5.3}\protected@file@percent }
\@writefile{lof}{\contentsline {subfigure}{\numberline{(d)}{\ignorespaces {}}}{65}{subfigure.5.4}\protected@file@percent }
\newlabel{fig:AutoNavFigC-a}{{\@@number {6.6}a}{66}{Subfigure 6 \protect \@@number {6.6}a}{subfigure.182}{}}
\newlabel{sub@fig:AutoNavFigC-a}{{(a)}{a}{Subfigure 6 \@@number {6.6}a\relax }{subfigure.182}{}}
\newlabel{fig:AutoNavFigC-b}{{\@@number {6.6}b}{66}{Subfigure 6 \protect \@@number {6.6}b}{subfigure.183}{}}
\newlabel{sub@fig:AutoNavFigC-b}{{(b)}{b}{Subfigure 6 \@@number {6.6}b\relax }{subfigure.183}{}}
\newlabel{fig:AutoNavFigC-c}{{\@@number {6.6}c}{66}{Subfigure 6 \protect \@@number {6.6}c}{subfigure.184}{}}
\newlabel{sub@fig:AutoNavFigC-c}{{(c)}{c}{Subfigure 6 \@@number {6.6}c\relax }{subfigure.184}{}}
\newlabel{fig:AutoNavFigC-d}{{\@@number {6.6}d}{66}{Subfigure 6 \protect \@@number {6.6}d}{subfigure.185}{}}
\newlabel{sub@fig:AutoNavFigC-d}{{(d)}{d}{Subfigure 6 \@@number {6.6}d\relax }{subfigure.185}{}}
\@writefile{lof}{\contentsline {figure}{\numberline {\@@number {6.6}}{\ignorespaces  \texttt  {\emph  {Focused}} BSP scenario with \texttt  {\emph  {focused}} robot's last pose. Running times from Figure \ref  {fig:AutoNavFigB} normalized by number of candidates. \relax }}{66}{figure.caption.181}\protected@file@percent }
\newlabel{fig:AutoNavFigC}{{\@@number {6.6}}{66}{\Focused BSP scenario with \focused robot's last pose. Running times from Figure \ref {fig:AutoNavFigB} normalized by number of candidates. \relax }{figure.caption.181}{}}
\@writefile{lof}{\contentsline {subfigure}{\numberline{(a)}{\ignorespaces {}}}{66}{subfigure.6.1}\protected@file@percent }
\@writefile{lof}{\contentsline {subfigure}{\numberline{(b)}{\ignorespaces {}}}{66}{subfigure.6.2}\protected@file@percent }
\@writefile{lof}{\contentsline {subfigure}{\numberline{(c)}{\ignorespaces {}}}{66}{subfigure.6.3}\protected@file@percent }
\@writefile{lof}{\contentsline {subfigure}{\numberline{(d)}{\ignorespaces {}}}{66}{subfigure.6.4}\protected@file@percent }
\newlabel{fig:AutoNavFocLandmarksFig-a}{{\@@number {6.7}a}{67}{Subfigure 6 \protect \@@number {6.7}a}{subfigure.187}{}}
\newlabel{sub@fig:AutoNavFocLandmarksFig-a}{{(a)}{a}{Subfigure 6 \@@number {6.7}a\relax }{subfigure.187}{}}
\newlabel{fig:AutoNavFocLandmarksFig-b}{{\@@number {6.7}b}{67}{Subfigure 6 \protect \@@number {6.7}b}{subfigure.188}{}}
\newlabel{sub@fig:AutoNavFocLandmarksFig-b}{{(b)}{b}{Subfigure 6 \@@number {6.7}b\relax }{subfigure.188}{}}
\newlabel{fig:AutoNavFocLandmarksFig-c}{{\@@number {6.7}c}{67}{Subfigure 6 \protect \@@number {6.7}c}{subfigure.189}{}}
\newlabel{sub@fig:AutoNavFocLandmarksFig-c}{{(c)}{c}{Subfigure 6 \@@number {6.7}c\relax }{subfigure.189}{}}
\newlabel{fig:AutoNavFocLandmarksFig-d}{{\@@number {6.7}d}{67}{Subfigure 6 \protect \@@number {6.7}d}{subfigure.190}{}}
\newlabel{sub@fig:AutoNavFocLandmarksFig-d}{{(d)}{d}{Subfigure 6 \@@number {6.7}d\relax }{subfigure.190}{}}
\newlabel{fig:AutoNavFocLandmarksFig-e}{{\@@number {6.7}e}{67}{Subfigure 6 \protect \@@number {6.7}e}{subfigure.191}{}}
\newlabel{sub@fig:AutoNavFocLandmarksFig-e}{{(e)}{e}{Subfigure 6 \@@number {6.7}e\relax }{subfigure.191}{}}
\newlabel{fig:AutoNavFocLandmarksFig-f}{{\@@number {6.7}f}{67}{Subfigure 6 \protect \@@number {6.7}f}{subfigure.192}{}}
\newlabel{sub@fig:AutoNavFocLandmarksFig-f}{{(f)}{f}{Subfigure 6 \@@number {6.7}f\relax }{subfigure.192}{}}
\@writefile{lof}{\contentsline {figure}{\numberline {\@@number {6.7}}{\ignorespaces  \texttt  {\emph  {Focused}} BSP scenario with \texttt  {\emph  {focused}} landmarks. (a) Number of action candidates at each time; (b) Final robot trajectory; (c) Running time of planning, i.e.~evaluating impact of all candidate actions, each representing possible trajectory; (d) Running time from (c) normalized by number of candidates; (e) Zoom of fastest approaches from (c); (f) Zoom of fastest approaches from (d). The lowest line, labeled \emph  {Marginal Cov}, represents time it took to calculate prior marginal covariance $\Sigma _{k}^{M,X_{All}}$ in \emph  {rAMDL} approach (see Section \ref  {sec:ReuseSec}). \relax }}{67}{figure.caption.186}\protected@file@percent }
\newlabel{fig:AutoNavFocLandmarksFig}{{\@@number {6.7}}{67}{\Focused BSP scenario with \focused landmarks. (a) Number of action candidates at each time; (b) Final robot trajectory; (c) Running time of planning, i.e.~evaluating impact of all candidate actions, each representing possible trajectory; (d) Running time from (c) normalized by number of candidates; (e) Zoom of fastest approaches from (c); (f) Zoom of fastest approaches from (d). The lowest line, labeled \emph {Marginal Cov}, represents time it took to calculate prior marginal covariance $\Sigma _{k}^{M,X_{All}}$ in \emph {rAMDL} approach (see Section \ref {sec:ReuseSec}). \relax }{figure.caption.186}{}}
\@writefile{lof}{\contentsline {subfigure}{\numberline{(a)}{\ignorespaces {}}}{67}{subfigure.7.1}\protected@file@percent }
\@writefile{lof}{\contentsline {subfigure}{\numberline{(b)}{\ignorespaces {}}}{67}{subfigure.7.2}\protected@file@percent }
\@writefile{lof}{\contentsline {subfigure}{\numberline{(c)}{\ignorespaces {}}}{67}{subfigure.7.3}\protected@file@percent }
\@writefile{lof}{\contentsline {subfigure}{\numberline{(d)}{\ignorespaces {}}}{67}{subfigure.7.4}\protected@file@percent }
\@writefile{lof}{\contentsline {subfigure}{\numberline{(e)}{\ignorespaces {}}}{67}{subfigure.7.5}\protected@file@percent }
\@writefile{lof}{\contentsline {subfigure}{\numberline{(f)}{\ignorespaces {}}}{67}{subfigure.7.6}\protected@file@percent }
\newlabel{fig:AutoNavRealFig-a}{{\@@number {6.8}a}{68}{Subfigure 6 \protect \@@number {6.8}a}{subfigure.194}{}}
\newlabel{sub@fig:AutoNavRealFig-a}{{(a)}{a}{Subfigure 6 \@@number {6.8}a\relax }{subfigure.194}{}}
\newlabel{fig:AutoNavRealFig-b}{{\@@number {6.8}b}{68}{Subfigure 6 \protect \@@number {6.8}b}{subfigure.195}{}}
\newlabel{sub@fig:AutoNavRealFig-b}{{(b)}{b}{Subfigure 6 \@@number {6.8}b\relax }{subfigure.195}{}}
\newlabel{fig:AutoNavRealFig-c}{{\@@number {6.8}c}{68}{Subfigure 6 \protect \@@number {6.8}c}{subfigure.196}{}}
\newlabel{sub@fig:AutoNavRealFig-c}{{(c)}{c}{Subfigure 6 \@@number {6.8}c\relax }{subfigure.196}{}}
\newlabel{fig:AutoNavRealFig-d}{{\@@number {6.8}d}{68}{Subfigure 6 \protect \@@number {6.8}d}{subfigure.197}{}}
\newlabel{sub@fig:AutoNavRealFig-d}{{(d)}{d}{Subfigure 6 \@@number {6.8}d\relax }{subfigure.197}{}}
\newlabel{fig:AutoNavRealFig-e}{{\@@number {6.8}e}{68}{Subfigure 6 \protect \@@number {6.8}e}{subfigure.198}{}}
\newlabel{sub@fig:AutoNavRealFig-e}{{(e)}{e}{Subfigure 6 \@@number {6.8}e\relax }{subfigure.198}{}}
\newlabel{fig:AutoNavRealFig-f}{{\@@number {6.8}f}{68}{Subfigure 6 \protect \@@number {6.8}f}{subfigure.199}{}}
\newlabel{sub@fig:AutoNavRealFig-f}{{(f)}{f}{Subfigure 6 \@@number {6.8}f\relax }{subfigure.199}{}}
\@writefile{lof}{\contentsline {figure}{\numberline {\@@number {6.8}}{\ignorespaces  \texttt  {\emph  {Focused}} BSP scenario with \texttt  {\emph  {focused}} robot's last pose, using Victoria Park dataset. (a) Number of action candidates at each time; (b) Final robot trajectory; (c) Running time of planning, i.e.~evaluating impact of all candidate actions, each representing possible trajectory; (d) Running time from (c) normalized by number of candidates; (e) Zoom of fastest approaches from (c); (f) Zoom of fastest approaches from (d). The lowest line, labeled \emph  {Marginal Cov}, represents time it took to calculate prior marginal covariance $\Sigma _{k}^{M,X_{All}}$ in \emph  {rAMDL} approach (see Section \ref  {sec:ReuseSec}). \relax }}{68}{figure.caption.193}\protected@file@percent }
\newlabel{fig:AutoNavRealFig}{{\@@number {6.8}}{68}{\Focused BSP scenario with \focused robot's last pose, using Victoria Park dataset. (a) Number of action candidates at each time; (b) Final robot trajectory; (c) Running time of planning, i.e.~evaluating impact of all candidate actions, each representing possible trajectory; (d) Running time from (c) normalized by number of candidates; (e) Zoom of fastest approaches from (c); (f) Zoom of fastest approaches from (d). The lowest line, labeled \emph {Marginal Cov}, represents time it took to calculate prior marginal covariance $\Sigma _{k}^{M,X_{All}}$ in \emph {rAMDL} approach (see Section \ref {sec:ReuseSec}). \relax }{figure.caption.193}{}}
\@writefile{lof}{\contentsline {subfigure}{\numberline{(a)}{\ignorespaces {}}}{68}{subfigure.8.1}\protected@file@percent }
\@writefile{lof}{\contentsline {subfigure}{\numberline{(b)}{\ignorespaces {}}}{68}{subfigure.8.2}\protected@file@percent }
\@writefile{lof}{\contentsline {subfigure}{\numberline{(c)}{\ignorespaces {}}}{68}{subfigure.8.3}\protected@file@percent }
\@writefile{lof}{\contentsline {subfigure}{\numberline{(d)}{\ignorespaces {}}}{68}{subfigure.8.4}\protected@file@percent }
\@writefile{lof}{\contentsline {subfigure}{\numberline{(e)}{\ignorespaces {}}}{68}{subfigure.8.5}\protected@file@percent }
\@writefile{lof}{\contentsline {subfigure}{\numberline{(f)}{\ignorespaces {}}}{68}{subfigure.8.6}\protected@file@percent }
\@setckpt{main/results}{
\setcounter{page}{69}
\setcounter{equation}{1}
\setcounter{enumi}{7}
\setcounter{enumii}{0}
\setcounter{enumiii}{0}
\setcounter{enumiv}{0}
\setcounter{footnote}{0}
\setcounter{mpfootnote}{0}
\setcounter{part}{0}
\setcounter{chapter}{6}
\setcounter{section}{3}
\setcounter{subsection}{0}
\setcounter{subsubsection}{0}
\setcounter{paragraph}{0}
\setcounter{subparagraph}{0}
\setcounter{figure}{8}
\setcounter{table}{1}
\setcounter{ALG@line}{0}
\setcounter{ALG@rem}{0}
\setcounter{ALG@nested}{0}
\setcounter{ALG@Lnr}{3}
\setcounter{ALG@blocknr}{17}
\setcounter{ALG@storecount}{0}
\setcounter{ALG@tmpcounter}{0}
\setcounter{float@type}{8}
\setcounter{algorithm}{0}
\setcounter{Item}{7}
\setcounter{Hfootnote}{0}
\setcounter{bookmark@seq@number}{29}
\setcounter{endNonectr}{12}
\setcounter{currNonectr}{0}
\setcounter{parentequation}{0}
\setcounter{changebargrey}{65}
\setcounter{max@tocdepth}{2}
\setcounter{max@secnumdepth}{2}
\setcounter{currtheoremctr}{0}
\setcounter{endtheoremctr}{0}
\setcounter{theorem}{0}
\setcounter{currtheorem*ctr}{0}
\setcounter{endtheorem*ctr}{0}
\setcounter{theorem*}{0}
\setcounter{currlemmactr}{8}
\setcounter{endlemmactr}{0}
\setcounter{lemma}{0}
\setcounter{currcorollaryctr}{0}
\setcounter{endcorollaryctr}{0}
\setcounter{currcorollary*ctr}{0}
\setcounter{endcorollary*ctr}{0}
\setcounter{corollary*}{0}
\setcounter{currpropositionctr}{0}
\setcounter{endpropositionctr}{0}
\setcounter{currproposition*ctr}{0}
\setcounter{endproposition*ctr}{0}
\setcounter{proposition*}{0}
\setcounter{currclaimctr}{0}
\setcounter{endclaimctr}{0}
\setcounter{currdefinitionctr}{0}
\setcounter{enddefinitionctr}{0}
\setcounter{currobservationctr}{0}
\setcounter{endobservationctr}{0}
\setcounter{currexamplectr}{0}
\setcounter{endexamplectr}{0}
\setcounter{currproofsketchctr}{0}
\setcounter{endproofsketchctr}{0}
\setcounter{proofsketch}{0}
\setcounter{currproof-attemptctr}{0}
\setcounter{endproof-attemptctr}{0}
\setcounter{proof-attempt}{0}
\setcounter{currfactctr}{0}
\setcounter{endfactctr}{0}
\setcounter{currassumptionctr}{0}
\setcounter{endassumptionctr}{0}
\setcounter{currremarkctr}{0}
\setcounter{endremarkctr}{0}
\setcounter{remark}{0}
\setcounter{currnotectr}{0}
\setcounter{endnotectr}{0}
\setcounter{note}{0}
\setcounter{currnotesctr}{0}
\setcounter{endnotesctr}{0}
\setcounter{notes}{0}
\setcounter{currquestionctr}{0}
\setcounter{endquestionctr}{0}
\setcounter{currconjecturectr}{0}
\setcounter{endconjecturectr}{0}
\setcounter{currhypothesisctr}{0}
\setcounter{endhypothesisctr}{0}
\setcounter{proof}{0}
\setcounter{currproofctr}{0}
\setcounter{endproofctr}{0}
\setcounter{caption@flags}{0}
\setcounter{continuedfloat}{0}
\setcounter{KVtest}{0}
\setcounter{subfigure}{0}
\setcounter{subfigure@save}{6}
\setcounter{lofdepth}{1}
\setcounter{subtable}{0}
\setcounter{subtable@save}{0}
\setcounter{lotdepth}{1}
\setcounter{pp@next@reset}{0}
\setcounter{r@tfl@t}{0}
\setcounter{tkz@gr@a}{0}
\setcounter{tkz@gr@b}{0}
\setcounter{tkz@gr@c}{0}
\setcounter{tkz@gr@e}{0}
\setcounter{tkz@gr@d}{0}
\setcounter{tkz@gr@p}{0}
\setcounter{tkz@gr@i}{0}
\setcounter{tkz@gr@n}{0}
\setcounter{tkz@gr@ta}{0}
\setcounter{tkz@gr@tb}{0}
\setcounter{BAenumi}{0}
\setcounter{section@level}{1}
}
