\BOOKMARK [1][-]{section.1}{\376\377\000I\000n\000t\000r\000o\000d\000u\000c\000t\000i\000o\000n}{}% 1
\BOOKMARK [1][-]{section.2}{\376\377\000M\000o\000t\000i\000v\000a\000t\000i\000o\000n}{}% 2
\BOOKMARK [1][-]{section.3}{\376\377\000C\000u\000r\000r\000e\000n\000t\000\040\000P\000r\000o\000b\000l\000e\000m}{}% 3
\BOOKMARK [2][-]{subsection.3.1}{\376\377\000K\000n\000o\000w\000l\000e\000d\000g\000e\000\040\000f\000r\000o\000m\000\040\000p\000r\000e\000v\000i\000o\000u\000s\000\040\000w\000o\000r\000k\000s}{section.3}% 4
\BOOKMARK [2][-]{subsection.3.2}{\376\377\000C\000u\000r\000r\000e\000n\000t\000\040\000a\000p\000p\000r\000o\000a\000c\000h}{section.3}% 5
\BOOKMARK [3][-]{subsubsection.3.2.1}{\376\377\000A\000r\000g\000u\000m\000e\000n\000t\000\040\000b}{subsection.3.2}% 6
\BOOKMARK [2][-]{subsection.3.3}{\376\377\000C\000a\000l\000c\000u\000l\000a\000t\000i\000o\000n\000\040\000o\000f\000\040\000w\000i\000k\000-\000m\000|\000k}{section.3}% 7
\BOOKMARK [2][-]{subsection.3.4}{\376\377\000A\000l\000g\000o\000r\000i\000t\000h\000m\000\040\000s\000t\000a\000g\000e\000s\000\040\000f\000o\000r\000\040\000t\000h\000e\000\040\000p\000a\000s\000s\000i\000v\000e\000\040\000c\000a\000s\000e}{section.3}% 8
