\relax 
\providecommand\hyper@newdestlabel[2]{}
\providecommand\HyperFirstAtBeginDocument{\AtBeginDocument}
\HyperFirstAtBeginDocument{\ifx\hyper@anchor\@undefined
\global\let\oldcontentsline\contentsline
\gdef\contentsline#1#2#3#4{\oldcontentsline{#1}{#2}{#3}}
\global\let\oldnewlabel\newlabel
\gdef\newlabel#1#2{\newlabelxx{#1}#2}
\gdef\newlabelxx#1#2#3#4#5#6{\oldnewlabel{#1}{{#2}{#3}}}
\AtEndDocument{\ifx\hyper@anchor\@undefined
\let\contentsline\oldcontentsline
\let\newlabel\oldnewlabel
\fi}
\fi}
\global\let\hyper@last\relax 
\gdef\HyperFirstAtBeginDocument#1{#1}
\providecommand\HyField@AuxAddToFields[1]{}
\providecommand\HyField@AuxAddToCoFields[2]{}
\babel@aux{english}{}
\@writefile{toc}{\contentsline {section}{\numberline {1}Introduction}{1}{section.1}}
\newlabel{sec:introduction}{{1}{1}{Introduction}{section.1}{}}
\@writefile{lof}{\contentsline {figure}{\numberline {1}{\ignorespaces Simple Example\relax }}{1}{figure.caption.1}}
\providecommand*\caption@xref[2]{\@setref\relax\@undefined{#1}}
\newlabel{fig:simple-example}{{1}{1}{Simple Example\relax }{figure.caption.1}{}}
\@writefile{lof}{\contentsline {figure}{\numberline {2}{\ignorespaces Second Example\relax }}{2}{figure.caption.2}}
\newlabel{fig:second-example}{{2}{2}{Second Example\relax }{figure.caption.2}{}}
\@writefile{toc}{\contentsline {section}{\numberline {2}Motivation}{2}{section.2}}
\newlabel{sec:motivation}{{2}{2}{Motivation}{section.2}{}}
\@writefile{toc}{\contentsline {section}{\numberline {3}Current Problem}{2}{section.3}}
\newlabel{sec:current problem}{{3}{2}{Current Problem}{section.3}{}}
\@writefile{toc}{\contentsline {subsection}{\numberline {3.1}Knowledge from previous works}{2}{subsection.3.1}}
\newlabel{eq_2}{{1}{3}{Knowledge from previous works}{equation.3.1}{}}
\newlabel{eq_3}{{2}{3}{Knowledge from previous works}{equation.3.1}{}}
\newlabel{eq_4}{{3}{3}{Knowledge from previous works}{equation.3.1}{}}
\@writefile{toc}{\contentsline {subsection}{\numberline {3.2}Current approach}{3}{subsection.3.2}}
\newlabel{eq_8}{{4}{3}{Current approach}{equation.3.4}{}}
\@writefile{toc}{\contentsline {subsubsection}{\numberline {3.2.1}Argument b}{3}{subsubsection.3.2.1}}
\newlabel{eq_20}{{13}{4}{Argument b}{equation.3.9}{}}
\newlabel{eq_25}{{18}{5}{Argument b}{equation.3.14}{}}
\newlabel{Updated weigth}{{20}{5}{Argument b}{equation.3.19}{}}
\@writefile{toc}{\contentsline {subsection}{\numberline {3.3}Calculation of $w^{i}_{k-m|k}$}{6}{subsection.3.3}}
\newlabel{Update_factore}{{22}{6}{Calculation of $w^{i}_{k-m|k}$}{equation.3.21}{}}
\newlabel{eq_30}{{23}{6}{Calculation of $w^{i}_{k-m|k}$}{equation.3.23}{}}
\newlabel{eq_31}{{24}{6}{Calculation of $w^{i}_{k-m|k}$}{equation.3.24}{}}
\newlabel{eq_30_function_A}{{25}{6}{Calculation of $w^{i}_{k-m|k}$}{equation.3.24}{}}
\newlabel{eq_32}{{27}{6}{Calculation of $w^{i}_{k-m|k}$}{equation.3.26}{}}
\newlabel{marginlation_inner_element}{{29}{6}{Calculation of $w^{i}_{k-m|k}$}{equation.3.29}{}}
\newlabel{marginlation_inner_element_with_A}{{30}{7}{Calculation of $w^{i}_{k-m|k}$}{equation.3.30}{}}
\@writefile{toc}{\contentsline {subsection}{\numberline {3.4}Algorithm stages for the passive case}{8}{subsection.3.4}}
\newlabel{j_m_minus_2}{{3}{8}{Algorithm stages for the passive case}{Item.9}{}}
\newlabel{Algorithm_Step_2_main_equation}{{34}{8}{Algorithm stages for the passive case}{equation.3.34}{}}
\newlabel{Algorithem_stage_for_j_equal_m_minus_2}{{37}{9}{Algorithm stages for the passive case}{equation.3.37}{}}
\newlabel{j_m_minus_3}{{4}{9}{Algorithm stages for the passive case}{Item.10}{}}
\newlabel{Final_Formulation}{{43}{10}{Algorithm stages for the passive case}{equation.3.43}{}}
