\relax 
\providecommand\hyper@newdestlabel[2]{}
\@nameuse{bbl@beforestart}
\providecommand\HyperFirstAtBeginDocument{\AtBeginDocument}
\HyperFirstAtBeginDocument{\ifx\hyper@anchor\@undefined
\global\let\oldcontentsline\contentsline
\gdef\contentsline#1#2#3#4{\oldcontentsline{#1}{#2}{#3}}
\global\let\oldnewlabel\newlabel
\gdef\newlabel#1#2{\newlabelxx{#1}#2}
\gdef\newlabelxx#1#2#3#4#5#6{\oldnewlabel{#1}{{#2}{#3}}}
\AtEndDocument{\ifx\hyper@anchor\@undefined
\let\contentsline\oldcontentsline
\let\newlabel\oldnewlabel
\fi}
\fi}
\global\let\hyper@last\relax 
\gdef\HyperFirstAtBeginDocument#1{#1}
\providecommand\HyField@AuxAddToFields[1]{}
\providecommand\HyField@AuxAddToCoFields[2]{}
\babel@aux{english}{}
\@writefile{toc}{\contentsline {section}{\numberline {1}Introduction}{1}{section.1}\protected@file@percent }
\newlabel{sec:introduction}{{1}{1}{Introduction}{section.1}{}}
\newlabel{GMM_passive_case}{{1}{1}{Introduction}{equation.1.1}{}}
\@writefile{toc}{\contentsline {subsection}{\numberline {1.1}Motivation}{2}{subsection.1.1}\protected@file@percent }
\@writefile{lof}{\contentsline {figure}{\numberline {1}{\ignorespaces Simple Example\relax }}{2}{figure.caption.1}\protected@file@percent }
\providecommand*\caption@xref[2]{\@setref\relax\@undefined{#1}}
\newlabel{fig:simple-example}{{1}{2}{Simple Example\relax }{figure.caption.1}{}}
\@writefile{lof}{\contentsline {figure}{\numberline {2}{\ignorespaces Second Example\relax }}{3}{figure.caption.2}\protected@file@percent }
\newlabel{fig:second-example}{{2}{3}{Second Example\relax }{figure.caption.2}{}}
\@writefile{toc}{\contentsline {subsection}{\numberline {1.2}General Concept}{3}{subsection.1.2}\protected@file@percent }
\newlabel{Updated_weight}{{4}{3}{General Concept}{equation.1.4}{}}
\@writefile{toc}{\contentsline {section}{\numberline {2}Passive case}{3}{section.2}\protected@file@percent }
\newlabel{sec:current problem}{{2}{3}{Passive case}{section.2}{}}
\@writefile{toc}{\contentsline {subsection}{\numberline {2.1}A Single Step}{4}{subsection.2.1}\protected@file@percent }
\newlabel{single_step_update_factore}{{7}{4}{A Single Step}{equation.2.5}{}}
\@writefile{toc}{\contentsline {subsubsection}{\numberline {2.1.1}Calculation of the numerator}{5}{subsubsection.2.1.1}\protected@file@percent }
\newlabel{update_factor_caclulation_first_step}{{12}{5}{Calculation of the numerator}{equation.2.9}{}}
\newlabel{update_factor_caclulation_second_step}{{13}{5}{Calculation of the numerator}{equation.2.13}{}}
\newlabel{calculated_element_c}{{18}{6}{Calculation of the numerator}{equation.2.14}{}}
\newlabel{update_factore_final}{{19}{6}{Calculation of the numerator}{equation.2.19}{}}
\@writefile{toc}{\contentsline {subsubsection}{\numberline {2.1.2}Calculation of the denominator}{7}{subsubsection.2.1.2}\protected@file@percent }
\@writefile{toc}{\contentsline {subsection}{\numberline {2.2}Number of steps}{7}{subsection.2.2}\protected@file@percent }
\newlabel{Update_factore}{{33}{8}{Number of steps}{equation.2.32}{}}
\@writefile{toc}{\contentsline {subsubsection}{\numberline {2.2.1}General Algorithm using sampling}{9}{subsubsection.2.2.1}\protected@file@percent }
\newlabel{Algorithm stage for j=m-1}{{34}{9}{General Algorithm using sampling}{equation.2.34}{}}
\newlabel{A_0_equation}{{35}{9}{General Algorithm using sampling}{equation.2.35}{}}
\newlabel{j_m_minus_2}{{3}{9}{General Algorithm using sampling}{Item.6}{}}
\newlabel{Algorithm_Step_2_main_equation}{{36}{9}{General Algorithm using sampling}{equation.2.36}{}}
\newlabel{calculation of * first step}{{38}{9}{General Algorithm using sampling}{equation.2.37}{}}
\newlabel{eta j tilde}{{39}{9}{General Algorithm using sampling}{equation.2.39}{}}
\newlabel{calculation of * second step}{{40}{10}{General Algorithm using sampling}{equation.2.40}{}}
\newlabel{Algorithem_stage_for_j_equal_m_minus_2}{{45}{10}{General Algorithm using sampling}{equation.2.45}{}}
\newlabel{j_m_minus_3}{{4}{11}{General Algorithm using sampling}{Item.7}{}}
\newlabel{Section_4}{{47}{11}{General Algorithm using sampling}{equation.2.47}{}}
\newlabel{eta forlumation}{{55}{12}{General Algorithm using sampling}{equation.2.55}{}}
\newlabel{One Formulation before final}{{57}{12}{General Algorithm using sampling}{equation.2.57}{}}
\newlabel{Formulation_final}{{58}{12}{General Algorithm using sampling}{equation.2.58}{}}
\@writefile{toc}{\contentsline {subsubsection}{\numberline {2.2.2}$\eta $ impact on our theory}{12}{subsubsection.2.2.2}\protected@file@percent }
\@writefile{toc}{\contentsline {subsubsection}{\numberline {2.2.3}Using ML}{13}{subsubsection.2.2.3}\protected@file@percent }
\@writefile{toc}{\contentsline {subsubsection}{\numberline {2.2.4}Calculations differences}{13}{subsubsection.2.2.4}\protected@file@percent }
