%!PS-Adobe-3.0 EPSF-3.0
%%Creator: (MATLAB, The Mathworks, Inc. Version 9.8.0.1380330 \(R2020a\) Update 2. Operating System: Linux)
%%Title: (/home/ohads/ANPL/papers/research/2021 RAL/Figures/TestCase_1/fig_files/AverageEntropyCompresent.eps)
%%CreationDate: 2021-02-21T16:00:14
%%Pages: (atend)
%%BoundingBox:   116    13  1304   702
%%LanguageLevel: 3
%%EndComments
%%BeginProlog
%%BeginResource: procset (Apache XML Graphics Std ProcSet) 1.2 0
%%Version: 1.2 0
%%Copyright: (Copyright 2001-2003,2010 The Apache Software Foundation. License terms: http://www.apache.org/licenses/LICENSE-2.0)
/bd{bind def}bind def
/ld{load def}bd
/GR/grestore ld
/GS/gsave ld
/RM/rmoveto ld
/C/curveto ld
/t/show ld
/L/lineto ld
/ML/setmiterlimit ld
/CT/concat ld
/f/fill ld
/N/newpath ld
/S/stroke ld
/CC/setcmykcolor ld
/A/ashow ld
/cp/closepath ld
/RC/setrgbcolor ld
/LJ/setlinejoin ld
/GC/setgray ld
/LW/setlinewidth ld
/M/moveto ld
/re {4 2 roll M
1 index 0 rlineto
0 exch rlineto
neg 0 rlineto
cp } bd
/_ctm matrix def
/_tm matrix def
/BT { _ctm currentmatrix pop matrix _tm copy pop 0 0 moveto } bd
/ET { _ctm setmatrix } bd
/iTm { _ctm setmatrix _tm concat } bd
/Tm { _tm astore pop iTm 0 0 moveto } bd
/ux 0.0 def
/uy 0.0 def
/F {
  /Tp exch def
  /Tf exch def
  Tf findfont Tp scalefont setfont
  /cf Tf def  /cs Tp def
} bd
/ULS {currentpoint /uy exch def /ux exch def} bd
/ULE {
  /Tcx currentpoint pop def
  gsave
  newpath
  cf findfont cs scalefont dup
  /FontMatrix get 0 get /Ts exch def /FontInfo get dup
  /UnderlinePosition get Ts mul /To exch def
  /UnderlineThickness get Ts mul /Tt exch def
  ux uy To add moveto  Tcx uy To add lineto
  Tt setlinewidth stroke
  grestore
} bd
/OLE {
  /Tcx currentpoint pop def
  gsave
  newpath
  cf findfont cs scalefont dup
  /FontMatrix get 0 get /Ts exch def /FontInfo get dup
  /UnderlinePosition get Ts mul /To exch def
  /UnderlineThickness get Ts mul /Tt exch def
  ux uy To add cs add moveto Tcx uy To add cs add lineto
  Tt setlinewidth stroke
  grestore
} bd
/SOE {
  /Tcx currentpoint pop def
  gsave
  newpath
  cf findfont cs scalefont dup
  /FontMatrix get 0 get /Ts exch def /FontInfo get dup
  /UnderlinePosition get Ts mul /To exch def
  /UnderlineThickness get Ts mul /Tt exch def
  ux uy To add cs 10 mul 26 idiv add moveto Tcx uy To add cs 10 mul 26 idiv add lineto
  Tt setlinewidth stroke
  grestore
} bd
/QT {
/Y22 exch store
/X22 exch store
/Y21 exch store
/X21 exch store
currentpoint
/Y21 load 2 mul add 3 div exch
/X21 load 2 mul add 3 div exch
/X21 load 2 mul /X22 load add 3 div
/Y21 load 2 mul /Y22 load add 3 div
/X22 load /Y22 load curveto
} bd
/SSPD {
dup length /d exch dict def
{
/v exch def
/k exch def
currentpagedevice k known {
/cpdv currentpagedevice k get def
v cpdv ne {
/upd false def
/nullv v type /nulltype eq def
/nullcpdv cpdv type /nulltype eq def
nullv nullcpdv or
{
/upd true def
} {
/sametype v type cpdv type eq def
sametype {
v type /arraytype eq {
/vlen v length def
/cpdvlen cpdv length def
vlen cpdvlen eq {
0 1 vlen 1 sub {
/i exch def
/obj v i get def
/cpdobj cpdv i get def
obj cpdobj ne {
/upd true def
exit
} if
} for
} {
/upd true def
} ifelse
} {
v type /dicttype eq {
v {
/dv exch def
/dk exch def
/cpddv cpdv dk get def
dv cpddv ne {
/upd true def
exit
} if
} forall
} {
/upd true def
} ifelse
} ifelse
} if
} ifelse
upd true eq {
d k v put
} if
} if
} if
} forall
d length 0 gt {
d setpagedevice
} if
} bd
/RE { % /NewFontName [NewEncodingArray] /FontName RE -
  findfont dup length dict begin
  {
    1 index /FID ne
    {def} {pop pop} ifelse
  } forall
  /Encoding exch def
  /FontName 1 index def
  currentdict definefont pop
  end
} bind def
%%EndResource
%%BeginResource: procset (Apache XML Graphics EPS ProcSet) 1.0 0
%%Version: 1.0 0
%%Copyright: (Copyright 2002-2003 The Apache Software Foundation. License terms: http://www.apache.org/licenses/LICENSE-2.0)
/BeginEPSF { %def
/b4_Inc_state save def         % Save state for cleanup
/dict_count countdictstack def % Count objects on dict stack
/op_count count 1 sub def      % Count objects on operand stack
userdict begin                 % Push userdict on dict stack
/showpage { } def              % Redefine showpage, { } = null proc
0 setgray 0 setlinecap         % Prepare graphics state
1 setlinewidth 0 setlinejoin
10 setmiterlimit [ ] 0 setdash newpath
/languagelevel where           % If level not equal to 1 then
{pop languagelevel             % set strokeadjust and
1 ne                           % overprint to their defaults.
{false setstrokeadjust false setoverprint
} if
} if
} bd
/EndEPSF { %def
count op_count sub {pop} repeat            % Clean up stacks
countdictstack dict_count sub {end} repeat
b4_Inc_state restore
} bd
%%EndResource
%FOPBeginFontDict
%%IncludeResource: font Courier-Oblique
%%IncludeResource: font Courier-BoldOblique
%%IncludeResource: font Courier-Bold
%%IncludeResource: font ZapfDingbats
%%IncludeResource: font Symbol
%%IncludeResource: font Helvetica
%%IncludeResource: font Helvetica-Oblique
%%IncludeResource: font Helvetica-Bold
%%IncludeResource: font Helvetica-BoldOblique
%%IncludeResource: font Times-Roman
%%IncludeResource: font Times-Italic
%%IncludeResource: font Times-Bold
%%IncludeResource: font Times-BoldItalic
%%IncludeResource: font Courier
%FOPEndFontDict
%%BeginResource: encoding WinAnsiEncoding
/WinAnsiEncoding [
/.notdef /.notdef /.notdef /.notdef /.notdef
/.notdef /.notdef /.notdef /.notdef /.notdef
/.notdef /.notdef /.notdef /.notdef /.notdef
/.notdef /.notdef /.notdef /.notdef /.notdef
/.notdef /.notdef /.notdef /.notdef /.notdef
/.notdef /.notdef /.notdef /.notdef /.notdef
/.notdef /.notdef /space /exclam /quotedbl
/numbersign /dollar /percent /ampersand /quotesingle
/parenleft /parenright /asterisk /plus /comma
/hyphen /period /slash /zero /one
/two /three /four /five /six
/seven /eight /nine /colon /semicolon
/less /equal /greater /question /at
/A /B /C /D /E
/F /G /H /I /J
/K /L /M /N /O
/P /Q /R /S /T
/U /V /W /X /Y
/Z /bracketleft /backslash /bracketright /asciicircum
/underscore /quoteleft /a /b /c
/d /e /f /g /h
/i /j /k /l /m
/n /o /p /q /r
/s /t /u /v /w
/x /y /z /braceleft /bar
/braceright /asciitilde /bullet /Euro /bullet
/quotesinglbase /florin /quotedblbase /ellipsis /dagger
/daggerdbl /circumflex /perthousand /Scaron /guilsinglleft
/OE /bullet /Zcaron /bullet /bullet
/quoteleft /quoteright /quotedblleft /quotedblright /bullet
/endash /emdash /asciitilde /trademark /scaron
/guilsinglright /oe /bullet /zcaron /Ydieresis
/space /exclamdown /cent /sterling /currency
/yen /brokenbar /section /dieresis /copyright
/ordfeminine /guillemotleft /logicalnot /sfthyphen /registered
/macron /degree /plusminus /twosuperior /threesuperior
/acute /mu /paragraph /middot /cedilla
/onesuperior /ordmasculine /guillemotright /onequarter /onehalf
/threequarters /questiondown /Agrave /Aacute /Acircumflex
/Atilde /Adieresis /Aring /AE /Ccedilla
/Egrave /Eacute /Ecircumflex /Edieresis /Igrave
/Iacute /Icircumflex /Idieresis /Eth /Ntilde
/Ograve /Oacute /Ocircumflex /Otilde /Odieresis
/multiply /Oslash /Ugrave /Uacute /Ucircumflex
/Udieresis /Yacute /Thorn /germandbls /agrave
/aacute /acircumflex /atilde /adieresis /aring
/ae /ccedilla /egrave /eacute /ecircumflex
/edieresis /igrave /iacute /icircumflex /idieresis
/eth /ntilde /ograve /oacute /ocircumflex
/otilde /odieresis /divide /oslash /ugrave
/uacute /ucircumflex /udieresis /yacute /thorn
/ydieresis
] def
%%EndResource
%FOPBeginFontReencode
/Courier-Oblique findfont
dup length dict begin
  {1 index /FID ne {def} {pop pop} ifelse} forall
  /Encoding WinAnsiEncoding def
  currentdict
end
/Courier-Oblique exch definefont pop
/Courier-BoldOblique findfont
dup length dict begin
  {1 index /FID ne {def} {pop pop} ifelse} forall
  /Encoding WinAnsiEncoding def
  currentdict
end
/Courier-BoldOblique exch definefont pop
/Courier-Bold findfont
dup length dict begin
  {1 index /FID ne {def} {pop pop} ifelse} forall
  /Encoding WinAnsiEncoding def
  currentdict
end
/Courier-Bold exch definefont pop
/Helvetica findfont
dup length dict begin
  {1 index /FID ne {def} {pop pop} ifelse} forall
  /Encoding WinAnsiEncoding def
  currentdict
end
/Helvetica exch definefont pop
/Helvetica-Oblique findfont
dup length dict begin
  {1 index /FID ne {def} {pop pop} ifelse} forall
  /Encoding WinAnsiEncoding def
  currentdict
end
/Helvetica-Oblique exch definefont pop
/Helvetica-Bold findfont
dup length dict begin
  {1 index /FID ne {def} {pop pop} ifelse} forall
  /Encoding WinAnsiEncoding def
  currentdict
end
/Helvetica-Bold exch definefont pop
/Helvetica-BoldOblique findfont
dup length dict begin
  {1 index /FID ne {def} {pop pop} ifelse} forall
  /Encoding WinAnsiEncoding def
  currentdict
end
/Helvetica-BoldOblique exch definefont pop
/Times-Roman findfont
dup length dict begin
  {1 index /FID ne {def} {pop pop} ifelse} forall
  /Encoding WinAnsiEncoding def
  currentdict
end
/Times-Roman exch definefont pop
/Times-Italic findfont
dup length dict begin
  {1 index /FID ne {def} {pop pop} ifelse} forall
  /Encoding WinAnsiEncoding def
  currentdict
end
/Times-Italic exch definefont pop
/Times-Bold findfont
dup length dict begin
  {1 index /FID ne {def} {pop pop} ifelse} forall
  /Encoding WinAnsiEncoding def
  currentdict
end
/Times-Bold exch definefont pop
/Times-BoldItalic findfont
dup length dict begin
  {1 index /FID ne {def} {pop pop} ifelse} forall
  /Encoding WinAnsiEncoding def
  currentdict
end
/Times-BoldItalic exch definefont pop
/Courier findfont
dup length dict begin
  {1 index /FID ne {def} {pop pop} ifelse} forall
  /Encoding WinAnsiEncoding def
  currentdict
end
/Courier exch definefont pop
%FOPEndFontReencode
%%EndProlog
%%Page: 1 1
%%PageBoundingBox: 0 0 1440 748
%%BeginPageSetup
[1 0 0 -1 0 748] CT
%%EndPageSetup
GS
[0.75 0 0 0.75 0 0.25] CT
N
0 0 M
1920 0 L
1920 997 L
0 997 L
0 0 L
cp
clip
1 GC
N
0 0 1920 997 re
f
GR
GS
[0.75 0 0 0.75 0 0.25] CT
1 GC
N
0 0 1920 997 re
f
GR
GS
[0.75 0 0 0.75 0 0.25] CT
1 GC
N
250 841 M
1738 841 L
1738 75 L
250 75 L
cp
f
GR
GS
[0.75 0 0 0.75 0 0.25] CT
0.149 GC
2 setlinecap
1 LJ
0.667 LW
N
250 841 M
1738 841 L
S
GR
GS
[0.75 0 0 0.75 0 0.25] CT
0.149 GC
2 setlinecap
1 LJ
0.667 LW
N
324.4 841 M
324.4 826.12 L
S
GR
GS
[0.75 0 0 0.75 0 0.25] CT
0.149 GC
2 setlinecap
1 LJ
0.667 LW
N
473.2 841 M
473.2 826.12 L
S
GR
GS
[0.75 0 0 0.75 0 0.25] CT
0.149 GC
2 setlinecap
1 LJ
0.667 LW
N
622 841 M
622 826.12 L
S
GR
GS
[0.75 0 0 0.75 0 0.25] CT
0.149 GC
2 setlinecap
1 LJ
0.667 LW
N
770.8 841 M
770.8 826.12 L
S
GR
GS
[0.75 0 0 0.75 0 0.25] CT
0.149 GC
2 setlinecap
1 LJ
0.667 LW
N
919.6 841 M
919.6 826.12 L
S
GR
GS
[0.75 0 0 0.75 0 0.25] CT
0.149 GC
2 setlinecap
1 LJ
0.667 LW
N
1068.4 841 M
1068.4 826.12 L
S
GR
GS
[0.75 0 0 0.75 0 0.25] CT
0.149 GC
2 setlinecap
1 LJ
0.667 LW
N
1217.2 841 M
1217.2 826.12 L
S
GR
GS
[0.75 0 0 0.75 0 0.25] CT
0.149 GC
2 setlinecap
1 LJ
0.667 LW
N
1366 841 M
1366 826.12 L
S
GR
GS
[0.75 0 0 0.75 0 0.25] CT
0.149 GC
2 setlinecap
1 LJ
0.667 LW
N
1514.8 841 M
1514.8 826.12 L
S
GR
GS
[0.75 0 0 0.75 0 0.25] CT
0.149 GC
2 setlinecap
1 LJ
0.667 LW
N
1663.6 841 M
1663.6 826.12 L
S
GR
GS
[0.64952 -0.375 0.375 0.64952 123.75 733] CT
0.149 GC
/Helvetica-Bold 33.333 F
GS
[1 0 0 1 0 0] CT
0 0 moveto 
1 -1 scale
(H\(W) t 
GR
GR
GS
[0.64952 -0.375 0.375 0.64952 181.5 713.5] CT
0.149 GC
/Helvetica-Bold 26.667 F
GS
[1 0 0 1 0 0] CT
0 0 moveto 
1 -1 scale
(k-9|k-9) t 
GR
GR
GS
[0.64952 -0.375 0.375 0.64952 243.75 663.25] CT
0.149 GC
/Helvetica-Bold 33.333 F
GS
[1 0 0 1 0 0] CT
0 0 moveto 
1 -1 scale
(\)) t 
GR
GR
GS
[0.64952 -0.375 0.375 0.64952 235.5 733] CT
0.149 GC
/Helvetica-Bold 33.333 F
GS
[1 0 0 1 0 0] CT
0 0 moveto 
1 -1 scale
(H\(W) t 
GR
GR
GS
[0.64952 -0.375 0.375 0.64952 293.25 713.5] CT
0.149 GC
/Helvetica-Bold 26.667 F
GS
[1 0 0 1 0 0] CT
0 0 moveto 
1 -1 scale
(k-9|k-8) t 
GR
GR
GS
[0.64952 -0.375 0.375 0.64952 355.5 663.25] CT
0.149 GC
/Helvetica-Bold 33.333 F
GS
[1 0 0 1 0 0] CT
0 0 moveto 
1 -1 scale
(\)) t 
GR
GR
GS
[0.64952 -0.375 0.375 0.64952 347.25 733] CT
0.149 GC
/Helvetica-Bold 33.333 F
GS
[1 0 0 1 0 0] CT
0 0 moveto 
1 -1 scale
(H\(W) t 
GR
GR
GS
[0.64952 -0.375 0.375 0.64952 405 713.5] CT
0.149 GC
/Helvetica-Bold 26.667 F
GS
[1 0 0 1 0 0] CT
0 0 moveto 
1 -1 scale
(k-9|k-7) t 
GR
GR
GS
[0.64952 -0.375 0.375 0.64952 467.25 663.25] CT
0.149 GC
/Helvetica-Bold 33.333 F
GS
[1 0 0 1 0 0] CT
0 0 moveto 
1 -1 scale
(\)) t 
GR
GR
GS
[0.64952 -0.375 0.375 0.64952 459 733] CT
0.149 GC
/Helvetica-Bold 33.333 F
GS
[1 0 0 1 0 0] CT
0 0 moveto 
1 -1 scale
(H\(W) t 
GR
GR
GS
[0.64952 -0.375 0.375 0.64952 516.75 713.5] CT
0.149 GC
/Helvetica-Bold 26.667 F
GS
[1 0 0 1 0 0] CT
0 0 moveto 
1 -1 scale
(k-9|k-6) t 
GR
GR
GS
[0.64952 -0.375 0.375 0.64952 579 663.25] CT
0.149 GC
/Helvetica-Bold 33.333 F
GS
[1 0 0 1 0 0] CT
0 0 moveto 
1 -1 scale
(\)) t 
GR
GR
GS
[0.64952 -0.375 0.375 0.64952 570.75 733] CT
0.149 GC
/Helvetica-Bold 33.333 F
GS
[1 0 0 1 0 0] CT
0 0 moveto 
1 -1 scale
(H\(W) t 
GR
GR
GS
[0.64952 -0.375 0.375 0.64952 628.5 713.5] CT
0.149 GC
/Helvetica-Bold 26.667 F
GS
[1 0 0 1 0 0] CT
0 0 moveto 
1 -1 scale
(k-9|k-5) t 
GR
GR
GS
[0.64952 -0.375 0.375 0.64952 690.75 663.25] CT
0.149 GC
/Helvetica-Bold 33.333 F
GS
[1 0 0 1 0 0] CT
0 0 moveto 
1 -1 scale
(\)) t 
GR
GR
GS
[0.64952 -0.375 0.375 0.64952 681.75 733] CT
0.149 GC
/Helvetica-Bold 33.333 F
GS
[1 0 0 1 0 0] CT
0 0 moveto 
1 -1 scale
(H\(W) t 
GR
GR
GS
[0.64952 -0.375 0.375 0.64952 739.5 713.5] CT
0.149 GC
/Helvetica-Bold 26.667 F
GS
[1 0 0 1 0 0] CT
0 0 moveto 
1 -1 scale
(k-9|k-4) t 
GR
GR
GS
[0.64952 -0.375 0.375 0.64952 801.75 663.25] CT
0.149 GC
/Helvetica-Bold 33.333 F
GS
[1 0 0 1 0 0] CT
0 0 moveto 
1 -1 scale
(\)) t 
GR
GR
GS
[0.64952 -0.375 0.375 0.64952 793.5 733] CT
0.149 GC
/Helvetica-Bold 33.333 F
GS
[1 0 0 1 0 0] CT
0 0 moveto 
1 -1 scale
(H\(W) t 
GR
GR
GS
[0.64952 -0.375 0.375 0.64952 851.25 713.5] CT
0.149 GC
/Helvetica-Bold 26.667 F
GS
[1 0 0 1 0 0] CT
0 0 moveto 
1 -1 scale
(k-9|k-3) t 
GR
GR
GS
[0.64952 -0.375 0.375 0.64952 913.5 663.25] CT
0.149 GC
/Helvetica-Bold 33.333 F
GS
[1 0 0 1 0 0] CT
0 0 moveto 
1 -1 scale
(\)) t 
GR
GR
GS
[0.64952 -0.375 0.375 0.64952 905.25 733] CT
0.149 GC
/Helvetica-Bold 33.333 F
GS
[1 0 0 1 0 0] CT
0 0 moveto 
1 -1 scale
(H\(W) t 
GR
GR
GS
[0.64952 -0.375 0.375 0.64952 963 713.5] CT
0.149 GC
/Helvetica-Bold 26.667 F
GS
[1 0 0 1 0 0] CT
0 0 moveto 
1 -1 scale
(k-9|k-2) t 
GR
GR
GS
[0.64952 -0.375 0.375 0.64952 1025.25 663.25] CT
0.149 GC
/Helvetica-Bold 33.333 F
GS
[1 0 0 1 0 0] CT
0 0 moveto 
1 -1 scale
(\)) t 
GR
GR
GS
[0.64952 -0.375 0.375 0.64952 1017 733] CT
0.149 GC
/Helvetica-Bold 33.333 F
GS
[1 0 0 1 0 0] CT
0 0 moveto 
1 -1 scale
(H\(W) t 
GR
GR
GS
[0.64952 -0.375 0.375 0.64952 1074.75 713.5] CT
0.149 GC
/Helvetica-Bold 26.667 F
GS
[1 0 0 1 0 0] CT
0 0 moveto 
1 -1 scale
(k-9|k-1) t 
GR
GR
GS
[0.64952 -0.375 0.375 0.64952 1137 663.25] CT
0.149 GC
/Helvetica-Bold 33.333 F
GS
[1 0 0 1 0 0] CT
0 0 moveto 
1 -1 scale
(\)) t 
GR
GR
GS
[0.64952 -0.375 0.375 0.64952 1148.25 721.75] CT
0.149 GC
/Helvetica-Bold 33.333 F
GS
[1 0 0 1 0 0] CT
0 0 moveto 
1 -1 scale
(H\(W) t 
GR
GR
GS
[0.64952 -0.375 0.375 0.64952 1206 702.25] CT
0.149 GC
/Helvetica-Bold 26.667 F
GS
[1 0 0 1 0 0] CT
0 0 moveto 
1 -1 scale
(k-9|k) t 
GR
GR
GS
[0.64952 -0.375 0.375 0.64952 1248.75 663.25] CT
0.149 GC
/Helvetica-Bold 33.333 F
GS
[1 0 0 1 0 0] CT
0 0 moveto 
1 -1 scale
(\)) t 
GR
GR
GS
[0.75 0 0 0.75 0 0.25] CT
0.149 GC
2 setlinecap
1 LJ
0.667 LW
N
250 841 M
250 75 L
S
GR
GS
[0.75 0 0 0.75 0 0.25] CT
0.149 GC
2 setlinecap
1 LJ
0.667 LW
N
250 841 M
264.88 841 L
S
GR
GS
[0.75 0 0 0.75 0 0.25] CT
0.149 GC
2 setlinecap
1 LJ
0.667 LW
N
250 713.333 M
264.88 713.333 L
S
GR
GS
[0.75 0 0 0.75 0 0.25] CT
0.149 GC
2 setlinecap
1 LJ
0.667 LW
N
250 585.667 M
264.88 585.667 L
S
GR
GS
[0.75 0 0 0.75 0 0.25] CT
0.149 GC
2 setlinecap
1 LJ
0.667 LW
N
250 458 M
264.88 458 L
S
GR
GS
[0.75 0 0 0.75 0 0.25] CT
0.149 GC
2 setlinecap
1 LJ
0.667 LW
N
250 330.333 M
264.88 330.333 L
S
GR
GS
[0.75 0 0 0.75 0 0.25] CT
0.149 GC
2 setlinecap
1 LJ
0.667 LW
N
250 202.667 M
264.88 202.667 L
S
GR
GS
[0.75 0 0 0.75 0 0.25] CT
0.149 GC
2 setlinecap
1 LJ
0.667 LW
N
250 75 M
264.88 75 L
S
GR
GS
[0.75 0 0 0.75 180.5 631] CT
0.149 GC
/Helvetica-Bold 33.333 F
GS
[1 0 0 1 0 0] CT
-24 11.5 moveto 
1 -1 scale
(0) t 
GR
GR
GS
[0.75 0 0 0.75 180.5 535.24998] CT
0.149 GC
/Helvetica-Bold 33.333 F
GS
[1 0 0 1 0 0] CT
-60 11.5 moveto 
1 -1 scale
(0.2) t 
GR
GR
GS
[0.75 0 0 0.75 180.5 439.50002] CT
0.149 GC
/Helvetica-Bold 33.333 F
GS
[1 0 0 1 0 0] CT
-60 11.5 moveto 
1 -1 scale
(0.4) t 
GR
GR
GS
[0.75 0 0 0.75 180.5 343.75] CT
0.149 GC
/Helvetica-Bold 33.333 F
GS
[1 0 0 1 0 0] CT
-60 11.5 moveto 
1 -1 scale
(0.6) t 
GR
GR
GS
[0.75 0 0 0.75 180.5 247.99998] CT
0.149 GC
/Helvetica-Bold 33.333 F
GS
[1 0 0 1 0 0] CT
-60 11.5 moveto 
1 -1 scale
(0.8) t 
GR
GR
GS
[0.75 0 0 0.75 180.5 152.25] CT
0.149 GC
/Helvetica-Bold 33.333 F
GS
[1 0 0 1 0 0] CT
-24 11.5 moveto 
1 -1 scale
(1) t 
GR
GR
GS
[0.75 0 0 0.75 180.5 56.49998] CT
0.149 GC
/Helvetica-Bold 33.333 F
GS
[1 0 0 1 0 0] CT
-60 11.5 moveto 
1 -1 scale
(1.2) t 
GR
GR
GS
[0.75 0 0 0.75 0 0.25] CT
0.149 GC
1 LJ
0.667 LW
N
250 841 M
1738 841 L
S
GR
GS
[0.75 0 0 0.75 0 0.25] CT
0 0.447 0.741 RC
N
383.92 841 M
383.92 106.437 L
264.88 106.437 L
264.88 841 L
cp
532.72 841 M
532.72 372.755 L
413.68 372.755 L
413.68 841 L
cp
681.52 841 M
681.52 410.813 L
562.48 410.813 L
562.48 841 L
cp
830.32 841 M
830.32 465.309 L
711.28 465.309 L
711.28 841 L
cp
979.12 841 M
979.12 525.955 L
860.08 525.955 L
860.08 841 L
cp
1127.92 841 M
1127.92 525.955 L
1008.88 525.955 L
1008.88 841 L
cp
1276.72 841 M
1276.72 525.955 L
1157.68 525.955 L
1157.68 841 L
cp
1425.52 841 M
1425.52 525.955 L
1306.48 525.955 L
1306.48 841 L
cp
1574.32 841 M
1574.32 525.955 L
1455.28 525.955 L
1455.28 841 L
cp
f
GR
GS
[0.75 0 0 0.75 0 0.25] CT
10.0 ML
0.667 LW
N
264.88 841 M
264.88 106.437 L
383.92 106.437 L
383.92 841 L
cp
S
GR
GS
[0.75 0 0 0.75 0 0.25] CT
10.0 ML
0.667 LW
N
413.68 841 M
413.68 372.755 L
532.72 372.755 L
532.72 841 L
cp
S
GR
GS
[0.75 0 0 0.75 0 0.25] CT
10.0 ML
0.667 LW
N
562.48 841 M
562.48 410.813 L
681.52 410.813 L
681.52 841 L
cp
S
GR
GS
[0.75 0 0 0.75 0 0.25] CT
10.0 ML
0.667 LW
N
711.28 841 M
711.28 465.309 L
830.32 465.309 L
830.32 841 L
cp
S
GR
GS
[0.75 0 0 0.75 0 0.25] CT
10.0 ML
0.667 LW
N
860.08 841 M
860.08 525.955 L
979.12 525.955 L
979.12 841 L
cp
S
GR
GS
[0.75 0 0 0.75 0 0.25] CT
10.0 ML
0.667 LW
N
1008.88 841 M
1008.88 525.955 L
1127.92 525.955 L
1127.92 841 L
cp
S
GR
GS
[0.75 0 0 0.75 0 0.25] CT
10.0 ML
0.667 LW
N
1157.68 841 M
1157.68 525.955 L
1276.72 525.955 L
1276.72 841 L
cp
S
GR
GS
[0.75 0 0 0.75 0 0.25] CT
10.0 ML
0.667 LW
N
1306.48 841 M
1306.48 525.955 L
1425.52 525.955 L
1425.52 841 L
cp
S
GR
GS
[0.75 0 0 0.75 0 0.25] CT
10.0 ML
0.667 LW
N
1455.28 841 M
1455.28 525.955 L
1574.32 525.955 L
1574.32 841 L
cp
S
GR
%%Trailer
%%Pages: 1
%%EOF
