%!PS-Adobe-3.0 EPSF-3.0
%%Creator: (MATLAB, The Mathworks, Inc. Version 9.8.0.1380330 \(R2020a\) Update 2. Operating System: Linux)
%%Title: (/home/ohads/ANPL/papers/research/2021 RAL/Figures/TestCase_1/fig_files/CurrentBeliefWeightDistribution.eps)
%%CreationDate: 2021-02-21T16:00:15
%%Pages: (atend)
%%BoundingBox:   144    43  1261   678
%%LanguageLevel: 3
%%EndComments
%%BeginProlog
%%BeginResource: procset (Apache XML Graphics Std ProcSet) 1.2 0
%%Version: 1.2 0
%%Copyright: (Copyright 2001-2003,2010 The Apache Software Foundation. License terms: http://www.apache.org/licenses/LICENSE-2.0)
/bd{bind def}bind def
/ld{load def}bd
/GR/grestore ld
/GS/gsave ld
/RM/rmoveto ld
/C/curveto ld
/t/show ld
/L/lineto ld
/ML/setmiterlimit ld
/CT/concat ld
/f/fill ld
/N/newpath ld
/S/stroke ld
/CC/setcmykcolor ld
/A/ashow ld
/cp/closepath ld
/RC/setrgbcolor ld
/LJ/setlinejoin ld
/GC/setgray ld
/LW/setlinewidth ld
/M/moveto ld
/re {4 2 roll M
1 index 0 rlineto
0 exch rlineto
neg 0 rlineto
cp } bd
/_ctm matrix def
/_tm matrix def
/BT { _ctm currentmatrix pop matrix _tm copy pop 0 0 moveto } bd
/ET { _ctm setmatrix } bd
/iTm { _ctm setmatrix _tm concat } bd
/Tm { _tm astore pop iTm 0 0 moveto } bd
/ux 0.0 def
/uy 0.0 def
/F {
  /Tp exch def
  /Tf exch def
  Tf findfont Tp scalefont setfont
  /cf Tf def  /cs Tp def
} bd
/ULS {currentpoint /uy exch def /ux exch def} bd
/ULE {
  /Tcx currentpoint pop def
  gsave
  newpath
  cf findfont cs scalefont dup
  /FontMatrix get 0 get /Ts exch def /FontInfo get dup
  /UnderlinePosition get Ts mul /To exch def
  /UnderlineThickness get Ts mul /Tt exch def
  ux uy To add moveto  Tcx uy To add lineto
  Tt setlinewidth stroke
  grestore
} bd
/OLE {
  /Tcx currentpoint pop def
  gsave
  newpath
  cf findfont cs scalefont dup
  /FontMatrix get 0 get /Ts exch def /FontInfo get dup
  /UnderlinePosition get Ts mul /To exch def
  /UnderlineThickness get Ts mul /Tt exch def
  ux uy To add cs add moveto Tcx uy To add cs add lineto
  Tt setlinewidth stroke
  grestore
} bd
/SOE {
  /Tcx currentpoint pop def
  gsave
  newpath
  cf findfont cs scalefont dup
  /FontMatrix get 0 get /Ts exch def /FontInfo get dup
  /UnderlinePosition get Ts mul /To exch def
  /UnderlineThickness get Ts mul /Tt exch def
  ux uy To add cs 10 mul 26 idiv add moveto Tcx uy To add cs 10 mul 26 idiv add lineto
  Tt setlinewidth stroke
  grestore
} bd
/QT {
/Y22 exch store
/X22 exch store
/Y21 exch store
/X21 exch store
currentpoint
/Y21 load 2 mul add 3 div exch
/X21 load 2 mul add 3 div exch
/X21 load 2 mul /X22 load add 3 div
/Y21 load 2 mul /Y22 load add 3 div
/X22 load /Y22 load curveto
} bd
/SSPD {
dup length /d exch dict def
{
/v exch def
/k exch def
currentpagedevice k known {
/cpdv currentpagedevice k get def
v cpdv ne {
/upd false def
/nullv v type /nulltype eq def
/nullcpdv cpdv type /nulltype eq def
nullv nullcpdv or
{
/upd true def
} {
/sametype v type cpdv type eq def
sametype {
v type /arraytype eq {
/vlen v length def
/cpdvlen cpdv length def
vlen cpdvlen eq {
0 1 vlen 1 sub {
/i exch def
/obj v i get def
/cpdobj cpdv i get def
obj cpdobj ne {
/upd true def
exit
} if
} for
} {
/upd true def
} ifelse
} {
v type /dicttype eq {
v {
/dv exch def
/dk exch def
/cpddv cpdv dk get def
dv cpddv ne {
/upd true def
exit
} if
} forall
} {
/upd true def
} ifelse
} ifelse
} if
} ifelse
upd true eq {
d k v put
} if
} if
} if
} forall
d length 0 gt {
d setpagedevice
} if
} bd
/RE { % /NewFontName [NewEncodingArray] /FontName RE -
  findfont dup length dict begin
  {
    1 index /FID ne
    {def} {pop pop} ifelse
  } forall
  /Encoding exch def
  /FontName 1 index def
  currentdict definefont pop
  end
} bind def
%%EndResource
%%BeginResource: procset (Apache XML Graphics EPS ProcSet) 1.0 0
%%Version: 1.0 0
%%Copyright: (Copyright 2002-2003 The Apache Software Foundation. License terms: http://www.apache.org/licenses/LICENSE-2.0)
/BeginEPSF { %def
/b4_Inc_state save def         % Save state for cleanup
/dict_count countdictstack def % Count objects on dict stack
/op_count count 1 sub def      % Count objects on operand stack
userdict begin                 % Push userdict on dict stack
/showpage { } def              % Redefine showpage, { } = null proc
0 setgray 0 setlinecap         % Prepare graphics state
1 setlinewidth 0 setlinejoin
10 setmiterlimit [ ] 0 setdash newpath
/languagelevel where           % If level not equal to 1 then
{pop languagelevel             % set strokeadjust and
1 ne                           % overprint to their defaults.
{false setstrokeadjust false setoverprint
} if
} if
} bd
/EndEPSF { %def
count op_count sub {pop} repeat            % Clean up stacks
countdictstack dict_count sub {end} repeat
b4_Inc_state restore
} bd
%%EndResource
%FOPBeginFontDict
%%IncludeResource: font Courier-Oblique
%%IncludeResource: font Courier-BoldOblique
%%IncludeResource: font Courier-Bold
%%IncludeResource: font ZapfDingbats
%%IncludeResource: font Symbol
%%IncludeResource: font Helvetica
%%IncludeResource: font Helvetica-Oblique
%%IncludeResource: font Helvetica-Bold
%%IncludeResource: font Helvetica-BoldOblique
%%IncludeResource: font Times-Roman
%%IncludeResource: font Times-Italic
%%IncludeResource: font Times-Bold
%%IncludeResource: font Times-BoldItalic
%%IncludeResource: font Courier
%FOPEndFontDict
%%BeginResource: encoding WinAnsiEncoding
/WinAnsiEncoding [
/.notdef /.notdef /.notdef /.notdef /.notdef
/.notdef /.notdef /.notdef /.notdef /.notdef
/.notdef /.notdef /.notdef /.notdef /.notdef
/.notdef /.notdef /.notdef /.notdef /.notdef
/.notdef /.notdef /.notdef /.notdef /.notdef
/.notdef /.notdef /.notdef /.notdef /.notdef
/.notdef /.notdef /space /exclam /quotedbl
/numbersign /dollar /percent /ampersand /quotesingle
/parenleft /parenright /asterisk /plus /comma
/hyphen /period /slash /zero /one
/two /three /four /five /six
/seven /eight /nine /colon /semicolon
/less /equal /greater /question /at
/A /B /C /D /E
/F /G /H /I /J
/K /L /M /N /O
/P /Q /R /S /T
/U /V /W /X /Y
/Z /bracketleft /backslash /bracketright /asciicircum
/underscore /quoteleft /a /b /c
/d /e /f /g /h
/i /j /k /l /m
/n /o /p /q /r
/s /t /u /v /w
/x /y /z /braceleft /bar
/braceright /asciitilde /bullet /Euro /bullet
/quotesinglbase /florin /quotedblbase /ellipsis /dagger
/daggerdbl /circumflex /perthousand /Scaron /guilsinglleft
/OE /bullet /Zcaron /bullet /bullet
/quoteleft /quoteright /quotedblleft /quotedblright /bullet
/endash /emdash /asciitilde /trademark /scaron
/guilsinglright /oe /bullet /zcaron /Ydieresis
/space /exclamdown /cent /sterling /currency
/yen /brokenbar /section /dieresis /copyright
/ordfeminine /guillemotleft /logicalnot /sfthyphen /registered
/macron /degree /plusminus /twosuperior /threesuperior
/acute /mu /paragraph /middot /cedilla
/onesuperior /ordmasculine /guillemotright /onequarter /onehalf
/threequarters /questiondown /Agrave /Aacute /Acircumflex
/Atilde /Adieresis /Aring /AE /Ccedilla
/Egrave /Eacute /Ecircumflex /Edieresis /Igrave
/Iacute /Icircumflex /Idieresis /Eth /Ntilde
/Ograve /Oacute /Ocircumflex /Otilde /Odieresis
/multiply /Oslash /Ugrave /Uacute /Ucircumflex
/Udieresis /Yacute /Thorn /germandbls /agrave
/aacute /acircumflex /atilde /adieresis /aring
/ae /ccedilla /egrave /eacute /ecircumflex
/edieresis /igrave /iacute /icircumflex /idieresis
/eth /ntilde /ograve /oacute /ocircumflex
/otilde /odieresis /divide /oslash /ugrave
/uacute /ucircumflex /udieresis /yacute /thorn
/ydieresis
] def
%%EndResource
%FOPBeginFontReencode
/Courier-Oblique findfont
dup length dict begin
  {1 index /FID ne {def} {pop pop} ifelse} forall
  /Encoding WinAnsiEncoding def
  currentdict
end
/Courier-Oblique exch definefont pop
/Courier-BoldOblique findfont
dup length dict begin
  {1 index /FID ne {def} {pop pop} ifelse} forall
  /Encoding WinAnsiEncoding def
  currentdict
end
/Courier-BoldOblique exch definefont pop
/Courier-Bold findfont
dup length dict begin
  {1 index /FID ne {def} {pop pop} ifelse} forall
  /Encoding WinAnsiEncoding def
  currentdict
end
/Courier-Bold exch definefont pop
/Helvetica findfont
dup length dict begin
  {1 index /FID ne {def} {pop pop} ifelse} forall
  /Encoding WinAnsiEncoding def
  currentdict
end
/Helvetica exch definefont pop
/Helvetica-Oblique findfont
dup length dict begin
  {1 index /FID ne {def} {pop pop} ifelse} forall
  /Encoding WinAnsiEncoding def
  currentdict
end
/Helvetica-Oblique exch definefont pop
/Helvetica-Bold findfont
dup length dict begin
  {1 index /FID ne {def} {pop pop} ifelse} forall
  /Encoding WinAnsiEncoding def
  currentdict
end
/Helvetica-Bold exch definefont pop
/Helvetica-BoldOblique findfont
dup length dict begin
  {1 index /FID ne {def} {pop pop} ifelse} forall
  /Encoding WinAnsiEncoding def
  currentdict
end
/Helvetica-BoldOblique exch definefont pop
/Times-Roman findfont
dup length dict begin
  {1 index /FID ne {def} {pop pop} ifelse} forall
  /Encoding WinAnsiEncoding def
  currentdict
end
/Times-Roman exch definefont pop
/Times-Italic findfont
dup length dict begin
  {1 index /FID ne {def} {pop pop} ifelse} forall
  /Encoding WinAnsiEncoding def
  currentdict
end
/Times-Italic exch definefont pop
/Times-Bold findfont
dup length dict begin
  {1 index /FID ne {def} {pop pop} ifelse} forall
  /Encoding WinAnsiEncoding def
  currentdict
end
/Times-Bold exch definefont pop
/Times-BoldItalic findfont
dup length dict begin
  {1 index /FID ne {def} {pop pop} ifelse} forall
  /Encoding WinAnsiEncoding def
  currentdict
end
/Times-BoldItalic exch definefont pop
/Courier findfont
dup length dict begin
  {1 index /FID ne {def} {pop pop} ifelse} forall
  /Encoding WinAnsiEncoding def
  currentdict
end
/Courier exch definefont pop
%FOPEndFontReencode
%%EndProlog
%%Page: 1 1
%%PageBoundingBox: 0 0 1390 728
%%BeginPageSetup
[1 0 0 -1 0 728] CT
%%EndPageSetup
GS
[0.75 0 0 0.75 0 0.5] CT
1 GC
N
0 0 1853 970 re
f
GR
GS
[0.75 0 0 0.75 0 0.5] CT
1 GC
N
0 0 1853 970 re
f
GR
GS
[0.75 0 0 0.75 0 0.5] CT
1 GC
N
241 863 M
1677 863 L
1677 73 L
241 73 L
cp
f
GR
GS
[0.75 0 0 0.75 0 0.5] CT
0.149 GC
2 setlinecap
1 LJ
0.667 LW
N
241 863 M
1677 863 L
S
GR
GS
[0.75 0 0 0.75 0 0.5] CT
0.149 GC
2 setlinecap
1 LJ
0.667 LW
N
259.895 863 M
259.895 848.64 L
S
GR
GS
[0.75 0 0 0.75 0 0.5] CT
0.149 GC
2 setlinecap
1 LJ
0.667 LW
N
297.684 863 M
297.684 848.64 L
S
GR
GS
[0.75 0 0 0.75 0 0.5] CT
0.149 GC
2 setlinecap
1 LJ
0.667 LW
N
335.474 863 M
335.474 848.64 L
S
GR
GS
[0.75 0 0 0.75 0 0.5] CT
0.149 GC
2 setlinecap
1 LJ
0.667 LW
N
373.263 863 M
373.263 848.64 L
S
GR
GS
[0.75 0 0 0.75 0 0.5] CT
0.149 GC
2 setlinecap
1 LJ
0.667 LW
N
411.053 863 M
411.053 848.64 L
S
GR
GS
[0.75 0 0 0.75 0 0.5] CT
0.149 GC
2 setlinecap
1 LJ
0.667 LW
N
448.842 863 M
448.842 848.64 L
S
GR
GS
[0.75 0 0 0.75 0 0.5] CT
0.149 GC
2 setlinecap
1 LJ
0.667 LW
N
486.632 863 M
486.632 848.64 L
S
GR
GS
[0.75 0 0 0.75 0 0.5] CT
0.149 GC
2 setlinecap
1 LJ
0.667 LW
N
524.421 863 M
524.421 848.64 L
S
GR
GS
[0.75 0 0 0.75 0 0.5] CT
0.149 GC
2 setlinecap
1 LJ
0.667 LW
N
562.211 863 M
562.211 848.64 L
S
GR
GS
[0.75 0 0 0.75 0 0.5] CT
0.149 GC
2 setlinecap
1 LJ
0.667 LW
N
600 863 M
600 848.64 L
S
GR
GS
[0.75 0 0 0.75 0 0.5] CT
0.149 GC
2 setlinecap
1 LJ
0.667 LW
N
637.789 863 M
637.789 848.64 L
S
GR
GS
[0.75 0 0 0.75 0 0.5] CT
0.149 GC
2 setlinecap
1 LJ
0.667 LW
N
675.579 863 M
675.579 848.64 L
S
GR
GS
[0.75 0 0 0.75 0 0.5] CT
0.149 GC
2 setlinecap
1 LJ
0.667 LW
N
713.368 863 M
713.368 848.64 L
S
GR
GS
[0.75 0 0 0.75 0 0.5] CT
0.149 GC
2 setlinecap
1 LJ
0.667 LW
N
751.158 863 M
751.158 848.64 L
S
GR
GS
[0.75 0 0 0.75 0 0.5] CT
0.149 GC
2 setlinecap
1 LJ
0.667 LW
N
788.947 863 M
788.947 848.64 L
S
GR
GS
[0.75 0 0 0.75 0 0.5] CT
0.149 GC
2 setlinecap
1 LJ
0.667 LW
N
826.737 863 M
826.737 848.64 L
S
GR
GS
[0.75 0 0 0.75 0 0.5] CT
0.149 GC
2 setlinecap
1 LJ
0.667 LW
N
864.526 863 M
864.526 848.64 L
S
GR
GS
[0.75 0 0 0.75 0 0.5] CT
0.149 GC
2 setlinecap
1 LJ
0.667 LW
N
902.316 863 M
902.316 848.64 L
S
GR
GS
[0.75 0 0 0.75 0 0.5] CT
0.149 GC
2 setlinecap
1 LJ
0.667 LW
N
940.105 863 M
940.105 848.64 L
S
GR
GS
[0.75 0 0 0.75 0 0.5] CT
0.149 GC
2 setlinecap
1 LJ
0.667 LW
N
977.895 863 M
977.895 848.64 L
S
GR
GS
[0.75 0 0 0.75 0 0.5] CT
0.149 GC
2 setlinecap
1 LJ
0.667 LW
N
1015.684 863 M
1015.684 848.64 L
S
GR
GS
[0.75 0 0 0.75 0 0.5] CT
0.149 GC
2 setlinecap
1 LJ
0.667 LW
N
1053.474 863 M
1053.474 848.64 L
S
GR
GS
[0.75 0 0 0.75 0 0.5] CT
0.149 GC
2 setlinecap
1 LJ
0.667 LW
N
1091.263 863 M
1091.263 848.64 L
S
GR
GS
[0.75 0 0 0.75 0 0.5] CT
0.149 GC
2 setlinecap
1 LJ
0.667 LW
N
1129.053 863 M
1129.053 848.64 L
S
GR
GS
[0.75 0 0 0.75 0 0.5] CT
0.149 GC
2 setlinecap
1 LJ
0.667 LW
N
1166.842 863 M
1166.842 848.64 L
S
GR
GS
[0.75 0 0 0.75 0 0.5] CT
0.149 GC
2 setlinecap
1 LJ
0.667 LW
N
1204.632 863 M
1204.632 848.64 L
S
GR
GS
[0.75 0 0 0.75 0 0.5] CT
0.149 GC
2 setlinecap
1 LJ
0.667 LW
N
1242.421 863 M
1242.421 848.64 L
S
GR
GS
[0.75 0 0 0.75 0 0.5] CT
0.149 GC
2 setlinecap
1 LJ
0.667 LW
N
1280.211 863 M
1280.211 848.64 L
S
GR
GS
[0.75 0 0 0.75 0 0.5] CT
0.149 GC
2 setlinecap
1 LJ
0.667 LW
N
1318 863 M
1318 848.64 L
S
GR
GS
[0.75 0 0 0.75 0 0.5] CT
0.149 GC
2 setlinecap
1 LJ
0.667 LW
N
1355.789 863 M
1355.789 848.64 L
S
GR
GS
[0.75 0 0 0.75 0 0.5] CT
0.149 GC
2 setlinecap
1 LJ
0.667 LW
N
1393.579 863 M
1393.579 848.64 L
S
GR
GS
[0.75 0 0 0.75 0 0.5] CT
0.149 GC
2 setlinecap
1 LJ
0.667 LW
N
1431.368 863 M
1431.368 848.64 L
S
GR
GS
[0.75 0 0 0.75 0 0.5] CT
0.149 GC
2 setlinecap
1 LJ
0.667 LW
N
1469.158 863 M
1469.158 848.64 L
S
GR
GS
[0.75 0 0 0.75 0 0.5] CT
0.149 GC
2 setlinecap
1 LJ
0.667 LW
N
1506.947 863 M
1506.947 848.64 L
S
GR
GS
[0.75 0 0 0.75 0 0.5] CT
0.149 GC
2 setlinecap
1 LJ
0.667 LW
N
1544.737 863 M
1544.737 848.64 L
S
GR
GS
[0.75 0 0 0.75 0 0.5] CT
0.149 GC
2 setlinecap
1 LJ
0.667 LW
N
1582.526 863 M
1582.526 848.64 L
S
GR
GS
[0.75 0 0 0.75 0 0.5] CT
0.149 GC
2 setlinecap
1 LJ
0.667 LW
N
1620.316 863 M
1620.316 848.64 L
S
GR
GS
[0.75 0 0 0.75 0 0.5] CT
0.149 GC
2 setlinecap
1 LJ
0.667 LW
N
1658.105 863 M
1658.105 848.64 L
S
GR
GS
[0.53033 -0.53033 0.53033 0.53033 185.25 684.5] CT
0.149 GC
/Helvetica-Bold 17.333 F
GS
[1 0 0 1 0 0] CT
0 0 moveto 
1 -1 scale
(w) t 
GR
GR
GS
[0.53033 -0.53033 0.53033 0.53033 189.75 671.75] CT
0.149 GC
/Helvetica-Bold 13.867 F
GS
[1 0 0 1 0 0] CT
0 0 moveto 
1 -1 scale
(1) t 
GR
GR
GS
[0.53033 -0.53033 0.53033 0.53033 198 680] CT
0.149 GC
/Helvetica-Bold 13.867 F
GS
[1 0 0 1 0 0] CT
0 0 moveto 
1 -1 scale
(k|k) t 
GR
GR
GS
[0.53033 -0.53033 0.53033 0.53033 213.75 684.5] CT
0.149 GC
/Helvetica-Bold 17.333 F
GS
[1 0 0 1 0 0] CT
0 0 moveto 
1 -1 scale
(w) t 
GR
GR
GS
[0.53033 -0.53033 0.53033 0.53033 218.25 671.75] CT
0.149 GC
/Helvetica-Bold 13.867 F
GS
[1 0 0 1 0 0] CT
0 0 moveto 
1 -1 scale
(2) t 
GR
GR
GS
[0.53033 -0.53033 0.53033 0.53033 226.5 680] CT
0.149 GC
/Helvetica-Bold 13.867 F
GS
[1 0 0 1 0 0] CT
0 0 moveto 
1 -1 scale
(k|k) t 
GR
GR
GS
[0.53033 -0.53033 0.53033 0.53033 241.5 684.5] CT
0.149 GC
/Helvetica-Bold 17.333 F
GS
[1 0 0 1 0 0] CT
0 0 moveto 
1 -1 scale
(w) t 
GR
GR
GS
[0.53033 -0.53033 0.53033 0.53033 246 671.75] CT
0.149 GC
/Helvetica-Bold 13.867 F
GS
[1 0 0 1 0 0] CT
0 0 moveto 
1 -1 scale
(3) t 
GR
GR
GS
[0.53033 -0.53033 0.53033 0.53033 254.25 680] CT
0.149 GC
/Helvetica-Bold 13.867 F
GS
[1 0 0 1 0 0] CT
0 0 moveto 
1 -1 scale
(k|k) t 
GR
GR
GS
[0.53033 -0.53033 0.53033 0.53033 270 684.5] CT
0.149 GC
/Helvetica-Bold 17.333 F
GS
[1 0 0 1 0 0] CT
0 0 moveto 
1 -1 scale
(w) t 
GR
GR
GS
[0.53033 -0.53033 0.53033 0.53033 274.5 671.75] CT
0.149 GC
/Helvetica-Bold 13.867 F
GS
[1 0 0 1 0 0] CT
0 0 moveto 
1 -1 scale
(4) t 
GR
GR
GS
[0.53033 -0.53033 0.53033 0.53033 282.75 680] CT
0.149 GC
/Helvetica-Bold 13.867 F
GS
[1 0 0 1 0 0] CT
0 0 moveto 
1 -1 scale
(k|k) t 
GR
GR
GS
[0.53033 -0.53033 0.53033 0.53033 298.5 684.5] CT
0.149 GC
/Helvetica-Bold 17.333 F
GS
[1 0 0 1 0 0] CT
0 0 moveto 
1 -1 scale
(w) t 
GR
GR
GS
[0.53033 -0.53033 0.53033 0.53033 303 671.75] CT
0.149 GC
/Helvetica-Bold 13.867 F
GS
[1 0 0 1 0 0] CT
0 0 moveto 
1 -1 scale
(5) t 
GR
GR
GS
[0.53033 -0.53033 0.53033 0.53033 311.25 680] CT
0.149 GC
/Helvetica-Bold 13.867 F
GS
[1 0 0 1 0 0] CT
0 0 moveto 
1 -1 scale
(k|k) t 
GR
GR
GS
[0.53033 -0.53033 0.53033 0.53033 327 684.5] CT
0.149 GC
/Helvetica-Bold 17.333 F
GS
[1 0 0 1 0 0] CT
0 0 moveto 
1 -1 scale
(w) t 
GR
GR
GS
[0.53033 -0.53033 0.53033 0.53033 331.5 671.75] CT
0.149 GC
/Helvetica-Bold 13.867 F
GS
[1 0 0 1 0 0] CT
0 0 moveto 
1 -1 scale
(6) t 
GR
GR
GS
[0.53033 -0.53033 0.53033 0.53033 339.75 680] CT
0.149 GC
/Helvetica-Bold 13.867 F
GS
[1 0 0 1 0 0] CT
0 0 moveto 
1 -1 scale
(k|k) t 
GR
GR
GS
[0.53033 -0.53033 0.53033 0.53033 355.5 684.5] CT
0.149 GC
/Helvetica-Bold 17.333 F
GS
[1 0 0 1 0 0] CT
0 0 moveto 
1 -1 scale
(w) t 
GR
GR
GS
[0.53033 -0.53033 0.53033 0.53033 360 671.75] CT
0.149 GC
/Helvetica-Bold 13.867 F
GS
[1 0 0 1 0 0] CT
0 0 moveto 
1 -1 scale
(7) t 
GR
GR
GS
[0.53033 -0.53033 0.53033 0.53033 368.25 680] CT
0.149 GC
/Helvetica-Bold 13.867 F
GS
[1 0 0 1 0 0] CT
0 0 moveto 
1 -1 scale
(k|k) t 
GR
GR
GS
[0.53033 -0.53033 0.53033 0.53033 383.25 684.5] CT
0.149 GC
/Helvetica-Bold 17.333 F
GS
[1 0 0 1 0 0] CT
0 0 moveto 
1 -1 scale
(w) t 
GR
GR
GS
[0.53033 -0.53033 0.53033 0.53033 387.75 671.75] CT
0.149 GC
/Helvetica-Bold 13.867 F
GS
[1 0 0 1 0 0] CT
0 0 moveto 
1 -1 scale
(8) t 
GR
GR
GS
[0.53033 -0.53033 0.53033 0.53033 396 680] CT
0.149 GC
/Helvetica-Bold 13.867 F
GS
[1 0 0 1 0 0] CT
0 0 moveto 
1 -1 scale
(k|k) t 
GR
GR
GS
[0.53033 -0.53033 0.53033 0.53033 411.75 684.5] CT
0.149 GC
/Helvetica-Bold 17.333 F
GS
[1 0 0 1 0 0] CT
0 0 moveto 
1 -1 scale
(w) t 
GR
GR
GS
[0.53033 -0.53033 0.53033 0.53033 416.25 671.75] CT
0.149 GC
/Helvetica-Bold 13.867 F
GS
[1 0 0 1 0 0] CT
0 0 moveto 
1 -1 scale
(9) t 
GR
GR
GS
[0.53033 -0.53033 0.53033 0.53033 424.5 680] CT
0.149 GC
/Helvetica-Bold 13.867 F
GS
[1 0 0 1 0 0] CT
0 0 moveto 
1 -1 scale
(k|k) t 
GR
GR
GS
[0.53033 -0.53033 0.53033 0.53033 440.25 684.5] CT
0.149 GC
/Helvetica-Bold 17.333 F
GS
[1 0 0 1 0 0] CT
0 0 moveto 
1 -1 scale
(w) t 
GR
GR
GS
[0.53033 -0.53033 0.53033 0.53033 444.75 671.75] CT
0.149 GC
/Helvetica-Bold 13.867 F
GS
[1 0 0 1 0 0] CT
0 0 moveto 
1 -1 scale
(10) t 
GR
GR
GS
[0.53033 -0.53033 0.53033 0.53033 453 680] CT
0.149 GC
/Helvetica-Bold 13.867 F
GS
[1 0 0 1 0 0] CT
0 0 moveto 
1 -1 scale
(k|k) t 
GR
GR
GS
[0.53033 -0.53033 0.53033 0.53033 468.75 684.5] CT
0.149 GC
/Helvetica-Bold 17.333 F
GS
[1 0 0 1 0 0] CT
0 0 moveto 
1 -1 scale
(w) t 
GR
GR
GS
[0.53033 -0.53033 0.53033 0.53033 473.25 671.75] CT
0.149 GC
/Helvetica-Bold 13.867 F
GS
[1 0 0 1 0 0] CT
0 0 moveto 
1 -1 scale
(11) t 
GR
GR
GS
[0.53033 -0.53033 0.53033 0.53033 481.5 680] CT
0.149 GC
/Helvetica-Bold 13.867 F
GS
[1 0 0 1 0 0] CT
0 0 moveto 
1 -1 scale
(k|k) t 
GR
GR
GS
[0.53033 -0.53033 0.53033 0.53033 497.25 684.5] CT
0.149 GC
/Helvetica-Bold 17.333 F
GS
[1 0 0 1 0 0] CT
0 0 moveto 
1 -1 scale
(w) t 
GR
GR
GS
[0.53033 -0.53033 0.53033 0.53033 501.75 671.75] CT
0.149 GC
/Helvetica-Bold 13.867 F
GS
[1 0 0 1 0 0] CT
0 0 moveto 
1 -1 scale
(12) t 
GR
GR
GS
[0.53033 -0.53033 0.53033 0.53033 510 680] CT
0.149 GC
/Helvetica-Bold 13.867 F
GS
[1 0 0 1 0 0] CT
0 0 moveto 
1 -1 scale
(k|k) t 
GR
GR
GS
[0.53033 -0.53033 0.53033 0.53033 525 684.5] CT
0.149 GC
/Helvetica-Bold 17.333 F
GS
[1 0 0 1 0 0] CT
0 0 moveto 
1 -1 scale
(w) t 
GR
GR
GS
[0.53033 -0.53033 0.53033 0.53033 529.5 671.75] CT
0.149 GC
/Helvetica-Bold 13.867 F
GS
[1 0 0 1 0 0] CT
0 0 moveto 
1 -1 scale
(13) t 
GR
GR
GS
[0.53033 -0.53033 0.53033 0.53033 537.75 680] CT
0.149 GC
/Helvetica-Bold 13.867 F
GS
[1 0 0 1 0 0] CT
0 0 moveto 
1 -1 scale
(k|k) t 
GR
GR
GS
[0.53033 -0.53033 0.53033 0.53033 553.5 684.5] CT
0.149 GC
/Helvetica-Bold 17.333 F
GS
[1 0 0 1 0 0] CT
0 0 moveto 
1 -1 scale
(w) t 
GR
GR
GS
[0.53033 -0.53033 0.53033 0.53033 558 671.75] CT
0.149 GC
/Helvetica-Bold 13.867 F
GS
[1 0 0 1 0 0] CT
0 0 moveto 
1 -1 scale
(14) t 
GR
GR
GS
[0.53033 -0.53033 0.53033 0.53033 566.25 680] CT
0.149 GC
/Helvetica-Bold 13.867 F
GS
[1 0 0 1 0 0] CT
0 0 moveto 
1 -1 scale
(k|k) t 
GR
GR
GS
[0.53033 -0.53033 0.53033 0.53033 582 684.5] CT
0.149 GC
/Helvetica-Bold 17.333 F
GS
[1 0 0 1 0 0] CT
0 0 moveto 
1 -1 scale
(w) t 
GR
GR
GS
[0.53033 -0.53033 0.53033 0.53033 586.5 671.75] CT
0.149 GC
/Helvetica-Bold 13.867 F
GS
[1 0 0 1 0 0] CT
0 0 moveto 
1 -1 scale
(15) t 
GR
GR
GS
[0.53033 -0.53033 0.53033 0.53033 594.75 680] CT
0.149 GC
/Helvetica-Bold 13.867 F
GS
[1 0 0 1 0 0] CT
0 0 moveto 
1 -1 scale
(k|k) t 
GR
GR
GS
[0.53033 -0.53033 0.53033 0.53033 610.5 684.5] CT
0.149 GC
/Helvetica-Bold 17.333 F
GS
[1 0 0 1 0 0] CT
0 0 moveto 
1 -1 scale
(w) t 
GR
GR
GS
[0.53033 -0.53033 0.53033 0.53033 615 671.75] CT
0.149 GC
/Helvetica-Bold 13.867 F
GS
[1 0 0 1 0 0] CT
0 0 moveto 
1 -1 scale
(16) t 
GR
GR
GS
[0.53033 -0.53033 0.53033 0.53033 623.25 680] CT
0.149 GC
/Helvetica-Bold 13.867 F
GS
[1 0 0 1 0 0] CT
0 0 moveto 
1 -1 scale
(k|k) t 
GR
GR
GS
[0.53033 -0.53033 0.53033 0.53033 639 684.5] CT
0.149 GC
/Helvetica-Bold 17.333 F
GS
[1 0 0 1 0 0] CT
0 0 moveto 
1 -1 scale
(w) t 
GR
GR
GS
[0.53033 -0.53033 0.53033 0.53033 643.5 671.75] CT
0.149 GC
/Helvetica-Bold 13.867 F
GS
[1 0 0 1 0 0] CT
0 0 moveto 
1 -1 scale
(17) t 
GR
GR
GS
[0.53033 -0.53033 0.53033 0.53033 651.75 680] CT
0.149 GC
/Helvetica-Bold 13.867 F
GS
[1 0 0 1 0 0] CT
0 0 moveto 
1 -1 scale
(k|k) t 
GR
GR
GS
[0.53033 -0.53033 0.53033 0.53033 666.75 684.5] CT
0.149 GC
/Helvetica-Bold 17.333 F
GS
[1 0 0 1 0 0] CT
0 0 moveto 
1 -1 scale
(w) t 
GR
GR
GS
[0.53033 -0.53033 0.53033 0.53033 671.25 671.75] CT
0.149 GC
/Helvetica-Bold 13.867 F
GS
[1 0 0 1 0 0] CT
0 0 moveto 
1 -1 scale
(18) t 
GR
GR
GS
[0.53033 -0.53033 0.53033 0.53033 679.5 680] CT
0.149 GC
/Helvetica-Bold 13.867 F
GS
[1 0 0 1 0 0] CT
0 0 moveto 
1 -1 scale
(k|k) t 
GR
GR
GS
[0.53033 -0.53033 0.53033 0.53033 695.25 684.5] CT
0.149 GC
/Helvetica-Bold 17.333 F
GS
[1 0 0 1 0 0] CT
0 0 moveto 
1 -1 scale
(w) t 
GR
GR
GS
[0.53033 -0.53033 0.53033 0.53033 699.75 671.75] CT
0.149 GC
/Helvetica-Bold 13.867 F
GS
[1 0 0 1 0 0] CT
0 0 moveto 
1 -1 scale
(19) t 
GR
GR
GS
[0.53033 -0.53033 0.53033 0.53033 708 680] CT
0.149 GC
/Helvetica-Bold 13.867 F
GS
[1 0 0 1 0 0] CT
0 0 moveto 
1 -1 scale
(k|k) t 
GR
GR
GS
[0.53033 -0.53033 0.53033 0.53033 723.75 684.5] CT
0.149 GC
/Helvetica-Bold 17.333 F
GS
[1 0 0 1 0 0] CT
0 0 moveto 
1 -1 scale
(w) t 
GR
GR
GS
[0.53033 -0.53033 0.53033 0.53033 728.25 671.75] CT
0.149 GC
/Helvetica-Bold 13.867 F
GS
[1 0 0 1 0 0] CT
0 0 moveto 
1 -1 scale
(20) t 
GR
GR
GS
[0.53033 -0.53033 0.53033 0.53033 736.5 680] CT
0.149 GC
/Helvetica-Bold 13.867 F
GS
[1 0 0 1 0 0] CT
0 0 moveto 
1 -1 scale
(k|k) t 
GR
GR
GS
[0.53033 -0.53033 0.53033 0.53033 752.25 684.5] CT
0.149 GC
/Helvetica-Bold 17.333 F
GS
[1 0 0 1 0 0] CT
0 0 moveto 
1 -1 scale
(w) t 
GR
GR
GS
[0.53033 -0.53033 0.53033 0.53033 756.75 671.75] CT
0.149 GC
/Helvetica-Bold 13.867 F
GS
[1 0 0 1 0 0] CT
0 0 moveto 
1 -1 scale
(21) t 
GR
GR
GS
[0.53033 -0.53033 0.53033 0.53033 765 680] CT
0.149 GC
/Helvetica-Bold 13.867 F
GS
[1 0 0 1 0 0] CT
0 0 moveto 
1 -1 scale
(k|k) t 
GR
GR
GS
[0.53033 -0.53033 0.53033 0.53033 780 684.5] CT
0.149 GC
/Helvetica-Bold 17.333 F
GS
[1 0 0 1 0 0] CT
0 0 moveto 
1 -1 scale
(w) t 
GR
GR
GS
[0.53033 -0.53033 0.53033 0.53033 784.5 671.75] CT
0.149 GC
/Helvetica-Bold 13.867 F
GS
[1 0 0 1 0 0] CT
0 0 moveto 
1 -1 scale
(22) t 
GR
GR
GS
[0.53033 -0.53033 0.53033 0.53033 792.75 680] CT
0.149 GC
/Helvetica-Bold 13.867 F
GS
[1 0 0 1 0 0] CT
0 0 moveto 
1 -1 scale
(k|k) t 
GR
GR
GS
[0.53033 -0.53033 0.53033 0.53033 808.5 684.5] CT
0.149 GC
/Helvetica-Bold 17.333 F
GS
[1 0 0 1 0 0] CT
0 0 moveto 
1 -1 scale
(w) t 
GR
GR
GS
[0.53033 -0.53033 0.53033 0.53033 813 671.75] CT
0.149 GC
/Helvetica-Bold 13.867 F
GS
[1 0 0 1 0 0] CT
0 0 moveto 
1 -1 scale
(23) t 
GR
GR
GS
[0.53033 -0.53033 0.53033 0.53033 821.25 680] CT
0.149 GC
/Helvetica-Bold 13.867 F
GS
[1 0 0 1 0 0] CT
0 0 moveto 
1 -1 scale
(k|k) t 
GR
GR
GS
[0.53033 -0.53033 0.53033 0.53033 837 684.5] CT
0.149 GC
/Helvetica-Bold 17.333 F
GS
[1 0 0 1 0 0] CT
0 0 moveto 
1 -1 scale
(w) t 
GR
GR
GS
[0.53033 -0.53033 0.53033 0.53033 841.5 671.75] CT
0.149 GC
/Helvetica-Bold 13.867 F
GS
[1 0 0 1 0 0] CT
0 0 moveto 
1 -1 scale
(24) t 
GR
GR
GS
[0.53033 -0.53033 0.53033 0.53033 849.75 680] CT
0.149 GC
/Helvetica-Bold 13.867 F
GS
[1 0 0 1 0 0] CT
0 0 moveto 
1 -1 scale
(k|k) t 
GR
GR
GS
[0.53033 -0.53033 0.53033 0.53033 865.5 684.5] CT
0.149 GC
/Helvetica-Bold 17.333 F
GS
[1 0 0 1 0 0] CT
0 0 moveto 
1 -1 scale
(w) t 
GR
GR
GS
[0.53033 -0.53033 0.53033 0.53033 870 671.75] CT
0.149 GC
/Helvetica-Bold 13.867 F
GS
[1 0 0 1 0 0] CT
0 0 moveto 
1 -1 scale
(25) t 
GR
GR
GS
[0.53033 -0.53033 0.53033 0.53033 878.25 680] CT
0.149 GC
/Helvetica-Bold 13.867 F
GS
[1 0 0 1 0 0] CT
0 0 moveto 
1 -1 scale
(k|k) t 
GR
GR
GS
[0.53033 -0.53033 0.53033 0.53033 894 684.5] CT
0.149 GC
/Helvetica-Bold 17.333 F
GS
[1 0 0 1 0 0] CT
0 0 moveto 
1 -1 scale
(w) t 
GR
GR
GS
[0.53033 -0.53033 0.53033 0.53033 898.5 671.75] CT
0.149 GC
/Helvetica-Bold 13.867 F
GS
[1 0 0 1 0 0] CT
0 0 moveto 
1 -1 scale
(26) t 
GR
GR
GS
[0.53033 -0.53033 0.53033 0.53033 906.75 680] CT
0.149 GC
/Helvetica-Bold 13.867 F
GS
[1 0 0 1 0 0] CT
0 0 moveto 
1 -1 scale
(k|k) t 
GR
GR
GS
[0.53033 -0.53033 0.53033 0.53033 921.75 684.5] CT
0.149 GC
/Helvetica-Bold 17.333 F
GS
[1 0 0 1 0 0] CT
0 0 moveto 
1 -1 scale
(w) t 
GR
GR
GS
[0.53033 -0.53033 0.53033 0.53033 926.25 671.75] CT
0.149 GC
/Helvetica-Bold 13.867 F
GS
[1 0 0 1 0 0] CT
0 0 moveto 
1 -1 scale
(27) t 
GR
GR
GS
[0.53033 -0.53033 0.53033 0.53033 934.5 680] CT
0.149 GC
/Helvetica-Bold 13.867 F
GS
[1 0 0 1 0 0] CT
0 0 moveto 
1 -1 scale
(k|k) t 
GR
GR
GS
[0.53033 -0.53033 0.53033 0.53033 950.25 684.5] CT
0.149 GC
/Helvetica-Bold 17.333 F
GS
[1 0 0 1 0 0] CT
0 0 moveto 
1 -1 scale
(w) t 
GR
GR
GS
[0.53033 -0.53033 0.53033 0.53033 954.75 671.75] CT
0.149 GC
/Helvetica-Bold 13.867 F
GS
[1 0 0 1 0 0] CT
0 0 moveto 
1 -1 scale
(28) t 
GR
GR
GS
[0.53033 -0.53033 0.53033 0.53033 963 680] CT
0.149 GC
/Helvetica-Bold 13.867 F
GS
[1 0 0 1 0 0] CT
0 0 moveto 
1 -1 scale
(k|k) t 
GR
GR
GS
[0.53033 -0.53033 0.53033 0.53033 978.75 684.5] CT
0.149 GC
/Helvetica-Bold 17.333 F
GS
[1 0 0 1 0 0] CT
0 0 moveto 
1 -1 scale
(w) t 
GR
GR
GS
[0.53033 -0.53033 0.53033 0.53033 983.25 671.75] CT
0.149 GC
/Helvetica-Bold 13.867 F
GS
[1 0 0 1 0 0] CT
0 0 moveto 
1 -1 scale
(29) t 
GR
GR
GS
[0.53033 -0.53033 0.53033 0.53033 991.5 680] CT
0.149 GC
/Helvetica-Bold 13.867 F
GS
[1 0 0 1 0 0] CT
0 0 moveto 
1 -1 scale
(k|k) t 
GR
GR
GS
[0.53033 -0.53033 0.53033 0.53033 1007.25 684.5] CT
0.149 GC
/Helvetica-Bold 17.333 F
GS
[1 0 0 1 0 0] CT
0 0 moveto 
1 -1 scale
(w) t 
GR
GR
GS
[0.53033 -0.53033 0.53033 0.53033 1011.75 671.75] CT
0.149 GC
/Helvetica-Bold 13.867 F
GS
[1 0 0 1 0 0] CT
0 0 moveto 
1 -1 scale
(30) t 
GR
GR
GS
[0.53033 -0.53033 0.53033 0.53033 1020 680] CT
0.149 GC
/Helvetica-Bold 13.867 F
GS
[1 0 0 1 0 0] CT
0 0 moveto 
1 -1 scale
(k|k) t 
GR
GR
GS
[0.53033 -0.53033 0.53033 0.53033 1035.75 684.5] CT
0.149 GC
/Helvetica-Bold 17.333 F
GS
[1 0 0 1 0 0] CT
0 0 moveto 
1 -1 scale
(w) t 
GR
GR
GS
[0.53033 -0.53033 0.53033 0.53033 1040.25 671.75] CT
0.149 GC
/Helvetica-Bold 13.867 F
GS
[1 0 0 1 0 0] CT
0 0 moveto 
1 -1 scale
(31) t 
GR
GR
GS
[0.53033 -0.53033 0.53033 0.53033 1048.5 680] CT
0.149 GC
/Helvetica-Bold 13.867 F
GS
[1 0 0 1 0 0] CT
0 0 moveto 
1 -1 scale
(k|k) t 
GR
GR
GS
[0.53033 -0.53033 0.53033 0.53033 1063.5 684.5] CT
0.149 GC
/Helvetica-Bold 17.333 F
GS
[1 0 0 1 0 0] CT
0 0 moveto 
1 -1 scale
(w) t 
GR
GR
GS
[0.53033 -0.53033 0.53033 0.53033 1068 671.75] CT
0.149 GC
/Helvetica-Bold 13.867 F
GS
[1 0 0 1 0 0] CT
0 0 moveto 
1 -1 scale
(32) t 
GR
GR
GS
[0.53033 -0.53033 0.53033 0.53033 1076.25 680] CT
0.149 GC
/Helvetica-Bold 13.867 F
GS
[1 0 0 1 0 0] CT
0 0 moveto 
1 -1 scale
(k|k) t 
GR
GR
GS
[0.53033 -0.53033 0.53033 0.53033 1092 684.5] CT
0.149 GC
/Helvetica-Bold 17.333 F
GS
[1 0 0 1 0 0] CT
0 0 moveto 
1 -1 scale
(w) t 
GR
GR
GS
[0.53033 -0.53033 0.53033 0.53033 1096.5 671.75] CT
0.149 GC
/Helvetica-Bold 13.867 F
GS
[1 0 0 1 0 0] CT
0 0 moveto 
1 -1 scale
(33) t 
GR
GR
GS
[0.53033 -0.53033 0.53033 0.53033 1104.75 680] CT
0.149 GC
/Helvetica-Bold 13.867 F
GS
[1 0 0 1 0 0] CT
0 0 moveto 
1 -1 scale
(k|k) t 
GR
GR
GS
[0.53033 -0.53033 0.53033 0.53033 1120.5 684.5] CT
0.149 GC
/Helvetica-Bold 17.333 F
GS
[1 0 0 1 0 0] CT
0 0 moveto 
1 -1 scale
(w) t 
GR
GR
GS
[0.53033 -0.53033 0.53033 0.53033 1125 671.75] CT
0.149 GC
/Helvetica-Bold 13.867 F
GS
[1 0 0 1 0 0] CT
0 0 moveto 
1 -1 scale
(34) t 
GR
GR
GS
[0.53033 -0.53033 0.53033 0.53033 1133.25 680] CT
0.149 GC
/Helvetica-Bold 13.867 F
GS
[1 0 0 1 0 0] CT
0 0 moveto 
1 -1 scale
(k|k) t 
GR
GR
GS
[0.53033 -0.53033 0.53033 0.53033 1149 684.5] CT
0.149 GC
/Helvetica-Bold 17.333 F
GS
[1 0 0 1 0 0] CT
0 0 moveto 
1 -1 scale
(w) t 
GR
GR
GS
[0.53033 -0.53033 0.53033 0.53033 1153.5 671.75] CT
0.149 GC
/Helvetica-Bold 13.867 F
GS
[1 0 0 1 0 0] CT
0 0 moveto 
1 -1 scale
(35) t 
GR
GR
GS
[0.53033 -0.53033 0.53033 0.53033 1161.75 680] CT
0.149 GC
/Helvetica-Bold 13.867 F
GS
[1 0 0 1 0 0] CT
0 0 moveto 
1 -1 scale
(k|k) t 
GR
GR
GS
[0.53033 -0.53033 0.53033 0.53033 1177.5 684.5] CT
0.149 GC
/Helvetica-Bold 17.333 F
GS
[1 0 0 1 0 0] CT
0 0 moveto 
1 -1 scale
(w) t 
GR
GR
GS
[0.53033 -0.53033 0.53033 0.53033 1182 671.75] CT
0.149 GC
/Helvetica-Bold 13.867 F
GS
[1 0 0 1 0 0] CT
0 0 moveto 
1 -1 scale
(36) t 
GR
GR
GS
[0.53033 -0.53033 0.53033 0.53033 1190.25 680] CT
0.149 GC
/Helvetica-Bold 13.867 F
GS
[1 0 0 1 0 0] CT
0 0 moveto 
1 -1 scale
(k|k) t 
GR
GR
GS
[0.53033 -0.53033 0.53033 0.53033 1205.25 684.5] CT
0.149 GC
/Helvetica-Bold 17.333 F
GS
[1 0 0 1 0 0] CT
0 0 moveto 
1 -1 scale
(w) t 
GR
GR
GS
[0.53033 -0.53033 0.53033 0.53033 1209.75 671.75] CT
0.149 GC
/Helvetica-Bold 13.867 F
GS
[1 0 0 1 0 0] CT
0 0 moveto 
1 -1 scale
(37) t 
GR
GR
GS
[0.53033 -0.53033 0.53033 0.53033 1218 680] CT
0.149 GC
/Helvetica-Bold 13.867 F
GS
[1 0 0 1 0 0] CT
0 0 moveto 
1 -1 scale
(k|k) t 
GR
GR
GS
[0.53033 -0.53033 0.53033 0.53033 1233.75 684.5] CT
0.149 GC
/Helvetica-Bold 17.333 F
GS
[1 0 0 1 0 0] CT
0 0 moveto 
1 -1 scale
(w) t 
GR
GR
GS
[0.53033 -0.53033 0.53033 0.53033 1238.25 671.75] CT
0.149 GC
/Helvetica-Bold 13.867 F
GS
[1 0 0 1 0 0] CT
0 0 moveto 
1 -1 scale
(38) t 
GR
GR
GS
[0.53033 -0.53033 0.53033 0.53033 1246.5 680] CT
0.149 GC
/Helvetica-Bold 13.867 F
GS
[1 0 0 1 0 0] CT
0 0 moveto 
1 -1 scale
(k|k) t 
GR
GR
GS
[0.75 0 0 0.75 0 0.5] CT
0.149 GC
2 setlinecap
1 LJ
0.667 LW
N
241 863 M
241 73 L
S
GR
GS
[0.75 0 0 0.75 0 0.5] CT
0.149 GC
2 setlinecap
1 LJ
0.667 LW
N
241 863 M
255.36 863 L
S
GR
GS
[0.75 0 0 0.75 0 0.5] CT
0.149 GC
2 setlinecap
1 LJ
0.667 LW
N
241 705 M
255.36 705 L
S
GR
GS
[0.75 0 0 0.75 0 0.5] CT
0.149 GC
2 setlinecap
1 LJ
0.667 LW
N
241 547 M
255.36 547 L
S
GR
GS
[0.75 0 0 0.75 0 0.5] CT
0.149 GC
2 setlinecap
1 LJ
0.667 LW
N
241 389 M
255.36 389 L
S
GR
GS
[0.75 0 0 0.75 0 0.5] CT
0.149 GC
2 setlinecap
1 LJ
0.667 LW
N
241 231 M
255.36 231 L
S
GR
GS
[0.75 0 0 0.75 0 0.5] CT
0.149 GC
2 setlinecap
1 LJ
0.667 LW
N
241 73 M
255.36 73 L
S
GR
GS
[0.75 0 0 0.75 176.15 647.75] CT
0.149 GC
/Helvetica-Bold 17.333 F
GS
[1 0 0 1 0 0] CT
-13 6 moveto 
1 -1 scale
(0) t 
GR
GR
GS
[0.75 0 0 0.75 176.15 529.25] CT
0.149 GC
/Helvetica-Bold 17.333 F
GS
[1 0 0 1 0 0] CT
-43 6 moveto 
1 -1 scale
(0.05) t 
GR
GR
GS
[0.75 0 0 0.75 176.15 410.75] CT
0.149 GC
/Helvetica-Bold 17.333 F
GS
[1 0 0 1 0 0] CT
-31 6 moveto 
1 -1 scale
(0.1) t 
GR
GR
GS
[0.75 0 0 0.75 176.15 292.24998] CT
0.149 GC
/Helvetica-Bold 17.333 F
GS
[1 0 0 1 0 0] CT
-43 6 moveto 
1 -1 scale
(0.15) t 
GR
GR
GS
[0.75 0 0 0.75 176.15 173.74999] CT
0.149 GC
/Helvetica-Bold 17.333 F
GS
[1 0 0 1 0 0] CT
-31 6 moveto 
1 -1 scale
(0.2) t 
GR
GR
GS
[0.75 0 0 0.75 176.15 55.25] CT
0.149 GC
/Helvetica-Bold 17.333 F
GS
[1 0 0 1 0 0] CT
-43 6 moveto 
1 -1 scale
(0.25) t 
GR
GR
GS
[0.75 0 0 0.75 0 0.5] CT
0.149 GC
1 LJ
0.667 LW
N
241 863 M
1677 863 L
S
GR
GS
[0.75 0 0 0.75 0 0.5] CT
0 0.447 0.741 RC
N
275.011 863 M
275.011 716.343 L
244.779 716.343 L
244.779 863 L
cp
312.8 863 M
312.8 806.068 L
282.568 806.068 L
282.568 863 L
cp
350.589 863 M
350.589 844.332 L
320.358 844.332 L
320.358 863 L
cp
388.379 863 M
388.379 759.269 L
358.147 759.269 L
358.147 863 L
cp
426.168 863 M
426.168 828.031 L
395.937 828.031 L
395.937 863 L
cp
463.958 863 M
463.958 767.673 L
433.726 767.673 L
433.726 863 L
cp
501.747 863 M
501.747 813.297 L
471.516 813.297 L
471.516 863 L
cp
539.537 863 M
539.537 843.799 L
509.305 843.799 L
509.305 863 L
cp
577.326 863 M
577.326 843.566 L
547.095 843.566 L
547.095 863 L
cp
615.116 863 M
615.116 839.609 L
584.884 839.609 L
584.884 863 L
cp
652.905 863 M
652.905 788.161 L
622.674 788.161 L
622.674 863 L
cp
690.695 863 M
690.695 821.7 L
660.463 821.7 L
660.463 863 L
cp
728.484 863 M
728.484 838.73 L
698.253 838.73 L
698.253 863 L
cp
766.274 863 M
766.274 841.283 L
736.042 841.283 L
736.042 863 L
cp
804.063 863 M
804.063 843.694 L
773.832 843.694 L
773.832 863 L
cp
841.853 863 M
841.853 640.408 L
811.621 640.408 L
811.621 863 L
cp
879.642 863 M
879.642 835.522 L
849.411 835.522 L
849.411 863 L
cp
917.432 863 M
917.432 845.154 L
887.2 845.154 L
887.2 863 L
cp
955.221 863 M
955.221 777.817 L
924.99 777.817 L
924.99 863 L
cp
993.01 863 M
993.01 778.37 L
962.779 778.37 L
962.779 863 L
cp
1030.8 863 M
1030.8 830.532 L
1000.568 830.532 L
1000.568 863 L
cp
1068.589 863 M
1068.589 844.932 L
1038.358 844.932 L
1038.358 863 L
cp
1106.379 863 M
1106.379 841.356 L
1076.147 841.356 L
1076.147 863 L
cp
1144.168 863 M
1144.168 845.2 L
1113.937 845.2 L
1113.937 863 L
cp
1181.958 863 M
1181.958 768.292 L
1151.726 768.292 L
1151.726 863 L
cp
1219.747 863 M
1219.747 647.999 L
1189.516 647.999 L
1189.516 863 L
cp
1257.537 863 M
1257.537 765.53 L
1227.305 765.53 L
1227.305 863 L
cp
1295.326 863 M
1295.326 807.302 L
1265.095 807.302 L
1265.095 863 L
cp
1333.116 863 M
1333.116 684.515 L
1302.884 684.515 L
1302.884 863 L
cp
1370.905 863 M
1370.905 645.344 L
1340.674 645.344 L
1340.674 863 L
cp
1408.695 863 M
1408.695 823.256 L
1378.463 823.256 L
1378.463 863 L
cp
1446.484 863 M
1446.484 835.965 L
1416.253 835.965 L
1416.253 863 L
cp
1484.274 863 M
1484.274 792.607 L
1454.042 792.607 L
1454.042 863 L
cp
1522.063 863 M
1522.063 217.535 L
1491.832 217.535 L
1491.832 863 L
cp
1559.853 863 M
1559.853 841.656 L
1529.621 841.656 L
1529.621 863 L
cp
1597.642 863 M
1597.642 827.947 L
1567.411 827.947 L
1567.411 863 L
cp
1635.432 863 M
1635.432 835.32 L
1605.2 835.32 L
1605.2 863 L
cp
1673.221 863 M
1673.221 705.886 L
1642.989 705.886 L
1642.989 863 L
cp
f
GR
GS
[0.75 0 0 0.75 0 0.5] CT
10.0 ML
0.667 LW
N
244.779 863 M
244.779 716.343 L
275.011 716.343 L
275.011 863 L
cp
S
GR
GS
[0.75 0 0 0.75 0 0.5] CT
10.0 ML
0.667 LW
N
282.568 863 M
282.568 806.068 L
312.8 806.068 L
312.8 863 L
cp
S
GR
GS
[0.75 0 0 0.75 0 0.5] CT
10.0 ML
0.667 LW
N
320.358 863 M
320.358 844.332 L
350.589 844.332 L
350.589 863 L
cp
S
GR
GS
[0.75 0 0 0.75 0 0.5] CT
10.0 ML
0.667 LW
N
358.147 863 M
358.147 759.269 L
388.379 759.269 L
388.379 863 L
cp
S
GR
GS
[0.75 0 0 0.75 0 0.5] CT
10.0 ML
0.667 LW
N
395.937 863 M
395.937 828.031 L
426.168 828.031 L
426.168 863 L
cp
S
GR
GS
[0.75 0 0 0.75 0 0.5] CT
10.0 ML
0.667 LW
N
433.726 863 M
433.726 767.673 L
463.958 767.673 L
463.958 863 L
cp
S
GR
GS
[0.75 0 0 0.75 0 0.5] CT
10.0 ML
0.667 LW
N
471.516 863 M
471.516 813.297 L
501.747 813.297 L
501.747 863 L
cp
S
GR
GS
[0.75 0 0 0.75 0 0.5] CT
10.0 ML
0.667 LW
N
509.305 863 M
509.305 843.799 L
539.537 843.799 L
539.537 863 L
cp
S
GR
GS
[0.75 0 0 0.75 0 0.5] CT
10.0 ML
0.667 LW
N
547.095 863 M
547.095 843.566 L
577.326 843.566 L
577.326 863 L
cp
S
GR
GS
[0.75 0 0 0.75 0 0.5] CT
10.0 ML
0.667 LW
N
584.884 863 M
584.884 839.609 L
615.116 839.609 L
615.116 863 L
cp
S
GR
GS
[0.75 0 0 0.75 0 0.5] CT
10.0 ML
0.667 LW
N
622.674 863 M
622.674 788.161 L
652.905 788.161 L
652.905 863 L
cp
S
GR
GS
[0.75 0 0 0.75 0 0.5] CT
10.0 ML
0.667 LW
N
660.463 863 M
660.463 821.7 L
690.695 821.7 L
690.695 863 L
cp
S
GR
GS
[0.75 0 0 0.75 0 0.5] CT
10.0 ML
0.667 LW
N
698.253 863 M
698.253 838.73 L
728.484 838.73 L
728.484 863 L
cp
S
GR
GS
[0.75 0 0 0.75 0 0.5] CT
10.0 ML
0.667 LW
N
736.042 863 M
736.042 841.283 L
766.274 841.283 L
766.274 863 L
cp
S
GR
GS
[0.75 0 0 0.75 0 0.5] CT
10.0 ML
0.667 LW
N
773.832 863 M
773.832 843.694 L
804.063 843.694 L
804.063 863 L
cp
S
GR
GS
[0.75 0 0 0.75 0 0.5] CT
10.0 ML
0.667 LW
N
811.621 863 M
811.621 640.408 L
841.853 640.408 L
841.853 863 L
cp
S
GR
GS
[0.75 0 0 0.75 0 0.5] CT
10.0 ML
0.667 LW
N
849.411 863 M
849.411 835.522 L
879.642 835.522 L
879.642 863 L
cp
S
GR
GS
[0.75 0 0 0.75 0 0.5] CT
10.0 ML
0.667 LW
N
887.2 863 M
887.2 845.154 L
917.432 845.154 L
917.432 863 L
cp
S
GR
GS
[0.75 0 0 0.75 0 0.5] CT
10.0 ML
0.667 LW
N
924.99 863 M
924.99 777.817 L
955.221 777.817 L
955.221 863 L
cp
S
GR
GS
[0.75 0 0 0.75 0 0.5] CT
10.0 ML
0.667 LW
N
962.779 863 M
962.779 778.37 L
993.01 778.37 L
993.01 863 L
cp
S
GR
GS
[0.75 0 0 0.75 0 0.5] CT
10.0 ML
0.667 LW
N
1000.568 863 M
1000.568 830.532 L
1030.8 830.532 L
1030.8 863 L
cp
S
GR
GS
[0.75 0 0 0.75 0 0.5] CT
10.0 ML
0.667 LW
N
1038.358 863 M
1038.358 844.932 L
1068.589 844.932 L
1068.589 863 L
cp
S
GR
GS
[0.75 0 0 0.75 0 0.5] CT
10.0 ML
0.667 LW
N
1076.147 863 M
1076.147 841.356 L
1106.379 841.356 L
1106.379 863 L
cp
S
GR
GS
[0.75 0 0 0.75 0 0.5] CT
10.0 ML
0.667 LW
N
1113.937 863 M
1113.937 845.2 L
1144.168 845.2 L
1144.168 863 L
cp
S
GR
GS
[0.75 0 0 0.75 0 0.5] CT
10.0 ML
0.667 LW
N
1151.726 863 M
1151.726 768.292 L
1181.958 768.292 L
1181.958 863 L
cp
S
GR
GS
[0.75 0 0 0.75 0 0.5] CT
10.0 ML
0.667 LW
N
1189.516 863 M
1189.516 647.999 L
1219.747 647.999 L
1219.747 863 L
cp
S
GR
GS
[0.75 0 0 0.75 0 0.5] CT
10.0 ML
0.667 LW
N
1227.305 863 M
1227.305 765.53 L
1257.537 765.53 L
1257.537 863 L
cp
S
GR
GS
[0.75 0 0 0.75 0 0.5] CT
10.0 ML
0.667 LW
N
1265.095 863 M
1265.095 807.302 L
1295.326 807.302 L
1295.326 863 L
cp
S
GR
GS
[0.75 0 0 0.75 0 0.5] CT
10.0 ML
0.667 LW
N
1302.884 863 M
1302.884 684.515 L
1333.116 684.515 L
1333.116 863 L
cp
S
GR
GS
[0.75 0 0 0.75 0 0.5] CT
10.0 ML
0.667 LW
N
1340.674 863 M
1340.674 645.344 L
1370.905 645.344 L
1370.905 863 L
cp
S
GR
GS
[0.75 0 0 0.75 0 0.5] CT
10.0 ML
0.667 LW
N
1378.463 863 M
1378.463 823.256 L
1408.695 823.256 L
1408.695 863 L
cp
S
GR
GS
[0.75 0 0 0.75 0 0.5] CT
10.0 ML
0.667 LW
N
1416.253 863 M
1416.253 835.965 L
1446.484 835.965 L
1446.484 863 L
cp
S
GR
GS
[0.75 0 0 0.75 0 0.5] CT
10.0 ML
0.667 LW
N
1454.042 863 M
1454.042 792.607 L
1484.274 792.607 L
1484.274 863 L
cp
S
GR
GS
[0.75 0 0 0.75 0 0.5] CT
10.0 ML
0.667 LW
N
1491.832 863 M
1491.832 217.535 L
1522.063 217.535 L
1522.063 863 L
cp
S
GR
GS
[0.75 0 0 0.75 0 0.5] CT
10.0 ML
0.667 LW
N
1529.621 863 M
1529.621 841.656 L
1559.853 841.656 L
1559.853 863 L
cp
S
GR
GS
[0.75 0 0 0.75 0 0.5] CT
10.0 ML
0.667 LW
N
1567.411 863 M
1567.411 827.947 L
1597.642 827.947 L
1597.642 863 L
cp
S
GR
GS
[0.75 0 0 0.75 0 0.5] CT
10.0 ML
0.667 LW
N
1605.2 863 M
1605.2 835.32 L
1635.432 835.32 L
1635.432 863 L
cp
S
GR
GS
[0.75 0 0 0.75 0 0.5] CT
10.0 ML
0.667 LW
N
1642.989 863 M
1642.989 705.886 L
1673.221 705.886 L
1673.221 863 L
cp
S
GR
%%Trailer
%%Pages: 1
%%EOF
