%!PS-Adobe-3.0 EPSF-3.0
%%Creator: (MATLAB, The Mathworks, Inc. Version 9.8.0.1380330 \(R2020a\) Update 2. Operating System: Linux)
%%Title: (/home/ohads/ANPL/papers/research/2021 RAL/Figures/TestCase_1/fig_files/CurrentMergedBelief.eps)
%%CreationDate: 2021-02-21T16:00:17
%%Pages: (atend)
%%BoundingBox:   301    35  1132   692
%%LanguageLevel: 3
%%EndComments
%%BeginProlog
%%BeginResource: procset (Apache XML Graphics Std ProcSet) 1.2 0
%%Version: 1.2 0
%%Copyright: (Copyright 2001-2003,2010 The Apache Software Foundation. License terms: http://www.apache.org/licenses/LICENSE-2.0)
/bd{bind def}bind def
/ld{load def}bd
/GR/grestore ld
/GS/gsave ld
/RM/rmoveto ld
/C/curveto ld
/t/show ld
/L/lineto ld
/ML/setmiterlimit ld
/CT/concat ld
/f/fill ld
/N/newpath ld
/S/stroke ld
/CC/setcmykcolor ld
/A/ashow ld
/cp/closepath ld
/RC/setrgbcolor ld
/LJ/setlinejoin ld
/GC/setgray ld
/LW/setlinewidth ld
/M/moveto ld
/re {4 2 roll M
1 index 0 rlineto
0 exch rlineto
neg 0 rlineto
cp } bd
/_ctm matrix def
/_tm matrix def
/BT { _ctm currentmatrix pop matrix _tm copy pop 0 0 moveto } bd
/ET { _ctm setmatrix } bd
/iTm { _ctm setmatrix _tm concat } bd
/Tm { _tm astore pop iTm 0 0 moveto } bd
/ux 0.0 def
/uy 0.0 def
/F {
  /Tp exch def
  /Tf exch def
  Tf findfont Tp scalefont setfont
  /cf Tf def  /cs Tp def
} bd
/ULS {currentpoint /uy exch def /ux exch def} bd
/ULE {
  /Tcx currentpoint pop def
  gsave
  newpath
  cf findfont cs scalefont dup
  /FontMatrix get 0 get /Ts exch def /FontInfo get dup
  /UnderlinePosition get Ts mul /To exch def
  /UnderlineThickness get Ts mul /Tt exch def
  ux uy To add moveto  Tcx uy To add lineto
  Tt setlinewidth stroke
  grestore
} bd
/OLE {
  /Tcx currentpoint pop def
  gsave
  newpath
  cf findfont cs scalefont dup
  /FontMatrix get 0 get /Ts exch def /FontInfo get dup
  /UnderlinePosition get Ts mul /To exch def
  /UnderlineThickness get Ts mul /Tt exch def
  ux uy To add cs add moveto Tcx uy To add cs add lineto
  Tt setlinewidth stroke
  grestore
} bd
/SOE {
  /Tcx currentpoint pop def
  gsave
  newpath
  cf findfont cs scalefont dup
  /FontMatrix get 0 get /Ts exch def /FontInfo get dup
  /UnderlinePosition get Ts mul /To exch def
  /UnderlineThickness get Ts mul /Tt exch def
  ux uy To add cs 10 mul 26 idiv add moveto Tcx uy To add cs 10 mul 26 idiv add lineto
  Tt setlinewidth stroke
  grestore
} bd
/QT {
/Y22 exch store
/X22 exch store
/Y21 exch store
/X21 exch store
currentpoint
/Y21 load 2 mul add 3 div exch
/X21 load 2 mul add 3 div exch
/X21 load 2 mul /X22 load add 3 div
/Y21 load 2 mul /Y22 load add 3 div
/X22 load /Y22 load curveto
} bd
/SSPD {
dup length /d exch dict def
{
/v exch def
/k exch def
currentpagedevice k known {
/cpdv currentpagedevice k get def
v cpdv ne {
/upd false def
/nullv v type /nulltype eq def
/nullcpdv cpdv type /nulltype eq def
nullv nullcpdv or
{
/upd true def
} {
/sametype v type cpdv type eq def
sametype {
v type /arraytype eq {
/vlen v length def
/cpdvlen cpdv length def
vlen cpdvlen eq {
0 1 vlen 1 sub {
/i exch def
/obj v i get def
/cpdobj cpdv i get def
obj cpdobj ne {
/upd true def
exit
} if
} for
} {
/upd true def
} ifelse
} {
v type /dicttype eq {
v {
/dv exch def
/dk exch def
/cpddv cpdv dk get def
dv cpddv ne {
/upd true def
exit
} if
} forall
} {
/upd true def
} ifelse
} ifelse
} if
} ifelse
upd true eq {
d k v put
} if
} if
} if
} forall
d length 0 gt {
d setpagedevice
} if
} bd
/RE { % /NewFontName [NewEncodingArray] /FontName RE -
  findfont dup length dict begin
  {
    1 index /FID ne
    {def} {pop pop} ifelse
  } forall
  /Encoding exch def
  /FontName 1 index def
  currentdict definefont pop
  end
} bind def
%%EndResource
%%BeginResource: procset (Apache XML Graphics EPS ProcSet) 1.0 0
%%Version: 1.0 0
%%Copyright: (Copyright 2002-2003 The Apache Software Foundation. License terms: http://www.apache.org/licenses/LICENSE-2.0)
/BeginEPSF { %def
/b4_Inc_state save def         % Save state for cleanup
/dict_count countdictstack def % Count objects on dict stack
/op_count count 1 sub def      % Count objects on operand stack
userdict begin                 % Push userdict on dict stack
/showpage { } def              % Redefine showpage, { } = null proc
0 setgray 0 setlinecap         % Prepare graphics state
1 setlinewidth 0 setlinejoin
10 setmiterlimit [ ] 0 setdash newpath
/languagelevel where           % If level not equal to 1 then
{pop languagelevel             % set strokeadjust and
1 ne                           % overprint to their defaults.
{false setstrokeadjust false setoverprint
} if
} if
} bd
/EndEPSF { %def
count op_count sub {pop} repeat            % Clean up stacks
countdictstack dict_count sub {end} repeat
b4_Inc_state restore
} bd
%%EndResource
%FOPBeginFontDict
%%IncludeResource: font Courier-Oblique
%%IncludeResource: font Courier-BoldOblique
%%IncludeResource: font Courier-Bold
%%IncludeResource: font ZapfDingbats
%%IncludeResource: font Symbol
%%IncludeResource: font Helvetica
%%IncludeResource: font Helvetica-Oblique
%%IncludeResource: font Helvetica-Bold
%%IncludeResource: font Helvetica-BoldOblique
%%IncludeResource: font Times-Roman
%%IncludeResource: font Times-Italic
%%IncludeResource: font Times-Bold
%%IncludeResource: font Times-BoldItalic
%%IncludeResource: font Courier
%FOPEndFontDict
%%BeginResource: encoding WinAnsiEncoding
/WinAnsiEncoding [
/.notdef /.notdef /.notdef /.notdef /.notdef
/.notdef /.notdef /.notdef /.notdef /.notdef
/.notdef /.notdef /.notdef /.notdef /.notdef
/.notdef /.notdef /.notdef /.notdef /.notdef
/.notdef /.notdef /.notdef /.notdef /.notdef
/.notdef /.notdef /.notdef /.notdef /.notdef
/.notdef /.notdef /space /exclam /quotedbl
/numbersign /dollar /percent /ampersand /quotesingle
/parenleft /parenright /asterisk /plus /comma
/hyphen /period /slash /zero /one
/two /three /four /five /six
/seven /eight /nine /colon /semicolon
/less /equal /greater /question /at
/A /B /C /D /E
/F /G /H /I /J
/K /L /M /N /O
/P /Q /R /S /T
/U /V /W /X /Y
/Z /bracketleft /backslash /bracketright /asciicircum
/underscore /quoteleft /a /b /c
/d /e /f /g /h
/i /j /k /l /m
/n /o /p /q /r
/s /t /u /v /w
/x /y /z /braceleft /bar
/braceright /asciitilde /bullet /Euro /bullet
/quotesinglbase /florin /quotedblbase /ellipsis /dagger
/daggerdbl /circumflex /perthousand /Scaron /guilsinglleft
/OE /bullet /Zcaron /bullet /bullet
/quoteleft /quoteright /quotedblleft /quotedblright /bullet
/endash /emdash /asciitilde /trademark /scaron
/guilsinglright /oe /bullet /zcaron /Ydieresis
/space /exclamdown /cent /sterling /currency
/yen /brokenbar /section /dieresis /copyright
/ordfeminine /guillemotleft /logicalnot /sfthyphen /registered
/macron /degree /plusminus /twosuperior /threesuperior
/acute /mu /paragraph /middot /cedilla
/onesuperior /ordmasculine /guillemotright /onequarter /onehalf
/threequarters /questiondown /Agrave /Aacute /Acircumflex
/Atilde /Adieresis /Aring /AE /Ccedilla
/Egrave /Eacute /Ecircumflex /Edieresis /Igrave
/Iacute /Icircumflex /Idieresis /Eth /Ntilde
/Ograve /Oacute /Ocircumflex /Otilde /Odieresis
/multiply /Oslash /Ugrave /Uacute /Ucircumflex
/Udieresis /Yacute /Thorn /germandbls /agrave
/aacute /acircumflex /atilde /adieresis /aring
/ae /ccedilla /egrave /eacute /ecircumflex
/edieresis /igrave /iacute /icircumflex /idieresis
/eth /ntilde /ograve /oacute /ocircumflex
/otilde /odieresis /divide /oslash /ugrave
/uacute /ucircumflex /udieresis /yacute /thorn
/ydieresis
] def
%%EndResource
%FOPBeginFontReencode
/Courier-Oblique findfont
dup length dict begin
  {1 index /FID ne {def} {pop pop} ifelse} forall
  /Encoding WinAnsiEncoding def
  currentdict
end
/Courier-Oblique exch definefont pop
/Courier-BoldOblique findfont
dup length dict begin
  {1 index /FID ne {def} {pop pop} ifelse} forall
  /Encoding WinAnsiEncoding def
  currentdict
end
/Courier-BoldOblique exch definefont pop
/Courier-Bold findfont
dup length dict begin
  {1 index /FID ne {def} {pop pop} ifelse} forall
  /Encoding WinAnsiEncoding def
  currentdict
end
/Courier-Bold exch definefont pop
/Helvetica findfont
dup length dict begin
  {1 index /FID ne {def} {pop pop} ifelse} forall
  /Encoding WinAnsiEncoding def
  currentdict
end
/Helvetica exch definefont pop
/Helvetica-Oblique findfont
dup length dict begin
  {1 index /FID ne {def} {pop pop} ifelse} forall
  /Encoding WinAnsiEncoding def
  currentdict
end
/Helvetica-Oblique exch definefont pop
/Helvetica-Bold findfont
dup length dict begin
  {1 index /FID ne {def} {pop pop} ifelse} forall
  /Encoding WinAnsiEncoding def
  currentdict
end
/Helvetica-Bold exch definefont pop
/Helvetica-BoldOblique findfont
dup length dict begin
  {1 index /FID ne {def} {pop pop} ifelse} forall
  /Encoding WinAnsiEncoding def
  currentdict
end
/Helvetica-BoldOblique exch definefont pop
/Times-Roman findfont
dup length dict begin
  {1 index /FID ne {def} {pop pop} ifelse} forall
  /Encoding WinAnsiEncoding def
  currentdict
end
/Times-Roman exch definefont pop
/Times-Italic findfont
dup length dict begin
  {1 index /FID ne {def} {pop pop} ifelse} forall
  /Encoding WinAnsiEncoding def
  currentdict
end
/Times-Italic exch definefont pop
/Times-Bold findfont
dup length dict begin
  {1 index /FID ne {def} {pop pop} ifelse} forall
  /Encoding WinAnsiEncoding def
  currentdict
end
/Times-Bold exch definefont pop
/Times-BoldItalic findfont
dup length dict begin
  {1 index /FID ne {def} {pop pop} ifelse} forall
  /Encoding WinAnsiEncoding def
  currentdict
end
/Times-BoldItalic exch definefont pop
/Courier findfont
dup length dict begin
  {1 index /FID ne {def} {pop pop} ifelse} forall
  /Encoding WinAnsiEncoding def
  currentdict
end
/Courier exch definefont pop
%FOPEndFontReencode
%%EndProlog
%%Page: 1 1
%%PageBoundingBox: 0 0 1440 748
%%BeginPageSetup
[1 0 0 -1 0 748] CT
%%EndPageSetup
GS
[0.75 0 0 0.75 0 0.25] CT
N
0 0 M
1920 0 L
1920 997 L
0 997 L
0 0 L
cp
clip
1 GC
N
0 0 1920 997 re
f
GR
GS
[0.75 0 0 0.75 0 0.25] CT
1 GC
N
0 0 1920 997 re
f
GR
GS
[0.75 0 0 0.75 0 0.25] CT
1 GC
N
479.235 887 M
1508.765 887 L
1508.765 75 L
479.235 75 L
cp
f
GR
GS
[0.75 0 0 0.75 0 0.25] CT
0.149 GC
2 setlinecap
1 LJ
0.667 LW
N
479.235 887 M
1508.765 887 L
S
GR
GS
[0.75 0 0 0.75 0 0.25] CT
0.149 GC
2 setlinecap
1 LJ
0.667 LW
N
622.234 887 M
622.234 876.705 L
S
GR
GS
[0.75 0 0 0.75 0 0.25] CT
0.149 GC
2 setlinecap
1 LJ
0.667 LW
N
826.154 887 M
826.154 876.705 L
S
GR
GS
[0.75 0 0 0.75 0 0.25] CT
0.149 GC
2 setlinecap
1 LJ
0.667 LW
N
1030.073 887 M
1030.073 876.705 L
S
GR
GS
[0.75 0 0 0.75 0 0.25] CT
0.149 GC
2 setlinecap
1 LJ
0.667 LW
N
1233.994 887 M
1233.994 876.705 L
S
GR
GS
[0.75 0 0 0.75 0 0.25] CT
0.149 GC
2 setlinecap
1 LJ
0.667 LW
N
1437.914 887 M
1437.914 876.705 L
S
GR
GS
[0.75 0 0 0.75 466.67514 671.10001] CT
0.149 GC
/Helvetica 24 F
GS
[1 0 0 1 0 0] CT
-12 23 moveto 
1 -1 scale
(-5) t 
GR
GR
GS
[0.75 0 0 0.75 619.61517 671.10001] CT
0.149 GC
/Helvetica 24 F
GS
[1 0 0 1 0 0] CT
-8 23 moveto 
1 -1 scale
(0) t 
GR
GR
GS
[0.75 0 0 0.75 772.55511 671.10001] CT
0.149 GC
/Helvetica 24 F
GS
[1 0 0 1 0 0] CT
-8 23 moveto 
1 -1 scale
(5) t 
GR
GR
GS
[0.75 0 0 0.75 925.49515 671.10001] CT
0.149 GC
/Helvetica 24 F
GS
[1 0 0 1 0 0] CT
-15.5 23 moveto 
1 -1 scale
(10) t 
GR
GR
GS
[0.75 0 0 0.75 1078.43518 671.10001] CT
0.149 GC
/Helvetica 24 F
GS
[1 0 0 1 0 0] CT
-15.5 23 moveto 
1 -1 scale
(15) t 
GR
GR
GS
[0.75 0 0 0.75 745.50037 693.84999] CT
0.149 GC
/Helvetica 26.4 F
GS
[1 0 0 1 0 0] CT
-16 25 moveto 
1 -1 scale
(Xs) t 
GR
GR
GS
[0.75 0 0 0.75 0 0.25] CT
0.149 GC
2 setlinecap
1 LJ
0.667 LW
N
479.235 887 M
479.235 75 L
S
GR
GS
[0.75 0 0 0.75 0 0.25] CT
0.149 GC
2 setlinecap
1 LJ
0.667 LW
N
479.235 874.227 M
489.53 874.227 L
S
GR
GS
[0.75 0 0 0.75 0 0.25] CT
0.149 GC
2 setlinecap
1 LJ
0.667 LW
N
479.235 792.659 M
489.53 792.659 L
S
GR
GS
[0.75 0 0 0.75 0 0.25] CT
0.149 GC
2 setlinecap
1 LJ
0.667 LW
N
479.235 711.091 M
489.53 711.091 L
S
GR
GS
[0.75 0 0 0.75 0 0.25] CT
0.149 GC
2 setlinecap
1 LJ
0.667 LW
N
479.235 629.523 M
489.53 629.523 L
S
GR
GS
[0.75 0 0 0.75 0 0.25] CT
0.149 GC
2 setlinecap
1 LJ
0.667 LW
N
479.235 547.955 M
489.53 547.955 L
S
GR
GS
[0.75 0 0 0.75 0 0.25] CT
0.149 GC
2 setlinecap
1 LJ
0.667 LW
N
479.235 466.387 M
489.53 466.387 L
S
GR
GS
[0.75 0 0 0.75 0 0.25] CT
0.149 GC
2 setlinecap
1 LJ
0.667 LW
N
479.235 384.819 M
489.53 384.819 L
S
GR
GS
[0.75 0 0 0.75 0 0.25] CT
0.149 GC
2 setlinecap
1 LJ
0.667 LW
N
479.235 303.251 M
489.53 303.251 L
S
GR
GS
[0.75 0 0 0.75 0 0.25] CT
0.149 GC
2 setlinecap
1 LJ
0.667 LW
N
479.235 221.683 M
489.53 221.683 L
S
GR
GS
[0.75 0 0 0.75 0 0.25] CT
0.149 GC
2 setlinecap
1 LJ
0.667 LW
N
479.235 140.115 M
489.53 140.115 L
S
GR
GS
[0.75 0 0 0.75 353.82637 655.92001] CT
0.149 GC
/Helvetica 24 F
GS
[1 0 0 1 0 0] CT
-40 8.5 moveto 
1 -1 scale
(-10) t 
GR
GR
GS
[0.75 0 0 0.75 353.82637 594.74402] CT
0.149 GC
/Helvetica 24 F
GS
[1 0 0 1 0 0] CT
-24 8.5 moveto 
1 -1 scale
(-8) t 
GR
GR
GS
[0.75 0 0 0.75 353.82637 533.56802] CT
0.149 GC
/Helvetica 24 F
GS
[1 0 0 1 0 0] CT
-24 8.5 moveto 
1 -1 scale
(-6) t 
GR
GR
GS
[0.75 0 0 0.75 353.82637 472.39203] CT
0.149 GC
/Helvetica 24 F
GS
[1 0 0 1 0 0] CT
-24 8.5 moveto 
1 -1 scale
(-4) t 
GR
GR
GS
[0.75 0 0 0.75 353.82637 411.21603] CT
0.149 GC
/Helvetica 24 F
GS
[1 0 0 1 0 0] CT
-24 8.5 moveto 
1 -1 scale
(-2) t 
GR
GR
GS
[0.75 0 0 0.75 353.82637 350.04002] CT
0.149 GC
/Helvetica 24 F
GS
[1 0 0 1 0 0] CT
-16 8.5 moveto 
1 -1 scale
(0) t 
GR
GR
GS
[0.75 0 0 0.75 353.82637 288.86402] CT
0.149 GC
/Helvetica 24 F
GS
[1 0 0 1 0 0] CT
-16 8.5 moveto 
1 -1 scale
(2) t 
GR
GR
GS
[0.75 0 0 0.75 353.82637 227.688] CT
0.149 GC
/Helvetica 24 F
GS
[1 0 0 1 0 0] CT
-16 8.5 moveto 
1 -1 scale
(4) t 
GR
GR
GS
[0.75 0 0 0.75 353.82637 166.51201] CT
0.149 GC
/Helvetica 24 F
GS
[1 0 0 1 0 0] CT
-16 8.5 moveto 
1 -1 scale
(6) t 
GR
GR
GS
[0.75 0 0 0.75 353.82637 105.33601] CT
0.149 GC
/Helvetica 24 F
GS
[1 0 0 1 0 0] CT
-16 8.5 moveto 
1 -1 scale
(8) t 
GR
GR
GS
[0 -0.75 0.75 0 320.82639 360.99973] CT
0.149 GC
/Helvetica 26.4 F
GS
[1 0 0 1 0 0] CT
-15 -7 moveto 
1 -1 scale
(Ys) t 
GR
GR
GS
[0.75 0 0 0.75 833.7312 319.45202] CT
1 0 0 RC
N
0 -26.66 M
-23.088 13.33 L
23.088 13.33 L
cp
f
GR
GS
[0.75 0 0 0.75 833.7312 319.45202] CT
0 0 1 RC
10.0 ML
0.667 LW
N
0 -26.66 M
-23.088 13.33 L
23.088 13.33 L
cp
S
GR
GS
[0.75 0 0 0.75 680.79117 105.33601] CT
1 0 0 RC
N
/f-1996900118{0 -26.66 M
-23.088 13.33 L
23.088 13.33 L
cp}def
f-1996900118
f
GR
GS
[0.75 0 0 0.75 680.79117 105.33601] CT
0 0 1 RC
10.0 ML
0.667 LW
N
0 -26.66 M
-23.088 13.33 L
23.088 13.33 L
cp
S
GR
GS
[0.75 0 0 0.75 833.7312 258.276] CT
1 0 0 RC
N
f-1996900118
f
GR
GS
[0.75 0 0 0.75 833.7312 258.276] CT
0 0 1 RC
10.0 ML
0.667 LW
N
0 -26.66 M
-23.088 13.33 L
23.088 13.33 L
cp
S
GR
GS
[0.75 0 0 0.75 772.55511 105.33601] CT
1 0 0 RC
N
f-1996900118
f
GR
GS
[0.75 0 0 0.75 772.55511 105.33601] CT
0 0 1 RC
10.0 ML
0.667 LW
N
0 -26.66 M
-23.088 13.33 L
23.088 13.33 L
cp
S
GR
GS
[0.75 0 0 0.75 864.31915 288.86402] CT
1 0 0 RC
N
f-1996900118
f
GR
GS
[0.75 0 0 0.75 864.31915 288.86402] CT
0 0 1 RC
10.0 ML
0.667 LW
N
0 -26.66 M
-23.088 13.33 L
23.088 13.33 L
cp
S
GR
GS
[0.75 0 0 0.75 803.14316 105.33601] CT
1 0 0 RC
N
f-1996900118
f
GR
GS
[0.75 0 0 0.75 803.14316 105.33601] CT
0 0 1 RC
10.0 ML
0.667 LW
N
0 -26.66 M
-23.088 13.33 L
23.088 13.33 L
cp
S
GR
GS
[0.75 0 0 0.75 833.7312 166.51201] CT
1 0 0 RC
N
f-1996900118
f
GR
GS
[0.75 0 0 0.75 833.7312 166.51201] CT
0 0 1 RC
10.0 ML
0.667 LW
N
0 -26.66 M
-23.088 13.33 L
23.088 13.33 L
cp
S
GR
GS
[0.75 0 0 0.75 803.14316 319.45202] CT
1 0 0 RC
N
f-1996900118
f
GR
GS
[0.75 0 0 0.75 803.14316 319.45202] CT
0 0 1 RC
10.0 ML
0.667 LW
N
0 -26.66 M
-23.088 13.33 L
23.088 13.33 L
cp
S
GR
GS
[0.75 0 0 0.75 797.11249 505.89983] CT
0 0 1 RC
10.0 ML
0.667 LW
N
0 -4 M
0 4 L
-4 0 M
4 0 L
-2.828 -2.828 M
2.828 2.828 L
-2.828 2.828 M
2.828 -2.828 L
S
GR
GS
[0.75 0 0 0.75 0 0.25] CT
0 1 1 RC
1 LJ
0.667 LW
N
1066.626 674.132 M
1066.895 674.2 L
1066.626 674.267 L
S
GR
GS
[0.75 0 0 0.75 0 0.25] CT
0 1 1 RC
1 LJ
0.667 LW
N
1062.817 674.2 M
1066.895 674.2 L
S
GR
GS
[0.75 0 0 0.75 0 0.25] CT
0 0 1 RC
1 LJ
6.667 LW
N
1112.963 624.054 M
1099.005 613.247 L
1082.773 606.27 L
1065.288 603.561 L
1047.647 605.291 L
1030.959 611.35 L
1016.273 621.359 L
1004.512 634.688 L
996.414 650.499 L
992.488 667.799 L
992.982 685.502 L
997.863 702.495 L
1006.826 717.71 L
1019.306 730.19 L
1034.521 739.153 L
1051.514 744.035 L
1069.216 744.528 L
1086.517 740.602 L
1102.328 732.505 L
1115.657 720.743 L
1125.666 706.057 L
1131.725 689.37 L
1133.455 671.729 L
1130.746 654.244 L
1123.77 638.012 L
1112.963 624.054 L
S
GR
GS
[0.75 0 0 0.75 774.09842 521.12148] CT
0 0 1 RC
10.0 ML
0.667 LW
N
0 -4 M
0 4 L
-4 0 M
4 0 L
-2.828 -2.828 M
2.828 2.828 L
-2.828 2.828 M
2.828 -2.828 L
S
GR
GS
[0.75 0 0 0.75 0 0.25] CT
0 1 1 RC
1 LJ
0.667 LW
N
1035.94 694.428 M
1036.21 694.495 L
1035.94 694.563 L
S
GR
GS
[0.75 0 0 0.75 0 0.25] CT
0 1 1 RC
1 LJ
0.667 LW
N
1032.131 694.495 M
1036.21 694.495 L
S
GR
GS
[0.75 0 0 0.75 0 0.25] CT
0 0 1 RC
1 LJ
6.667 LW
N
1081.921 744.286 M
1067.94 755.138 L
1051.709 762.18 L
1034.248 764.969 L
1016.654 763.33 L
1000.032 757.366 L
985.427 747.451 L
973.757 734.209 L
965.755 718.471 L
961.923 701.227 L
962.503 683.56 L
967.458 666.581 L
976.476 651.355 L
988.992 638.84 L
1004.218 629.821 L
1021.198 624.867 L
1038.865 624.288 L
1056.109 628.12 L
1071.846 636.122 L
1085.088 647.793 L
1095.002 662.397 L
1100.966 679.019 L
1102.605 696.613 L
1099.816 714.074 L
1092.774 730.305 L
1081.921 744.286 L
S
GR
GS
[0.75 0 0 0.75 767.23888 457.74373] CT
0 0 1 RC
10.0 ML
0.667 LW
N
0 -4 M
0 4 L
-4 0 M
4 0 L
-2.828 -2.828 M
2.828 2.828 L
-2.828 2.828 M
2.828 -2.828 L
S
GR
GS
[0.75 0 0 0.75 0 0.25] CT
0 1 1 RC
1 LJ
0.667 LW
N
1026.794 609.924 M
1027.064 609.992 L
1026.794 610.059 L
S
GR
GS
[0.75 0 0 0.75 0 0.25] CT
0 1 1 RC
1 LJ
0.667 LW
N
1022.985 609.992 M
1027.064 609.992 L
S
GR
GS
[0.75 0 0 0.75 0 0.25] CT
0 0 1 RC
1 LJ
6.667 LW
N
1072.888 560.091 M
1058.938 549.276 L
1042.729 542.276 L
1025.279 539.531 L
1007.685 541.213 L
991.053 547.217 L
976.427 557.166 L
964.727 570.433 L
956.687 586.186 L
952.813 603.435 L
953.348 621.096 L
958.258 638.059 L
967.236 653.259 L
979.716 665.74 L
994.916 674.718 L
1011.879 679.629 L
1029.54 680.164 L
1046.789 676.291 L
1062.542 668.251 L
1075.81 656.551 L
1085.759 641.925 L
1091.763 625.293 L
1093.446 607.7 L
1090.701 590.25 L
1083.702 574.041 L
1072.888 560.091 L
S
GR
GS
[0.75 0 0 0.75 806.47247 466.63098] CT
0 0 1 RC
10.0 ML
0.667 LW
N
0 -4 M
0 4 L
-4 0 M
4 0 L
-2.828 -2.828 M
2.828 2.828 L
-2.828 2.828 M
2.828 -2.828 L
S
GR
GS
[0.75 0 0 0.75 0 0.25] CT
0 1 1 RC
1 LJ
0.667 LW
N
1079.106 621.774 M
1079.375 621.841 L
1079.106 621.909 L
S
GR
GS
[0.75 0 0 0.75 0 0.25] CT
0 1 1 RC
1 LJ
0.667 LW
N
1075.297 621.841 M
1079.375 621.841 L
S
GR
GS
[0.75 0 0 0.75 0 0.25] CT
0 0 1 RC
1 LJ
6.667 LW
N
1125.12 572.08 M
1111.18 561.253 L
1094.985 554.234 L
1077.553 551.462 L
1059.98 553.112 L
1043.369 559.081 L
1028.764 568.994 L
1017.083 582.227 L
1009.059 597.949 L
1005.198 615.172 L
1005.741 632.815 L
1010.655 649.768 L
1019.63 664.966 L
1032.103 677.455 L
1047.29 686.449 L
1064.237 691.383 L
1081.878 691.948 L
1099.107 688.108 L
1114.839 680.104 L
1128.086 668.44 L
1138.017 653.847 L
1144.006 637.243 L
1145.679 619.672 L
1142.929 602.237 L
1135.929 586.033 L
1125.12 572.08 L
S
GR
GS
[0.75 0 0 0.75 690.70834 538.09343] CT
0 0 1 RC
10.0 ML
0.667 LW
N
0 -4 M
0 4 L
-4 0 M
4 0 L
-2.828 -2.828 M
2.828 2.828 L
-2.828 2.828 M
2.828 -2.828 L
S
GR
GS
[0.75 0 0 0.75 0 0.25] CT
0 1 1 RC
1 LJ
0.667 LW
N
924.269 719.063 M
924.436 719.232 L
924.209 719.162 L
S
GR
GS
[0.75 0 0 0.75 0 0.25] CT
0 1 1 RC
1 LJ
0.667 LW
N
920.944 717.125 M
924.436 719.232 L
S
GR
GS
[0.75 0 0 0.75 0 0.25] CT
0 0 1 RC
1 LJ
6.667 LW
N
903.992 785.468 M
887.529 779.105 L
873.165 768.847 L
861.803 755.34 L
854.157 739.431 L
850.708 722.121 L
851.672 704.497 L
856.989 687.666 L
866.324 672.687 L
879.091 660.499 L
894.488 651.87 L
911.548 647.34 L
929.198 647.196 L
946.329 651.445 L
961.865 659.821 L
974.83 671.798 L
984.409 686.623 L
990.001 703.365 L
991.254 720.97 L
988.088 738.335 L
980.704 754.366 L
969.565 768.058 L
955.371 778.549 L
939.013 785.181 L
921.521 787.536 L
903.992 785.468 L
S
GR
GS
[0.75 0 0 0.75 690.6053 589.37125] CT
0 0 1 RC
10.0 ML
0.667 LW
N
0 -4 M
0 4 L
-4 0 M
4 0 L
-2.828 -2.828 M
2.828 2.828 L
-2.828 2.828 M
2.828 -2.828 L
S
GR
GS
[0.75 0 0 0.75 0 0.25] CT
0 1 1 RC
1 LJ
0.667 LW
N
924.131 787.434 M
924.299 787.602 L
924.072 787.532 L
S
GR
GS
[0.75 0 0 0.75 0 0.25] CT
0 1 1 RC
1 LJ
0.667 LW
N
920.807 785.495 M
924.299 787.602 L
S
GR
GS
[0.75 0 0 0.75 0 0.25] CT
0 0 1 RC
1 LJ
6.667 LW
N
901.229 853.133 M
885.023 846.139 L
871.066 835.334 L
860.234 821.399 L
853.208 805.207 L
850.43 787.776 L
852.074 770.203 L
858.036 753.59 L
867.943 738.982 L
881.171 727.296 L
896.89 719.267 L
914.111 715.4 L
931.754 715.937 L
948.708 720.845 L
963.909 729.814 L
976.402 742.283 L
985.402 757.466 L
990.343 774.411 L
990.915 792.052 L
987.082 809.281 L
979.084 825.016 L
967.425 838.267 L
952.836 848.203 L
936.235 854.198 L
918.665 855.877 L
901.229 853.133 L
S
GR
GS
[0.75 0 0 0.75 0 0.25] CT
1 GC
N
/f524407426{1498 159 M
1498 86 L
1326 86 L
1326 159 L
cp}def
f524407426
f
GR
GS
[0.75 0 0 0.75 1029.75 76.29592] CT
/Helvetica-Bold 21.6 F
GS
[1 0 0 1 0 0] CT
0 7.5 moveto 
1 -1 scale
(LandMark) t 
GR
GR
GS
[0.75 0 0 0.75 1012.5 76.29592] CT
1 0 0 RC
N
/f-1392163105{0 -14.396 M
-12.467 7.198 L
12.467 7.198 L
cp}def
f-1392163105
f
GR
GS
[0.75 0 0 0.75 1012.5 76.29592] CT
0 0 1 RC
10.0 ML
0.667 LW
N
0 -14.396 M
-12.467 7.198 L
12.467 7.198 L
cp
S
GR
GS
[0.75 0 0 0.75 1029.75 106.75] CT
/Helvetica-Bold 21.6 F
GS
[1 0 0 1 0 0] CT
0 0 moveto 
1 -1 scale
(b) t 
GR
GR
GS
[0.75 0 0 0.75 1041.75 99.25] CT
/Helvetica-Bold 17.28 F
GS
[1 0 0 1 0 0] CT
0 0 moveto 
1 -1 scale
(-) t 
GR
GR
GS
[0.75 0 0 0.75 1047.75 106.75] CT
/Helvetica-Bold 21.6 F
GS
[1 0 0 1 0 0] CT
0 0 moveto 
1 -1 scale
([X) t 
GR
GR
GS
[0.75 0 0 0.75 1068 114.25] CT
/Helvetica-Bold 17.28 F
GS
[1 0 0 1 0 0] CT
0 0 moveto 
1 -1 scale
(k) t 
GR
GR
GS
[0.75 0 0 0.75 1077 106.75] CT
/Helvetica-Bold 21.6 F
GS
[1 0 0 1 0 0] CT
0 0 moveto 
1 -1 scale
(]) t 
GR
GR
GS
[0.75 0 0 0.75 0 0.25] CT
0 0 1 RC
1 LJ
6.667 LW
N
1330 136.156 M
1370 136.156 L
S
GR
GS
[0.75 0 0 0.75 0 0.25] CT
0.149 GC
10.0 ML
0.667 LW
N
1326 159 M
1326 86 L
1498 86 L
1498 159 L
cp
S
GR
%%Trailer
%%Pages: 1
%%EOF
