%!PS-Adobe-3.0 EPSF-3.0
%%Creator: (MATLAB, The Mathworks, Inc. Version 9.8.0.1380330 \(R2020a\) Update 2. Operating System: Linux)
%%Title: (/home/ohads/ANPL/papers/research/2021 RAL/Figures/TestCase_1/fig_files/Robots_estimation_k_4.eps)
%%CreationDate: 2021-02-21T16:00:35
%%Pages: (atend)
%%BoundingBox:   274    16  1109   674
%%LanguageLevel: 3
%%EndComments
%%BeginProlog
%%BeginResource: procset (Apache XML Graphics Std ProcSet) 1.2 0
%%Version: 1.2 0
%%Copyright: (Copyright 2001-2003,2010 The Apache Software Foundation. License terms: http://www.apache.org/licenses/LICENSE-2.0)
/bd{bind def}bind def
/ld{load def}bd
/GR/grestore ld
/GS/gsave ld
/RM/rmoveto ld
/C/curveto ld
/t/show ld
/L/lineto ld
/ML/setmiterlimit ld
/CT/concat ld
/f/fill ld
/N/newpath ld
/S/stroke ld
/CC/setcmykcolor ld
/A/ashow ld
/cp/closepath ld
/RC/setrgbcolor ld
/LJ/setlinejoin ld
/GC/setgray ld
/LW/setlinewidth ld
/M/moveto ld
/re {4 2 roll M
1 index 0 rlineto
0 exch rlineto
neg 0 rlineto
cp } bd
/_ctm matrix def
/_tm matrix def
/BT { _ctm currentmatrix pop matrix _tm copy pop 0 0 moveto } bd
/ET { _ctm setmatrix } bd
/iTm { _ctm setmatrix _tm concat } bd
/Tm { _tm astore pop iTm 0 0 moveto } bd
/ux 0.0 def
/uy 0.0 def
/F {
  /Tp exch def
  /Tf exch def
  Tf findfont Tp scalefont setfont
  /cf Tf def  /cs Tp def
} bd
/ULS {currentpoint /uy exch def /ux exch def} bd
/ULE {
  /Tcx currentpoint pop def
  gsave
  newpath
  cf findfont cs scalefont dup
  /FontMatrix get 0 get /Ts exch def /FontInfo get dup
  /UnderlinePosition get Ts mul /To exch def
  /UnderlineThickness get Ts mul /Tt exch def
  ux uy To add moveto  Tcx uy To add lineto
  Tt setlinewidth stroke
  grestore
} bd
/OLE {
  /Tcx currentpoint pop def
  gsave
  newpath
  cf findfont cs scalefont dup
  /FontMatrix get 0 get /Ts exch def /FontInfo get dup
  /UnderlinePosition get Ts mul /To exch def
  /UnderlineThickness get Ts mul /Tt exch def
  ux uy To add cs add moveto Tcx uy To add cs add lineto
  Tt setlinewidth stroke
  grestore
} bd
/SOE {
  /Tcx currentpoint pop def
  gsave
  newpath
  cf findfont cs scalefont dup
  /FontMatrix get 0 get /Ts exch def /FontInfo get dup
  /UnderlinePosition get Ts mul /To exch def
  /UnderlineThickness get Ts mul /Tt exch def
  ux uy To add cs 10 mul 26 idiv add moveto Tcx uy To add cs 10 mul 26 idiv add lineto
  Tt setlinewidth stroke
  grestore
} bd
/QT {
/Y22 exch store
/X22 exch store
/Y21 exch store
/X21 exch store
currentpoint
/Y21 load 2 mul add 3 div exch
/X21 load 2 mul add 3 div exch
/X21 load 2 mul /X22 load add 3 div
/Y21 load 2 mul /Y22 load add 3 div
/X22 load /Y22 load curveto
} bd
/SSPD {
dup length /d exch dict def
{
/v exch def
/k exch def
currentpagedevice k known {
/cpdv currentpagedevice k get def
v cpdv ne {
/upd false def
/nullv v type /nulltype eq def
/nullcpdv cpdv type /nulltype eq def
nullv nullcpdv or
{
/upd true def
} {
/sametype v type cpdv type eq def
sametype {
v type /arraytype eq {
/vlen v length def
/cpdvlen cpdv length def
vlen cpdvlen eq {
0 1 vlen 1 sub {
/i exch def
/obj v i get def
/cpdobj cpdv i get def
obj cpdobj ne {
/upd true def
exit
} if
} for
} {
/upd true def
} ifelse
} {
v type /dicttype eq {
v {
/dv exch def
/dk exch def
/cpddv cpdv dk get def
dv cpddv ne {
/upd true def
exit
} if
} forall
} {
/upd true def
} ifelse
} ifelse
} if
} ifelse
upd true eq {
d k v put
} if
} if
} if
} forall
d length 0 gt {
d setpagedevice
} if
} bd
/RE { % /NewFontName [NewEncodingArray] /FontName RE -
  findfont dup length dict begin
  {
    1 index /FID ne
    {def} {pop pop} ifelse
  } forall
  /Encoding exch def
  /FontName 1 index def
  currentdict definefont pop
  end
} bind def
%%EndResource
%%BeginResource: procset (Apache XML Graphics EPS ProcSet) 1.0 0
%%Version: 1.0 0
%%Copyright: (Copyright 2002-2003 The Apache Software Foundation. License terms: http://www.apache.org/licenses/LICENSE-2.0)
/BeginEPSF { %def
/b4_Inc_state save def         % Save state for cleanup
/dict_count countdictstack def % Count objects on dict stack
/op_count count 1 sub def      % Count objects on operand stack
userdict begin                 % Push userdict on dict stack
/showpage { } def              % Redefine showpage, { } = null proc
0 setgray 0 setlinecap         % Prepare graphics state
1 setlinewidth 0 setlinejoin
10 setmiterlimit [ ] 0 setdash newpath
/languagelevel where           % If level not equal to 1 then
{pop languagelevel             % set strokeadjust and
1 ne                           % overprint to their defaults.
{false setstrokeadjust false setoverprint
} if
} if
} bd
/EndEPSF { %def
count op_count sub {pop} repeat            % Clean up stacks
countdictstack dict_count sub {end} repeat
b4_Inc_state restore
} bd
%%EndResource
%FOPBeginFontDict
%%IncludeResource: font Courier-Oblique
%%IncludeResource: font Courier-BoldOblique
%%IncludeResource: font Courier-Bold
%%IncludeResource: font ZapfDingbats
%%IncludeResource: font Symbol
%%IncludeResource: font Helvetica
%%IncludeResource: font Helvetica-Oblique
%%IncludeResource: font Helvetica-Bold
%%IncludeResource: font Helvetica-BoldOblique
%%IncludeResource: font Times-Roman
%%IncludeResource: font Times-Italic
%%IncludeResource: font Times-Bold
%%IncludeResource: font Times-BoldItalic
%%IncludeResource: font Courier
%FOPEndFontDict
%%BeginResource: encoding WinAnsiEncoding
/WinAnsiEncoding [
/.notdef /.notdef /.notdef /.notdef /.notdef
/.notdef /.notdef /.notdef /.notdef /.notdef
/.notdef /.notdef /.notdef /.notdef /.notdef
/.notdef /.notdef /.notdef /.notdef /.notdef
/.notdef /.notdef /.notdef /.notdef /.notdef
/.notdef /.notdef /.notdef /.notdef /.notdef
/.notdef /.notdef /space /exclam /quotedbl
/numbersign /dollar /percent /ampersand /quotesingle
/parenleft /parenright /asterisk /plus /comma
/hyphen /period /slash /zero /one
/two /three /four /five /six
/seven /eight /nine /colon /semicolon
/less /equal /greater /question /at
/A /B /C /D /E
/F /G /H /I /J
/K /L /M /N /O
/P /Q /R /S /T
/U /V /W /X /Y
/Z /bracketleft /backslash /bracketright /asciicircum
/underscore /quoteleft /a /b /c
/d /e /f /g /h
/i /j /k /l /m
/n /o /p /q /r
/s /t /u /v /w
/x /y /z /braceleft /bar
/braceright /asciitilde /bullet /Euro /bullet
/quotesinglbase /florin /quotedblbase /ellipsis /dagger
/daggerdbl /circumflex /perthousand /Scaron /guilsinglleft
/OE /bullet /Zcaron /bullet /bullet
/quoteleft /quoteright /quotedblleft /quotedblright /bullet
/endash /emdash /asciitilde /trademark /scaron
/guilsinglright /oe /bullet /zcaron /Ydieresis
/space /exclamdown /cent /sterling /currency
/yen /brokenbar /section /dieresis /copyright
/ordfeminine /guillemotleft /logicalnot /sfthyphen /registered
/macron /degree /plusminus /twosuperior /threesuperior
/acute /mu /paragraph /middot /cedilla
/onesuperior /ordmasculine /guillemotright /onequarter /onehalf
/threequarters /questiondown /Agrave /Aacute /Acircumflex
/Atilde /Adieresis /Aring /AE /Ccedilla
/Egrave /Eacute /Ecircumflex /Edieresis /Igrave
/Iacute /Icircumflex /Idieresis /Eth /Ntilde
/Ograve /Oacute /Ocircumflex /Otilde /Odieresis
/multiply /Oslash /Ugrave /Uacute /Ucircumflex
/Udieresis /Yacute /Thorn /germandbls /agrave
/aacute /acircumflex /atilde /adieresis /aring
/ae /ccedilla /egrave /eacute /ecircumflex
/edieresis /igrave /iacute /icircumflex /idieresis
/eth /ntilde /ograve /oacute /ocircumflex
/otilde /odieresis /divide /oslash /ugrave
/uacute /ucircumflex /udieresis /yacute /thorn
/ydieresis
] def
%%EndResource
%FOPBeginFontReencode
/Courier-Oblique findfont
dup length dict begin
  {1 index /FID ne {def} {pop pop} ifelse} forall
  /Encoding WinAnsiEncoding def
  currentdict
end
/Courier-Oblique exch definefont pop
/Courier-BoldOblique findfont
dup length dict begin
  {1 index /FID ne {def} {pop pop} ifelse} forall
  /Encoding WinAnsiEncoding def
  currentdict
end
/Courier-BoldOblique exch definefont pop
/Courier-Bold findfont
dup length dict begin
  {1 index /FID ne {def} {pop pop} ifelse} forall
  /Encoding WinAnsiEncoding def
  currentdict
end
/Courier-Bold exch definefont pop
/Helvetica findfont
dup length dict begin
  {1 index /FID ne {def} {pop pop} ifelse} forall
  /Encoding WinAnsiEncoding def
  currentdict
end
/Helvetica exch definefont pop
/Helvetica-Oblique findfont
dup length dict begin
  {1 index /FID ne {def} {pop pop} ifelse} forall
  /Encoding WinAnsiEncoding def
  currentdict
end
/Helvetica-Oblique exch definefont pop
/Helvetica-Bold findfont
dup length dict begin
  {1 index /FID ne {def} {pop pop} ifelse} forall
  /Encoding WinAnsiEncoding def
  currentdict
end
/Helvetica-Bold exch definefont pop
/Helvetica-BoldOblique findfont
dup length dict begin
  {1 index /FID ne {def} {pop pop} ifelse} forall
  /Encoding WinAnsiEncoding def
  currentdict
end
/Helvetica-BoldOblique exch definefont pop
/Times-Roman findfont
dup length dict begin
  {1 index /FID ne {def} {pop pop} ifelse} forall
  /Encoding WinAnsiEncoding def
  currentdict
end
/Times-Roman exch definefont pop
/Times-Italic findfont
dup length dict begin
  {1 index /FID ne {def} {pop pop} ifelse} forall
  /Encoding WinAnsiEncoding def
  currentdict
end
/Times-Italic exch definefont pop
/Times-Bold findfont
dup length dict begin
  {1 index /FID ne {def} {pop pop} ifelse} forall
  /Encoding WinAnsiEncoding def
  currentdict
end
/Times-Bold exch definefont pop
/Times-BoldItalic findfont
dup length dict begin
  {1 index /FID ne {def} {pop pop} ifelse} forall
  /Encoding WinAnsiEncoding def
  currentdict
end
/Times-BoldItalic exch definefont pop
/Courier findfont
dup length dict begin
  {1 index /FID ne {def} {pop pop} ifelse} forall
  /Encoding WinAnsiEncoding def
  currentdict
end
/Courier exch definefont pop
%FOPEndFontReencode
%%EndProlog
%%Page: 1 1
%%PageBoundingBox: 0 0 1390 728
%%BeginPageSetup
[1 0 0 -1 0 728] CT
%%EndPageSetup
GS
[0.75 0 0 0.75 0 0.5] CT
1 GC
N
0 0 1853 970 re
f
GR
GS
[0.75 0 0 0.75 0 0.5] CT
1 GC
N
0 0 1853 970 re
f
GR
GS
[0.75 0 0 0.75 0 0.5] CT
1 GC
N
458.182 863 M
1459.818 863 L
1459.818 73 L
458.182 73 L
cp
f
GR
GS
[0.75 0 0 0.75 0 0.5] CT
0.149 GC
2 setlinecap
1 LJ
0.667 LW
N
458.182 863 M
1459.818 863 L
S
GR
GS
[0.75 0 0 0.75 0 0.5] CT
0.149 GC
2 setlinecap
1 LJ
0.667 LW
N
458.182 863 M
458.182 852.984 L
S
GR
GS
[0.75 0 0 0.75 0 0.5] CT
0.149 GC
2 setlinecap
1 LJ
0.667 LW
N
708.591 863 M
708.591 852.984 L
S
GR
GS
[0.75 0 0 0.75 0 0.5] CT
0.149 GC
2 setlinecap
1 LJ
0.667 LW
N
959 863 M
959 852.984 L
S
GR
GS
[0.75 0 0 0.75 0 0.5] CT
0.149 GC
2 setlinecap
1 LJ
0.667 LW
N
1209.409 863 M
1209.409 852.984 L
S
GR
GS
[0.75 0 0 0.75 0 0.5] CT
0.149 GC
2 setlinecap
1 LJ
0.667 LW
N
1459.818 863 M
1459.818 852.984 L
S
GR
GS
[0.75 0 0 0.75 343.63651 654.74998] CT
0.149 GC
/Helvetica 33.333 F
GS
[1 0 0 1 0 0] CT
-17 31 moveto 
1 -1 scale
(-5) t 
GR
GR
GS
[0.75 0 0 0.75 531.44325 654.74998] CT
0.149 GC
/Helvetica 33.333 F
GS
[1 0 0 1 0 0] CT
-11 31 moveto 
1 -1 scale
(0) t 
GR
GR
GS
[0.75 0 0 0.75 719.25 654.74998] CT
0.149 GC
/Helvetica 33.333 F
GS
[1 0 0 1 0 0] CT
-11 31 moveto 
1 -1 scale
(5) t 
GR
GR
GS
[0.75 0 0 0.75 907.05679 654.74998] CT
0.149 GC
/Helvetica 33.333 F
GS
[1 0 0 1 0 0] CT
-21.5 31 moveto 
1 -1 scale
(10) t 
GR
GR
GS
[0.75 0 0 0.75 1094.86349 654.74998] CT
0.149 GC
/Helvetica 33.333 F
GS
[1 0 0 1 0 0] CT
-21.5 31 moveto 
1 -1 scale
(15) t 
GR
GR
GS
[0.75 0 0 0.75 719.25037 685.00002] CT
0.149 GC
/Helvetica 36.667 F
GS
[1 0 0 1 0 0] CT
-22.5 35 moveto 
1 -1 scale
(Xs) t 
GR
GR
GS
[0.75 0 0 0.75 0 0.5] CT
0.149 GC
2 setlinecap
1 LJ
0.667 LW
N
458.182 863 M
458.182 73 L
S
GR
GS
[0.75 0 0 0.75 0 0.5] CT
0.149 GC
2 setlinecap
1 LJ
0.667 LW
N
458.182 817.191 M
468.198 817.191 L
S
GR
GS
[0.75 0 0 0.75 0 0.5] CT
0.149 GC
2 setlinecap
1 LJ
0.667 LW
N
458.182 717.028 M
468.198 717.028 L
S
GR
GS
[0.75 0 0 0.75 0 0.5] CT
0.149 GC
2 setlinecap
1 LJ
0.667 LW
N
458.182 616.864 M
468.198 616.864 L
S
GR
GS
[0.75 0 0 0.75 0 0.5] CT
0.149 GC
2 setlinecap
1 LJ
0.667 LW
N
458.182 516.701 M
468.198 516.701 L
S
GR
GS
[0.75 0 0 0.75 0 0.5] CT
0.149 GC
2 setlinecap
1 LJ
0.667 LW
N
458.182 416.537 M
468.198 416.537 L
S
GR
GS
[0.75 0 0 0.75 0 0.5] CT
0.149 GC
2 setlinecap
1 LJ
0.667 LW
N
458.182 316.373 M
468.198 316.373 L
S
GR
GS
[0.75 0 0 0.75 0 0.5] CT
0.149 GC
2 setlinecap
1 LJ
0.667 LW
N
458.182 216.21 M
468.198 216.21 L
S
GR
GS
[0.75 0 0 0.75 0 0.5] CT
0.149 GC
2 setlinecap
1 LJ
0.667 LW
N
458.182 116.046 M
468.198 116.046 L
S
GR
GS
[0.75 0 0 0.75 336.6365 613.39351] CT
0.149 GC
/Helvetica 33.333 F
GS
[1 0 0 1 0 0] CT
-34 11.5 moveto 
1 -1 scale
(-4) t 
GR
GR
GS
[0.75 0 0 0.75 336.6365 538.27083] CT
0.149 GC
/Helvetica 33.333 F
GS
[1 0 0 1 0 0] CT
-34 11.5 moveto 
1 -1 scale
(-2) t 
GR
GR
GS
[0.75 0 0 0.75 336.6365 463.1481] CT
0.149 GC
/Helvetica 33.333 F
GS
[1 0 0 1 0 0] CT
-22 11.5 moveto 
1 -1 scale
(0) t 
GR
GR
GS
[0.75 0 0 0.75 336.6365 388.02542] CT
0.149 GC
/Helvetica 33.333 F
GS
[1 0 0 1 0 0] CT
-22 11.5 moveto 
1 -1 scale
(2) t 
GR
GR
GS
[0.75 0 0 0.75 336.6365 312.90272] CT
0.149 GC
/Helvetica 33.333 F
GS
[1 0 0 1 0 0] CT
-22 11.5 moveto 
1 -1 scale
(4) t 
GR
GR
GS
[0.75 0 0 0.75 336.6365 237.78001] CT
0.149 GC
/Helvetica 33.333 F
GS
[1 0 0 1 0 0] CT
-22 11.5 moveto 
1 -1 scale
(6) t 
GR
GR
GS
[0.75 0 0 0.75 336.6365 162.65732] CT
0.149 GC
/Helvetica 33.333 F
GS
[1 0 0 1 0 0] CT
-22 11.5 moveto 
1 -1 scale
(8) t 
GR
GR
GS
[0.75 0 0 0.75 336.6365 87.53462] CT
0.149 GC
/Helvetica 33.333 F
GS
[1 0 0 1 0 0] CT
-43 11.5 moveto 
1 -1 scale
(10) t 
GR
GR
GS
[0 -0.75 0.75 0 301.3865 351.49973] CT
0.149 GC
/Helvetica 36.667 F
GS
[1 0 0 1 0 0] CT
-21 -9 moveto 
1 -1 scale
(Ys) t 
GR
GR
GS
[0.75 0 0 0.75 794.37268 425.58676] CT
1 0 0 RC
N
0 -26.66 M
-23.088 13.33 L
23.088 13.33 L
cp
f
GR
GS
[0.75 0 0 0.75 794.37268 425.58676] CT
0 0 1 RC
10.0 ML
0.667 LW
N
0 -26.66 M
-23.088 13.33 L
23.088 13.33 L
cp
S
GR
GS
[0.75 0 0 0.75 606.56593 162.65732] CT
1 0 0 RC
N
/f-1996900118{0 -26.66 M
-23.088 13.33 L
23.088 13.33 L
cp}def
f-1996900118
f
GR
GS
[0.75 0 0 0.75 606.56593 162.65732] CT
0 0 1 RC
10.0 ML
0.667 LW
N
0 -26.66 M
-23.088 13.33 L
23.088 13.33 L
cp
S
GR
GS
[0.75 0 0 0.75 794.37268 350.46406] CT
1 0 0 RC
N
f-1996900118
f
GR
GS
[0.75 0 0 0.75 794.37268 350.46406] CT
0 0 1 RC
10.0 ML
0.667 LW
N
0 -26.66 M
-23.088 13.33 L
23.088 13.33 L
cp
S
GR
GS
[0.75 0 0 0.75 719.25 162.65732] CT
1 0 0 RC
N
f-1996900118
f
GR
GS
[0.75 0 0 0.75 719.25 162.65732] CT
0 0 1 RC
10.0 ML
0.667 LW
N
0 -26.66 M
-23.088 13.33 L
23.088 13.33 L
cp
S
GR
GS
[0.75 0 0 0.75 831.93402 388.02542] CT
1 0 0 RC
N
f-1996900118
f
GR
GS
[0.75 0 0 0.75 831.93402 388.02542] CT
0 0 1 RC
10.0 ML
0.667 LW
N
0 -26.66 M
-23.088 13.33 L
23.088 13.33 L
cp
S
GR
GS
[0.75 0 0 0.75 756.81134 162.65732] CT
1 0 0 RC
N
f-1996900118
f
GR
GS
[0.75 0 0 0.75 756.81134 162.65732] CT
0 0 1 RC
10.0 ML
0.667 LW
N
0 -26.66 M
-23.088 13.33 L
23.088 13.33 L
cp
S
GR
GS
[0.75 0 0 0.75 794.37268 237.78001] CT
1 0 0 RC
N
f-1996900118
f
GR
GS
[0.75 0 0 0.75 794.37268 237.78001] CT
0 0 1 RC
10.0 ML
0.667 LW
N
0 -26.66 M
-23.088 13.33 L
23.088 13.33 L
cp
S
GR
GS
[0.75 0 0 0.75 756.81134 425.58676] CT
1 0 0 RC
N
f-1996900118
f
GR
GS
[0.75 0 0 0.75 756.81134 425.58676] CT
0 0 1 RC
10.0 ML
0.667 LW
N
0 -26.66 M
-23.088 13.33 L
23.088 13.33 L
cp
S
GR
GS
[0.75 0 0 0.75 646.8739 509.31284] CT
0 1 1 RC
10.0 ML
0.667 LW
N
0 -4 M
0 4 L
-4 0 M
4 0 L
-2.828 -2.828 M
2.828 2.828 L
-2.828 2.828 M
2.828 -2.828 L
S
GR
GS
[0.75 0 0 0.75 0 0.5] CT
0 1 1 RC
1 LJ
0.667 LW
N
858.684 681.231 M
858.427 681.333 L
858.606 681.122 L
S
GR
GS
[0.75 0 0 0.75 0 0.5] CT
0 1 1 RC
1 LJ
0.667 LW
N
862.499 678.417 M
858.427 681.333 L
S
GR
GS
[0.75 0 0 0.75 0 0.5] CT
0 1 1 RC
1 LJ
0.667 LW
N
821.053 678.566 M
822.318 668.254 L
826.108 658.581 L
832.184 650.154 L
840.165 643.503 L
849.55 639.046 L
859.748 637.063 L
870.119 637.678 L
880.01 640.853 L
888.802 646.388 L
895.941 653.936 L
900.979 663.022 L
903.598 673.075 L
903.636 683.464 L
901.088 693.536 L
896.116 702.658 L
889.031 710.257 L
880.28 715.855 L
870.411 719.101 L
860.045 719.79 L
849.833 717.88 L
840.417 713.49 L
832.388 706.897 L
826.251 698.514 L
822.392 688.868 L
821.053 678.566 L
S
GR
GS
[0.75 0 0 0.75 615.3924 509.31329] CT
0 1 1 RC
10.0 ML
0.667 LW
N
0 -4 M
0 4 L
-4 0 M
4 0 L
-2.828 -2.828 M
2.828 2.828 L
-2.828 2.828 M
2.828 -2.828 L
S
GR
GS
[0.75 0 0 0.75 0 0.5] CT
0 1 1 RC
1 LJ
0.667 LW
N
816.709 681.232 M
816.452 681.334 L
816.631 681.123 L
S
GR
GS
[0.75 0 0 0.75 0 0.5] CT
0 1 1 RC
1 LJ
0.667 LW
N
820.523 678.418 M
816.452 681.334 L
S
GR
GS
[0.75 0 0 0.75 0 0.5] CT
0 1 1 RC
1 LJ
0.667 LW
N
779.078 678.504 M
780.359 668.194 L
784.163 658.526 L
790.252 650.109 L
798.243 643.47 L
807.634 639.027 L
817.835 637.059 L
828.205 637.69 L
838.092 640.88 L
846.875 646.429 L
854.003 653.987 L
859.027 663.081 L
861.631 673.138 L
861.653 683.527 L
859.09 693.595 L
854.104 702.709 L
847.008 710.297 L
838.247 715.882 L
828.374 719.113 L
818.007 719.787 L
807.797 717.861 L
798.388 713.457 L
790.37 706.852 L
784.246 698.46 L
780.401 688.808 L
779.078 678.504 L
S
GR
GS
[0.75 0 0 0.75 651.97014 504.20163] CT
0 1 1 RC
10.0 ML
0.667 LW
N
0 -4 M
0 4 L
-4 0 M
4 0 L
-2.828 -2.828 M
2.828 2.828 L
-2.828 2.828 M
2.828 -2.828 L
S
GR
GS
[0.75 0 0 0.75 0 0.5] CT
0 1 1 RC
1 LJ
0.667 LW
N
865.479 674.416 M
865.222 674.518 L
865.401 674.307 L
S
GR
GS
[0.75 0 0 0.75 0 0.5] CT
0 1 1 RC
1 LJ
0.667 LW
N
869.294 671.602 M
865.222 674.518 L
S
GR
GS
[0.75 0 0 0.75 0 0.5] CT
0 1 1 RC
1 LJ
0.667 LW
N
827.848 671.683 M
829.13 661.373 L
832.936 651.706 L
839.026 643.29 L
847.018 636.652 L
856.409 632.21 L
866.61 630.243 L
876.98 630.875 L
886.867 634.066 L
895.649 639.616 L
902.776 647.175 L
907.799 656.27 L
910.402 666.327 L
910.422 676.716 L
907.858 686.784 L
902.871 695.898 L
895.774 703.485 L
887.013 709.069 L
877.139 712.299 L
866.772 712.971 L
856.563 711.044 L
847.154 706.639 L
839.137 700.033 L
833.014 691.64 L
829.17 681.988 L
827.848 671.683 L
S
GR
GS
[0.75 0 0 0.75 683.45132 472.71591] CT
0 1 1 RC
10.0 ML
0.667 LW
N
0 -4 M
0 4 L
-4 0 M
4 0 L
-2.828 -2.828 M
2.828 2.828 L
-2.828 2.828 M
2.828 -2.828 L
S
GR
GS
[0.75 0 0 0.75 0 0.5] CT
0 1 1 RC
1 LJ
0.667 LW
N
907.454 632.435 M
907.197 632.537 L
907.376 632.326 L
S
GR
GS
[0.75 0 0 0.75 0 0.5] CT
0 1 1 RC
1 LJ
0.667 LW
N
911.268 629.621 M
907.197 632.537 L
S
GR
GS
[0.75 0 0 0.75 0 0.5] CT
0 1 1 RC
1 LJ
0.667 LW
N
869.823 629.719 M
871.101 619.409 L
874.903 609.74 L
880.989 601.321 L
888.978 594.68 L
898.368 590.234 L
908.569 588.263 L
918.939 588.891 L
928.827 592.078 L
937.611 597.624 L
944.741 605.181 L
949.767 614.273 L
952.375 624.33 L
952.399 634.719 L
949.839 644.788 L
944.856 653.903 L
937.762 661.493 L
929.003 667.081 L
919.13 670.315 L
908.764 670.991 L
898.554 669.069 L
889.143 664.667 L
881.123 658.064 L
874.997 649.673 L
871.149 640.023 L
869.823 629.719 L
S
GR
GS
[0.75 0 0 0.75 646.87376 507.46375] CT
0 1 1 RC
10.0 ML
0.667 LW
N
0 -4 M
0 4 L
-4 0 M
4 0 L
-2.828 -2.828 M
2.828 2.828 L
-2.828 2.828 M
2.828 -2.828 L
S
GR
GS
[0.75 0 0 0.75 0 0.5] CT
0 1 1 RC
1 LJ
0.667 LW
N
858.684 678.766 M
858.427 678.868 L
858.606 678.657 L
S
GR
GS
[0.75 0 0 0.75 0 0.5] CT
0 1 1 RC
1 LJ
0.667 LW
N
862.498 675.952 M
858.427 678.868 L
S
GR
GS
[0.75 0 0 0.75 0 0.5] CT
0 1 1 RC
1 LJ
0.667 LW
N
821.053 676.048 M
822.331 665.737 L
826.133 656.069 L
832.22 647.65 L
840.21 641.009 L
849.6 636.564 L
859.8 634.594 L
870.17 635.222 L
880.058 638.41 L
888.843 643.956 L
895.972 651.513 L
900.998 660.605 L
903.605 670.662 L
903.629 681.051 L
901.069 691.12 L
896.085 700.235 L
888.991 707.825 L
880.232 713.412 L
870.359 716.645 L
859.992 717.322 L
849.782 715.399 L
840.372 710.997 L
832.352 704.393 L
826.226 696.002 L
822.379 686.352 L
821.053 676.048 L
S
GR
GS
[0.75 0 0 0.75 615.39226 507.46498] CT
0 1 1 RC
10.0 ML
0.667 LW
N
0 -4 M
0 4 L
-4 0 M
4 0 L
-2.828 -2.828 M
2.828 2.828 L
-2.828 2.828 M
2.828 -2.828 L
S
GR
GS
[0.75 0 0 0.75 0 0.5] CT
0 1 1 RC
1 LJ
0.667 LW
N
816.709 678.768 M
816.451 678.869 L
816.631 678.658 L
S
GR
GS
[0.75 0 0 0.75 0 0.5] CT
0 1 1 RC
1 LJ
0.667 LW
N
820.523 675.953 M
816.451 678.869 L
S
GR
GS
[0.75 0 0 0.75 0 0.5] CT
0 1 1 RC
1 LJ
0.667 LW
N
779.078 676.028 M
780.398 686.333 L
784.24 695.986 L
790.362 704.38 L
798.379 710.987 L
807.787 715.394 L
817.996 717.322 L
828.363 716.651 L
838.238 713.423 L
846.999 707.84 L
854.097 700.254 L
859.086 691.141 L
861.651 681.073 L
861.632 670.684 L
859.03 660.626 L
854.009 651.531 L
846.883 643.971 L
838.102 638.42 L
828.215 635.228 L
817.846 634.594 L
807.644 636.559 L
798.252 641 L
790.259 647.636 L
784.168 656.052 L
780.361 665.719 L
779.078 676.028 L
S
GR
GS
[0.75 0 0 0.75 646.87422 497.24202] CT
0 1 1 RC
10.0 ML
0.667 LW
N
0 -4 M
0 4 L
-4 0 M
4 0 L
-2.828 -2.828 M
2.828 2.828 L
-2.828 2.828 M
2.828 -2.828 L
S
GR
GS
[0.75 0 0 0.75 0 0.5] CT
0 1 1 RC
1 LJ
0.667 LW
N
858.685 665.137 M
858.427 665.239 L
858.607 665.028 L
S
GR
GS
[0.75 0 0 0.75 0 0.5] CT
0 1 1 RC
1 LJ
0.667 LW
N
862.499 662.323 M
858.427 665.239 L
S
GR
GS
[0.75 0 0 0.75 0 0.5] CT
0 1 1 RC
1 LJ
6.667 LW
N
821.054 662.406 M
822.335 652.096 L
826.14 642.429 L
832.23 634.011 L
840.221 627.373 L
849.613 622.931 L
859.814 620.964 L
870.184 621.596 L
880.071 624.786 L
888.853 630.335 L
895.98 637.894 L
901.003 646.988 L
903.607 657.046 L
903.628 667.435 L
901.064 677.503 L
896.078 686.617 L
888.981 694.204 L
880.221 699.789 L
870.346 703.019 L
859.979 703.692 L
849.77 701.766 L
840.361 697.361 L
832.343 690.755 L
826.22 682.362 L
822.376 672.71 L
821.054 662.406 L
S
GR
GS
[0.75 0 0 0.75 646.8739 434.27187] CT
0 1 1 RC
10.0 ML
0.667 LW
N
0 -4 M
0 4 L
-4 0 M
4 0 L
-2.828 -2.828 M
2.828 2.828 L
-2.828 2.828 M
2.828 -2.828 L
S
GR
GS
[0.75 0 0 0.75 0 0.5] CT
0 1 1 RC
1 LJ
0.667 LW
N
858.684 581.177 M
858.427 581.279 L
858.606 581.067 L
S
GR
GS
[0.75 0 0 0.75 0 0.5] CT
0 1 1 RC
1 LJ
0.667 LW
N
862.499 578.362 M
858.427 581.279 L
S
GR
GS
[0.75 0 0 0.75 0 0.5] CT
0 1 1 RC
1 LJ
6.667 LW
N
821.053 578.511 M
822.392 588.814 L
826.251 598.459 L
832.388 606.842 L
840.417 613.436 L
849.833 617.826 L
860.045 619.736 L
870.411 619.046 L
880.28 615.8 L
889.031 610.202 L
896.116 602.603 L
901.088 593.481 L
903.636 583.409 L
903.598 573.02 L
900.979 562.967 L
895.941 553.881 L
888.802 546.333 L
880.01 540.798 L
870.118 537.623 L
859.748 537.008 L
849.55 538.991 L
840.165 543.448 L
832.184 550.099 L
826.108 558.526 L
822.318 568.199 L
821.053 578.511 L
S
GR
GS
[0.75 0 0 0.75 678.35605 465.75722] CT
0 1 1 RC
10.0 ML
0.667 LW
N
0 -4 M
0 4 L
-4 0 M
4 0 L
-2.828 -2.828 M
2.828 2.828 L
-2.828 2.828 M
2.828 -2.828 L
S
GR
GS
[0.75 0 0 0.75 0 0.5] CT
0 1 1 RC
1 LJ
0.667 LW
N
900.661 623.157 M
900.403 623.259 L
900.582 623.048 L
S
GR
GS
[0.75 0 0 0.75 0 0.5] CT
0 1 1 RC
1 LJ
0.667 LW
N
904.475 620.343 M
900.403 623.259 L
S
GR
GS
[0.75 0 0 0.75 0 0.5] CT
0 1 1 RC
1 LJ
6.667 LW
N
863.029 620.429 M
864.353 630.734 L
868.197 640.385 L
874.321 648.777 L
882.34 655.383 L
891.749 659.787 L
901.958 661.712 L
912.325 661.038 L
922.199 657.807 L
930.959 652.222 L
938.055 644.634 L
943.041 635.52 L
945.604 625.452 L
945.583 615.063 L
942.978 605.006 L
937.954 595.912 L
930.827 588.354 L
922.043 582.805 L
912.156 579.615 L
901.786 578.984 L
891.585 580.952 L
882.194 585.395 L
874.203 592.034 L
868.114 600.452 L
864.31 610.119 L
863.029 620.429 L
S
GR
GS
[0.75 0 0 0.75 615.3924 497.24202] CT
0 1 1 RC
10.0 ML
0.667 LW
N
0 -4 M
0 4 L
-4 0 M
4 0 L
-2.828 -2.828 M
2.828 2.828 L
-2.828 2.828 M
2.828 -2.828 L
S
GR
GS
[0.75 0 0 0.75 0 0.5] CT
0 1 1 RC
1 LJ
0.667 LW
N
816.709 665.137 M
816.452 665.239 L
816.631 665.028 L
S
GR
GS
[0.75 0 0 0.75 0 0.5] CT
0 1 1 RC
1 LJ
0.667 LW
N
820.523 662.323 M
816.452 665.239 L
S
GR
GS
[0.75 0 0 0.75 0 0.5] CT
0 1 1 RC
1 LJ
6.667 LW
N
779.078 662.405 M
780.4 672.709 L
784.244 682.361 L
790.367 690.754 L
798.385 697.36 L
807.794 701.765 L
818.003 703.692 L
828.37 703.019 L
838.244 699.789 L
847.005 694.205 L
854.101 686.618 L
859.088 677.504 L
861.652 667.436 L
861.632 657.047 L
859.028 646.989 L
854.005 637.895 L
846.878 630.336 L
838.096 624.787 L
828.209 621.596 L
817.839 620.964 L
807.638 622.931 L
798.247 627.373 L
790.255 634.011 L
784.165 642.428 L
780.36 652.095 L
779.078 662.405 L
S
GR
GS
[0.75 0 0 0.75 651.96986 502.35327] CT
0 1 1 RC
10.0 ML
0.667 LW
N
0 -4 M
0 4 L
-4 0 M
4 0 L
-2.828 -2.828 M
2.828 2.828 L
-2.828 2.828 M
2.828 -2.828 L
S
GR
GS
[0.75 0 0 0.75 0 0.5] CT
0 1 1 RC
1 LJ
0.667 LW
N
865.479 671.952 M
865.221 672.054 L
865.401 671.843 L
S
GR
GS
[0.75 0 0 0.75 0 0.5] CT
0 1 1 RC
1 LJ
0.667 LW
N
869.293 669.138 M
865.221 672.054 L
S
GR
GS
[0.75 0 0 0.75 0 0.5] CT
0 1 1 RC
1 LJ
0.667 LW
N
827.848 669.212 M
829.131 658.903 L
832.938 649.236 L
839.03 640.82 L
847.023 634.184 L
856.415 629.743 L
866.617 627.778 L
876.986 628.412 L
886.872 631.605 L
895.654 637.156 L
902.779 644.716 L
907.801 653.811 L
910.402 663.869 L
910.421 674.258 L
907.856 684.326 L
902.867 693.439 L
895.769 701.025 L
887.007 706.607 L
877.132 709.835 L
866.765 710.506 L
856.557 708.578 L
847.148 704.171 L
839.132 697.564 L
833.01 689.17 L
829.168 679.517 L
827.848 669.212 L
S
GR
GS
[0.75 0 0 0.75 651.97023 439.3844] CT
0 1 1 RC
10.0 ML
0.667 LW
N
0 -4 M
0 4 L
-4 0 M
4 0 L
-2.828 -2.828 M
2.828 2.828 L
-2.828 2.828 M
2.828 -2.828 L
S
GR
GS
[0.75 0 0 0.75 0 0.5] CT
0 1 1 RC
1 LJ
0.667 LW
N
865.48 587.993 M
865.222 588.095 L
865.401 587.884 L
S
GR
GS
[0.75 0 0 0.75 0 0.5] CT
0 1 1 RC
1 LJ
0.667 LW
N
869.294 585.179 M
865.222 588.095 L
S
GR
GS
[0.75 0 0 0.75 0 0.5] CT
0 1 1 RC
1 LJ
6.667 LW
N
827.848 585.263 M
829.171 595.567 L
833.015 605.219 L
839.138 613.612 L
847.157 620.218 L
856.566 624.622 L
866.775 626.548 L
877.142 625.875 L
887.016 622.645 L
895.776 617.06 L
902.873 609.473 L
907.859 600.359 L
910.423 590.291 L
910.402 579.902 L
907.798 569.844 L
902.775 560.75 L
895.648 553.192 L
886.865 547.642 L
876.978 544.452 L
866.608 543.82 L
856.407 545.788 L
847.016 550.23 L
839.024 556.869 L
832.935 565.286 L
829.13 574.953 L
827.848 585.263 L
S
GR
GS
[0.75 0 0 0.75 683.45132 470.86742] CT
0 1 1 RC
10.0 ML
0.667 LW
N
0 -4 M
0 4 L
-4 0 M
4 0 L
-2.828 -2.828 M
2.828 2.828 L
-2.828 2.828 M
2.828 -2.828 L
S
GR
GS
[0.75 0 0 0.75 0 0.5] CT
0 1 1 RC
1 LJ
0.667 LW
N
907.454 629.971 M
907.197 630.073 L
907.376 629.862 L
S
GR
GS
[0.75 0 0 0.75 0 0.5] CT
0 1 1 RC
1 LJ
0.667 LW
N
911.268 627.157 M
907.197 630.073 L
S
GR
GS
[0.75 0 0 0.75 0 0.5] CT
0 1 1 RC
1 LJ
0.667 LW
N
869.823 627.253 M
871.149 637.557 L
874.996 647.208 L
881.122 655.599 L
889.143 662.202 L
898.553 666.604 L
908.763 668.527 L
919.13 667.85 L
929.003 664.617 L
937.761 659.029 L
944.855 651.439 L
949.839 642.324 L
952.399 632.255 L
952.375 621.866 L
949.768 611.809 L
944.742 602.717 L
937.612 595.16 L
928.828 589.614 L
918.94 586.427 L
908.57 585.799 L
898.369 587.769 L
888.979 592.215 L
880.99 598.856 L
874.903 607.275 L
871.101 616.943 L
869.823 627.253 L
S
GR
GS
[0.75 0 0 0.75 652.79709 503.2775] CT
0 1 1 RC
10.0 ML
0.667 LW
N
0 -4 M
0 4 L
-4 0 M
4 0 L
-2.828 -2.828 M
2.828 2.828 L
-2.828 2.828 M
2.828 -2.828 L
S
GR
GS
[0.75 0 0 0.75 0 0.5] CT
0 1 1 RC
1 LJ
0.667 LW
N
866.582 673.184 M
866.324 673.286 L
866.504 673.075 L
S
GR
GS
[0.75 0 0 0.75 0 0.5] CT
0 1 1 RC
1 LJ
0.667 LW
N
870.396 670.37 M
866.324 673.286 L
S
GR
GS
[0.75 0 0 0.75 0 0.5] CT
0 1 1 RC
1 LJ
0.667 LW
N
828.951 670.454 M
830.232 660.144 L
834.037 650.477 L
840.126 642.06 L
848.118 635.421 L
857.509 630.979 L
867.71 629.011 L
878.08 629.643 L
887.967 632.833 L
896.75 638.382 L
903.877 645.941 L
908.9 655.035 L
911.504 665.092 L
911.525 675.481 L
908.962 685.549 L
903.975 694.663 L
896.879 702.251 L
888.119 707.835 L
878.245 711.066 L
867.878 711.739 L
857.669 709.813 L
848.259 705.409 L
840.241 698.803 L
834.118 690.41 L
830.274 680.758 L
828.951 670.454 L
S
GR
GS
[0.75 0 0 0.75 684.27855 471.79233] CT
0 1 1 RC
10.0 ML
0.667 LW
N
0 -4 M
0 4 L
-4 0 M
4 0 L
-2.828 -2.828 M
2.828 2.828 L
-2.828 2.828 M
2.828 -2.828 L
S
GR
GS
[0.75 0 0 0.75 0 0.5] CT
0 1 1 RC
1 LJ
0.667 LW
N
908.557 631.204 M
908.3 631.306 L
908.479 631.095 L
S
GR
GS
[0.75 0 0 0.75 0 0.5] CT
0 1 1 RC
1 LJ
0.667 LW
N
912.371 628.39 M
908.3 631.306 L
S
GR
GS
[0.75 0 0 0.75 0 0.5] CT
0 1 1 RC
1 LJ
6.667 LW
N
870.926 628.539 M
872.191 618.227 L
875.981 608.554 L
882.057 600.127 L
890.038 593.476 L
899.423 589.019 L
909.62 587.035 L
919.991 587.65 L
929.883 590.825 L
938.675 596.361 L
945.814 603.908 L
950.851 612.994 L
953.471 623.048 L
953.509 633.437 L
950.961 643.509 L
945.989 652.63 L
938.904 660.229 L
930.153 665.828 L
920.284 669.073 L
909.918 669.763 L
899.706 667.853 L
890.29 663.463 L
882.261 656.87 L
876.124 648.487 L
872.265 638.841 L
870.926 628.539 L
S
GR
GS
[0.75 0 0 0.75 646.04645 509.31219] CT
0 1 1 RC
10.0 ML
0.667 LW
N
0 -4 M
0 4 L
-4 0 M
4 0 L
-2.828 -2.828 M
2.828 2.828 L
-2.828 2.828 M
2.828 -2.828 L
S
GR
GS
[0.75 0 0 0.75 0 0.5] CT
0 1 1 RC
1 LJ
0.667 LW
N
857.581 681.23 M
857.324 681.332 L
857.503 681.121 L
S
GR
GS
[0.75 0 0 0.75 0 0.5] CT
0 1 1 RC
1 LJ
0.667 LW
N
861.395 678.416 M
857.324 681.332 L
S
GR
GS
[0.75 0 0 0.75 0 0.5] CT
0 1 1 RC
1 LJ
0.667 LW
N
819.95 678.513 M
821.228 668.203 L
825.03 658.535 L
831.116 650.115 L
839.106 643.474 L
848.496 639.029 L
858.696 637.058 L
869.066 637.686 L
878.954 640.874 L
887.739 646.42 L
894.868 653.977 L
899.894 663.069 L
902.502 673.125 L
902.526 683.514 L
899.966 693.583 L
894.982 702.699 L
887.888 710.289 L
879.13 715.876 L
869.257 719.11 L
858.89 719.786 L
848.68 717.863 L
839.27 713.462 L
831.249 706.859 L
825.123 698.468 L
821.276 688.817 L
819.95 678.513 L
S
GR
GS
[0.75 0 0 0.75 614.56544 509.31352] CT
0 1 1 RC
10.0 ML
0.667 LW
N
0 -4 M
0 4 L
-4 0 M
4 0 L
-2.828 -2.828 M
2.828 2.828 L
-2.828 2.828 M
2.828 -2.828 L
S
GR
GS
[0.75 0 0 0.75 0 0.5] CT
0 1 1 RC
1 LJ
0.667 LW
N
815.607 681.232 M
815.349 681.334 L
815.528 681.123 L
S
GR
GS
[0.75 0 0 0.75 0 0.5] CT
0 1 1 RC
1 LJ
0.667 LW
N
819.421 678.418 M
815.349 681.334 L
S
GR
GS
[0.75 0 0 0.75 0 0.5] CT
0 1 1 RC
1 LJ
0.667 LW
N
777.975 678.5 M
779.298 688.805 L
783.141 698.457 L
789.264 706.849 L
797.282 713.456 L
806.691 717.861 L
816.9 719.787 L
827.267 719.114 L
837.142 715.884 L
845.902 710.3 L
852.999 702.713 L
857.986 693.599 L
860.549 683.531 L
860.529 673.142 L
857.925 663.084 L
852.902 653.99 L
845.776 646.431 L
836.993 640.882 L
827.106 637.691 L
816.736 637.059 L
806.535 639.026 L
797.144 643.468 L
789.152 650.106 L
783.062 658.523 L
779.257 668.19 L
777.975 678.5 L
S
GR
GS
[0.75 0 0 0.75 640.95113 509.31352] CT
0 1 1 RC
10.0 ML
0.667 LW
N
0 -4 M
0 4 L
-4 0 M
4 0 L
-2.828 -2.828 M
2.828 2.828 L
-2.828 2.828 M
2.828 -2.828 L
S
GR
GS
[0.75 0 0 0.75 0 0.5] CT
0 1 1 RC
1 LJ
0.667 LW
N
850.787 681.232 M
850.53 681.334 L
850.709 681.123 L
S
GR
GS
[0.75 0 0 0.75 0 0.5] CT
0 1 1 RC
1 LJ
0.667 LW
N
854.602 678.418 M
850.53 681.334 L
S
GR
GS
[0.75 0 0 0.75 0 0.5] CT
0 1 1 RC
1 LJ
0.667 LW
N
813.156 678.506 M
814.436 668.197 L
818.24 658.529 L
824.329 650.111 L
832.319 643.472 L
841.71 639.028 L
851.911 637.06 L
862.281 637.69 L
872.168 640.879 L
880.952 646.427 L
888.08 653.985 L
893.104 663.079 L
895.709 673.136 L
895.731 683.525 L
893.169 693.593 L
888.184 702.708 L
881.088 710.296 L
872.328 715.882 L
862.454 719.113 L
852.087 719.787 L
841.878 717.863 L
832.469 713.459 L
824.45 706.854 L
818.325 698.462 L
814.48 688.811 L
813.156 678.506 L
S
GR
GS
[0.75 0 0 0.75 609.46921 509.31284] CT
0 1 1 RC
10.0 ML
0.667 LW
N
0 -4 M
0 4 L
-4 0 M
4 0 L
-2.828 -2.828 M
2.828 2.828 L
-2.828 2.828 M
2.828 -2.828 L
S
GR
GS
[0.75 0 0 0.75 0 0.5] CT
0 1 1 RC
1 LJ
0.667 LW
N
808.812 681.231 M
808.554 681.333 L
808.733 681.122 L
S
GR
GS
[0.75 0 0 0.75 0 0.5] CT
0 1 1 RC
1 LJ
0.667 LW
N
812.626 678.417 M
808.554 681.333 L
S
GR
GS
[0.75 0 0 0.75 0 0.5] CT
0 1 1 RC
1 LJ
6.667 LW
N
771.18 678.566 M
772.445 668.254 L
776.235 658.581 L
782.312 650.154 L
790.293 643.503 L
799.677 639.046 L
809.875 637.063 L
820.246 637.678 L
830.138 640.853 L
838.929 646.388 L
846.068 653.936 L
851.106 663.022 L
853.725 673.075 L
853.763 683.464 L
851.215 693.536 L
846.243 702.658 L
839.158 710.257 L
830.407 715.855 L
820.538 719.101 L
810.172 719.79 L
799.96 717.88 L
790.544 713.49 L
782.515 706.897 L
776.378 698.514 L
772.519 688.868 L
771.18 678.566 L
S
GR
GS
[0.75 0 0 0.75 655.82455 526.57094] CT
0 0 1 RC
10.0 ML
0.667 LW
N
0 -4 M
0 4 L
-4 0 M
4 0 L
-2.828 -2.828 M
2.828 2.828 L
-2.828 2.828 M
2.828 -2.828 L
S
GR
GS
[0.75 0 0 0.75 0 0.5] CT
0 0 1 RC
1 LJ
0.667 LW
N
870.619 704.242 M
870.361 704.344 L
870.54 704.133 L
S
GR
GS
[0.75 0 0 0.75 0 0.5] CT
0 0 1 RC
1 LJ
0.667 LW
N
874.433 701.428 M
870.361 704.344 L
S
GR
GS
[0.75 0 0 0.75 0 0.5] CT
0 0 1 RC
1 LJ
0.667 LW
N
857.918 703.727 M
859.008 707.762 L
861.068 711.399 L
863.968 714.409 L
867.525 716.604 L
871.516 717.845 L
875.69 718.055 L
879.786 717.22 L
883.545 715.392 L
886.731 712.688 L
889.145 709.275 L
890.634 705.37 L
891.106 701.217 L
890.529 697.077 L
888.942 693.211 L
886.442 689.861 L
883.188 687.237 L
879.384 685.506 L
875.269 684.775 L
871.101 685.09 L
867.143 686.432 L
863.642 688.716 L
860.82 691.798 L
858.853 695.486 L
857.865 699.547 L
857.918 703.727 L
S
GR
GS
[0.75 0 0 0.75 655.82497 463.60774] CT
0 0 1 RC
10.0 ML
0.667 LW
N
0 -4 M
0 4 L
-4 0 M
4 0 L
-2.828 -2.828 M
2.828 2.828 L
-2.828 2.828 M
2.828 -2.828 L
S
GR
GS
[0.75 0 0 0.75 0 0.5] CT
0 0 1 RC
1 LJ
0.667 LW
N
870.619 620.291 M
870.362 620.393 L
870.541 620.182 L
S
GR
GS
[0.75 0 0 0.75 0 0.5] CT
0 0 1 RC
1 LJ
0.667 LW
N
874.433 617.477 M
870.362 620.393 L
S
GR
GS
[0.75 0 0 0.75 0 0.5] CT
0 0 1 RC
1 LJ
0.667 LW
N
857.826 618.965 M
857.977 614.788 L
859.163 610.78 L
861.309 607.193 L
864.279 604.252 L
867.887 602.142 L
871.906 600.995 L
876.084 600.885 L
880.159 601.817 L
883.873 603.732 L
886.995 606.512 L
889.327 609.98 L
890.724 613.92 L
891.096 618.083 L
890.422 622.208 L
888.744 626.035 L
886.166 629.325 L
882.85 631.871 L
879.006 633.512 L
874.875 634.145 L
870.716 633.732 L
866.79 632.296 L
863.345 629.93 L
860.596 626.781 L
858.717 623.048 L
857.826 618.965 L
S
GR
GS
[0.75 0 0 0.75 624.34332 526.57153] CT
0 0 1 RC
10.0 ML
0.667 LW
N
0 -4 M
0 4 L
-4 0 M
4 0 L
-2.828 -2.828 M
2.828 2.828 L
-2.828 2.828 M
2.828 -2.828 L
S
GR
GS
[0.75 0 0 0.75 0 0.5] CT
0 0 1 RC
1 LJ
0.667 LW
N
828.644 704.243 M
828.386 704.345 L
828.565 704.134 L
S
GR
GS
[0.75 0 0 0.75 0 0.5] CT
0 0 1 RC
1 LJ
0.667 LW
N
832.458 701.429 M
828.386 704.345 L
S
GR
GS
[0.75 0 0 0.75 0 0.5] CT
0 0 1 RC
1 LJ
0.667 LW
N
815.843 702.837 M
816.715 706.925 L
818.577 710.667 L
821.31 713.829 L
824.745 716.212 L
828.663 717.665 L
832.82 718.099 L
836.955 717.485 L
840.806 715.862 L
844.134 713.333 L
846.727 710.055 L
848.424 706.235 L
849.118 702.114 L
848.765 697.949 L
847.387 694.003 L
845.071 690.523 L
841.963 687.729 L
838.257 685.796 L
834.187 684.844 L
830.009 684.935 L
825.984 686.063 L
822.366 688.155 L
819.382 691.082 L
817.22 694.659 L
816.015 698.661 L
815.843 702.837 L
S
GR
GS
[0.75 0 0 0.75 619.24805 526.57199] CT
0 0 1 RC
10.0 ML
0.667 LW
N
0 -4 M
0 4 L
-4 0 M
4 0 L
-2.828 -2.828 M
2.828 2.828 L
-2.828 2.828 M
2.828 -2.828 L
S
GR
GS
[0.75 0 0 0.75 0 0.5] CT
0 0 1 RC
1 LJ
0.667 LW
N
821.85 704.243 M
821.592 704.345 L
821.772 704.134 L
S
GR
GS
[0.75 0 0 0.75 0 0.5] CT
0 0 1 RC
1 LJ
0.667 LW
N
825.664 701.429 M
821.592 704.345 L
S
GR
GS
[0.75 0 0 0.75 0 0.5] CT
0 0 1 RC
1 LJ
0.667 LW
N
809.067 703.029 M
809.19 698.851 L
810.349 694.835 L
812.47 691.234 L
815.42 688.273 L
819.014 686.139 L
823.025 684.965 L
827.203 684.826 L
831.284 685.73 L
835.011 687.621 L
838.151 690.38 L
840.507 693.832 L
841.93 697.762 L
842.331 701.923 L
841.685 706.052 L
840.032 709.891 L
837.476 713.198 L
834.178 715.766 L
830.345 717.433 L
826.218 718.094 L
822.056 717.709 L
818.121 716.3 L
814.66 713.957 L
811.89 710.827 L
809.986 707.106 L
809.067 703.029 L
S
GR
GS
[0.75 0 0 0.75 656.65013 525.74422] CT
0 0 1 RC
10.0 ML
0.667 LW
N
0 -4 M
0 4 L
-4 0 M
4 0 L
-2.828 -2.828 M
2.828 2.828 L
-2.828 2.828 M
2.828 -2.828 L
S
GR
GS
[0.75 0 0 0.75 0 0.5] CT
0 0 1 RC
1 LJ
0.667 LW
N
871.719 703.14 M
871.462 703.242 L
871.641 703.031 L
S
GR
GS
[0.75 0 0 0.75 0 0.5] CT
0 0 1 RC
1 LJ
0.667 LW
N
875.534 700.326 M
871.462 703.242 L
S
GR
GS
[0.75 0 0 0.75 0 0.5] CT
0 0 1 RC
1 LJ
0.667 LW
N
858.922 701.769 M
859.802 705.854 L
861.672 709.593 L
864.412 712.749 L
867.851 715.125 L
871.773 716.57 L
875.931 716.995 L
880.064 716.373 L
883.912 714.742 L
887.234 712.205 L
889.821 708.922 L
891.51 705.099 L
892.195 700.976 L
891.833 696.812 L
890.448 692.869 L
888.125 689.394 L
885.01 686.606 L
881.301 684.681 L
877.229 683.738 L
873.05 683.837 L
869.028 684.973 L
865.414 687.073 L
862.436 690.006 L
860.281 693.587 L
859.085 697.592 L
858.922 701.769 L
S
GR
GS
[0.75 0 0 0.75 656.65022 462.78098] CT
0 0 1 RC
10.0 ML
0.667 LW
N
0 -4 M
0 4 L
-4 0 M
4 0 L
-2.828 -2.828 M
2.828 2.828 L
-2.828 2.828 M
2.828 -2.828 L
S
GR
GS
[0.75 0 0 0.75 0 0.5] CT
0 0 1 RC
1 LJ
0.667 LW
N
871.72 619.189 M
871.462 619.291 L
871.641 619.08 L
S
GR
GS
[0.75 0 0 0.75 0 0.5] CT
0 0 1 RC
1 LJ
0.667 LW
N
875.534 616.375 M
871.462 619.291 L
S
GR
GS
[0.75 0 0 0.75 0 0.5] CT
0 0 1 RC
1 LJ
0.667 LW
N
858.912 617.703 M
859.104 613.527 L
860.329 609.531 L
862.508 605.965 L
865.506 603.052 L
869.134 600.977 L
873.165 599.87 L
877.344 599.799 L
881.409 600.77 L
885.105 602.721 L
888.2 605.531 L
890.499 609.021 L
891.857 612.974 L
892.19 617.14 L
891.477 621.259 L
889.761 625.07 L
887.152 628.335 L
883.812 630.849 L
879.953 632.453 L
875.815 633.046 L
871.66 632.593 L
867.749 631.12 L
864.326 628.721 L
861.608 625.546 L
859.765 621.794 L
858.912 617.703 L
S
GR
GS
[0.75 0 0 0.75 688.13086 494.26198] CT
0 0 1 RC
10.0 ML
0.667 LW
N
0 -4 M
0 4 L
-4 0 M
4 0 L
-2.828 -2.828 M
2.828 2.828 L
-2.828 2.828 M
2.828 -2.828 L
S
GR
GS
[0.75 0 0 0.75 0 0.5] CT
0 0 1 RC
1 LJ
0.667 LW
N
913.694 661.163 M
913.436 661.265 L
913.615 661.054 L
S
GR
GS
[0.75 0 0 0.75 0 0.5] CT
0 0 1 RC
1 LJ
0.667 LW
N
917.508 658.349 M
913.436 661.265 L
S
GR
GS
[0.75 0 0 0.75 0 0.5] CT
0 0 1 RC
1 LJ
0.667 LW
N
900.889 659.703 M
901.747 663.793 L
903.596 667.542 L
906.32 670.713 L
909.746 673.107 L
913.659 674.573 L
917.815 675.021 L
921.951 674.421 L
925.809 672.811 L
929.144 670.292 L
931.749 667.023 L
933.458 663.209 L
934.166 659.089 L
933.826 654.924 L
932.462 650.973 L
930.157 647.486 L
927.058 644.681 L
923.359 642.736 L
919.292 641.771 L
915.113 641.848 L
911.085 642.962 L
907.46 645.042 L
904.466 647.959 L
902.292 651.529 L
901.074 655.527 L
900.889 659.703 L
S
GR
GS
[0.75 0 0 0.75 625.16844 525.74458] CT
0 0 1 RC
10.0 ML
0.667 LW
N
0 -4 M
0 4 L
-4 0 M
4 0 L
-2.828 -2.828 M
2.828 2.828 L
-2.828 2.828 M
2.828 -2.828 L
S
GR
GS
[0.75 0 0 0.75 0 0.5] CT
0 0 1 RC
1 LJ
0.667 LW
N
829.744 703.14 M
829.486 703.242 L
829.666 703.031 L
S
GR
GS
[0.75 0 0 0.75 0 0.5] CT
0 0 1 RC
1 LJ
0.667 LW
N
833.558 700.326 M
829.486 703.242 L
S
GR
GS
[0.75 0 0 0.75 0 0.5] CT
0 0 1 RC
1 LJ
0.667 LW
N
816.929 701.553 M
817.757 705.65 L
819.577 709.413 L
822.276 712.604 L
825.684 715.024 L
829.587 716.521 L
833.739 716.999 L
837.879 716.431 L
841.749 714.85 L
845.103 712.357 L
847.732 709.107 L
849.471 705.307 L
850.21 701.193 L
849.902 697.024 L
848.567 693.063 L
846.29 689.559 L
843.212 686.731 L
839.528 684.757 L
835.468 683.762 L
831.289 683.807 L
827.252 684.89 L
823.611 686.943 L
820.596 689.838 L
818.395 693.391 L
817.146 697.379 L
816.929 701.553 L
S
GR
GS
[0.75 0 0 0.75 661.74532 457.68433] CT
0 0 1 RC
10.0 ML
0.667 LW
N
0 -4 M
0 4 L
-4 0 M
4 0 L
-2.828 -2.828 M
2.828 2.828 L
-2.828 2.828 M
2.828 -2.828 L
S
GR
GS
[0.75 0 0 0.75 0 0.5] CT
0 0 1 RC
1 LJ
0.667 LW
N
878.513 612.393 M
878.255 612.495 L
878.435 612.284 L
S
GR
GS
[0.75 0 0 0.75 0 0.5] CT
0 0 1 RC
1 LJ
0.667 LW
N
882.327 609.579 M
878.255 612.495 L
S
GR
GS
[0.75 0 0 0.75 0 0.5] CT
0 0 1 RC
1 LJ
0.667 LW
N
865.705 610.892 M
865.9 606.717 L
867.128 602.722 L
869.311 599.158 L
872.312 596.248 L
875.941 594.176 L
879.973 593.072 L
884.152 593.005 L
888.216 593.979 L
891.911 595.934 L
895.003 598.746 L
897.299 602.239 L
898.654 606.193 L
898.983 610.359 L
898.266 614.477 L
896.547 618.287 L
893.935 621.55 L
890.593 624.06 L
886.732 625.661 L
882.594 626.251 L
878.44 625.794 L
874.529 624.318 L
871.109 621.915 L
868.393 618.738 L
866.554 614.985 L
865.705 610.892 L
S
GR
GS
[0.75 0 0 0.75 693.22618 489.16542] CT
0 0 1 RC
10.0 ML
0.667 LW
N
0 -4 M
0 4 L
-4 0 M
4 0 L
-2.828 -2.828 M
2.828 2.828 L
-2.828 2.828 M
2.828 -2.828 L
S
GR
GS
[0.75 0 0 0.75 0 0.5] CT
0 0 1 RC
1 LJ
0.667 LW
N
920.487 654.368 M
920.23 654.47 L
920.409 654.259 L
S
GR
GS
[0.75 0 0 0.75 0 0.5] CT
0 0 1 RC
1 LJ
0.667 LW
N
924.302 651.554 M
920.23 654.47 L
S
GR
GS
[0.75 0 0 0.75 0 0.5] CT
0 0 1 RC
1 LJ
0.667 LW
N
907.707 653.183 M
908.633 657.258 L
910.544 660.976 L
913.32 664.101 L
916.785 666.438 L
920.723 667.84 L
924.885 668.218 L
929.011 667.549 L
932.841 665.876 L
936.134 663.302 L
938.684 659.99 L
940.33 656.148 L
940.969 652.018 L
940.561 647.858 L
939.131 643.931 L
936.77 640.482 L
933.624 637.729 L
929.893 635.845 L
925.811 634.948 L
921.634 635.094 L
917.625 636.275 L
914.035 638.415 L
911.09 641.381 L
908.975 644.987 L
907.823 649.005 L
907.707 653.183 L
S
GR
GS
[0.75 0 0 0.75 655.82428 526.27078] CT
0 0 1 RC
10.0 ML
0.667 LW
N
0 -4 M
0 4 L
-4 0 M
4 0 L
-2.828 -2.828 M
2.828 2.828 L
-2.828 2.828 M
2.828 -2.828 L
S
GR
GS
[0.75 0 0 0.75 0 0.5] CT
0 0 1 RC
1 LJ
0.667 LW
N
870.618 703.842 M
870.361 703.944 L
870.54 703.733 L
S
GR
GS
[0.75 0 0 0.75 0 0.5] CT
0 0 1 RC
1 LJ
0.667 LW
N
874.432 701.028 M
870.361 703.944 L
S
GR
GS
[0.75 0 0 0.75 0 0.5] CT
0 0 1 RC
1 LJ
0.667 LW
N
857.837 702.652 M
858.763 706.728 L
860.673 710.446 L
863.447 713.572 L
866.912 715.91 L
870.849 717.312 L
875.011 717.692 L
879.138 717.024 L
882.968 715.352 L
886.262 712.779 L
888.813 709.468 L
890.46 705.627 L
891.1 701.496 L
890.693 697.336 L
889.264 693.408 L
886.903 689.959 L
883.759 687.206 L
880.028 685.32 L
875.946 684.422 L
871.769 684.567 L
867.759 685.747 L
864.169 687.886 L
861.223 690.852 L
859.108 694.456 L
857.955 698.474 L
857.837 702.652 L
S
GR
GS
[0.75 0 0 0.75 624.34328 526.27225] CT
0 0 1 RC
10.0 ML
0.667 LW
N
0 -4 M
0 4 L
-4 0 M
4 0 L
-2.828 -2.828 M
2.828 2.828 L
-2.828 2.828 M
2.828 -2.828 L
S
GR
GS
[0.75 0 0 0.75 0 0.5] CT
0 0 1 RC
1 LJ
0.667 LW
N
828.644 703.844 M
828.386 703.946 L
828.565 703.735 L
S
GR
GS
[0.75 0 0 0.75 0 0.5] CT
0 0 1 RC
1 LJ
0.667 LW
N
832.458 701.03 M
828.386 703.946 L
S
GR
GS
[0.75 0 0 0.75 0 0.5] CT
0 0 1 RC
1 LJ
0.667 LW
N
815.832 702.303 M
816.038 698.128 L
817.275 694.136 L
819.467 690.577 L
822.474 687.675 L
826.109 685.611 L
830.143 684.517 L
834.322 684.46 L
838.384 685.444 L
842.074 687.408 L
845.16 690.227 L
847.447 693.725 L
848.792 697.683 L
849.112 701.85 L
848.384 705.966 L
846.656 709.772 L
844.036 713.028 L
840.689 715.531 L
836.824 717.122 L
832.685 717.702 L
828.531 717.235 L
824.624 715.749 L
821.21 713.339 L
818.502 710.155 L
816.671 706.398 L
815.832 702.303 L
S
GR
GS
[0.75 0 0 0.75 619.24796 526.27266] CT
0 0 1 RC
10.0 ML
0.667 LW
N
0 -4 M
0 4 L
-4 0 M
4 0 L
-2.828 -2.828 M
2.828 2.828 L
-2.828 2.828 M
2.828 -2.828 L
S
GR
GS
[0.75 0 0 0.75 0 0.5] CT
0 0 1 RC
1 LJ
0.667 LW
N
821.85 703.844 M
821.592 703.946 L
821.772 703.735 L
S
GR
GS
[0.75 0 0 0.75 0 0.5] CT
0 0 1 RC
1 LJ
0.667 LW
N
825.664 701.03 M
821.592 703.946 L
S
GR
GS
[0.75 0 0 0.75 0 0.5] CT
0 0 1 RC
1 LJ
0.667 LW
N
809.057 702.53 M
809.206 698.353 L
810.389 694.345 L
812.531 690.756 L
815.499 687.813 L
819.105 685.7 L
823.124 684.551 L
827.302 684.437 L
831.377 685.365 L
835.093 687.278 L
838.217 690.055 L
840.552 693.522 L
841.952 697.461 L
842.328 701.623 L
841.657 705.749 L
839.981 709.578 L
837.405 712.87 L
834.092 715.418 L
830.249 717.062 L
826.118 717.698 L
821.959 717.288 L
818.032 715.856 L
814.585 713.492 L
811.834 710.345 L
809.952 706.613 L
809.057 702.53 L
S
GR
GS
[0.75 0 0 0.75 655.8252 524.6178] CT
0 0 1 RC
10.0 ML
0.667 LW
N
0 -4 M
0 4 L
-4 0 M
4 0 L
-2.828 -2.828 M
2.828 2.828 L
-2.828 2.828 M
2.828 -2.828 L
S
GR
GS
[0.75 0 0 0.75 0 0.5] CT
0 0 1 RC
1 LJ
0.667 LW
N
870.62 701.638 M
870.362 701.74 L
870.541 701.529 L
S
GR
GS
[0.75 0 0 0.75 0 0.5] CT
0 0 1 RC
1 LJ
0.667 LW
N
874.434 698.824 M
870.362 701.74 L
S
GR
GS
[0.75 0 0 0.75 0 0.5] CT
0 0 1 RC
1 LJ
0.667 LW
N
857.836 700.416 M
858.753 704.494 L
860.656 708.215 L
863.424 711.347 L
866.884 713.691 L
870.819 715.102 L
874.981 715.489 L
879.108 714.829 L
882.942 713.164 L
886.241 710.598 L
888.798 707.292 L
890.452 703.453 L
891.1 699.324 L
890.701 695.164 L
889.28 691.233 L
886.926 687.779 L
883.787 685.02 L
880.06 683.127 L
875.979 682.221 L
871.802 682.358 L
867.79 683.53 L
864.195 685.663 L
861.244 688.622 L
859.121 692.223 L
857.961 696.238 L
857.836 700.416 L
S
GR
GS
[0.75 0 0 0.75 624.34351 524.61807] CT
0 0 1 RC
10.0 ML
0.667 LW
N
0 -4 M
0 4 L
-4 0 M
4 0 L
-2.828 -2.828 M
2.828 2.828 L
-2.828 2.828 M
2.828 -2.828 L
S
GR
GS
[0.75 0 0 0.75 0 0.5] CT
0 0 1 RC
1 LJ
0.667 LW
N
828.644 701.638 M
828.386 701.74 L
828.566 701.529 L
S
GR
GS
[0.75 0 0 0.75 0 0.5] CT
0 0 1 RC
1 LJ
0.667 LW
N
832.458 698.824 M
828.386 701.74 L
S
GR
GS
[0.75 0 0 0.75 0 0.5] CT
0 0 1 RC
1 LJ
0.667 LW
N
815.831 700.071 M
816.043 695.897 L
817.286 691.907 L
819.483 688.351 L
822.495 685.453 L
826.133 683.396 L
830.169 682.308 L
834.348 682.257 L
838.409 683.248 L
842.096 685.217 L
845.177 688.042 L
847.459 691.543 L
848.798 695.503 L
849.111 699.671 L
848.377 703.785 L
846.643 707.588 L
844.018 710.841 L
840.666 713.338 L
836.799 714.923 L
832.659 715.497 L
828.506 715.023 L
824.602 713.532 L
821.191 711.116 L
818.488 707.928 L
816.663 704.167 L
815.831 700.071 L
S
GR
GS
[0.75 0 0 0.75 655.82455 451.46153] CT
0 0 1 RC
10.0 ML
0.667 LW
N
0 -4 M
0 4 L
-4 0 M
4 0 L
-2.828 -2.828 M
2.828 2.828 L
-2.828 2.828 M
2.828 -2.828 L
S
GR
GS
[0.75 0 0 0.75 0 0.5] CT
0 0 1 RC
1 LJ
0.667 LW
N
870.619 604.096 M
870.361 604.198 L
870.54 603.987 L
S
GR
GS
[0.75 0 0 0.75 0 0.5] CT
0 0 1 RC
1 LJ
0.667 LW
N
874.433 601.282 M
870.361 604.198 L
S
GR
GS
[0.75 0 0 0.75 0 0.5] CT
0 0 1 RC
1 LJ
6.667 LW
N
857.918 603.581 M
859.008 607.616 L
861.068 611.253 L
863.968 614.263 L
867.525 616.458 L
871.516 617.699 L
875.69 617.909 L
879.786 617.074 L
883.545 615.246 L
886.731 612.542 L
889.145 609.129 L
890.634 605.224 L
891.106 601.071 L
890.529 596.931 L
888.942 593.065 L
886.442 589.715 L
883.188 587.092 L
879.384 585.36 L
875.269 584.629 L
871.101 584.944 L
867.143 586.286 L
863.642 588.57 L
860.82 591.653 L
858.853 595.341 L
857.865 599.402 L
857.918 603.581 L
S
GR
GS
[0.75 0 0 0.75 660.92029 456.5575] CT
0 0 1 RC
10.0 ML
0.667 LW
N
0 -4 M
0 4 L
-4 0 M
4 0 L
-2.828 -2.828 M
2.828 2.828 L
-2.828 2.828 M
2.828 -2.828 L
S
GR
GS
[0.75 0 0 0.75 0 0.5] CT
0 0 1 RC
1 LJ
0.667 LW
N
877.413 610.891 M
877.155 610.993 L
877.335 610.782 L
S
GR
GS
[0.75 0 0 0.75 0 0.5] CT
0 0 1 RC
1 LJ
0.667 LW
N
881.227 608.077 M
877.155 610.993 L
S
GR
GS
[0.75 0 0 0.75 0 0.5] CT
0 0 1 RC
1 LJ
0.667 LW
N
864.608 609.435 M
864.793 605.259 L
866.009 601.261 L
868.183 597.691 L
871.175 594.773 L
874.8 592.691 L
878.828 591.576 L
883.007 591.498 L
887.074 592.461 L
890.773 594.406 L
893.873 597.209 L
896.179 600.696 L
897.544 604.646 L
897.885 608.812 L
897.179 612.931 L
895.47 616.746 L
892.867 620.016 L
889.532 622.535 L
885.675 624.146 L
881.539 624.748 L
877.383 624.302 L
873.469 622.836 L
870.042 620.443 L
867.318 617.273 L
865.468 613.525 L
864.608 609.435 L
S
GR
GS
[0.75 0 0 0.75 692.40234 488.04015] CT
0 0 1 RC
10.0 ML
0.667 LW
N
0 -4 M
0 4 L
-4 0 M
4 0 L
-2.828 -2.828 M
2.828 2.828 L
-2.828 2.828 M
2.828 -2.828 L
S
GR
GS
[0.75 0 0 0.75 0 0.5] CT
0 0 1 RC
1 LJ
0.667 LW
N
919.389 652.868 M
919.131 652.97 L
919.311 652.758 L
S
GR
GS
[0.75 0 0 0.75 0 0.5] CT
0 0 1 RC
1 LJ
0.667 LW
N
923.203 650.054 M
919.131 652.97 L
S
GR
GS
[0.75 0 0 0.75 0 0.5] CT
0 0 1 RC
1 LJ
0.667 LW
N
906.606 651.659 M
907.527 655.736 L
909.433 659.456 L
912.204 662.585 L
915.666 664.927 L
919.602 666.334 L
923.764 666.718 L
927.89 666.055 L
931.723 664.387 L
935.02 661.818 L
937.574 658.51 L
939.226 654.67 L
939.87 650.54 L
939.468 646.38 L
938.043 642.451 L
935.686 638.999 L
932.545 636.242 L
928.817 634.353 L
924.736 633.45 L
920.558 633.59 L
916.547 634.765 L
912.954 636.901 L
910.005 639.863 L
907.886 643.465 L
906.728 647.482 L
906.606 651.659 L
S
GR
GS
[0.75 0 0 0.75 656.65004 525.44516] CT
0 0 1 RC
10.0 ML
0.667 LW
N
0 -4 M
0 4 L
-4 0 M
4 0 L
-2.828 -2.828 M
2.828 2.828 L
-2.828 2.828 M
2.828 -2.828 L
S
GR
GS
[0.75 0 0 0.75 0 0.5] CT
0 0 1 RC
1 LJ
0.667 LW
N
871.719 702.741 M
871.462 702.843 L
871.641 702.632 L
S
GR
GS
[0.75 0 0 0.75 0 0.5] CT
0 0 1 RC
1 LJ
0.667 LW
N
875.533 699.927 M
871.462 702.843 L
S
GR
GS
[0.75 0 0 0.75 0 0.5] CT
0 0 1 RC
1 LJ
0.667 LW
N
858.926 701.419 M
859.819 705.502 L
861.699 709.235 L
864.449 712.383 L
867.895 714.749 L
871.821 716.183 L
875.98 716.595 L
880.111 715.96 L
883.955 714.318 L
887.269 711.772 L
889.846 708.481 L
891.524 704.653 L
892.197 700.528 L
891.823 696.365 L
890.425 692.426 L
888.092 688.958 L
884.969 686.179 L
881.254 684.265 L
877.179 683.334 L
873.001 683.446 L
868.982 684.594 L
865.375 686.704 L
862.406 689.646 L
860.261 693.234 L
859.077 697.242 L
858.926 701.419 L
S
GR
GS
[0.75 0 0 0.75 656.64999 462.48187] CT
0 0 1 RC
10.0 ML
0.667 LW
N
0 -4 M
0 4 L
-4 0 M
4 0 L
-2.828 -2.828 M
2.828 2.828 L
-2.828 2.828 M
2.828 -2.828 L
S
GR
GS
[0.75 0 0 0.75 0 0.5] CT
0 0 1 RC
1 LJ
0.667 LW
N
871.719 618.79 M
871.462 618.892 L
871.641 618.681 L
S
GR
GS
[0.75 0 0 0.75 0 0.5] CT
0 0 1 RC
1 LJ
0.667 LW
N
875.533 615.976 M
871.462 618.892 L
S
GR
GS
[0.75 0 0 0.75 0 0.5] CT
0 0 1 RC
1 LJ
0.667 LW
N
858.897 617.093 M
859.141 612.921 L
860.416 608.94 L
862.641 605.402 L
865.675 602.528 L
869.329 600.499 L
873.373 599.442 L
877.553 599.424 L
881.606 600.447 L
885.277 602.445 L
888.336 605.293 L
890.59 608.812 L
891.899 612.782 L
892.179 616.952 L
891.413 621.061 L
889.65 624.851 L
886.999 628.082 L
883.628 630.553 L
879.748 632.108 L
875.604 632.65 L
871.455 632.144 L
867.563 630.622 L
864.171 628.179 L
861.493 624.97 L
859.697 621.196 L
858.897 617.093 L
S
GR
GS
[0.75 0 0 0.75 688.13063 493.96187] CT
0 0 1 RC
10.0 ML
0.667 LW
N
0 -4 M
0 4 L
-4 0 M
4 0 L
-2.828 -2.828 M
2.828 2.828 L
-2.828 2.828 M
2.828 -2.828 L
S
GR
GS
[0.75 0 0 0.75 0 0.5] CT
0 0 1 RC
1 LJ
0.667 LW
N
913.693 660.763 M
913.436 660.865 L
913.615 660.654 L
S
GR
GS
[0.75 0 0 0.75 0 0.5] CT
0 0 1 RC
1 LJ
0.667 LW
N
917.508 657.949 M
913.436 660.865 L
S
GR
GS
[0.75 0 0 0.75 0 0.5] CT
0 0 1 RC
1 LJ
6.667 LW
N
900.869 659.043 M
901.664 663.146 L
903.454 666.923 L
906.127 670.136 L
909.516 672.583 L
913.406 674.111 L
917.554 674.623 L
921.699 674.088 L
925.581 672.538 L
928.956 670.072 L
931.611 666.844 L
933.38 663.057 L
934.152 658.95 L
933.878 654.779 L
932.575 650.807 L
930.325 647.285 L
927.271 644.432 L
923.602 642.429 L
919.551 641.401 L
915.371 641.412 L
911.326 642.463 L
907.669 644.487 L
904.63 647.357 L
902.4 650.892 L
901.12 654.871 L
900.869 659.043 L
S
GR
GS
[0.75 0 0 0.75 625.16835 525.44539] CT
0 0 1 RC
10.0 ML
0.667 LW
N
0 -4 M
0 4 L
-4 0 M
4 0 L
-2.828 -2.828 M
2.828 2.828 L
-2.828 2.828 M
2.828 -2.828 L
S
GR
GS
[0.75 0 0 0.75 0 0.5] CT
0 0 1 RC
1 LJ
0.667 LW
N
829.744 702.741 M
829.486 702.843 L
829.665 702.632 L
S
GR
GS
[0.75 0 0 0.75 0 0.5] CT
0 0 1 RC
1 LJ
0.667 LW
N
833.558 699.927 M
829.486 702.843 L
S
GR
GS
[0.75 0 0 0.75 0 0.5] CT
0 0 1 RC
1 LJ
0.667 LW
N
816.929 701.155 M
817.757 705.252 L
819.577 709.014 L
822.276 712.206 L
825.684 714.625 L
829.587 716.122 L
833.739 716.6 L
837.88 716.031 L
841.749 714.451 L
845.104 711.957 L
847.733 708.708 L
849.471 704.907 L
850.209 700.793 L
849.902 696.625 L
848.567 692.664 L
846.289 689.16 L
843.211 686.332 L
839.527 684.358 L
835.468 683.363 L
831.288 683.408 L
827.251 684.492 L
823.611 686.545 L
820.595 689.439 L
818.394 692.992 L
817.146 696.981 L
816.929 701.155 L
S
GR
GS
[0.75 0 0 0.75 661.74522 520.34888] CT
0 0 1 RC
10.0 ML
0.667 LW
N
0 -4 M
0 4 L
-4 0 M
4 0 L
-2.828 -2.828 M
2.828 2.828 L
-2.828 2.828 M
2.828 -2.828 L
S
GR
GS
[0.75 0 0 0.75 0 0.5] CT
0 0 1 RC
1 LJ
0.667 LW
N
878.513 695.946 M
878.255 696.048 L
878.435 695.837 L
S
GR
GS
[0.75 0 0 0.75 0 0.5] CT
0 0 1 RC
1 LJ
0.667 LW
N
882.327 693.132 M
878.255 696.048 L
S
GR
GS
[0.75 0 0 0.75 0 0.5] CT
0 0 1 RC
1 LJ
6.667 LW
N
865.699 694.372 M
865.913 690.198 L
867.158 686.208 L
869.357 682.654 L
872.37 679.757 L
876.009 677.701 L
880.045 676.615 L
884.224 676.566 L
888.284 677.558 L
891.97 679.529 L
895.05 682.355 L
897.331 685.857 L
898.668 689.817 L
898.979 693.985 L
898.244 698.1 L
896.508 701.902 L
893.882 705.153 L
890.529 707.649 L
886.661 709.233 L
882.521 709.805 L
878.368 709.329 L
874.465 707.836 L
871.055 705.419 L
868.353 702.23 L
866.53 698.469 L
865.699 694.372 L
S
GR
GS
[0.75 0 0 0.75 661.74541 457.3855] CT
0 0 1 RC
10.0 ML
0.667 LW
N
0 -4 M
0 4 L
-4 0 M
4 0 L
-2.828 -2.828 M
2.828 2.828 L
-2.828 2.828 M
2.828 -2.828 L
S
GR
GS
[0.75 0 0 0.75 0 0.5] CT
0 0 1 RC
1 LJ
0.667 LW
N
878.513 611.995 M
878.255 612.097 L
878.435 611.886 L
S
GR
GS
[0.75 0 0 0.75 0 0.5] CT
0 0 1 RC
1 LJ
0.667 LW
N
882.327 609.181 M
878.255 612.097 L
S
GR
GS
[0.75 0 0 0.75 0 0.5] CT
0 0 1 RC
1 LJ
0.667 LW
N
865.708 610.531 M
865.894 606.356 L
867.113 602.358 L
869.288 598.788 L
872.282 595.872 L
875.907 593.792 L
879.936 592.679 L
884.115 592.603 L
888.181 593.568 L
891.88 595.514 L
894.979 598.319 L
897.282 601.807 L
898.646 605.758 L
898.985 609.924 L
898.277 614.043 L
896.566 617.857 L
893.961 621.125 L
890.625 623.643 L
886.768 625.253 L
882.632 625.852 L
878.476 625.404 L
874.562 623.937 L
871.137 621.542 L
868.414 618.371 L
866.566 614.622 L
865.708 610.531 L
S
GR
GS
[0.75 0 0 0.75 693.22618 488.86586] CT
0 0 1 RC
10.0 ML
0.667 LW
N
0 -4 M
0 4 L
-4 0 M
4 0 L
-2.828 -2.828 M
2.828 2.828 L
-2.828 2.828 M
2.828 -2.828 L
S
GR
GS
[0.75 0 0 0.75 0 0.5] CT
0 0 1 RC
1 LJ
0.667 LW
N
920.487 653.969 M
920.23 654.07 L
920.409 653.859 L
S
GR
GS
[0.75 0 0 0.75 0 0.5] CT
0 0 1 RC
1 LJ
0.667 LW
N
924.302 651.154 M
920.23 654.07 L
S
GR
GS
[0.75 0 0 0.75 0 0.5] CT
0 0 1 RC
1 LJ
6.667 LW
N
907.707 652.781 M
907.824 648.603 L
908.976 644.585 L
911.091 640.98 L
914.036 638.015 L
917.627 635.875 L
921.636 634.695 L
925.813 634.549 L
929.896 635.446 L
933.626 637.331 L
936.771 640.084 L
939.132 643.533 L
940.562 647.461 L
940.969 651.621 L
940.33 655.751 L
938.683 659.593 L
936.133 662.904 L
932.839 665.477 L
929.009 667.151 L
924.883 667.819 L
920.721 667.44 L
916.783 666.037 L
913.318 663.7 L
910.543 660.574 L
908.633 656.857 L
907.707 652.781 L
S
GR
GS
[0.75 0 0 0.75 655.6902 526.57034] CT
0 0 1 RC
10.0 ML
0.667 LW
N
0 -4 M
0 4 L
-4 0 M
4 0 L
-2.828 -2.828 M
2.828 2.828 L
-2.828 2.828 M
2.828 -2.828 L
S
GR
GS
[0.75 0 0 0.75 0 0.5] CT
0 0 1 RC
1 LJ
0.667 LW
N
870.439 704.241 M
870.182 704.343 L
870.361 704.132 L
S
GR
GS
[0.75 0 0 0.75 0 0.5] CT
0 0 1 RC
1 LJ
0.667 LW
N
874.254 701.427 M
870.182 704.343 L
S
GR
GS
[0.75 0 0 0.75 0 0.5] CT
0 0 1 RC
1 LJ
0.667 LW
N
857.659 703.056 M
857.775 698.878 L
858.927 694.86 L
861.041 691.255 L
863.986 688.289 L
867.576 686.148 L
871.586 684.968 L
875.763 684.821 L
879.845 685.718 L
883.576 687.602 L
886.721 690.355 L
889.083 693.803 L
890.513 697.731 L
890.921 701.891 L
890.283 706.021 L
888.637 709.863 L
886.087 713.175 L
882.793 715.749 L
878.964 717.422 L
874.838 718.091 L
870.675 717.713 L
866.737 716.311 L
863.272 713.975 L
860.497 710.849 L
858.586 707.132 L
857.659 703.056 L
S
GR
GS
[0.75 0 0 0.75 624.20966 526.57149] CT
0 0 1 RC
10.0 ML
0.667 LW
N
0 -4 M
0 4 L
-4 0 M
4 0 L
-2.828 -2.828 M
2.828 2.828 L
-2.828 2.828 M
2.828 -2.828 L
S
GR
GS
[0.75 0 0 0.75 0 0.5] CT
0 0 1 RC
1 LJ
0.667 LW
N
828.465 704.243 M
828.208 704.345 L
828.387 704.134 L
S
GR
GS
[0.75 0 0 0.75 0 0.5] CT
0 0 1 RC
1 LJ
0.667 LW
N
832.28 701.429 M
828.208 704.345 L
S
GR
GS
[0.75 0 0 0.75 0 0.5] CT
0 0 1 RC
1 LJ
0.667 LW
N
815.659 702.762 M
816.513 706.854 L
818.357 710.604 L
821.076 713.778 L
824.499 716.177 L
828.412 717.648 L
832.567 718.1 L
836.704 717.505 L
840.563 715.9 L
843.901 713.385 L
846.51 710.119 L
848.224 706.307 L
848.936 702.189 L
848.602 698.023 L
847.242 694.07 L
844.942 690.58 L
841.847 687.772 L
838.15 685.822 L
834.084 684.852 L
829.905 684.924 L
825.875 686.033 L
822.248 688.11 L
819.251 691.023 L
817.072 694.59 L
815.849 698.587 L
815.659 702.762 L
S
GR
GS
[0.75 0 0 0.75 650.59474 526.57085] CT
0 0 1 RC
10.0 ML
0.667 LW
N
0 -4 M
0 4 L
-4 0 M
4 0 L
-2.828 -2.828 M
2.828 2.828 L
-2.828 2.828 M
2.828 -2.828 L
S
GR
GS
[0.75 0 0 0.75 0 0.5] CT
0 0 1 RC
1 LJ
0.667 LW
N
863.646 704.242 M
863.388 704.344 L
863.567 704.133 L
S
GR
GS
[0.75 0 0 0.75 0 0.5] CT
0 0 1 RC
1 LJ
0.667 LW
N
867.46 701.428 M
863.388 704.344 L
S
GR
GS
[0.75 0 0 0.75 0 0.5] CT
0 0 1 RC
1 LJ
0.667 LW
N
850.839 702.763 M
851.693 706.855 L
853.538 710.605 L
856.258 713.779 L
859.681 716.177 L
863.594 717.648 L
867.749 718.099 L
871.886 717.504 L
875.745 715.898 L
879.083 713.383 L
881.691 710.117 L
883.405 706.305 L
884.117 702.186 L
883.782 698.02 L
882.422 694.068 L
880.121 690.578 L
877.025 687.77 L
873.328 685.82 L
869.262 684.851 L
865.083 684.924 L
861.054 686.033 L
857.426 688.11 L
854.43 691.024 L
852.252 694.591 L
851.029 698.588 L
850.839 702.763 L
S
GR
GS
[0.75 0 0 0.75 619.11429 526.57195] CT
0 0 1 RC
10.0 ML
0.667 LW
N
0 -4 M
0 4 L
-4 0 M
4 0 L
-2.828 -2.828 M
2.828 2.828 L
-2.828 2.828 M
2.828 -2.828 L
S
GR
GS
[0.75 0 0 0.75 0 0.5] CT
0 0 1 RC
1 LJ
0.667 LW
N
821.672 704.243 M
821.414 704.345 L
821.593 704.134 L
S
GR
GS
[0.75 0 0 0.75 0 0.5] CT
0 0 1 RC
1 LJ
0.667 LW
N
825.486 701.429 M
821.414 704.345 L
S
GR
GS
[0.75 0 0 0.75 0 0.5] CT
0 0 1 RC
1 LJ
0.667 LW
N
808.874 702.874 M
809.037 698.697 L
810.233 694.692 L
812.388 691.111 L
815.365 688.178 L
818.979 686.077 L
823.001 684.941 L
827.18 684.841 L
831.252 685.784 L
834.961 687.709 L
838.076 690.497 L
840.399 693.971 L
841.785 697.914 L
842.147 702.078 L
841.463 706.201 L
839.774 710.025 L
837.187 713.308 L
833.866 715.845 L
830.017 717.476 L
825.884 718.099 L
821.726 717.674 L
817.804 716.229 L
814.365 713.854 L
811.625 710.698 L
809.755 706.959 L
808.874 702.874 L
S
GR
GS
[0.75 0 0 0.75 654.86632 526.57199] CT
0 0 1 RC
10.0 ML
0.667 LW
N
0 -4 M
0 4 L
-4 0 M
4 0 L
-2.828 -2.828 M
2.828 2.828 L
-2.828 2.828 M
2.828 -2.828 L
S
GR
GS
[0.75 0 0 0.75 0 0.5] CT
0 0 1 RC
1 LJ
0.667 LW
N
869.341 704.243 M
869.083 704.345 L
869.263 704.134 L
S
GR
GS
[0.75 0 0 0.75 0 0.5] CT
0 0 1 RC
1 LJ
0.667 LW
N
873.155 701.429 M
869.083 704.345 L
S
GR
GS
[0.75 0 0 0.75 0 0.5] CT
0 0 1 RC
1 LJ
0.667 LW
N
856.558 703.036 M
857.48 707.113 L
859.386 710.833 L
862.157 713.962 L
865.619 716.303 L
869.555 717.71 L
873.717 718.094 L
877.844 717.431 L
881.676 715.762 L
884.972 713.193 L
887.527 709.884 L
889.178 706.045 L
889.822 701.915 L
889.419 697.755 L
887.995 693.825 L
885.637 690.374 L
882.496 687.617 L
878.767 685.728 L
874.686 684.826 L
870.509 684.966 L
866.498 686.142 L
862.905 688.277 L
859.956 691.24 L
857.837 694.842 L
856.68 698.859 L
856.558 703.036 L
S
GR
GS
[0.75 0 0 0.75 623.38435 526.57062] CT
0 0 1 RC
10.0 ML
0.667 LW
N
0 -4 M
0 4 L
-4 0 M
4 0 L
-2.828 -2.828 M
2.828 2.828 L
-2.828 2.828 M
2.828 -2.828 L
S
GR
GS
[0.75 0 0 0.75 0 0.5] CT
0 0 1 RC
1 LJ
0.667 LW
N
827.365 704.242 M
827.107 704.343 L
827.287 704.132 L
S
GR
GS
[0.75 0 0 0.75 0 0.5] CT
0 0 1 RC
1 LJ
0.667 LW
N
831.179 701.427 M
827.107 704.343 L
S
GR
GS
[0.75 0 0 0.75 0 0.5] CT
0 0 1 RC
1 LJ
0.667 LW
N
814.559 702.768 M
814.748 698.593 L
815.969 694.595 L
818.146 691.027 L
821.142 688.113 L
824.768 686.035 L
828.798 684.924 L
832.977 684.85 L
837.043 685.818 L
840.74 687.767 L
843.837 690.574 L
846.139 694.063 L
847.5 698.014 L
847.836 702.181 L
847.126 706.299 L
845.413 710.112 L
842.806 713.379 L
839.469 715.895 L
835.61 717.502 L
831.474 718.099 L
827.318 717.648 L
823.405 716.179 L
819.981 713.782 L
817.261 710.609 L
815.414 706.859 L
814.559 702.768 L
S
GR
GS
[0.75 0 0 0.75 618.28876 526.57094] CT
0 0 1 RC
10.0 ML
0.667 LW
N
0 -4 M
0 4 L
-4 0 M
4 0 L
-2.828 -2.828 M
2.828 2.828 L
-2.828 2.828 M
2.828 -2.828 L
S
GR
GS
[0.75 0 0 0.75 0 0.5] CT
0 0 1 RC
1 LJ
0.667 LW
N
820.571 704.242 M
820.313 704.344 L
820.493 704.133 L
S
GR
GS
[0.75 0 0 0.75 0 0.5] CT
0 0 1 RC
1 LJ
0.667 LW
N
824.385 701.428 M
820.313 704.344 L
S
GR
GS
[0.75 0 0 0.75 0 0.5] CT
0 0 1 RC
1 LJ
0.667 LW
N
807.87 703.727 M
807.817 699.547 L
808.805 695.486 L
810.772 691.798 L
813.595 688.716 L
817.095 686.431 L
821.054 685.09 L
825.222 684.775 L
829.337 685.506 L
833.141 687.237 L
836.395 689.861 L
838.894 693.211 L
840.482 697.077 L
841.058 701.217 L
840.587 705.37 L
839.097 709.275 L
836.683 712.688 L
833.497 715.392 L
829.738 717.22 L
825.642 718.055 L
821.468 717.845 L
817.477 716.604 L
813.92 714.409 L
811.02 711.399 L
808.96 707.762 L
807.87 703.727 L
S
GR
GS
[0.75 0 0 0.75 0 0.5] CT
1 GC
N
/f14552094{1449 217 M
1449 84 L
1249 84 L
1249 217 L
cp}def
f14552094
f
GR
GS
[0.75 0 0 0.75 972 77] CT
/Helvetica-Bold 26.667 F
GS
[1 0 0 1 0 0] CT
0 9 moveto 
1 -1 scale
(LandMark) t 
GR
GR
GS
[0.75 0 0 0.75 954.75 77] CT
1 0 0 RC
N
/f935408997{0 -17.773 M
-15.392 8.887 L
15.392 8.887 L
cp}def
f935408997
f
GR
GS
[0.75 0 0 0.75 954.75 77] CT
0 0 1 RC
10.0 ML
0.667 LW
N
0 -17.773 M
-15.392 8.887 L
15.392 8.887 L
cp
S
GR
GS
[0.75 0 0 0.75 972 114.5] CT
/Helvetica-Bold 26.667 F
GS
[1 0 0 1 0 0] CT
0 0 moveto 
1 -1 scale
(b) t 
GR
GR
GS
[0.75 0 0 0.75 987 104.75] CT
/Helvetica-Bold 21.333 F
GS
[1 0 0 1 0 0] CT
0 0 moveto 
1 -1 scale
(-) t 
GR
GR
GS
[0.75 0 0 0.75 993.75 114.5] CT
/Helvetica-Bold 26.667 F
GS
[1 0 0 1 0 0] CT
0 0 moveto 
1 -1 scale
([X) t 
GR
GR
GS
[0.75 0 0 0.75 1018.5 124.25] CT
/Helvetica-Bold 21.333 F
GS
[1 0 0 1 0 0] CT
0 0 moveto 
1 -1 scale
(k) t 
GR
GR
GS
[0.75 0 0 0.75 1029.75 114.5] CT
/Helvetica-Bold 26.667 F
GS
[1 0 0 1 0 0] CT
0 0 moveto 
1 -1 scale
(]) t 
GR
GR
GS
[0.75 0 0 0.75 0 0.5] CT
0 1 1 RC
1 LJ
0.667 LW
N
1253 144.5 M
1293 144.5 L
S
GR
GS
[0.75 0 0 0.75 972 147.5] CT
/Helvetica-Bold 26.667 F
GS
[1 0 0 1 0 0] CT
0 0 moveto 
1 -1 scale
(b[X) t 
GR
GR
GS
[0.75 0 0 0.75 1011 157.25] CT
/Helvetica-Bold 21.333 F
GS
[1 0 0 1 0 0] CT
0 0 moveto 
1 -1 scale
(k) t 
GR
GR
GS
[0.75 0 0 0.75 1022.25 147.5] CT
/Helvetica-Bold 26.667 F
GS
[1 0 0 1 0 0] CT
0 0 moveto 
1 -1 scale
(]) t 
GR
GR
GS
[0.75 0 0 0.75 0 0.5] CT
0 0 1 RC
1 LJ
0.667 LW
N
1253 193 M
1293 193 L
S
GR
GS
[0.75 0 0 0.75 0 0.5] CT
0.149 GC
10.0 ML
0.667 LW
N
1249 217 M
1249 84 L
1449 84 L
1449 217 L
cp
S
GR
%%Trailer
%%Pages: 1
%%EOF
