%!PS-Adobe-3.0 EPSF-3.0
%%Creator: (MATLAB, The Mathworks, Inc. Version 9.8.0.1380330 \(R2020a\) Update 2. Operating System: Linux)
%%Title: (/home/ohads/ANPL/papers/research/2021 RAL/Figures/TestCase_1/fig_files/Robots_estimation_k_1.epsc)
%%CreationDate: 2021-02-22T18:57:53
%%Pages: (atend)
%%BoundingBox:   274     0  1109   643
%%LanguageLevel: 3
%%EndComments
%%BeginProlog
%%BeginResource: procset (Apache XML Graphics Std ProcSet) 1.2 0
%%Version: 1.2 0
%%Copyright: (Copyright 2001-2003,2010 The Apache Software Foundation. License terms: http://www.apache.org/licenses/LICENSE-2.0)
/bd{bind def}bind def
/ld{load def}bd
/GR/grestore ld
/GS/gsave ld
/RM/rmoveto ld
/C/curveto ld
/t/show ld
/L/lineto ld
/ML/setmiterlimit ld
/CT/concat ld
/f/fill ld
/N/newpath ld
/S/stroke ld
/CC/setcmykcolor ld
/A/ashow ld
/cp/closepath ld
/RC/setrgbcolor ld
/LJ/setlinejoin ld
/GC/setgray ld
/LW/setlinewidth ld
/M/moveto ld
/re {4 2 roll M
1 index 0 rlineto
0 exch rlineto
neg 0 rlineto
cp } bd
/_ctm matrix def
/_tm matrix def
/BT { _ctm currentmatrix pop matrix _tm copy pop 0 0 moveto } bd
/ET { _ctm setmatrix } bd
/iTm { _ctm setmatrix _tm concat } bd
/Tm { _tm astore pop iTm 0 0 moveto } bd
/ux 0.0 def
/uy 0.0 def
/F {
  /Tp exch def
  /Tf exch def
  Tf findfont Tp scalefont setfont
  /cf Tf def  /cs Tp def
} bd
/ULS {currentpoint /uy exch def /ux exch def} bd
/ULE {
  /Tcx currentpoint pop def
  gsave
  newpath
  cf findfont cs scalefont dup
  /FontMatrix get 0 get /Ts exch def /FontInfo get dup
  /UnderlinePosition get Ts mul /To exch def
  /UnderlineThickness get Ts mul /Tt exch def
  ux uy To add moveto  Tcx uy To add lineto
  Tt setlinewidth stroke
  grestore
} bd
/OLE {
  /Tcx currentpoint pop def
  gsave
  newpath
  cf findfont cs scalefont dup
  /FontMatrix get 0 get /Ts exch def /FontInfo get dup
  /UnderlinePosition get Ts mul /To exch def
  /UnderlineThickness get Ts mul /Tt exch def
  ux uy To add cs add moveto Tcx uy To add cs add lineto
  Tt setlinewidth stroke
  grestore
} bd
/SOE {
  /Tcx currentpoint pop def
  gsave
  newpath
  cf findfont cs scalefont dup
  /FontMatrix get 0 get /Ts exch def /FontInfo get dup
  /UnderlinePosition get Ts mul /To exch def
  /UnderlineThickness get Ts mul /Tt exch def
  ux uy To add cs 10 mul 26 idiv add moveto Tcx uy To add cs 10 mul 26 idiv add lineto
  Tt setlinewidth stroke
  grestore
} bd
/QT {
/Y22 exch store
/X22 exch store
/Y21 exch store
/X21 exch store
currentpoint
/Y21 load 2 mul add 3 div exch
/X21 load 2 mul add 3 div exch
/X21 load 2 mul /X22 load add 3 div
/Y21 load 2 mul /Y22 load add 3 div
/X22 load /Y22 load curveto
} bd
/SSPD {
dup length /d exch dict def
{
/v exch def
/k exch def
currentpagedevice k known {
/cpdv currentpagedevice k get def
v cpdv ne {
/upd false def
/nullv v type /nulltype eq def
/nullcpdv cpdv type /nulltype eq def
nullv nullcpdv or
{
/upd true def
} {
/sametype v type cpdv type eq def
sametype {
v type /arraytype eq {
/vlen v length def
/cpdvlen cpdv length def
vlen cpdvlen eq {
0 1 vlen 1 sub {
/i exch def
/obj v i get def
/cpdobj cpdv i get def
obj cpdobj ne {
/upd true def
exit
} if
} for
} {
/upd true def
} ifelse
} {
v type /dicttype eq {
v {
/dv exch def
/dk exch def
/cpddv cpdv dk get def
dv cpddv ne {
/upd true def
exit
} if
} forall
} {
/upd true def
} ifelse
} ifelse
} if
} ifelse
upd true eq {
d k v put
} if
} if
} if
} forall
d length 0 gt {
d setpagedevice
} if
} bd
/RE { % /NewFontName [NewEncodingArray] /FontName RE -
  findfont dup length dict begin
  {
    1 index /FID ne
    {def} {pop pop} ifelse
  } forall
  /Encoding exch def
  /FontName 1 index def
  currentdict definefont pop
  end
} bind def
%%EndResource
%%BeginResource: procset (Apache XML Graphics EPS ProcSet) 1.0 0
%%Version: 1.0 0
%%Copyright: (Copyright 2002-2003 The Apache Software Foundation. License terms: http://www.apache.org/licenses/LICENSE-2.0)
/BeginEPSF { %def
/b4_Inc_state save def         % Save state for cleanup
/dict_count countdictstack def % Count objects on dict stack
/op_count count 1 sub def      % Count objects on operand stack
userdict begin                 % Push userdict on dict stack
/showpage { } def              % Redefine showpage, { } = null proc
0 setgray 0 setlinecap         % Prepare graphics state
1 setlinewidth 0 setlinejoin
10 setmiterlimit [ ] 0 setdash newpath
/languagelevel where           % If level not equal to 1 then
{pop languagelevel             % set strokeadjust and
1 ne                           % overprint to their defaults.
{false setstrokeadjust false setoverprint
} if
} if
} bd
/EndEPSF { %def
count op_count sub {pop} repeat            % Clean up stacks
countdictstack dict_count sub {end} repeat
b4_Inc_state restore
} bd
%%EndResource
%FOPBeginFontDict
%%IncludeResource: font Courier-Oblique
%%IncludeResource: font Courier-BoldOblique
%%IncludeResource: font Courier-Bold
%%IncludeResource: font ZapfDingbats
%%IncludeResource: font Symbol
%%IncludeResource: font Helvetica
%%IncludeResource: font Helvetica-Oblique
%%IncludeResource: font Helvetica-Bold
%%IncludeResource: font Helvetica-BoldOblique
%%IncludeResource: font Times-Roman
%%IncludeResource: font Times-Italic
%%IncludeResource: font Times-Bold
%%IncludeResource: font Times-BoldItalic
%%IncludeResource: font Courier
%FOPEndFontDict
%%BeginResource: encoding WinAnsiEncoding
/WinAnsiEncoding [
/.notdef /.notdef /.notdef /.notdef /.notdef
/.notdef /.notdef /.notdef /.notdef /.notdef
/.notdef /.notdef /.notdef /.notdef /.notdef
/.notdef /.notdef /.notdef /.notdef /.notdef
/.notdef /.notdef /.notdef /.notdef /.notdef
/.notdef /.notdef /.notdef /.notdef /.notdef
/.notdef /.notdef /space /exclam /quotedbl
/numbersign /dollar /percent /ampersand /quotesingle
/parenleft /parenright /asterisk /plus /comma
/hyphen /period /slash /zero /one
/two /three /four /five /six
/seven /eight /nine /colon /semicolon
/less /equal /greater /question /at
/A /B /C /D /E
/F /G /H /I /J
/K /L /M /N /O
/P /Q /R /S /T
/U /V /W /X /Y
/Z /bracketleft /backslash /bracketright /asciicircum
/underscore /quoteleft /a /b /c
/d /e /f /g /h
/i /j /k /l /m
/n /o /p /q /r
/s /t /u /v /w
/x /y /z /braceleft /bar
/braceright /asciitilde /bullet /Euro /bullet
/quotesinglbase /florin /quotedblbase /ellipsis /dagger
/daggerdbl /circumflex /perthousand /Scaron /guilsinglleft
/OE /bullet /Zcaron /bullet /bullet
/quoteleft /quoteright /quotedblleft /quotedblright /bullet
/endash /emdash /asciitilde /trademark /scaron
/guilsinglright /oe /bullet /zcaron /Ydieresis
/space /exclamdown /cent /sterling /currency
/yen /brokenbar /section /dieresis /copyright
/ordfeminine /guillemotleft /logicalnot /sfthyphen /registered
/macron /degree /plusminus /twosuperior /threesuperior
/acute /mu /paragraph /middot /cedilla
/onesuperior /ordmasculine /guillemotright /onequarter /onehalf
/threequarters /questiondown /Agrave /Aacute /Acircumflex
/Atilde /Adieresis /Aring /AE /Ccedilla
/Egrave /Eacute /Ecircumflex /Edieresis /Igrave
/Iacute /Icircumflex /Idieresis /Eth /Ntilde
/Ograve /Oacute /Ocircumflex /Otilde /Odieresis
/multiply /Oslash /Ugrave /Uacute /Ucircumflex
/Udieresis /Yacute /Thorn /germandbls /agrave
/aacute /acircumflex /atilde /adieresis /aring
/ae /ccedilla /egrave /eacute /ecircumflex
/edieresis /igrave /iacute /icircumflex /idieresis
/eth /ntilde /ograve /oacute /ocircumflex
/otilde /odieresis /divide /oslash /ugrave
/uacute /ucircumflex /udieresis /yacute /thorn
/ydieresis
] def
%%EndResource
%FOPBeginFontReencode
/Courier-Oblique findfont
dup length dict begin
  {1 index /FID ne {def} {pop pop} ifelse} forall
  /Encoding WinAnsiEncoding def
  currentdict
end
/Courier-Oblique exch definefont pop
/Courier-BoldOblique findfont
dup length dict begin
  {1 index /FID ne {def} {pop pop} ifelse} forall
  /Encoding WinAnsiEncoding def
  currentdict
end
/Courier-BoldOblique exch definefont pop
/Courier-Bold findfont
dup length dict begin
  {1 index /FID ne {def} {pop pop} ifelse} forall
  /Encoding WinAnsiEncoding def
  currentdict
end
/Courier-Bold exch definefont pop
/Helvetica findfont
dup length dict begin
  {1 index /FID ne {def} {pop pop} ifelse} forall
  /Encoding WinAnsiEncoding def
  currentdict
end
/Helvetica exch definefont pop
/Helvetica-Oblique findfont
dup length dict begin
  {1 index /FID ne {def} {pop pop} ifelse} forall
  /Encoding WinAnsiEncoding def
  currentdict
end
/Helvetica-Oblique exch definefont pop
/Helvetica-Bold findfont
dup length dict begin
  {1 index /FID ne {def} {pop pop} ifelse} forall
  /Encoding WinAnsiEncoding def
  currentdict
end
/Helvetica-Bold exch definefont pop
/Helvetica-BoldOblique findfont
dup length dict begin
  {1 index /FID ne {def} {pop pop} ifelse} forall
  /Encoding WinAnsiEncoding def
  currentdict
end
/Helvetica-BoldOblique exch definefont pop
/Times-Roman findfont
dup length dict begin
  {1 index /FID ne {def} {pop pop} ifelse} forall
  /Encoding WinAnsiEncoding def
  currentdict
end
/Times-Roman exch definefont pop
/Times-Italic findfont
dup length dict begin
  {1 index /FID ne {def} {pop pop} ifelse} forall
  /Encoding WinAnsiEncoding def
  currentdict
end
/Times-Italic exch definefont pop
/Times-Bold findfont
dup length dict begin
  {1 index /FID ne {def} {pop pop} ifelse} forall
  /Encoding WinAnsiEncoding def
  currentdict
end
/Times-Bold exch definefont pop
/Times-BoldItalic findfont
dup length dict begin
  {1 index /FID ne {def} {pop pop} ifelse} forall
  /Encoding WinAnsiEncoding def
  currentdict
end
/Times-BoldItalic exch definefont pop
/Courier findfont
dup length dict begin
  {1 index /FID ne {def} {pop pop} ifelse} forall
  /Encoding WinAnsiEncoding def
  currentdict
end
/Courier exch definefont pop
%FOPEndFontReencode
%%EndProlog
%%Page: 1 1
%%PageBoundingBox: 0 0 1390 728
%%BeginPageSetup
[1 0 0 -1 0 728] CT
%%EndPageSetup
GS
[0.75 0 0 0.75 0 0.5] CT
1 GC
N
0 0 1853 970 re
f
GR
GS
[0.75 0 0 0.75 0 0.5] CT
1 GC
N
0 0 1853 970 re
f
GR
GS
[0.75 0 0 0.75 0 0.5] CT
1 GC
N
458.182 904 M
1459.818 904 L
1459.818 114 L
458.182 114 L
cp
f
GR
GS
[0.75 0 0 0.75 0 0.5] CT
0.149 GC
2 setlinecap
1 LJ
0.667 LW
N
458.182 904 M
1459.818 904 L
S
GR
GS
[0.75 0 0 0.75 0 0.5] CT
0.149 GC
2 setlinecap
1 LJ
0.667 LW
N
458.182 904 M
458.182 893.984 L
S
GR
GS
[0.75 0 0 0.75 0 0.5] CT
0.149 GC
2 setlinecap
1 LJ
0.667 LW
N
708.591 904 M
708.591 893.984 L
S
GR
GS
[0.75 0 0 0.75 0 0.5] CT
0.149 GC
2 setlinecap
1 LJ
0.667 LW
N
959 904 M
959 893.984 L
S
GR
GS
[0.75 0 0 0.75 0 0.5] CT
0.149 GC
2 setlinecap
1 LJ
0.667 LW
N
1209.409 904 M
1209.409 893.984 L
S
GR
GS
[0.75 0 0 0.75 0 0.5] CT
0.149 GC
2 setlinecap
1 LJ
0.667 LW
N
1459.818 904 M
1459.818 893.984 L
S
GR
GS
[0.75 0 0 0.75 343.63651 685.49998] CT
0.149 GC
/Helvetica 33.333 F
GS
[1 0 0 1 0 0] CT
-17 31 moveto 
1 -1 scale
(-5) t 
GR
GR
GS
[0.75 0 0 0.75 531.44325 685.49998] CT
0.149 GC
/Helvetica 33.333 F
GS
[1 0 0 1 0 0] CT
-11 31 moveto 
1 -1 scale
(0) t 
GR
GR
GS
[0.75 0 0 0.75 719.25 685.49998] CT
0.149 GC
/Helvetica 33.333 F
GS
[1 0 0 1 0 0] CT
-11 31 moveto 
1 -1 scale
(5) t 
GR
GR
GS
[0.75 0 0 0.75 907.05679 685.49998] CT
0.149 GC
/Helvetica 33.333 F
GS
[1 0 0 1 0 0] CT
-21.5 31 moveto 
1 -1 scale
(10) t 
GR
GR
GS
[0.75 0 0 0.75 1094.86349 685.49998] CT
0.149 GC
/Helvetica 33.333 F
GS
[1 0 0 1 0 0] CT
-21.5 31 moveto 
1 -1 scale
(15) t 
GR
GR
GS
[0.75 0 0 0.75 719.25037 715.74997] CT
0.149 GC
/Helvetica 36.667 F
GS
[1 0 0 1 0 0] CT
-22.5 35 moveto 
1 -1 scale
(Xs) t 
GR
GR
GS
[0.75 0 0 0.75 0 0.5] CT
0.149 GC
2 setlinecap
1 LJ
0.667 LW
N
458.182 904 M
458.182 114 L
S
GR
GS
[0.75 0 0 0.75 0 0.5] CT
0.149 GC
2 setlinecap
1 LJ
0.667 LW
N
458.182 899.982 M
468.198 899.982 L
S
GR
GS
[0.75 0 0 0.75 0 0.5] CT
0.149 GC
2 setlinecap
1 LJ
0.667 LW
N
458.182 799.818 M
468.198 799.818 L
S
GR
GS
[0.75 0 0 0.75 0 0.5] CT
0.149 GC
2 setlinecap
1 LJ
0.667 LW
N
458.182 699.655 M
468.198 699.655 L
S
GR
GS
[0.75 0 0 0.75 0 0.5] CT
0.149 GC
2 setlinecap
1 LJ
0.667 LW
N
458.182 599.491 M
468.198 599.491 L
S
GR
GS
[0.75 0 0 0.75 0 0.5] CT
0.149 GC
2 setlinecap
1 LJ
0.667 LW
N
458.182 499.327 M
468.198 499.327 L
S
GR
GS
[0.75 0 0 0.75 0 0.5] CT
0.149 GC
2 setlinecap
1 LJ
0.667 LW
N
458.182 399.164 M
468.198 399.164 L
S
GR
GS
[0.75 0 0 0.75 0 0.5] CT
0.149 GC
2 setlinecap
1 LJ
0.667 LW
N
458.182 299 M
468.198 299 L
S
GR
GS
[0.75 0 0 0.75 0 0.5] CT
0.149 GC
2 setlinecap
1 LJ
0.667 LW
N
458.182 198.837 M
468.198 198.837 L
S
GR
GS
[0.75 0 0 0.75 336.6365 675.4864] CT
0.149 GC
/Helvetica 33.333 F
GS
[1 0 0 1 0 0] CT
-34 11.5 moveto 
1 -1 scale
(-4) t 
GR
GR
GS
[0.75 0 0 0.75 336.6365 600.36372] CT
0.149 GC
/Helvetica 33.333 F
GS
[1 0 0 1 0 0] CT
-34 11.5 moveto 
1 -1 scale
(-2) t 
GR
GR
GS
[0.75 0 0 0.75 336.6365 525.241] CT
0.149 GC
/Helvetica 33.333 F
GS
[1 0 0 1 0 0] CT
-22 11.5 moveto 
1 -1 scale
(0) t 
GR
GR
GS
[0.75 0 0 0.75 336.6365 450.11832] CT
0.149 GC
/Helvetica 33.333 F
GS
[1 0 0 1 0 0] CT
-22 11.5 moveto 
1 -1 scale
(2) t 
GR
GR
GS
[0.75 0 0 0.75 336.6365 374.99561] CT
0.149 GC
/Helvetica 33.333 F
GS
[1 0 0 1 0 0] CT
-22 11.5 moveto 
1 -1 scale
(4) t 
GR
GR
GS
[0.75 0 0 0.75 336.6365 299.87291] CT
0.149 GC
/Helvetica 33.333 F
GS
[1 0 0 1 0 0] CT
-22 11.5 moveto 
1 -1 scale
(6) t 
GR
GR
GS
[0.75 0 0 0.75 336.6365 224.75021] CT
0.149 GC
/Helvetica 33.333 F
GS
[1 0 0 1 0 0] CT
-22 11.5 moveto 
1 -1 scale
(8) t 
GR
GR
GS
[0.75 0 0 0.75 336.6365 149.6275] CT
0.149 GC
/Helvetica 33.333 F
GS
[1 0 0 1 0 0] CT
-43 11.5 moveto 
1 -1 scale
(10) t 
GR
GR
GS
[0 -0.75 0.75 0 301.3865 382.2497] CT
0.149 GC
/Helvetica 36.667 F
GS
[1 0 0 1 0 0] CT
-21 -9 moveto 
1 -1 scale
(Ys) t 
GR
GR
GS
[0.75 0 0 0.75 794.37268 487.67966] CT
1 0 0 RC
N
0 -26.66 M
-23.088 13.33 L
23.088 13.33 L
cp
f
GR
GS
[0.75 0 0 0.75 794.37268 487.67966] CT
0 0 1 RC
10.0 ML
0.667 LW
N
0 -26.66 M
-23.088 13.33 L
23.088 13.33 L
cp
S
GR
GS
[0.75 0 0 0.75 606.56593 224.75021] CT
1 0 0 RC
N
/f-1996900118{0 -26.66 M
-23.088 13.33 L
23.088 13.33 L
cp}def
f-1996900118
f
GR
GS
[0.75 0 0 0.75 606.56593 224.75021] CT
0 0 1 RC
10.0 ML
0.667 LW
N
0 -26.66 M
-23.088 13.33 L
23.088 13.33 L
cp
S
GR
GS
[0.75 0 0 0.75 794.37268 412.55698] CT
1 0 0 RC
N
f-1996900118
f
GR
GS
[0.75 0 0 0.75 794.37268 412.55698] CT
0 0 1 RC
10.0 ML
0.667 LW
N
0 -26.66 M
-23.088 13.33 L
23.088 13.33 L
cp
S
GR
GS
[0.75 0 0 0.75 719.25 224.75021] CT
1 0 0 RC
N
f-1996900118
f
GR
GS
[0.75 0 0 0.75 719.25 224.75021] CT
0 0 1 RC
10.0 ML
0.667 LW
N
0 -26.66 M
-23.088 13.33 L
23.088 13.33 L
cp
S
GR
GS
[0.75 0 0 0.75 831.93402 450.11832] CT
1 0 0 RC
N
f-1996900118
f
GR
GS
[0.75 0 0 0.75 831.93402 450.11832] CT
0 0 1 RC
10.0 ML
0.667 LW
N
0 -26.66 M
-23.088 13.33 L
23.088 13.33 L
cp
S
GR
GS
[0.75 0 0 0.75 756.81134 224.75021] CT
1 0 0 RC
N
f-1996900118
f
GR
GS
[0.75 0 0 0.75 756.81134 224.75021] CT
0 0 1 RC
10.0 ML
0.667 LW
N
0 -26.66 M
-23.088 13.33 L
23.088 13.33 L
cp
S
GR
GS
[0.75 0 0 0.75 794.37268 299.87291] CT
1 0 0 RC
N
f-1996900118
f
GR
GS
[0.75 0 0 0.75 794.37268 299.87291] CT
0 0 1 RC
10.0 ML
0.667 LW
N
0 -26.66 M
-23.088 13.33 L
23.088 13.33 L
cp
S
GR
GS
[0.75 0 0 0.75 756.81134 487.67966] CT
1 0 0 RC
N
f-1996900118
f
GR
GS
[0.75 0 0 0.75 756.81134 487.67966] CT
0 0 1 RC
10.0 ML
0.667 LW
N
0 -26.66 M
-23.088 13.33 L
23.088 13.33 L
cp
S
GR
GS
[0.75 0 0 0.75 613.71199 474.84978] CT
0 1 1 RC
10.0 ML
0.667 LW
N
0 -4 M
0 4 L
-4 0 M
4 0 L
-2.828 -2.828 M
2.828 2.828 L
-2.828 2.828 M
2.828 -2.828 L
S
GR
GS
[0.75 0 0 0.75 0 0.5] CT
0 1 1 RC
1 LJ
6.667 LW
N
822.083 635.31 M
822.251 635.522 L
822.003 635.414 L
S
GR
GS
[0.75 0 0 0.75 0 0.5] CT
0 1 1 RC
1 LJ
6.667 LW
N
818.283 632.466 M
822.251 635.522 L
S
GR
GS
[0.75 0 0 0.75 0 0.5] CT
0 1 1 RC
1 LJ
6.667 LW
N
776.376 632.482 M
777.701 654.044 L
781.575 674.25 L
787.757 691.831 L
795.856 705.681 L
805.364 714.931 L
815.685 719 L
826.168 717.631 L
836.156 710.911 L
845.021 699.262 L
852.206 683.416 L
857.259 664.369 L
859.863 643.317 L
859.855 621.584 L
857.234 600.534 L
852.166 581.49 L
844.969 565.65 L
836.096 554.008 L
826.102 547.296 L
815.618 545.935 L
805.301 550.012 L
795.8 559.269 L
787.711 573.126 L
781.543 590.711 L
777.684 610.92 L
776.376 632.482 L
S
GR
GS
[0.75 0 0 0.75 631.41284 509.81148] CT
0 0 1 RC
10.0 ML
0.667 LW
N
0 -4 M
0 4 L
-4 0 M
4 0 L
-2.828 -2.828 M
2.828 2.828 L
-2.828 2.828 M
2.828 -2.828 L
S
GR
GS
[0.75 0 0 0.75 0 0.5] CT
0 0 1 RC
1 LJ
6.667 LW
N
845.684 681.926 M
845.852 682.138 L
845.604 682.03 L
S
GR
GS
[0.75 0 0 0.75 0 0.5] CT
0 0 1 RC
1 LJ
6.667 LW
N
841.884 679.082 M
845.852 682.138 L
S
GR
GS
[0.75 0 0 0.75 0 0.5] CT
0 0 1 RC
1 LJ
6.667 LW
N
825.182 679.082 M
825.706 683.514 L
827.248 687.668 L
829.708 691.283 L
832.934 694.131 L
836.722 696.033 L
840.835 696.871 L
845.013 696.59 L
848.995 695.21 L
852.53 692.816 L
855.396 689.559 L
857.413 685.644 L
858.454 681.316 L
858.454 676.848 L
857.413 672.521 L
855.396 668.606 L
852.53 665.349 L
848.995 662.955 L
845.014 661.574 L
840.835 661.293 L
836.723 662.13 L
832.935 664.033 L
829.709 666.88 L
827.248 670.495 L
825.707 674.649 L
825.182 679.082 L
S
GR
GS
[0.75 0 0 0.75 631.41106 437.86595] CT
0 0 1 RC
10.0 ML
0.667 LW
N
0 -4 M
0 4 L
-4 0 M
4 0 L
-2.828 -2.828 M
2.828 2.828 L
-2.828 2.828 M
2.828 -2.828 L
S
GR
GS
[0.75 0 0 0.75 0 0.5] CT
0 0 1 RC
1 LJ
6.667 LW
N
845.682 585.999 M
845.849 586.21 L
845.602 586.102 L
S
GR
GS
[0.75 0 0 0.75 0 0.5] CT
0 0 1 RC
1 LJ
6.667 LW
N
841.881 583.155 M
845.849 586.21 L
S
GR
GS
[0.75 0 0 0.75 0 0.5] CT
0 0 1 RC
1 LJ
6.667 LW
N
825.179 583.154 M
825.704 587.587 L
827.245 591.741 L
829.706 595.356 L
832.932 598.204 L
836.72 600.106 L
840.832 600.943 L
845.011 600.663 L
848.992 599.282 L
852.527 596.888 L
855.393 593.631 L
857.41 589.716 L
858.452 585.389 L
858.452 580.921 L
857.411 576.593 L
855.394 572.678 L
852.528 569.421 L
848.993 567.027 L
845.011 565.646 L
840.833 565.366 L
836.721 566.203 L
832.932 568.105 L
829.706 570.953 L
827.245 574.568 L
825.704 578.722 L
825.179 583.154 L
S
GR
GS
[0.75 0 0 0.75 662.99712 473.8383] CT
0 0 1 RC
10.0 ML
0.667 LW
N
0 -4 M
0 4 L
-4 0 M
4 0 L
-2.828 -2.828 M
2.828 2.828 L
-2.828 2.828 M
2.828 -2.828 L
S
GR
GS
[0.75 0 0 0.75 0 0.5] CT
0 0 1 RC
1 LJ
6.667 LW
N
887.797 633.962 M
887.964 634.173 L
887.717 634.065 L
S
GR
GS
[0.75 0 0 0.75 0 0.5] CT
0 0 1 RC
1 LJ
6.667 LW
N
883.996 631.118 M
887.964 634.173 L
S
GR
GS
[0.75 0 0 0.75 0 0.5] CT
0 0 1 RC
1 LJ
6.667 LW
N
867.294 631.117 M
867.819 635.55 L
869.36 639.704 L
871.821 643.319 L
875.047 646.167 L
878.835 648.069 L
882.947 648.906 L
887.125 648.626 L
891.107 647.245 L
894.642 644.852 L
897.508 641.595 L
899.525 637.68 L
900.566 633.352 L
900.567 628.884 L
899.525 624.557 L
897.509 620.641 L
894.643 617.384 L
891.108 614.99 L
887.126 613.61 L
882.948 613.329 L
878.835 614.166 L
875.047 616.068 L
871.821 618.916 L
869.36 622.531 L
867.819 626.685 L
867.294 631.117 L
S
GR
GS
[0.75 0 0 0.75 599.82527 509.81248] CT
1 0.075 0.651 RC
10.0 ML
0.667 LW
N
0 -4 M
0 4 L
-4 0 M
4 0 L
-2.828 -2.828 M
2.828 2.828 L
-2.828 2.828 M
2.828 -2.828 L
S
GR
GS
[0.75 0 0 0.75 0 0.5] CT
1 0.075 0.651 RC
1 LJ
6.667 LW
N
803.567 681.927 M
803.735 682.139 L
803.488 682.031 L
S
GR
GS
[0.75 0 0 0.75 0 0.5] CT
1 0.075 0.651 RC
1 LJ
6.667 LW
N
799.767 679.083 M
803.735 682.139 L
S
GR
GS
[0.75 0 0 0.75 0 0.5] CT
1 0.075 0.651 RC
1 LJ
6.667 LW
N
783.065 679.083 M
783.59 683.516 L
785.131 687.67 L
787.592 691.284 L
790.817 694.132 L
794.605 696.035 L
798.718 696.872 L
802.896 696.592 L
806.878 695.211 L
810.413 692.817 L
813.279 689.56 L
815.296 685.645 L
816.337 681.318 L
816.337 676.85 L
815.296 672.522 L
813.279 668.607 L
810.414 665.35 L
806.879 662.956 L
802.897 661.575 L
798.719 661.295 L
794.606 662.132 L
790.818 664.034 L
787.592 666.882 L
785.131 670.496 L
783.59 674.65 L
783.065 679.083 L
S
GR
GS
[0.75 0 0 0.75 0 0.5] CT
1 GC
N
/f-985848978{1449 318 M
1449 125 L
1249 125 L
1249 318 L
cp}def
f-985848978
f
GR
GS
[0.75 0 0 0.75 972 107.71512] CT
/Helvetica-Bold 26.667 F
GS
[1 0 0 1 0 0] CT
0 9 moveto 
1 -1 scale
(LandMark) t 
GR
GR
GS
[0.75 0 0 0.75 954.75 107.71512] CT
1 0 0 RC
N
/f935408997{0 -17.773 M
-15.392 8.887 L
15.392 8.887 L
cp}def
f935408997
f
GR
GS
[0.75 0 0 0.75 954.75 107.71512] CT
0 0 1 RC
10.0 ML
0.667 LW
N
0 -17.773 M
-15.392 8.887 L
15.392 8.887 L
cp
S
GR
GS
[0.75 0 0 0.75 972 144.5] CT
/Helvetica-Bold 26.667 F
GS
[1 0 0 1 0 0] CT
0 0 moveto 
1 -1 scale
(b) t 
GR
GR
GS
[0.75 0 0 0.75 987 134.75] CT
/Helvetica-Bold 21.333 F
GS
[1 0 0 1 0 0] CT
0 0 moveto 
1 -1 scale
(-) t 
GR
GR
GS
[0.75 0 0 0.75 993.75 144.5] CT
/Helvetica-Bold 26.667 F
GS
[1 0 0 1 0 0] CT
0 0 moveto 
1 -1 scale
([X) t 
GR
GR
GS
[0.75 0 0 0.75 1018.5 154.25] CT
/Helvetica-Bold 21.333 F
GS
[1 0 0 1 0 0] CT
0 0 moveto 
1 -1 scale
(k) t 
GR
GR
GS
[0.75 0 0 0.75 1029.75 144.5] CT
/Helvetica-Bold 26.667 F
GS
[1 0 0 1 0 0] CT
0 0 moveto 
1 -1 scale
(]) t 
GR
GR
GS
[0.75 0 0 0.75 0 0.5] CT
0 1 1 RC
1 LJ
6.667 LW
N
1253 185.344 M
1293 185.344 L
S
GR
GS
[0.75 0 0 0.75 972 184.25] CT
/Helvetica-Bold 26.667 F
GS
[1 0 0 1 0 0] CT
0 0 moveto 
1 -1 scale
(b) t 
GR
GR
GS
[0.75 0 0 0.75 987 174.5] CT
/Helvetica-Bold 21.333 F
GS
[1 0 0 1 0 0] CT
0 0 moveto 
1 -1 scale
(i) t 
GR
GR
GS
[0.75 0 0 0.75 993 184.25] CT
/Helvetica-Bold 26.667 F
GS
[1 0 0 1 0 0] CT
0 0 moveto 
1 -1 scale
([X) t 
GR
GR
GS
[0.75 0 0 0.75 1017.75 194] CT
/Helvetica-Bold 21.333 F
GS
[1 0 0 1 0 0] CT
0 0 moveto 
1 -1 scale
(k) t 
GR
GR
GS
[0.75 0 0 0.75 1029 184.25] CT
/Helvetica-Bold 26.667 F
GS
[1 0 0 1 0 0] CT
0 0 moveto 
1 -1 scale
(]) t 
GR
GR
GS
[0.75 0 0 0.75 0 0.5] CT
0 0 1 RC
1 LJ
6.667 LW
N
1253 237.708 M
1293 237.708 L
S
GR
GS
[0.75 0 0 0.75 972 223.25] CT
/Helvetica-Bold 26.667 F
GS
[1 0 0 1 0 0] CT
0 0 moveto 
1 -1 scale
(b) t 
GR
GR
GS
[0.75 0 0 0.75 987 213.5] CT
/Helvetica-Bold 21.333 F
GS
[1 0 0 1 0 0] CT
0 0 moveto 
1 -1 scale
(real) t 
GR
GR
GS
[0.75 0 0 0.75 1022.25 223.25] CT
/Helvetica-Bold 26.667 F
GS
[1 0 0 1 0 0] CT
0 0 moveto 
1 -1 scale
([X) t 
GR
GR
GS
[0.75 0 0 0.75 1047 233] CT
/Helvetica-Bold 21.333 F
GS
[1 0 0 1 0 0] CT
0 0 moveto 
1 -1 scale
(k) t 
GR
GR
GS
[0.75 0 0 0.75 1058.25 223.25] CT
/Helvetica-Bold 26.667 F
GS
[1 0 0 1 0 0] CT
0 0 moveto 
1 -1 scale
(]) t 
GR
GR
GS
[0.75 0 0 0.75 0 0.5] CT
1 0.075 0.651 RC
1 LJ
6.667 LW
N
1253 290.072 M
1293 290.072 L
S
GR
GS
[0.75 0 0 0.75 0 0.5] CT
0.149 GC
10.0 ML
0.667 LW
N
1249 318 M
1249 125 L
1449 125 L
1449 318 L
cp
S
GR
%%Trailer
%%Pages: 1
%%EOF
