%!PS-Adobe-3.0 EPSF-3.0
%%Creator: (MATLAB, The Mathworks, Inc. Version 9.8.0.1380330 \(R2020a\) Update 2. Operating System: Linux)
%%Title: (/home/ohads/ANPL/papers/research/2021 RAL/Figures/TestCase_1/fig_files/Robots_estimation_k_10.eps)
%%CreationDate: 2021-02-21T16:00:26
%%Pages: (atend)
%%BoundingBox:   301    35  1132   692
%%LanguageLevel: 3
%%EndComments
%%BeginProlog
%%BeginResource: procset (Apache XML Graphics Std ProcSet) 1.2 0
%%Version: 1.2 0
%%Copyright: (Copyright 2001-2003,2010 The Apache Software Foundation. License terms: http://www.apache.org/licenses/LICENSE-2.0)
/bd{bind def}bind def
/ld{load def}bd
/GR/grestore ld
/GS/gsave ld
/RM/rmoveto ld
/C/curveto ld
/t/show ld
/L/lineto ld
/ML/setmiterlimit ld
/CT/concat ld
/f/fill ld
/N/newpath ld
/S/stroke ld
/CC/setcmykcolor ld
/A/ashow ld
/cp/closepath ld
/RC/setrgbcolor ld
/LJ/setlinejoin ld
/GC/setgray ld
/LW/setlinewidth ld
/M/moveto ld
/re {4 2 roll M
1 index 0 rlineto
0 exch rlineto
neg 0 rlineto
cp } bd
/_ctm matrix def
/_tm matrix def
/BT { _ctm currentmatrix pop matrix _tm copy pop 0 0 moveto } bd
/ET { _ctm setmatrix } bd
/iTm { _ctm setmatrix _tm concat } bd
/Tm { _tm astore pop iTm 0 0 moveto } bd
/ux 0.0 def
/uy 0.0 def
/F {
  /Tp exch def
  /Tf exch def
  Tf findfont Tp scalefont setfont
  /cf Tf def  /cs Tp def
} bd
/ULS {currentpoint /uy exch def /ux exch def} bd
/ULE {
  /Tcx currentpoint pop def
  gsave
  newpath
  cf findfont cs scalefont dup
  /FontMatrix get 0 get /Ts exch def /FontInfo get dup
  /UnderlinePosition get Ts mul /To exch def
  /UnderlineThickness get Ts mul /Tt exch def
  ux uy To add moveto  Tcx uy To add lineto
  Tt setlinewidth stroke
  grestore
} bd
/OLE {
  /Tcx currentpoint pop def
  gsave
  newpath
  cf findfont cs scalefont dup
  /FontMatrix get 0 get /Ts exch def /FontInfo get dup
  /UnderlinePosition get Ts mul /To exch def
  /UnderlineThickness get Ts mul /Tt exch def
  ux uy To add cs add moveto Tcx uy To add cs add lineto
  Tt setlinewidth stroke
  grestore
} bd
/SOE {
  /Tcx currentpoint pop def
  gsave
  newpath
  cf findfont cs scalefont dup
  /FontMatrix get 0 get /Ts exch def /FontInfo get dup
  /UnderlinePosition get Ts mul /To exch def
  /UnderlineThickness get Ts mul /Tt exch def
  ux uy To add cs 10 mul 26 idiv add moveto Tcx uy To add cs 10 mul 26 idiv add lineto
  Tt setlinewidth stroke
  grestore
} bd
/QT {
/Y22 exch store
/X22 exch store
/Y21 exch store
/X21 exch store
currentpoint
/Y21 load 2 mul add 3 div exch
/X21 load 2 mul add 3 div exch
/X21 load 2 mul /X22 load add 3 div
/Y21 load 2 mul /Y22 load add 3 div
/X22 load /Y22 load curveto
} bd
/SSPD {
dup length /d exch dict def
{
/v exch def
/k exch def
currentpagedevice k known {
/cpdv currentpagedevice k get def
v cpdv ne {
/upd false def
/nullv v type /nulltype eq def
/nullcpdv cpdv type /nulltype eq def
nullv nullcpdv or
{
/upd true def
} {
/sametype v type cpdv type eq def
sametype {
v type /arraytype eq {
/vlen v length def
/cpdvlen cpdv length def
vlen cpdvlen eq {
0 1 vlen 1 sub {
/i exch def
/obj v i get def
/cpdobj cpdv i get def
obj cpdobj ne {
/upd true def
exit
} if
} for
} {
/upd true def
} ifelse
} {
v type /dicttype eq {
v {
/dv exch def
/dk exch def
/cpddv cpdv dk get def
dv cpddv ne {
/upd true def
exit
} if
} forall
} {
/upd true def
} ifelse
} ifelse
} if
} ifelse
upd true eq {
d k v put
} if
} if
} if
} forall
d length 0 gt {
d setpagedevice
} if
} bd
/RE { % /NewFontName [NewEncodingArray] /FontName RE -
  findfont dup length dict begin
  {
    1 index /FID ne
    {def} {pop pop} ifelse
  } forall
  /Encoding exch def
  /FontName 1 index def
  currentdict definefont pop
  end
} bind def
%%EndResource
%%BeginResource: procset (Apache XML Graphics EPS ProcSet) 1.0 0
%%Version: 1.0 0
%%Copyright: (Copyright 2002-2003 The Apache Software Foundation. License terms: http://www.apache.org/licenses/LICENSE-2.0)
/BeginEPSF { %def
/b4_Inc_state save def         % Save state for cleanup
/dict_count countdictstack def % Count objects on dict stack
/op_count count 1 sub def      % Count objects on operand stack
userdict begin                 % Push userdict on dict stack
/showpage { } def              % Redefine showpage, { } = null proc
0 setgray 0 setlinecap         % Prepare graphics state
1 setlinewidth 0 setlinejoin
10 setmiterlimit [ ] 0 setdash newpath
/languagelevel where           % If level not equal to 1 then
{pop languagelevel             % set strokeadjust and
1 ne                           % overprint to their defaults.
{false setstrokeadjust false setoverprint
} if
} if
} bd
/EndEPSF { %def
count op_count sub {pop} repeat            % Clean up stacks
countdictstack dict_count sub {end} repeat
b4_Inc_state restore
} bd
%%EndResource
%FOPBeginFontDict
%%IncludeResource: font Courier-Oblique
%%IncludeResource: font Courier-BoldOblique
%%IncludeResource: font Courier-Bold
%%IncludeResource: font ZapfDingbats
%%IncludeResource: font Symbol
%%IncludeResource: font Helvetica
%%IncludeResource: font Helvetica-Oblique
%%IncludeResource: font Helvetica-Bold
%%IncludeResource: font Helvetica-BoldOblique
%%IncludeResource: font Times-Roman
%%IncludeResource: font Times-Italic
%%IncludeResource: font Times-Bold
%%IncludeResource: font Times-BoldItalic
%%IncludeResource: font Courier
%FOPEndFontDict
%%BeginResource: encoding WinAnsiEncoding
/WinAnsiEncoding [
/.notdef /.notdef /.notdef /.notdef /.notdef
/.notdef /.notdef /.notdef /.notdef /.notdef
/.notdef /.notdef /.notdef /.notdef /.notdef
/.notdef /.notdef /.notdef /.notdef /.notdef
/.notdef /.notdef /.notdef /.notdef /.notdef
/.notdef /.notdef /.notdef /.notdef /.notdef
/.notdef /.notdef /space /exclam /quotedbl
/numbersign /dollar /percent /ampersand /quotesingle
/parenleft /parenright /asterisk /plus /comma
/hyphen /period /slash /zero /one
/two /three /four /five /six
/seven /eight /nine /colon /semicolon
/less /equal /greater /question /at
/A /B /C /D /E
/F /G /H /I /J
/K /L /M /N /O
/P /Q /R /S /T
/U /V /W /X /Y
/Z /bracketleft /backslash /bracketright /asciicircum
/underscore /quoteleft /a /b /c
/d /e /f /g /h
/i /j /k /l /m
/n /o /p /q /r
/s /t /u /v /w
/x /y /z /braceleft /bar
/braceright /asciitilde /bullet /Euro /bullet
/quotesinglbase /florin /quotedblbase /ellipsis /dagger
/daggerdbl /circumflex /perthousand /Scaron /guilsinglleft
/OE /bullet /Zcaron /bullet /bullet
/quoteleft /quoteright /quotedblleft /quotedblright /bullet
/endash /emdash /asciitilde /trademark /scaron
/guilsinglright /oe /bullet /zcaron /Ydieresis
/space /exclamdown /cent /sterling /currency
/yen /brokenbar /section /dieresis /copyright
/ordfeminine /guillemotleft /logicalnot /sfthyphen /registered
/macron /degree /plusminus /twosuperior /threesuperior
/acute /mu /paragraph /middot /cedilla
/onesuperior /ordmasculine /guillemotright /onequarter /onehalf
/threequarters /questiondown /Agrave /Aacute /Acircumflex
/Atilde /Adieresis /Aring /AE /Ccedilla
/Egrave /Eacute /Ecircumflex /Edieresis /Igrave
/Iacute /Icircumflex /Idieresis /Eth /Ntilde
/Ograve /Oacute /Ocircumflex /Otilde /Odieresis
/multiply /Oslash /Ugrave /Uacute /Ucircumflex
/Udieresis /Yacute /Thorn /germandbls /agrave
/aacute /acircumflex /atilde /adieresis /aring
/ae /ccedilla /egrave /eacute /ecircumflex
/edieresis /igrave /iacute /icircumflex /idieresis
/eth /ntilde /ograve /oacute /ocircumflex
/otilde /odieresis /divide /oslash /ugrave
/uacute /ucircumflex /udieresis /yacute /thorn
/ydieresis
] def
%%EndResource
%FOPBeginFontReencode
/Courier-Oblique findfont
dup length dict begin
  {1 index /FID ne {def} {pop pop} ifelse} forall
  /Encoding WinAnsiEncoding def
  currentdict
end
/Courier-Oblique exch definefont pop
/Courier-BoldOblique findfont
dup length dict begin
  {1 index /FID ne {def} {pop pop} ifelse} forall
  /Encoding WinAnsiEncoding def
  currentdict
end
/Courier-BoldOblique exch definefont pop
/Courier-Bold findfont
dup length dict begin
  {1 index /FID ne {def} {pop pop} ifelse} forall
  /Encoding WinAnsiEncoding def
  currentdict
end
/Courier-Bold exch definefont pop
/Helvetica findfont
dup length dict begin
  {1 index /FID ne {def} {pop pop} ifelse} forall
  /Encoding WinAnsiEncoding def
  currentdict
end
/Helvetica exch definefont pop
/Helvetica-Oblique findfont
dup length dict begin
  {1 index /FID ne {def} {pop pop} ifelse} forall
  /Encoding WinAnsiEncoding def
  currentdict
end
/Helvetica-Oblique exch definefont pop
/Helvetica-Bold findfont
dup length dict begin
  {1 index /FID ne {def} {pop pop} ifelse} forall
  /Encoding WinAnsiEncoding def
  currentdict
end
/Helvetica-Bold exch definefont pop
/Helvetica-BoldOblique findfont
dup length dict begin
  {1 index /FID ne {def} {pop pop} ifelse} forall
  /Encoding WinAnsiEncoding def
  currentdict
end
/Helvetica-BoldOblique exch definefont pop
/Times-Roman findfont
dup length dict begin
  {1 index /FID ne {def} {pop pop} ifelse} forall
  /Encoding WinAnsiEncoding def
  currentdict
end
/Times-Roman exch definefont pop
/Times-Italic findfont
dup length dict begin
  {1 index /FID ne {def} {pop pop} ifelse} forall
  /Encoding WinAnsiEncoding def
  currentdict
end
/Times-Italic exch definefont pop
/Times-Bold findfont
dup length dict begin
  {1 index /FID ne {def} {pop pop} ifelse} forall
  /Encoding WinAnsiEncoding def
  currentdict
end
/Times-Bold exch definefont pop
/Times-BoldItalic findfont
dup length dict begin
  {1 index /FID ne {def} {pop pop} ifelse} forall
  /Encoding WinAnsiEncoding def
  currentdict
end
/Times-BoldItalic exch definefont pop
/Courier findfont
dup length dict begin
  {1 index /FID ne {def} {pop pop} ifelse} forall
  /Encoding WinAnsiEncoding def
  currentdict
end
/Courier exch definefont pop
%FOPEndFontReencode
%%EndProlog
%%Page: 1 1
%%PageBoundingBox: 0 0 1440 748
%%BeginPageSetup
[1 0 0 -1 0 748] CT
%%EndPageSetup
GS
[0.75 0 0 0.75 0 0.25] CT
N
0 0 M
1920 0 L
1920 997 L
0 997 L
0 0 L
cp
clip
1 GC
N
0 0 1920 997 re
f
GR
GS
[0.75 0 0 0.75 0 0.25] CT
1 GC
N
0 0 1920 997 re
f
GR
GS
[0.75 0 0 0.75 0 0.25] CT
1 GC
N
479.235 887 M
1508.765 887 L
1508.765 75 L
479.235 75 L
cp
f
GR
GS
[0.75 0 0 0.75 0 0.25] CT
0.149 GC
2 setlinecap
1 LJ
0.667 LW
N
479.235 887 M
1508.765 887 L
S
GR
GS
[0.75 0 0 0.75 0 0.25] CT
0.149 GC
2 setlinecap
1 LJ
0.667 LW
N
642.884 887 M
642.884 876.705 L
S
GR
GS
[0.75 0 0 0.75 0 0.25] CT
0.149 GC
2 setlinecap
1 LJ
0.667 LW
N
853.183 887 M
853.183 876.705 L
S
GR
GS
[0.75 0 0 0.75 0 0.25] CT
0.149 GC
2 setlinecap
1 LJ
0.667 LW
N
1063.482 887 M
1063.482 876.705 L
S
GR
GS
[0.75 0 0 0.75 0 0.25] CT
0.149 GC
2 setlinecap
1 LJ
0.667 LW
N
1273.781 887 M
1273.781 876.705 L
S
GR
GS
[0.75 0 0 0.75 0 0.25] CT
0.149 GC
2 setlinecap
1 LJ
0.667 LW
N
1484.08 887 M
1484.08 876.705 L
S
GR
GS
[0.75 0 0 0.75 482.1633 671.09996] CT
0.149 GC
/Helvetica 24 F
GS
[1 0 0 1 0 0] CT
-12 23 moveto 
1 -1 scale
(-5) t 
GR
GR
GS
[0.75 0 0 0.75 639.88751 671.09996] CT
0.149 GC
/Helvetica 24 F
GS
[1 0 0 1 0 0] CT
-8 23 moveto 
1 -1 scale
(0) t 
GR
GR
GS
[0.75 0 0 0.75 797.61172 671.09996] CT
0.149 GC
/Helvetica 24 F
GS
[1 0 0 1 0 0] CT
-8 23 moveto 
1 -1 scale
(5) t 
GR
GR
GS
[0.75 0 0 0.75 955.33594 671.09996] CT
0.149 GC
/Helvetica 24 F
GS
[1 0 0 1 0 0] CT
-15.5 23 moveto 
1 -1 scale
(10) t 
GR
GR
GS
[0.75 0 0 0.75 1113.06024 671.09996] CT
0.149 GC
/Helvetica 24 F
GS
[1 0 0 1 0 0] CT
-15.5 23 moveto 
1 -1 scale
(15) t 
GR
GR
GS
[0.75 0 0 0.75 745.50037 693.84999] CT
0.149 GC
/Helvetica 26.4 F
GS
[1 0 0 1 0 0] CT
-16 25 moveto 
1 -1 scale
(Xs) t 
GR
GR
GS
[0.75 0 0 0.75 0 0.25] CT
0.149 GC
2 setlinecap
1 LJ
0.667 LW
N
479.235 887 M
479.235 75 L
S
GR
GS
[0.75 0 0 0.75 0 0.25] CT
0.149 GC
2 setlinecap
1 LJ
0.667 LW
N
479.235 881.713 M
489.53 881.713 L
S
GR
GS
[0.75 0 0 0.75 0 0.25] CT
0.149 GC
2 setlinecap
1 LJ
0.667 LW
N
479.235 797.593 M
489.53 797.593 L
S
GR
GS
[0.75 0 0 0.75 0 0.25] CT
0.149 GC
2 setlinecap
1 LJ
0.667 LW
N
479.235 713.474 M
489.53 713.474 L
S
GR
GS
[0.75 0 0 0.75 0 0.25] CT
0.149 GC
2 setlinecap
1 LJ
0.667 LW
N
479.235 629.354 M
489.53 629.354 L
S
GR
GS
[0.75 0 0 0.75 0 0.25] CT
0.149 GC
2 setlinecap
1 LJ
0.667 LW
N
479.235 545.234 M
489.53 545.234 L
S
GR
GS
[0.75 0 0 0.75 0 0.25] CT
0.149 GC
2 setlinecap
1 LJ
0.667 LW
N
479.235 461.115 M
489.53 461.115 L
S
GR
GS
[0.75 0 0 0.75 0 0.25] CT
0.149 GC
2 setlinecap
1 LJ
0.667 LW
N
479.235 376.995 M
489.53 376.995 L
S
GR
GS
[0.75 0 0 0.75 0 0.25] CT
0.149 GC
2 setlinecap
1 LJ
0.667 LW
N
479.235 292.876 M
489.53 292.876 L
S
GR
GS
[0.75 0 0 0.75 0 0.25] CT
0.149 GC
2 setlinecap
1 LJ
0.667 LW
N
479.235 208.756 M
489.53 208.756 L
S
GR
GS
[0.75 0 0 0.75 0 0.25] CT
0.149 GC
2 setlinecap
1 LJ
0.667 LW
N
479.235 124.636 M
489.53 124.636 L
S
GR
GS
[0.75 0 0 0.75 353.82637 661.53448] CT
0.149 GC
/Helvetica 24 F
GS
[1 0 0 1 0 0] CT
-40 8.5 moveto 
1 -1 scale
(-10) t 
GR
GR
GS
[0.75 0 0 0.75 353.82637 598.44481] CT
0.149 GC
/Helvetica 24 F
GS
[1 0 0 1 0 0] CT
-24 8.5 moveto 
1 -1 scale
(-8) t 
GR
GR
GS
[0.75 0 0 0.75 353.82637 535.35513] CT
0.149 GC
/Helvetica 24 F
GS
[1 0 0 1 0 0] CT
-24 8.5 moveto 
1 -1 scale
(-6) t 
GR
GR
GS
[0.75 0 0 0.75 353.82637 472.26541] CT
0.149 GC
/Helvetica 24 F
GS
[1 0 0 1 0 0] CT
-24 8.5 moveto 
1 -1 scale
(-4) t 
GR
GR
GS
[0.75 0 0 0.75 353.82637 409.17574] CT
0.149 GC
/Helvetica 24 F
GS
[1 0 0 1 0 0] CT
-24 8.5 moveto 
1 -1 scale
(-2) t 
GR
GR
GS
[0.75 0 0 0.75 353.82637 346.08604] CT
0.149 GC
/Helvetica 24 F
GS
[1 0 0 1 0 0] CT
-16 8.5 moveto 
1 -1 scale
(0) t 
GR
GR
GS
[0.75 0 0 0.75 353.82637 282.99636] CT
0.149 GC
/Helvetica 24 F
GS
[1 0 0 1 0 0] CT
-16 8.5 moveto 
1 -1 scale
(2) t 
GR
GR
GS
[0.75 0 0 0.75 353.82637 219.90666] CT
0.149 GC
/Helvetica 24 F
GS
[1 0 0 1 0 0] CT
-16 8.5 moveto 
1 -1 scale
(4) t 
GR
GR
GS
[0.75 0 0 0.75 353.82637 156.81696] CT
0.149 GC
/Helvetica 24 F
GS
[1 0 0 1 0 0] CT
-16 8.5 moveto 
1 -1 scale
(6) t 
GR
GR
GS
[0.75 0 0 0.75 353.82637 93.72727] CT
0.149 GC
/Helvetica 24 F
GS
[1 0 0 1 0 0] CT
-16 8.5 moveto 
1 -1 scale
(8) t 
GR
GR
GS
[0 -0.75 0.75 0 320.82639 360.9997] CT
0.149 GC
/Helvetica 26.4 F
GS
[1 0 0 1 0 0] CT
-15 -7 moveto 
1 -1 scale
(Ys) t 
GR
GR
GS
[0.75 0 0 0.75 860.70145 314.5412] CT
1 0 0 RC
N
0 -26.66 M
-23.088 13.33 L
23.088 13.33 L
cp
f
GR
GS
[0.75 0 0 0.75 860.70145 314.5412] CT
0 0 1 RC
10.0 ML
0.667 LW
N
0 -26.66 M
-23.088 13.33 L
23.088 13.33 L
cp
S
GR
GS
[0.75 0 0 0.75 702.97719 93.72727] CT
1 0 0 RC
N
/f-1996900118{0 -26.66 M
-23.088 13.33 L
23.088 13.33 L
cp}def
f-1996900118
f
GR
GS
[0.75 0 0 0.75 702.97719 93.72727] CT
0 0 1 RC
10.0 ML
0.667 LW
N
0 -26.66 M
-23.088 13.33 L
23.088 13.33 L
cp
S
GR
GS
[0.75 0 0 0.75 860.70145 251.4515] CT
1 0 0 RC
N
f-1996900118
f
GR
GS
[0.75 0 0 0.75 860.70145 251.4515] CT
0 0 1 RC
10.0 ML
0.667 LW
N
0 -26.66 M
-23.088 13.33 L
23.088 13.33 L
cp
S
GR
GS
[0.75 0 0 0.75 797.61172 93.72727] CT
1 0 0 RC
N
f-1996900118
f
GR
GS
[0.75 0 0 0.75 797.61172 93.72727] CT
0 0 1 RC
10.0 ML
0.667 LW
N
0 -26.66 M
-23.088 13.33 L
23.088 13.33 L
cp
S
GR
GS
[0.75 0 0 0.75 892.24631 282.99636] CT
1 0 0 RC
N
f-1996900118
f
GR
GS
[0.75 0 0 0.75 892.24631 282.99636] CT
0 0 1 RC
10.0 ML
0.667 LW
N
0 -26.66 M
-23.088 13.33 L
23.088 13.33 L
cp
S
GR
GS
[0.75 0 0 0.75 829.15659 93.72727] CT
1 0 0 RC
N
f-1996900118
f
GR
GS
[0.75 0 0 0.75 829.15659 93.72727] CT
0 0 1 RC
10.0 ML
0.667 LW
N
0 -26.66 M
-23.088 13.33 L
23.088 13.33 L
cp
S
GR
GS
[0.75 0 0 0.75 860.70145 156.81696] CT
1 0 0 RC
N
f-1996900118
f
GR
GS
[0.75 0 0 0.75 860.70145 156.81696] CT
0 0 1 RC
10.0 ML
0.667 LW
N
0 -26.66 M
-23.088 13.33 L
23.088 13.33 L
cp
S
GR
GS
[0.75 0 0 0.75 829.15659 314.5412] CT
1 0 0 RC
N
f-1996900118
f
GR
GS
[0.75 0 0 0.75 829.15659 314.5412] CT
0 0 1 RC
10.0 ML
0.667 LW
N
0 -26.66 M
-23.088 13.33 L
23.088 13.33 L
cp
S
GR
GS
[0.75 0 0 0.75 713.22633 592.90221] CT
0 1 1 RC
10.0 ML
0.667 LW
N
0 -4 M
0 4 L
-4 0 M
4 0 L
-2.828 -2.828 M
2.828 2.828 L
-2.828 2.828 M
2.828 -2.828 L
S
GR
GS
[0.75 0 0 0.75 0 0.25] CT
0 0 1 RC
1 LJ
0.667 LW
N
954.397 792.202 M
954.57 792.376 L
954.335 792.304 L
S
GR
GS
[0.75 0 0 0.75 0 0.25] CT
0 0 1 RC
1 LJ
0.667 LW
N
950.968 790.203 M
954.57 792.376 L
S
GR
GS
[0.75 0 0 0.75 0 0.25] CT
0 0 1 RC
1 LJ
0.667 LW
N
1019.351 814.636 M
1023.279 796.862 L
1022.664 778.67 L
1017.543 761.203 L
1008.24 745.557 L
995.337 732.717 L
979.647 723.489 L
962.155 718.453 L
943.96 717.925 L
926.206 721.939 L
910.007 730.242 L
896.382 742.312 L
886.187 757.392 L
880.063 774.533 L
878.393 792.659 L
881.284 810.63 L
888.553 827.319 L
899.745 841.674 L
914.154 852.796 L
930.877 859.985 L
948.863 862.789 L
966.98 861.033 L
984.092 854.825 L
999.122 844.558 L
1011.127 830.875 L
1019.351 814.636 L
S
GR
GS
[0.75 0 0 0.75 686.78517 592.90079] CT
0 0 1 RC
10.0 ML
0.667 LW
N
0 -4 M
0 4 L
-4 0 M
4 0 L
-2.828 -2.828 M
2.828 2.828 L
-2.828 2.828 M
2.828 -2.828 L
S
GR
GS
[0.75 0 0 0.75 0 0.25] CT
0 0 1 RC
1 LJ
0.667 LW
N
919.142 792.201 M
919.315 792.374 L
919.08 792.302 L
S
GR
GS
[0.75 0 0 0.75 0 0.25] CT
0 0 1 RC
1 LJ
0.667 LW
N
915.714 790.201 M
919.315 792.374 L
S
GR
GS
[0.75 0 0 0.75 0 0.25] CT
0 0 1 RC
1 LJ
0.667 LW
N
985.972 808.557 M
988.33 790.508 L
986.125 772.439 L
979.495 755.487 L
968.858 740.715 L
954.882 729.053 L
938.445 721.234 L
920.579 717.747 L
902.408 718.814 L
885.073 724.365 L
869.663 734.054 L
857.146 747.27 L
848.31 763.184 L
843.708 780.796 L
843.632 798.998 L
848.084 816.648 L
856.786 832.636 L
869.19 845.957 L
884.518 855.776 L
901.805 861.474 L
919.967 862.693 L
937.862 859.358 L
954.364 851.677 L
968.439 840.134 L
979.2 825.453 L
985.972 808.557 L
S
GR
GS
[0.75 0 0 0.75 713.22784 531.46565] CT
0 0 1 RC
10.0 ML
0.667 LW
N
0 -4 M
0 4 L
-4 0 M
4 0 L
-2.828 -2.828 M
2.828 2.828 L
-2.828 2.828 M
2.828 -2.828 L
S
GR
GS
[0.75 0 0 0.75 0 0.25] CT
0 0 1 RC
1 LJ
0.667 LW
N
954.399 710.287 M
954.572 710.461 L
954.337 710.389 L
S
GR
GS
[0.75 0 0 0.75 0 0.25] CT
0 0 1 RC
1 LJ
0.667 LW
N
950.97 708.288 M
954.572 710.461 L
S
GR
GS
[0.75 0 0 0.75 0 0.25] CT
0 0 1 RC
1 LJ
0.667 LW
N
931.025 778.112 M
914.287 770.958 L
899.854 759.866 L
888.633 745.534 L
881.329 728.861 L
878.401 710.895 L
880.032 692.766 L
886.121 675.612 L
896.284 660.511 L
909.884 648.412 L
926.065 640.075 L
943.811 636.025 L
962.007 636.514 L
979.51 641.514 L
995.219 650.709 L
1008.148 663.522 L
1017.484 679.148 L
1022.641 696.605 L
1023.295 714.796 L
1019.404 732.578 L
1011.214 748.833 L
999.238 762.541 L
984.229 772.84 L
967.13 779.083 L
949.016 780.878 L
931.025 778.112 L
S
GR
GS
[0.75 0 0 0.75 682.50957 592.90225] CT
0 0 1 RC
10.0 ML
0.667 LW
N
0 -4 M
0 4 L
-4 0 M
4 0 L
-2.828 -2.828 M
2.828 2.828 L
-2.828 2.828 M
2.828 -2.828 L
S
GR
GS
[0.75 0 0 0.75 0 0.25] CT
0 0 1 RC
1 LJ
0.667 LW
N
913.441 792.202 M
913.614 792.376 L
913.38 792.304 L
S
GR
GS
[0.75 0 0 0.75 0 0.25] CT
0 0 1 RC
1 LJ
0.667 LW
N
910.013 790.203 M
913.614 792.376 L
S
GR
GS
[0.75 0 0 0.75 0 0.25] CT
0 0 1 RC
1 LJ
0.667 LW
N
890.122 860.043 M
873.379 852.902 L
858.937 841.821 L
847.705 827.498 L
840.387 810.831 L
837.445 792.867 L
839.062 774.737 L
845.137 757.578 L
855.289 742.469 L
868.879 730.36 L
885.054 722.01 L
902.797 717.946 L
920.993 718.421 L
938.5 723.407 L
954.216 732.59 L
967.155 745.393 L
976.504 761.012 L
981.674 778.464 L
982.342 796.655 L
978.466 814.44 L
970.288 830.702 L
958.322 844.419 L
943.322 854.73 L
926.228 860.986 L
908.115 862.795 L
890.122 860.043 L
S
GR
GS
[0.75 0 0 0.75 681.81793 592.90399] CT
0 0 1 RC
10.0 ML
0.667 LW
N
0 -4 M
0 4 L
-4 0 M
4 0 L
-2.828 -2.828 M
2.828 2.828 L
-2.828 2.828 M
2.828 -2.828 L
S
GR
GS
[0.75 0 0 0.75 0 0.25] CT
0 0 1 RC
1 LJ
0.667 LW
N
912.519 792.205 M
912.692 792.378 L
912.458 792.306 L
S
GR
GS
[0.75 0 0 0.75 0 0.25] CT
0 0 1 RC
1 LJ
0.667 LW
N
909.091 790.205 M
912.692 792.378 L
S
GR
GS
[0.75 0 0 0.75 0 0.25] CT
0 0 1 RC
1 LJ
0.667 LW
N
978.85 810.375 M
981.674 792.393 L
979.938 774.273 L
973.75 757.155 L
963.499 742.113 L
949.83 730.093 L
933.601 721.85 L
915.831 717.902 L
897.638 718.497 L
880.165 723.598 L
864.509 732.884 L
851.655 745.772 L
842.409 761.452 L
837.353 778.938 L
836.805 797.132 L
840.799 814.891 L
849.083 831.099 L
861.138 844.738 L
876.207 854.95 L
893.341 861.094 L
911.465 862.783 L
929.44 859.913 L
946.136 852.662 L
960.505 841.487 L
971.643 827.09 L
978.85 810.375 L
S
GR
GS
[0.75 0 0 0.75 713.34096 592.79079] CT
0 0 1 RC
10.0 ML
0.667 LW
N
0 -4 M
0 4 L
-4 0 M
4 0 L
-2.828 -2.828 M
2.828 2.828 L
-2.828 2.828 M
2.828 -2.828 L
S
GR
GS
[0.75 0 0 0.75 0 0.25] CT
0 0 1 RC
1 LJ
0.667 LW
N
954.55 792.054 M
954.722 792.227 L
954.488 792.156 L
S
GR
GS
[0.75 0 0 0.75 0 0.25] CT
0 0 1 RC
1 LJ
0.667 LW
N
951.121 790.054 M
954.722 792.227 L
S
GR
GS
[0.75 0 0 0.75 0 0.25] CT
0 0 1 RC
1 LJ
0.667 LW
N
932.165 860.153 M
915.328 853.237 L
900.74 842.35 L
889.317 828.178 L
881.778 811.61 L
878.595 793.688 L
879.97 775.537 L
885.816 758.299 L
895.765 743.056 L
909.192 730.766 L
925.254 722.201 L
942.941 717.9 L
961.142 718.132 L
978.714 722.884 L
994.551 731.856 L
1007.66 744.485 L
1017.216 759.977 L
1022.62 777.36 L
1023.531 795.539 L
1019.892 813.375 L
1011.932 829.744 L
1000.151 843.62 L
985.289 854.131 L
968.28 860.615 L
950.194 862.665 L
932.165 860.153 L
S
GR
GS
[0.75 0 0 0.75 686.89783 592.7885] CT
0 0 1 RC
10.0 ML
0.667 LW
N
0 -4 M
0 4 L
-4 0 M
4 0 L
-2.828 -2.828 M
2.828 2.828 L
-2.828 2.828 M
2.828 -2.828 L
S
GR
GS
[0.75 0 0 0.75 0 0.25] CT
0 0 1 RC
1 LJ
0.667 LW
N
919.292 792.051 M
919.465 792.224 L
919.231 792.153 L
S
GR
GS
[0.75 0 0 0.75 0 0.25] CT
0 0 1 RC
1 LJ
0.667 LW
N
915.864 790.051 M
919.465 792.224 L
S
GR
GS
[0.75 0 0 0.75 0 0.25] CT
0 0 1 RC
1 LJ
0.667 LW
N
986.517 806.822 M
988.468 788.725 L
985.857 770.71 L
978.849 753.911 L
967.882 739.383 L
953.647 728.038 L
937.038 720.59 L
919.099 717.507 L
900.956 718.981 L
883.75 724.922 L
868.562 734.954 L
856.346 748.449 L
847.869 764.557 L
843.665 782.268 L
843.998 800.467 L
848.846 818.012 L
857.905 833.801 L
870.606 846.84 L
886.151 856.311 L
903.562 861.619 L
921.747 862.429 L
939.562 858.693 L
955.887 850.643 L
969.698 838.786 L
980.127 823.866 L
986.517 806.822 L
S
GR
GS
[0.75 0 0 0.75 713.34114 531.35368] CT
0 0 1 RC
10.0 ML
0.667 LW
N
0 -4 M
0 4 L
-4 0 M
4 0 L
-2.828 -2.828 M
2.828 2.828 L
-2.828 2.828 M
2.828 -2.828 L
S
GR
GS
[0.75 0 0 0.75 0 0.25] CT
0 0 1 RC
1 LJ
0.667 LW
N
954.55 710.138 M
954.723 710.311 L
954.488 710.239 L
S
GR
GS
[0.75 0 0 0.75 0 0.25] CT
0 0 1 RC
1 LJ
0.667 LW
N
951.122 708.138 M
954.723 710.311 L
S
GR
GS
[0.75 0 0 0.75 0 0.25] CT
0 0 1 RC
1 LJ
0.667 LW
N
932.229 778.254 M
915.386 771.353 L
900.787 760.48 L
889.352 746.318 L
881.797 729.757 L
878.599 711.838 L
879.957 693.686 L
885.787 676.442 L
895.722 661.19 L
909.138 648.888 L
925.192 640.308 L
942.875 635.991 L
961.077 636.207 L
978.653 640.943 L
994.499 649.901 L
1007.619 662.518 L
1017.189 678.001 L
1022.608 695.378 L
1023.536 713.557 L
1019.913 731.396 L
1011.968 747.773 L
1000.2 761.66 L
985.348 772.183 L
968.345 778.683 L
950.26 780.75 L
932.229 778.254 L
S
GR
GS
[0.75 0 0 0.75 714.03241 530.66017] CT
0 0 1 RC
10.0 ML
0.667 LW
N
0 -4 M
0 4 L
-4 0 M
4 0 L
-2.828 -2.828 M
2.828 2.828 L
-2.828 2.828 M
2.828 -2.828 L
S
GR
GS
[0.75 0 0 0.75 0 0.25] CT
0 0 1 RC
1 LJ
0.667 LW
N
955.471 709.213 M
955.644 709.387 L
955.41 709.315 L
S
GR
GS
[0.75 0 0 0.75 0 0.25] CT
0 0 1 RC
1 LJ
0.667 LW
N
952.043 707.214 M
955.644 709.387 L
S
GR
GS
[0.75 0 0 0.75 0 0.25] CT
0 0 1 RC
1 LJ
0.667 LW
N
1022.119 726.256 M
1024.653 708.231 L
1022.625 690.141 L
1016.162 673.125 L
1005.67 658.25 L
991.808 646.452 L
975.448 638.472 L
957.618 634.811 L
939.437 635.699 L
922.048 641.081 L
906.544 650.618 L
893.899 663.712 L
884.907 679.538 L
880.134 697.104 L
879.879 715.305 L
884.158 732.997 L
892.703 749.069 L
904.976 762.512 L
920.207 772.48 L
937.438 778.346 L
955.587 779.744 L
973.513 776.584 L
990.091 769.065 L
1004.277 757.66 L
1015.182 743.085 L
1022.119 726.256 L
S
GR
GS
[0.75 0 0 0.75 718.30733 534.93793] CT
0 0 1 RC
10.0 ML
0.667 LW
N
0 -4 M
0 4 L
-4 0 M
4 0 L
-2.828 -2.828 M
2.828 2.828 L
-2.828 2.828 M
2.828 -2.828 L
S
GR
GS
[0.75 0 0 0.75 0 0.25] CT
0 0 1 RC
1 LJ
0.667 LW
N
961.171 714.917 M
961.344 715.09 L
961.11 715.018 L
S
GR
GS
[0.75 0 0 0.75 0 0.25] CT
0 0 1 RC
1 LJ
0.667 LW
N
957.743 712.917 M
961.344 715.09 L
S
GR
GS
[0.75 0 0 0.75 0 0.25] CT
0 0 1 RC
1 LJ
6.667 LW
N
940.674 783.499 M
923.657 777.037 L
908.782 766.546 L
896.983 752.685 L
889.002 736.325 L
885.341 718.494 L
886.228 700.314 L
891.61 682.924 L
901.146 667.42 L
914.239 654.774 L
930.065 645.782 L
947.631 641.008 L
965.831 640.752 L
983.524 645.031 L
999.597 653.575 L
1013.04 665.848 L
1023.008 681.079 L
1028.875 698.31 L
1030.274 716.458 L
1027.114 734.385 L
1019.596 750.962 L
1008.191 765.149 L
993.617 776.054 L
976.788 782.992 L
958.763 785.527 L
940.674 783.499 L
S
GR
GS
[0.75 0 0 0.75 744.74812 561.37836] CT
0 0 1 RC
10.0 ML
0.667 LW
N
0 -4 M
0 4 L
-4 0 M
4 0 L
-2.828 -2.828 M
2.828 2.828 L
-2.828 2.828 M
2.828 -2.828 L
S
GR
GS
[0.75 0 0 0.75 0 0.25] CT
0 0 1 RC
1 LJ
0.667 LW
N
996.426 750.171 M
996.599 750.344 L
996.364 750.272 L
S
GR
GS
[0.75 0 0 0.75 0 0.25] CT
0 0 1 RC
1 LJ
0.667 LW
N
992.997 748.171 M
996.599 750.344 L
S
GR
GS
[0.75 0 0 0.75 0 0.25] CT
0 0 1 RC
1 LJ
0.667 LW
N
1062.742 768.393 M
1065.58 750.413 L
1063.857 732.292 L
1057.682 715.169 L
1047.443 700.12 L
1033.782 688.089 L
1017.559 679.834 L
999.793 675.873 L
981.599 676.454 L
964.122 681.542 L
948.459 690.816 L
935.595 703.695 L
926.338 719.367 L
921.269 736.85 L
920.707 755.044 L
924.687 772.806 L
932.959 789.02 L
945.004 802.668 L
960.065 812.891 L
977.195 819.048 L
995.317 820.751 L
1013.294 817.894 L
1029.996 810.656 L
1044.373 799.491 L
1055.522 785.103 L
1062.742 768.393 L
S
GR
GS
[0.75 0 0 0.75 713.2251 592.86073] CT
0 0 1 RC
10.0 ML
0.667 LW
N
0 -4 M
0 4 L
-4 0 M
4 0 L
-2.828 -2.828 M
2.828 2.828 L
-2.828 2.828 M
2.828 -2.828 L
S
GR
GS
[0.75 0 0 0.75 0 0.25] CT
0 0 1 RC
1 LJ
0.667 LW
N
954.395 792.147 M
954.568 792.321 L
954.334 792.249 L
S
GR
GS
[0.75 0 0 0.75 0 0.25] CT
0 0 1 RC
1 LJ
0.667 LW
N
950.967 790.148 M
954.568 792.321 L
S
GR
GS
[0.75 0 0 0.75 0 0.25] CT
0 0 1 RC
1 LJ
0.667 LW
N
930.746 859.892 M
914.037 852.672 L
899.648 841.524 L
888.483 827.147 L
881.245 810.446 L
878.387 792.469 L
880.09 774.346 L
886.246 757.216 L
896.469 742.156 L
910.117 730.11 L
926.331 721.838 L
944.093 717.857 L
962.287 718.419 L
979.769 723.487 L
995.442 732.744 L
1008.321 745.608 L
1017.595 761.271 L
1022.683 778.748 L
1023.265 796.941 L
1019.304 814.708 L
1011.049 830.931 L
999.019 844.592 L
983.97 854.831 L
966.847 861.007 L
948.726 862.73 L
930.746 859.892 L
S
GR
GS
[0.75 0 0 0.75 682.5092 592.86137] CT
0 0 1 RC
10.0 ML
0.667 LW
N
0 -4 M
0 4 L
-4 0 M
4 0 L
-2.828 -2.828 M
2.828 2.828 L
-2.828 2.828 M
2.828 -2.828 L
S
GR
GS
[0.75 0 0 0.75 0 0.25] CT
0 0 1 RC
1 LJ
0.667 LW
N
913.441 792.148 M
913.613 792.322 L
913.379 792.25 L
S
GR
GS
[0.75 0 0 0.75 0 0.25] CT
0 0 1 RC
1 LJ
0.667 LW
N
910.012 790.148 M
913.613 792.322 L
S
GR
GS
[0.75 0 0 0.75 0 0.25] CT
0 0 1 RC
1 LJ
0.667 LW
N
980.087 809.193 M
982.622 791.168 L
980.594 773.079 L
974.132 756.062 L
963.64 741.187 L
949.779 729.388 L
933.419 721.408 L
915.589 717.746 L
897.408 718.634 L
880.019 724.015 L
864.515 733.552 L
851.869 746.645 L
842.877 762.471 L
838.103 780.037 L
837.847 798.238 L
842.126 815.93 L
850.671 832.003 L
862.944 845.445 L
878.174 855.414 L
895.405 861.281 L
913.554 862.679 L
931.48 859.519 L
948.058 852.001 L
962.245 840.596 L
973.15 826.022 L
980.087 809.193 L
S
GR
GS
[0.75 0 0 0.75 681.8177 592.86325] CT
0 0 1 RC
10.0 ML
0.667 LW
N
0 -4 M
0 4 L
-4 0 M
4 0 L
-2.828 -2.828 M
2.828 2.828 L
-2.828 2.828 M
2.828 -2.828 L
S
GR
GS
[0.75 0 0 0.75 0 0.25] CT
0 0 1 RC
1 LJ
0.667 LW
N
912.519 792.15 M
912.691 792.324 L
912.457 792.252 L
S
GR
GS
[0.75 0 0 0.75 0 0.25] CT
0 0 1 RC
1 LJ
0.667 LW
N
909.09 790.151 M
912.691 792.324 L
S
GR
GS
[0.75 0 0 0.75 0 0.25] CT
0 0 1 RC
1 LJ
0.667 LW
N
889.707 860.133 M
872.912 853.114 L
858.39 842.139 L
847.054 827.897 L
839.616 811.283 L
836.544 793.342 L
838.029 775.2 L
843.98 757.998 L
854.022 742.815 L
867.524 730.608 L
883.637 722.141 L
901.35 717.948 L
919.55 718.291 L
937.092 723.15 L
952.875 732.219 L
965.906 744.928 L
975.368 760.478 L
980.665 777.893 L
981.465 796.078 L
977.717 813.89 L
969.657 830.211 L
957.792 844.015 L
942.866 854.435 L
925.819 860.815 L
907.72 862.755 L
889.707 860.133 L
S
GR
GS
[0.75 0 0 0.75 682.51071 592.63721] CT
0 0 1 RC
10.0 ML
0.667 LW
N
0 -4 M
0 4 L
-4 0 M
4 0 L
-2.828 -2.828 M
2.828 2.828 L
-2.828 2.828 M
2.828 -2.828 L
S
GR
GS
[0.75 0 0 0.75 0 0.25] CT
0 0 1 RC
1 LJ
0.667 LW
N
913.443 791.849 M
913.615 792.023 L
913.381 791.951 L
S
GR
GS
[0.75 0 0 0.75 0 0.25] CT
0 0 1 RC
1 LJ
0.667 LW
N
910.014 789.85 M
913.615 792.023 L
S
GR
GS
[0.75 0 0 0.75 0 0.25] CT
0 0 1 RC
1 LJ
0.667 LW
N
980.093 808.881 M
982.624 790.855 L
980.593 772.766 L
974.127 755.751 L
963.633 740.878 L
949.77 729.082 L
933.408 721.104 L
915.577 717.446 L
897.396 718.337 L
880.008 723.722 L
864.506 733.262 L
851.863 746.357 L
842.873 762.185 L
838.103 779.752 L
837.851 797.952 L
842.133 815.644 L
850.681 831.715 L
862.956 845.156 L
878.189 855.121 L
895.421 860.985 L
913.57 862.379 L
931.496 859.216 L
948.072 851.695 L
962.256 840.288 L
973.158 825.711 L
980.093 808.881 L
S
GR
GS
[0.75 0 0 0.75 713.22638 529.81445] CT
0 0 1 RC
10.0 ML
0.667 LW
N
0 -4 M
0 4 L
-4 0 M
4 0 L
-2.828 -2.828 M
2.828 2.828 L
-2.828 2.828 M
2.828 -2.828 L
S
GR
GS
[0.75 0 0 0.75 0 0.25] CT
0 0 1 RC
1 LJ
0.667 LW
N
954.397 708.085 M
954.57 708.259 L
954.335 708.187 L
S
GR
GS
[0.75 0 0 0.75 0 0.25] CT
0 0 1 RC
1 LJ
0.667 LW
N
950.969 706.086 M
954.57 708.259 L
S
GR
GS
[0.75 0 0 0.75 0 0.25] CT
0 0 1 RC
1 LJ
0.667 LW
N
926.535 774.469 M
910.297 766.244 L
896.614 754.24 L
886.346 739.209 L
880.139 722.098 L
878.382 703.98 L
881.186 685.995 L
888.375 669.272 L
899.497 654.862 L
913.853 643.671 L
930.541 636.401 L
948.513 633.511 L
966.638 635.18 L
983.78 641.305 L
998.859 651.5 L
1010.93 665.125 L
1019.233 681.323 L
1023.246 699.078 L
1022.718 717.273 L
1017.682 734.765 L
1008.454 750.455 L
995.614 763.357 L
979.969 772.661 L
962.501 777.781 L
944.309 778.397 L
926.535 774.469 L
S
GR
GS
[0.75 0 0 0.75 713.91875 530.50632] CT
0 0 1 RC
10.0 ML
0.667 LW
N
0 -4 M
0 4 L
-4 0 M
4 0 L
-2.828 -2.828 M
2.828 2.828 L
-2.828 2.828 M
2.828 -2.828 L
S
GR
GS
[0.75 0 0 0.75 0 0.25] CT
0 0 1 RC
1 LJ
0.667 LW
N
955.32 709.008 M
955.493 709.182 L
955.259 709.11 L
S
GR
GS
[0.75 0 0 0.75 0 0.25] CT
0 0 1 RC
1 LJ
0.667 LW
N
951.892 707.008 M
955.493 709.182 L
S
GR
GS
[0.75 0 0 0.75 0 0.25] CT
0 0 1 RC
1 LJ
0.667 LW
N
1022.034 725.803 M
1024.505 707.769 L
1022.412 689.687 L
1015.889 672.693 L
1005.345 657.856 L
991.441 646.107 L
975.053 638.184 L
957.21 634.587 L
939.032 635.539 L
921.662 640.983 L
906.192 650.575 L
893.594 663.713 L
884.658 679.571 L
879.947 697.153 L
879.756 715.355 L
884.098 733.032 L
892.7 749.074 L
905.021 762.473 L
920.287 772.387 L
937.539 778.193 L
955.692 779.526 L
973.607 776.302 L
990.158 768.725 L
1004.304 757.27 L
1015.156 742.656 L
1022.034 725.803 L
S
GR
GS
[0.75 0 0 0.75 744.63972 561.22707] CT
0 0 1 RC
10.0 ML
0.667 LW
N
0 -4 M
0 4 L
-4 0 M
4 0 L
-2.828 -2.828 M
2.828 2.828 L
-2.828 2.828 M
2.828 -2.828 L
S
GR
GS
[0.75 0 0 0.75 0 0.25] CT
0 0 1 RC
1 LJ
0.667 LW
N
996.281 749.969 M
996.454 750.142 L
996.22 750.071 L
S
GR
GS
[0.75 0 0 0.75 0 0.25] CT
0 0 1 RC
1 LJ
0.667 LW
N
992.853 747.969 M
996.454 750.142 L
S
GR
GS
[0.75 0 0 0.75 0 0.25] CT
0 0 1 RC
1 LJ
0.667 LW
N
972.661 817.722 M
955.949 810.51 L
941.555 799.367 L
930.384 784.995 L
923.139 768.296 L
920.274 750.321 L
921.97 732.197 L
928.119 715.065 L
938.336 700 L
951.978 687.949 L
968.189 679.669 L
985.949 675.682 L
1004.143 676.236 L
1021.628 681.297 L
1037.305 690.548 L
1050.188 703.406 L
1059.469 719.065 L
1064.565 736.54 L
1065.154 754.733 L
1061.201 772.501 L
1052.953 788.728 L
1040.928 802.394 L
1025.883 812.639 L
1008.763 818.822 L
990.642 820.553 L
972.661 817.722 L
S
GR
GS
[0.75 0 0 0.75 713.34091 592.75064] CT
0 0 1 RC
10.0 ML
0.667 LW
N
0 -4 M
0 4 L
-4 0 M
4 0 L
-2.828 -2.828 M
2.828 2.828 L
-2.828 2.828 M
2.828 -2.828 L
S
GR
GS
[0.75 0 0 0.75 0 0.25] CT
0 0 1 RC
1 LJ
0.667 LW
N
954.549 792 M
954.722 792.174 L
954.488 792.102 L
S
GR
GS
[0.75 0 0 0.75 0 0.25] CT
0 0 1 RC
1 LJ
0.667 LW
N
951.121 790.001 M
954.722 792.174 L
S
GR
GS
[0.75 0 0 0.75 0 0.25] CT
0 0 1 RC
1 LJ
0.667 LW
N
931.734 859.982 M
914.94 852.962 L
900.419 841.986 L
889.083 827.744 L
881.646 811.13 L
878.574 793.188 L
880.061 775.047 L
886.012 757.844 L
896.055 742.663 L
909.557 730.455 L
925.672 721.99 L
943.385 717.797 L
961.584 718.142 L
979.126 723.001 L
994.908 732.071 L
1007.939 744.78 L
1017.4 760.331 L
1022.696 777.746 L
1023.495 795.931 L
1019.747 813.743 L
1011.686 830.064 L
999.82 843.867 L
984.894 854.286 L
967.846 860.665 L
949.747 862.605 L
931.734 859.982 L
S
GR
GS
[0.75 0 0 0.75 686.89778 592.74799] CT
0 0 1 RC
10.0 ML
0.667 LW
N
0 -4 M
0 4 L
-4 0 M
4 0 L
-2.828 -2.828 M
2.828 2.828 L
-2.828 2.828 M
2.828 -2.828 L
S
GR
GS
[0.75 0 0 0.75 0 0.25] CT
0 0 1 RC
1 LJ
0.667 LW
N
919.292 791.997 M
919.465 792.17 L
919.231 792.099 L
S
GR
GS
[0.75 0 0 0.75 0 0.25] CT
0 0 1 RC
1 LJ
0.667 LW
N
915.864 789.997 M
919.465 792.17 L
S
GR
GS
[0.75 0 0 0.75 0 0.25] CT
0 0 1 RC
1 LJ
0.667 LW
N
986.494 806.866 M
988.47 788.771 L
985.884 770.753 L
978.898 753.944 L
967.952 739.401 L
953.732 728.036 L
937.134 720.565 L
919.198 717.457 L
901.054 718.907 L
883.839 724.823 L
868.638 734.835 L
856.403 748.313 L
847.904 764.41 L
843.676 782.114 L
843.984 800.314 L
848.808 817.866 L
857.845 833.667 L
870.528 846.723 L
886.059 856.216 L
903.464 861.548 L
921.647 862.383 L
939.467 858.671 L
955.804 850.644 L
969.631 838.806 L
980.08 823.901 L
986.494 806.866 L
S
GR
GS
[0.75 0 0 0.75 713.34064 531.31308] CT
0 0 1 RC
10.0 ML
0.667 LW
N
0 -4 M
0 4 L
-4 0 M
4 0 L
-2.828 -2.828 M
2.828 2.828 L
-2.828 2.828 M
2.828 -2.828 L
S
GR
GS
[0.75 0 0 0.75 0 0.25] CT
0 0 1 RC
1 LJ
0.667 LW
N
954.549 710.083 M
954.722 710.257 L
954.488 710.185 L
S
GR
GS
[0.75 0 0 0.75 0 0.25] CT
0 0 1 RC
1 LJ
0.667 LW
N
951.121 708.084 M
954.722 710.257 L
S
GR
GS
[0.75 0 0 0.75 0 0.25] CT
0 0 1 RC
1 LJ
0.667 LW
N
1021.877 724.417 M
1023.716 706.307 L
1020.993 688.309 L
1013.88 671.554 L
1002.824 657.094 L
988.519 645.838 L
971.864 638.493 L
953.906 635.521 L
935.773 637.108 L
918.604 643.155 L
903.478 653.281 L
891.346 666.851 L
882.97 683.012 L
878.876 700.748 L
879.321 718.946 L
884.278 736.46 L
893.435 752.192 L
906.216 765.152 L
921.819 774.527 L
939.263 779.726 L
957.453 780.424 L
975.244 776.577 L
991.52 768.426 L
1005.257 756.484 L
1015.592 741.5 L
1021.877 724.417 L
S
GR
GS
[0.75 0 0 0.75 744.05521 562.02957] CT
0 0 1 RC
10.0 ML
0.667 LW
N
0 -4 M
0 4 L
-4 0 M
4 0 L
-2.828 -2.828 M
2.828 2.828 L
-2.828 2.828 M
2.828 -2.828 L
S
GR
GS
[0.75 0 0 0.75 0 0.25] CT
0 0 1 RC
1 LJ
0.667 LW
N
995.502 751.039 M
995.675 751.213 L
995.441 751.141 L
S
GR
GS
[0.75 0 0 0.75 0 0.25] CT
0 0 1 RC
1 LJ
0.667 LW
N
992.074 749.039 M
995.675 751.213 L
S
GR
GS
[0.75 0 0 0.75 0 0.25] CT
0 0 1 RC
1 LJ
0.667 LW
N
1063.05 764.387 M
1064.637 746.254 L
1061.665 728.296 L
1054.319 711.641 L
1043.063 697.336 L
1028.603 686.28 L
1011.848 679.167 L
993.85 676.444 L
975.74 678.283 L
958.657 684.568 L
943.674 694.904 L
931.731 708.641 L
923.581 724.917 L
919.733 742.708 L
920.432 760.898 L
925.631 778.342 L
935.006 793.945 L
947.966 806.726 L
963.698 815.883 L
981.213 820.839 L
999.41 821.285 L
1017.146 817.19 L
1033.307 808.814 L
1046.877 796.682 L
1057.003 781.556 L
1063.05 764.387 L
S
GR
GS
[0.75 0 0 0.75 682.62277 592.74973] CT
0 0 1 RC
10.0 ML
0.667 LW
N
0 -4 M
0 4 L
-4 0 M
4 0 L
-2.828 -2.828 M
2.828 2.828 L
-2.828 2.828 M
2.828 -2.828 L
S
GR
GS
[0.75 0 0 0.75 0 0.25] CT
0 0 1 RC
1 LJ
0.667 LW
N
913.592 791.999 M
913.765 792.173 L
913.531 792.101 L
S
GR
GS
[0.75 0 0 0.75 0 0.25] CT
0 0 1 RC
1 LJ
0.667 LW
N
910.164 790 M
913.765 792.173 L
S
GR
GS
[0.75 0 0 0.75 0 0.25] CT
0 0 1 RC
1 LJ
0.667 LW
N
891.28 860.118 M
874.435 853.219 L
859.836 842.348 L
848.399 828.187 L
840.842 811.627 L
837.642 793.708 L
838.998 775.556 L
844.826 758.311 L
854.759 743.058 L
868.174 730.754 L
884.227 722.173 L
901.909 717.854 L
920.111 718.067 L
937.687 722.801 L
953.534 731.757 L
966.656 744.372 L
976.228 759.855 L
981.649 777.231 L
982.579 795.41 L
978.958 813.249 L
971.015 829.627 L
959.248 843.515 L
944.397 854.041 L
927.395 860.542 L
909.311 862.611 L
891.28 860.118 L
S
GR
GS
[0.75 0 0 0.75 714.033 530.62012] CT
0 0 1 RC
10.0 ML
0.667 LW
N
0 -4 M
0 4 L
-4 0 M
4 0 L
-2.828 -2.828 M
2.828 2.828 L
-2.828 2.828 M
2.828 -2.828 L
S
GR
GS
[0.75 0 0 0.75 0 0.25] CT
0 0 1 RC
1 LJ
0.667 LW
N
955.472 709.16 M
955.645 709.333 L
955.411 709.261 L
S
GR
GS
[0.75 0 0 0.75 0 0.25] CT
0 0 1 RC
1 LJ
0.667 LW
N
952.044 707.16 M
955.645 709.333 L
S
GR
GS
[0.75 0 0 0.75 0 0.25] CT
0 0 1 RC
1 LJ
6.667 LW
N
1022.195 725.925 M
1024.657 707.89 L
1022.557 689.808 L
1016.027 672.818 L
1005.476 657.985 L
991.568 646.242 L
975.176 638.326 L
957.331 634.736 L
939.154 635.696 L
921.787 641.147 L
906.321 650.746 L
893.727 663.889 L
884.799 679.751 L
880.095 697.336 L
879.912 715.537 L
884.262 733.213 L
892.87 749.251 L
905.197 762.645 L
920.467 772.552 L
937.721 778.35 L
955.875 779.676 L
973.789 776.445 L
990.336 768.86 L
1004.477 757.399 L
1015.324 742.781 L
1022.195 725.925 L
S
GR
GS
[0.75 0 0 0.75 718.30737 587.77502] CT
0 0 1 RC
10.0 ML
0.667 LW
N
0 -4 M
0 4 L
-4 0 M
4 0 L
-2.828 -2.828 M
2.828 2.828 L
-2.828 2.828 M
2.828 -2.828 L
S
GR
GS
[0.75 0 0 0.75 0 0.25] CT
0 0 1 RC
1 LJ
0.667 LW
N
961.171 785.366 M
961.344 785.54 L
961.11 785.468 L
S
GR
GS
[0.75 0 0 0.75 0 0.25] CT
0 0 1 RC
1 LJ
0.667 LW
N
957.743 783.367 M
961.344 785.54 L
S
GR
GS
[0.75 0 0 0.75 0 0.25] CT
0 0 1 RC
1 LJ
6.667 LW
N
1028.313 800.487 M
1030.354 782.399 L
1027.832 764.372 L
1020.906 747.538 L
1010.011 732.956 L
995.833 721.541 L
979.261 714.011 L
961.337 710.839 L
943.187 712.224 L
925.952 718.079 L
910.714 728.036 L
898.431 741.47 L
889.876 757.537 L
885.584 775.226 L
885.827 793.427 L
890.588 810.996 L
899.569 826.829 L
912.205 839.931 L
927.703 849.479 L
945.088 854.872 L
963.268 855.773 L
981.101 852.124 L
997.467 844.155 L
1011.336 832.367 L
1021.838 817.499 L
1028.313 800.487 L
S
GR
GS
[0.75 0 0 0.75 744.74812 561.3373] CT
0 0 1 RC
10.0 ML
0.667 LW
N
0 -4 M
0 4 L
-4 0 M
4 0 L
-2.828 -2.828 M
2.828 2.828 L
-2.828 2.828 M
2.828 -2.828 L
S
GR
GS
[0.75 0 0 0.75 0 0.25] CT
0 0 1 RC
1 LJ
0.667 LW
N
996.426 750.116 M
996.599 750.29 L
996.364 750.218 L
S
GR
GS
[0.75 0 0 0.75 0 0.25] CT
0 0 1 RC
1 LJ
0.667 LW
N
992.997 748.116 M
996.599 750.29 L
S
GR
GS
[0.75 0 0 0.75 0 0.25] CT
0 0 1 RC
1 LJ
6.667 LW
N
1062.742 768.339 M
1065.58 750.359 L
1063.857 732.238 L
1057.682 715.115 L
1047.443 700.065 L
1033.782 688.035 L
1017.559 679.78 L
999.793 675.818 L
981.6 676.4 L
964.122 681.487 L
948.46 690.762 L
935.595 703.64 L
926.338 719.312 L
921.269 736.795 L
920.707 754.989 L
924.687 772.751 L
932.959 788.965 L
945.004 802.613 L
960.065 812.836 L
977.194 818.993 L
995.317 820.696 L
1013.294 817.839 L
1029.996 810.601 L
1044.373 799.437 L
1055.521 785.048 L
1062.742 768.339 L
S
GR
GS
[0.75 0 0 0.75 713.20674 592.90179] CT
0 0 1 RC
10.0 ML
0.667 LW
N
0 -4 M
0 4 L
-4 0 M
4 0 L
-2.828 -2.828 M
2.828 2.828 L
-2.828 2.828 M
2.828 -2.828 L
S
GR
GS
[0.75 0 0 0.75 0 0.25] CT
0 0 1 RC
1 LJ
0.667 LW
N
954.371 792.202 M
954.543 792.375 L
954.309 792.304 L
S
GR
GS
[0.75 0 0 0.75 0 0.25] CT
0 0 1 RC
1 LJ
0.667 LW
N
950.942 790.202 M
954.543 792.375 L
S
GR
GS
[0.75 0 0 0.75 0 0.25] CT
0 0 1 RC
1 LJ
0.667 LW
N
930.721 859.947 M
914.011 852.727 L
899.622 841.578 L
888.458 827.201 L
881.22 810.5 L
878.363 792.523 L
880.066 774.4 L
886.222 757.27 L
896.446 742.209 L
910.093 730.165 L
926.307 721.892 L
944.069 717.912 L
962.263 718.473 L
979.746 723.542 L
995.419 732.8 L
1008.297 745.664 L
1017.571 761.327 L
1022.659 778.804 L
1023.241 796.997 L
1019.279 814.763 L
1011.024 830.987 L
998.994 844.647 L
983.945 854.887 L
966.822 861.062 L
948.701 862.785 L
930.721 859.947 L
S
GR
GS
[0.75 0 0 0.75 713.20464 540.02208] CT
0 0 1 RC
10.0 ML
0.667 LW
N
0 -4 M
0 4 L
-4 0 M
4 0 L
-2.828 -2.828 M
2.828 2.828 L
-2.828 2.828 M
2.828 -2.828 L
S
GR
GS
[0.75 0 0 0.75 0 0.25] CT
0 0 1 RC
1 LJ
0.667 LW
N
954.368 721.696 M
954.541 721.869 L
954.306 721.797 L
S
GR
GS
[0.75 0 0 0.75 0 0.25] CT
0 0 1 RC
1 LJ
0.667 LW
N
950.94 719.696 M
954.541 721.869 L
S
GR
GS
[0.75 0 0 0.75 0 0.25] CT
0 0 1 RC
1 LJ
6.667 LW
N
933.457 790.177 M
916.478 783.615 L
901.665 773.037 L
889.948 759.107 L
882.063 742.701 L
878.506 724.849 L
879.5 706.674 L
884.983 689.316 L
894.61 673.868 L
907.777 661.299 L
923.656 652.4 L
941.249 647.729 L
959.451 647.58 L
977.118 651.962 L
993.14 660.6 L
1006.511 672.952 L
1016.39 688.241 L
1022.156 705.506 L
1023.448 723.662 L
1020.184 741.57 L
1012.568 758.103 L
1001.081 772.223 L
986.443 783.042 L
969.574 789.881 L
951.534 792.31 L
933.457 790.177 L
S
GR
GS
[0.75 0 0 0.75 686.76869 592.90143] CT
0 0 1 RC
10.0 ML
0.667 LW
N
0 -4 M
0 4 L
-4 0 M
4 0 L
-2.828 -2.828 M
2.828 2.828 L
-2.828 2.828 M
2.828 -2.828 L
S
GR
GS
[0.75 0 0 0.75 0 0.25] CT
0 0 1 RC
1 LJ
0.667 LW
N
919.12 792.201 M
919.293 792.375 L
919.058 792.303 L
S
GR
GS
[0.75 0 0 0.75 0 0.25] CT
0 0 1 RC
1 LJ
0.667 LW
N
915.692 790.202 M
919.293 792.375 L
S
GR
GS
[0.75 0 0 0.75 0 0.25] CT
0 0 1 RC
1 LJ
0.667 LW
N
986.108 807.943 M
988.308 789.874 L
985.945 771.825 L
979.168 754.931 L
968.402 740.254 L
954.324 728.714 L
937.819 721.039 L
919.924 717.709 L
901.763 718.934 L
884.476 724.637 L
869.152 734.459 L
856.751 747.785 L
848.054 763.775 L
843.607 781.426 L
843.689 799.629 L
848.296 817.239 L
857.137 833.15 L
869.657 846.363 L
885.07 856.047 L
902.407 861.593 L
920.579 862.654 L
938.443 859.163 L
954.878 851.338 L
968.851 839.672 L
979.484 824.898 L
986.108 807.943 L
S
GR
GS
[0.75 0 0 0.75 682.49176 592.90244] CT
0 0 1 RC
10.0 ML
0.667 LW
N
0 -4 M
0 4 L
-4 0 M
4 0 L
-2.828 -2.828 M
2.828 2.828 L
-2.828 2.828 M
2.828 -2.828 L
S
GR
GS
[0.75 0 0 0.75 0 0.25] CT
0 0 1 RC
1 LJ
0.667 LW
N
913.417 792.203 M
913.59 792.376 L
913.356 792.304 L
S
GR
GS
[0.75 0 0 0.75 0 0.25] CT
0 0 1 RC
1 LJ
0.667 LW
N
909.989 790.203 M
913.59 792.376 L
S
GR
GS
[0.75 0 0 0.75 0 0.25] CT
0 0 1 RC
1 LJ
0.667 LW
N
891.223 860.353 M
874.367 853.482 L
859.749 842.635 L
848.288 828.494 L
840.704 811.947 L
837.473 794.033 L
838.799 775.879 L
844.598 758.625 L
854.506 743.354 L
867.9 731.028 L
883.938 722.42 L
901.614 718.071 L
919.815 718.254 L
937.4 722.958 L
953.261 731.888 L
966.404 744.481 L
976.003 759.948 L
981.453 777.315 L
982.413 795.492 L
978.822 813.337 L
970.907 829.729 L
959.163 843.636 L
944.33 854.187 L
927.339 860.717 L
909.258 862.816 L
891.223 860.353 L
S
GR
GS
[0.75 0 0 0.75 712.51428 592.90125] CT
0 0 1 RC
10.0 ML
0.667 LW
N
0 -4 M
0 4 L
-4 0 M
4 0 L
-2.828 -2.828 M
2.828 2.828 L
-2.828 2.828 M
2.828 -2.828 L
S
GR
GS
[0.75 0 0 0.75 0 0.25] CT
0 0 1 RC
1 LJ
0.667 LW
N
953.447 792.201 M
953.62 792.375 L
953.386 792.303 L
S
GR
GS
[0.75 0 0 0.75 0 0.25] CT
0 0 1 RC
1 LJ
0.667 LW
N
950.019 790.202 M
953.62 792.375 L
S
GR
GS
[0.75 0 0 0.75 0 0.25] CT
0 0 1 RC
1 LJ
0.667 LW
N
931.765 860.487 M
914.86 853.739 L
900.163 842.999 L
888.599 828.942 L
880.895 812.45 L
877.533 794.561 L
878.726 776.397 L
884.399 759.101 L
894.195 743.759 L
907.499 731.336 L
923.474 722.611 L
941.117 718.133 L
959.32 718.183 L
976.938 722.758 L
992.865 731.572 L
1006.099 744.069 L
1015.81 759.465 L
1021.387 776.792 L
1022.48 794.962 L
1019.019 812.833 L
1011.224 829.281 L
999.582 843.274 L
984.826 853.933 L
967.883 860.587 L
949.818 862.818 L
931.765 860.487 L
S
GR
GS
[0.75 0 0 0.75 686.07683 592.90239] CT
0 0 1 RC
10.0 ML
0.667 LW
N
0 -4 M
0 4 L
-4 0 M
4 0 L
-2.828 -2.828 M
2.828 2.828 L
-2.828 2.828 M
2.828 -2.828 L
S
GR
GS
[0.75 0 0 0.75 0 0.25] CT
0 0 1 RC
1 LJ
0.667 LW
N
918.197 792.203 M
918.37 792.376 L
918.136 792.304 L
S
GR
GS
[0.75 0 0 0.75 0 0.25] CT
0 0 1 RC
1 LJ
0.667 LW
N
914.769 790.203 M
918.37 792.376 L
S
GR
GS
[0.75 0 0 0.75 0 0.25] CT
0 0 1 RC
1 LJ
0.667 LW
N
985.286 807.538 M
987.382 789.457 L
984.915 771.422 L
978.041 754.567 L
967.191 739.952 L
953.047 728.494 L
936.498 720.913 L
918.583 717.687 L
900.429 719.016 L
883.177 724.819 L
867.909 734.73 L
855.585 748.126 L
846.98 764.167 L
842.635 781.843 L
842.822 800.045 L
847.53 817.628 L
856.463 833.488 L
869.059 846.628 L
884.527 856.223 L
901.896 861.67 L
920.074 862.626 L
937.918 859.031 L
954.307 851.112 L
968.213 839.366 L
978.76 824.531 L
985.286 807.538 L
S
GR
GS
[0.75 0 0 0.75 708.23383 592.90074] CT
0 0 1 RC
10.0 ML
0.667 LW
N
0 -4 M
0 4 L
-4 0 M
4 0 L
-2.828 -2.828 M
2.828 2.828 L
-2.828 2.828 M
2.828 -2.828 L
S
GR
GS
[0.75 0 0 0.75 0 0.25] CT
0 0 1 RC
1 LJ
0.667 LW
N
947.74 792.2 M
947.913 792.374 L
947.679 792.302 L
S
GR
GS
[0.75 0 0 0.75 0 0.25] CT
0 0 1 RC
1 LJ
0.667 LW
N
944.312 790.201 M
947.913 792.374 L
S
GR
GS
[0.75 0 0 0.75 0 0.25] CT
0 0 1 RC
1 LJ
6.667 LW
N
1014.724 807.958 M
1016.928 789.889 L
1014.569 771.84 L
1007.796 754.945 L
997.033 740.265 L
982.958 728.722 L
966.455 721.043 L
948.56 717.709 L
930.399 718.93 L
913.111 724.629 L
897.784 734.448 L
885.381 747.77 L
876.68 763.759 L
872.229 781.409 L
872.307 799.611 L
876.91 817.222 L
885.747 833.136 L
898.265 846.351 L
913.675 856.039 L
931.011 861.589 L
949.182 862.654 L
967.048 859.167 L
983.484 851.346 L
997.46 839.683 L
1008.096 824.911 L
1014.724 807.958 L
S
GR
GS
[0.75 0 0 0.75 681.79971 592.90358] CT
0 0 1 RC
10.0 ML
0.667 LW
N
0 -4 M
0 4 L
-4 0 M
4 0 L
-2.828 -2.828 M
2.828 2.828 L
-2.828 2.828 M
2.828 -2.828 L
S
GR
GS
[0.75 0 0 0.75 0 0.25] CT
0 0 1 RC
1 LJ
0.667 LW
N
912.495 792.204 M
912.667 792.378 L
912.433 792.306 L
S
GR
GS
[0.75 0 0 0.75 0 0.25] CT
0 0 1 RC
1 LJ
0.667 LW
N
909.066 790.205 M
912.667 792.378 L
S
GR
GS
[0.75 0 0 0.75 0 0.25] CT
0 0 1 RC
1 LJ
0.667 LW
N
890.111 860.304 M
873.274 853.388 L
858.685 842.501 L
847.262 828.329 L
839.723 811.761 L
836.54 793.839 L
837.915 775.688 L
843.761 758.45 L
853.709 743.207 L
867.136 730.917 L
883.198 722.352 L
900.885 718.05 L
919.086 718.283 L
936.658 723.034 L
952.496 732.006 L
965.605 744.635 L
975.161 760.127 L
980.565 777.509 L
981.476 795.689 L
977.837 813.524 L
969.877 829.894 L
958.096 843.77 L
943.235 854.281 L
926.226 860.765 L
908.14 862.816 L
890.111 860.304 L
S
GR
GS
[0.75 0 0 0.75 713.09834 592.90399] CT
0 0 1 RC
10.0 ML
0.667 LW
N
0 -4 M
0 4 L
-4 0 M
4 0 L
-2.828 -2.828 M
2.828 2.828 L
-2.828 2.828 M
2.828 -2.828 L
S
GR
GS
[0.75 0 0 0.75 0 0.25] CT
0 0 1 RC
1 LJ
0.667 LW
N
954.226 792.205 M
954.399 792.378 L
954.165 792.306 L
S
GR
GS
[0.75 0 0 0.75 0 0.25] CT
0 0 1 RC
1 LJ
0.667 LW
N
950.798 790.205 M
954.399 792.378 L
S
GR
GS
[0.75 0 0 0.75 0 0.25] CT
0 0 1 RC
1 LJ
0.667 LW
N
930.607 859.959 M
913.895 852.746 L
899.501 841.604 L
888.33 827.232 L
881.084 810.534 L
878.219 792.558 L
879.914 774.434 L
886.063 757.302 L
896.28 742.237 L
909.922 730.186 L
926.132 721.906 L
943.893 717.918 L
962.087 718.471 L
979.572 723.532 L
995.248 732.783 L
1008.132 745.641 L
1017.414 761.3 L
1022.509 778.775 L
1023.099 796.968 L
1019.146 814.736 L
1010.898 830.963 L
998.874 844.628 L
983.829 854.875 L
966.709 861.058 L
948.589 862.789 L
930.607 859.959 L
S
GR
GS
[0.75 0 0 0.75 686.65466 592.90042] CT
0 0 1 RC
10.0 ML
0.667 LW
N
0 -4 M
0 4 L
-4 0 M
4 0 L
-2.828 -2.828 M
2.828 2.828 L
-2.828 2.828 M
2.828 -2.828 L
S
GR
GS
[0.75 0 0 0.75 0 0.25] CT
0 0 1 RC
1 LJ
0.667 LW
N
918.968 792.2 M
919.141 792.374 L
918.906 792.302 L
S
GR
GS
[0.75 0 0 0.75 0 0.25] CT
0 0 1 RC
1 LJ
0.667 LW
N
915.54 790.201 M
919.141 792.374 L
S
GR
GS
[0.75 0 0 0.75 0 0.25] CT
0 0 1 RC
1 LJ
6.667 LW
N
897.776 860.611 M
880.824 853.982 L
866.053 843.345 L
854.391 829.368 L
846.572 812.931 L
843.086 795.065 L
844.152 776.894 L
849.704 759.558 L
859.393 744.149 L
872.61 731.632 L
888.524 722.796 L
906.135 718.195 L
924.338 718.119 L
941.987 722.571 L
957.975 731.273 L
971.297 743.678 L
981.115 759.006 L
986.812 776.294 L
988.032 794.455 L
984.696 812.35 L
977.015 828.852 L
965.471 842.926 L
950.79 853.687 L
933.894 860.459 L
915.845 862.817 L
897.776 860.611 L
S
GR
GS
[0.75 0 0 0.75 682.3775 592.90111] CT
0 0 1 RC
10.0 ML
0.667 LW
N
0 -4 M
0 4 L
-4 0 M
4 0 L
-2.828 -2.828 M
2.828 2.828 L
-2.828 2.828 M
2.828 -2.828 L
S
GR
GS
[0.75 0 0 0.75 0 0.25] CT
0 0 1 RC
1 LJ
0.667 LW
N
913.265 792.201 M
913.438 792.375 L
913.204 792.303 L
S
GR
GS
[0.75 0 0 0.75 0 0.25] CT
0 0 1 RC
1 LJ
0.667 LW
N
909.837 790.201 M
913.438 792.375 L
S
GR
GS
[0.75 0 0 0.75 0 0.25] CT
0 0 1 RC
1 LJ
0.667 LW
N
891.041 860.344 M
874.188 853.466 L
859.574 842.612 L
848.119 828.466 L
840.542 811.915 L
837.319 794 L
838.653 775.847 L
844.459 758.595 L
854.373 743.329 L
867.772 731.009 L
883.815 722.407 L
901.492 718.066 L
919.693 718.257 L
937.276 722.968 L
953.134 731.904 L
966.271 744.503 L
975.863 759.974 L
981.306 777.344 L
982.258 795.521 L
978.66 813.365 L
970.737 829.753 L
958.988 843.656 L
944.151 854.2 L
927.157 860.723 L
909.075 862.814 L
891.041 860.344 L
S
GR
GS
[0.75 0 0 0.75 681.68513 592.90221] CT
0 0 1 RC
10.0 ML
0.667 LW
N
0 -4 M
0 4 L
-4 0 M
4 0 L
-2.828 -2.828 M
2.828 2.828 L
-2.828 2.828 M
2.828 -2.828 L
S
GR
GS
[0.75 0 0 0.75 0 0.25] CT
0 0 1 RC
1 LJ
0.667 LW
N
912.342 792.202 M
912.515 792.376 L
912.28 792.304 L
S
GR
GS
[0.75 0 0 0.75 0 0.25] CT
0 0 1 RC
1 LJ
0.667 LW
N
908.914 790.203 M
912.515 792.376 L
S
GR
GS
[0.75 0 0 0.75 0 0.25] CT
0 0 1 RC
1 LJ
6.667 LW
N
977.297 814.636 M
981.224 796.862 L
980.609 778.67 L
975.488 761.202 L
966.184 745.557 L
953.282 732.717 L
937.592 723.489 L
920.1 718.453 L
901.905 717.925 L
884.15 721.939 L
867.952 730.242 L
854.327 742.313 L
844.132 757.392 L
838.007 774.534 L
836.338 792.659 L
839.229 810.631 L
846.499 827.319 L
857.69 841.675 L
872.1 852.797 L
888.823 859.985 L
906.808 862.789 L
924.926 861.032 L
942.037 854.825 L
957.068 844.557 L
969.072 830.874 L
977.297 814.636 L
S
GR
%%Trailer
%%Pages: 1
%%EOF
