%!PS-Adobe-3.0 EPSF-3.0
%%Creator: (MATLAB, The Mathworks, Inc. Version 9.8.0.1380330 \(R2020a\) Update 2. Operating System: Linux)
%%Title: (/home/ohads/ANPL/papers/research/2021 RAL/Figures/TestCase_1/fig_files/Robots_estimation_k_5.eps)
%%CreationDate: 2021-02-21T16:00:39
%%Pages: (atend)
%%BoundingBox:   274    16  1109   674
%%LanguageLevel: 3
%%EndComments
%%BeginProlog
%%BeginResource: procset (Apache XML Graphics Std ProcSet) 1.2 0
%%Version: 1.2 0
%%Copyright: (Copyright 2001-2003,2010 The Apache Software Foundation. License terms: http://www.apache.org/licenses/LICENSE-2.0)
/bd{bind def}bind def
/ld{load def}bd
/GR/grestore ld
/GS/gsave ld
/RM/rmoveto ld
/C/curveto ld
/t/show ld
/L/lineto ld
/ML/setmiterlimit ld
/CT/concat ld
/f/fill ld
/N/newpath ld
/S/stroke ld
/CC/setcmykcolor ld
/A/ashow ld
/cp/closepath ld
/RC/setrgbcolor ld
/LJ/setlinejoin ld
/GC/setgray ld
/LW/setlinewidth ld
/M/moveto ld
/re {4 2 roll M
1 index 0 rlineto
0 exch rlineto
neg 0 rlineto
cp } bd
/_ctm matrix def
/_tm matrix def
/BT { _ctm currentmatrix pop matrix _tm copy pop 0 0 moveto } bd
/ET { _ctm setmatrix } bd
/iTm { _ctm setmatrix _tm concat } bd
/Tm { _tm astore pop iTm 0 0 moveto } bd
/ux 0.0 def
/uy 0.0 def
/F {
  /Tp exch def
  /Tf exch def
  Tf findfont Tp scalefont setfont
  /cf Tf def  /cs Tp def
} bd
/ULS {currentpoint /uy exch def /ux exch def} bd
/ULE {
  /Tcx currentpoint pop def
  gsave
  newpath
  cf findfont cs scalefont dup
  /FontMatrix get 0 get /Ts exch def /FontInfo get dup
  /UnderlinePosition get Ts mul /To exch def
  /UnderlineThickness get Ts mul /Tt exch def
  ux uy To add moveto  Tcx uy To add lineto
  Tt setlinewidth stroke
  grestore
} bd
/OLE {
  /Tcx currentpoint pop def
  gsave
  newpath
  cf findfont cs scalefont dup
  /FontMatrix get 0 get /Ts exch def /FontInfo get dup
  /UnderlinePosition get Ts mul /To exch def
  /UnderlineThickness get Ts mul /Tt exch def
  ux uy To add cs add moveto Tcx uy To add cs add lineto
  Tt setlinewidth stroke
  grestore
} bd
/SOE {
  /Tcx currentpoint pop def
  gsave
  newpath
  cf findfont cs scalefont dup
  /FontMatrix get 0 get /Ts exch def /FontInfo get dup
  /UnderlinePosition get Ts mul /To exch def
  /UnderlineThickness get Ts mul /Tt exch def
  ux uy To add cs 10 mul 26 idiv add moveto Tcx uy To add cs 10 mul 26 idiv add lineto
  Tt setlinewidth stroke
  grestore
} bd
/QT {
/Y22 exch store
/X22 exch store
/Y21 exch store
/X21 exch store
currentpoint
/Y21 load 2 mul add 3 div exch
/X21 load 2 mul add 3 div exch
/X21 load 2 mul /X22 load add 3 div
/Y21 load 2 mul /Y22 load add 3 div
/X22 load /Y22 load curveto
} bd
/SSPD {
dup length /d exch dict def
{
/v exch def
/k exch def
currentpagedevice k known {
/cpdv currentpagedevice k get def
v cpdv ne {
/upd false def
/nullv v type /nulltype eq def
/nullcpdv cpdv type /nulltype eq def
nullv nullcpdv or
{
/upd true def
} {
/sametype v type cpdv type eq def
sametype {
v type /arraytype eq {
/vlen v length def
/cpdvlen cpdv length def
vlen cpdvlen eq {
0 1 vlen 1 sub {
/i exch def
/obj v i get def
/cpdobj cpdv i get def
obj cpdobj ne {
/upd true def
exit
} if
} for
} {
/upd true def
} ifelse
} {
v type /dicttype eq {
v {
/dv exch def
/dk exch def
/cpddv cpdv dk get def
dv cpddv ne {
/upd true def
exit
} if
} forall
} {
/upd true def
} ifelse
} ifelse
} if
} ifelse
upd true eq {
d k v put
} if
} if
} if
} forall
d length 0 gt {
d setpagedevice
} if
} bd
/RE { % /NewFontName [NewEncodingArray] /FontName RE -
  findfont dup length dict begin
  {
    1 index /FID ne
    {def} {pop pop} ifelse
  } forall
  /Encoding exch def
  /FontName 1 index def
  currentdict definefont pop
  end
} bind def
%%EndResource
%%BeginResource: procset (Apache XML Graphics EPS ProcSet) 1.0 0
%%Version: 1.0 0
%%Copyright: (Copyright 2002-2003 The Apache Software Foundation. License terms: http://www.apache.org/licenses/LICENSE-2.0)
/BeginEPSF { %def
/b4_Inc_state save def         % Save state for cleanup
/dict_count countdictstack def % Count objects on dict stack
/op_count count 1 sub def      % Count objects on operand stack
userdict begin                 % Push userdict on dict stack
/showpage { } def              % Redefine showpage, { } = null proc
0 setgray 0 setlinecap         % Prepare graphics state
1 setlinewidth 0 setlinejoin
10 setmiterlimit [ ] 0 setdash newpath
/languagelevel where           % If level not equal to 1 then
{pop languagelevel             % set strokeadjust and
1 ne                           % overprint to their defaults.
{false setstrokeadjust false setoverprint
} if
} if
} bd
/EndEPSF { %def
count op_count sub {pop} repeat            % Clean up stacks
countdictstack dict_count sub {end} repeat
b4_Inc_state restore
} bd
%%EndResource
%FOPBeginFontDict
%%IncludeResource: font Courier-Oblique
%%IncludeResource: font Courier-BoldOblique
%%IncludeResource: font Courier-Bold
%%IncludeResource: font ZapfDingbats
%%IncludeResource: font Symbol
%%IncludeResource: font Helvetica
%%IncludeResource: font Helvetica-Oblique
%%IncludeResource: font Helvetica-Bold
%%IncludeResource: font Helvetica-BoldOblique
%%IncludeResource: font Times-Roman
%%IncludeResource: font Times-Italic
%%IncludeResource: font Times-Bold
%%IncludeResource: font Times-BoldItalic
%%IncludeResource: font Courier
%FOPEndFontDict
%%BeginResource: encoding WinAnsiEncoding
/WinAnsiEncoding [
/.notdef /.notdef /.notdef /.notdef /.notdef
/.notdef /.notdef /.notdef /.notdef /.notdef
/.notdef /.notdef /.notdef /.notdef /.notdef
/.notdef /.notdef /.notdef /.notdef /.notdef
/.notdef /.notdef /.notdef /.notdef /.notdef
/.notdef /.notdef /.notdef /.notdef /.notdef
/.notdef /.notdef /space /exclam /quotedbl
/numbersign /dollar /percent /ampersand /quotesingle
/parenleft /parenright /asterisk /plus /comma
/hyphen /period /slash /zero /one
/two /three /four /five /six
/seven /eight /nine /colon /semicolon
/less /equal /greater /question /at
/A /B /C /D /E
/F /G /H /I /J
/K /L /M /N /O
/P /Q /R /S /T
/U /V /W /X /Y
/Z /bracketleft /backslash /bracketright /asciicircum
/underscore /quoteleft /a /b /c
/d /e /f /g /h
/i /j /k /l /m
/n /o /p /q /r
/s /t /u /v /w
/x /y /z /braceleft /bar
/braceright /asciitilde /bullet /Euro /bullet
/quotesinglbase /florin /quotedblbase /ellipsis /dagger
/daggerdbl /circumflex /perthousand /Scaron /guilsinglleft
/OE /bullet /Zcaron /bullet /bullet
/quoteleft /quoteright /quotedblleft /quotedblright /bullet
/endash /emdash /asciitilde /trademark /scaron
/guilsinglright /oe /bullet /zcaron /Ydieresis
/space /exclamdown /cent /sterling /currency
/yen /brokenbar /section /dieresis /copyright
/ordfeminine /guillemotleft /logicalnot /sfthyphen /registered
/macron /degree /plusminus /twosuperior /threesuperior
/acute /mu /paragraph /middot /cedilla
/onesuperior /ordmasculine /guillemotright /onequarter /onehalf
/threequarters /questiondown /Agrave /Aacute /Acircumflex
/Atilde /Adieresis /Aring /AE /Ccedilla
/Egrave /Eacute /Ecircumflex /Edieresis /Igrave
/Iacute /Icircumflex /Idieresis /Eth /Ntilde
/Ograve /Oacute /Ocircumflex /Otilde /Odieresis
/multiply /Oslash /Ugrave /Uacute /Ucircumflex
/Udieresis /Yacute /Thorn /germandbls /agrave
/aacute /acircumflex /atilde /adieresis /aring
/ae /ccedilla /egrave /eacute /ecircumflex
/edieresis /igrave /iacute /icircumflex /idieresis
/eth /ntilde /ograve /oacute /ocircumflex
/otilde /odieresis /divide /oslash /ugrave
/uacute /ucircumflex /udieresis /yacute /thorn
/ydieresis
] def
%%EndResource
%FOPBeginFontReencode
/Courier-Oblique findfont
dup length dict begin
  {1 index /FID ne {def} {pop pop} ifelse} forall
  /Encoding WinAnsiEncoding def
  currentdict
end
/Courier-Oblique exch definefont pop
/Courier-BoldOblique findfont
dup length dict begin
  {1 index /FID ne {def} {pop pop} ifelse} forall
  /Encoding WinAnsiEncoding def
  currentdict
end
/Courier-BoldOblique exch definefont pop
/Courier-Bold findfont
dup length dict begin
  {1 index /FID ne {def} {pop pop} ifelse} forall
  /Encoding WinAnsiEncoding def
  currentdict
end
/Courier-Bold exch definefont pop
/Helvetica findfont
dup length dict begin
  {1 index /FID ne {def} {pop pop} ifelse} forall
  /Encoding WinAnsiEncoding def
  currentdict
end
/Helvetica exch definefont pop
/Helvetica-Oblique findfont
dup length dict begin
  {1 index /FID ne {def} {pop pop} ifelse} forall
  /Encoding WinAnsiEncoding def
  currentdict
end
/Helvetica-Oblique exch definefont pop
/Helvetica-Bold findfont
dup length dict begin
  {1 index /FID ne {def} {pop pop} ifelse} forall
  /Encoding WinAnsiEncoding def
  currentdict
end
/Helvetica-Bold exch definefont pop
/Helvetica-BoldOblique findfont
dup length dict begin
  {1 index /FID ne {def} {pop pop} ifelse} forall
  /Encoding WinAnsiEncoding def
  currentdict
end
/Helvetica-BoldOblique exch definefont pop
/Times-Roman findfont
dup length dict begin
  {1 index /FID ne {def} {pop pop} ifelse} forall
  /Encoding WinAnsiEncoding def
  currentdict
end
/Times-Roman exch definefont pop
/Times-Italic findfont
dup length dict begin
  {1 index /FID ne {def} {pop pop} ifelse} forall
  /Encoding WinAnsiEncoding def
  currentdict
end
/Times-Italic exch definefont pop
/Times-Bold findfont
dup length dict begin
  {1 index /FID ne {def} {pop pop} ifelse} forall
  /Encoding WinAnsiEncoding def
  currentdict
end
/Times-Bold exch definefont pop
/Times-BoldItalic findfont
dup length dict begin
  {1 index /FID ne {def} {pop pop} ifelse} forall
  /Encoding WinAnsiEncoding def
  currentdict
end
/Times-BoldItalic exch definefont pop
/Courier findfont
dup length dict begin
  {1 index /FID ne {def} {pop pop} ifelse} forall
  /Encoding WinAnsiEncoding def
  currentdict
end
/Courier exch definefont pop
%FOPEndFontReencode
%%EndProlog
%%Page: 1 1
%%PageBoundingBox: 0 0 1390 728
%%BeginPageSetup
[1 0 0 -1 0 728] CT
%%EndPageSetup
GS
[0.75 0 0 0.75 0 0.5] CT
1 GC
N
0 0 1853 970 re
f
GR
GS
[0.75 0 0 0.75 0 0.5] CT
1 GC
N
0 0 1853 970 re
f
GR
GS
[0.75 0 0 0.75 0 0.5] CT
1 GC
N
458.182 863 M
1459.818 863 L
1459.818 73 L
458.182 73 L
cp
f
GR
GS
[0.75 0 0 0.75 0 0.5] CT
0.149 GC
2 setlinecap
1 LJ
0.667 LW
N
458.182 863 M
1459.818 863 L
S
GR
GS
[0.75 0 0 0.75 0 0.5] CT
0.149 GC
2 setlinecap
1 LJ
0.667 LW
N
458.182 863 M
458.182 852.984 L
S
GR
GS
[0.75 0 0 0.75 0 0.5] CT
0.149 GC
2 setlinecap
1 LJ
0.667 LW
N
708.591 863 M
708.591 852.984 L
S
GR
GS
[0.75 0 0 0.75 0 0.5] CT
0.149 GC
2 setlinecap
1 LJ
0.667 LW
N
959 863 M
959 852.984 L
S
GR
GS
[0.75 0 0 0.75 0 0.5] CT
0.149 GC
2 setlinecap
1 LJ
0.667 LW
N
1209.409 863 M
1209.409 852.984 L
S
GR
GS
[0.75 0 0 0.75 0 0.5] CT
0.149 GC
2 setlinecap
1 LJ
0.667 LW
N
1459.818 863 M
1459.818 852.984 L
S
GR
GS
[0.75 0 0 0.75 343.63651 654.74998] CT
0.149 GC
/Helvetica 33.333 F
GS
[1 0 0 1 0 0] CT
-17 31 moveto 
1 -1 scale
(-5) t 
GR
GR
GS
[0.75 0 0 0.75 531.44325 654.74998] CT
0.149 GC
/Helvetica 33.333 F
GS
[1 0 0 1 0 0] CT
-11 31 moveto 
1 -1 scale
(0) t 
GR
GR
GS
[0.75 0 0 0.75 719.25 654.74998] CT
0.149 GC
/Helvetica 33.333 F
GS
[1 0 0 1 0 0] CT
-11 31 moveto 
1 -1 scale
(5) t 
GR
GR
GS
[0.75 0 0 0.75 907.05679 654.74998] CT
0.149 GC
/Helvetica 33.333 F
GS
[1 0 0 1 0 0] CT
-21.5 31 moveto 
1 -1 scale
(10) t 
GR
GR
GS
[0.75 0 0 0.75 1094.86349 654.74998] CT
0.149 GC
/Helvetica 33.333 F
GS
[1 0 0 1 0 0] CT
-21.5 31 moveto 
1 -1 scale
(15) t 
GR
GR
GS
[0.75 0 0 0.75 719.25037 685.00002] CT
0.149 GC
/Helvetica 36.667 F
GS
[1 0 0 1 0 0] CT
-22.5 35 moveto 
1 -1 scale
(Xs) t 
GR
GR
GS
[0.75 0 0 0.75 0 0.5] CT
0.149 GC
2 setlinecap
1 LJ
0.667 LW
N
458.182 863 M
458.182 73 L
S
GR
GS
[0.75 0 0 0.75 0 0.5] CT
0.149 GC
2 setlinecap
1 LJ
0.667 LW
N
458.182 835.995 M
468.198 835.995 L
S
GR
GS
[0.75 0 0 0.75 0 0.5] CT
0.149 GC
2 setlinecap
1 LJ
0.667 LW
N
458.182 585.586 M
468.198 585.586 L
S
GR
GS
[0.75 0 0 0.75 0 0.5] CT
0.149 GC
2 setlinecap
1 LJ
0.667 LW
N
458.182 335.177 M
468.198 335.177 L
S
GR
GS
[0.75 0 0 0.75 0 0.5] CT
0.149 GC
2 setlinecap
1 LJ
0.667 LW
N
458.182 84.768 M
468.198 84.768 L
S
GR
GS
[0.75 0 0 0.75 336.6365 627.49593] CT
0.149 GC
/Helvetica 33.333 F
GS
[1 0 0 1 0 0] CT
-34 11.5 moveto 
1 -1 scale
(-5) t 
GR
GR
GS
[0.75 0 0 0.75 336.6365 439.68918] CT
0.149 GC
/Helvetica 33.333 F
GS
[1 0 0 1 0 0] CT
-22 11.5 moveto 
1 -1 scale
(0) t 
GR
GR
GS
[0.75 0 0 0.75 336.6365 251.88243] CT
0.149 GC
/Helvetica 33.333 F
GS
[1 0 0 1 0 0] CT
-22 11.5 moveto 
1 -1 scale
(5) t 
GR
GR
GS
[0.75 0 0 0.75 336.6365 64.07568] CT
0.149 GC
/Helvetica 33.333 F
GS
[1 0 0 1 0 0] CT
-43 11.5 moveto 
1 -1 scale
(10) t 
GR
GR
GS
[0 -0.75 0.75 0 301.3865 351.49973] CT
0.149 GC
/Helvetica 36.667 F
GS
[1 0 0 1 0 0] CT
-21 -9 moveto 
1 -1 scale
(Ys) t 
GR
GR
GS
[0.75 0 0 0.75 794.37268 402.12784] CT
1 0 0 RC
N
0 -26.66 M
-23.088 13.33 L
23.088 13.33 L
cp
f
GR
GS
[0.75 0 0 0.75 794.37268 402.12784] CT
0 0 1 RC
10.0 ML
0.667 LW
N
0 -26.66 M
-23.088 13.33 L
23.088 13.33 L
cp
S
GR
GS
[0.75 0 0 0.75 606.56593 139.19839] CT
1 0 0 RC
N
/f-1996900118{0 -26.66 M
-23.088 13.33 L
23.088 13.33 L
cp}def
f-1996900118
f
GR
GS
[0.75 0 0 0.75 606.56593 139.19839] CT
0 0 1 RC
10.0 ML
0.667 LW
N
0 -26.66 M
-23.088 13.33 L
23.088 13.33 L
cp
S
GR
GS
[0.75 0 0 0.75 794.37268 327.00513] CT
1 0 0 RC
N
f-1996900118
f
GR
GS
[0.75 0 0 0.75 794.37268 327.00513] CT
0 0 1 RC
10.0 ML
0.667 LW
N
0 -26.66 M
-23.088 13.33 L
23.088 13.33 L
cp
S
GR
GS
[0.75 0 0 0.75 719.25 139.19839] CT
1 0 0 RC
N
f-1996900118
f
GR
GS
[0.75 0 0 0.75 719.25 139.19839] CT
0 0 1 RC
10.0 ML
0.667 LW
N
0 -26.66 M
-23.088 13.33 L
23.088 13.33 L
cp
S
GR
GS
[0.75 0 0 0.75 831.93402 364.56647] CT
1 0 0 RC
N
f-1996900118
f
GR
GS
[0.75 0 0 0.75 831.93402 364.56647] CT
0 0 1 RC
10.0 ML
0.667 LW
N
0 -26.66 M
-23.088 13.33 L
23.088 13.33 L
cp
S
GR
GS
[0.75 0 0 0.75 756.81134 139.19839] CT
1 0 0 RC
N
f-1996900118
f
GR
GS
[0.75 0 0 0.75 756.81134 139.19839] CT
0 0 1 RC
10.0 ML
0.667 LW
N
0 -26.66 M
-23.088 13.33 L
23.088 13.33 L
cp
S
GR
GS
[0.75 0 0 0.75 794.37268 214.32109] CT
1 0 0 RC
N
f-1996900118
f
GR
GS
[0.75 0 0 0.75 794.37268 214.32109] CT
0 0 1 RC
10.0 ML
0.667 LW
N
0 -26.66 M
-23.088 13.33 L
23.088 13.33 L
cp
S
GR
GS
[0.75 0 0 0.75 756.81134 402.12784] CT
1 0 0 RC
N
f-1996900118
f
GR
GS
[0.75 0 0 0.75 756.81134 402.12784] CT
0 0 1 RC
10.0 ML
0.667 LW
N
0 -26.66 M
-23.088 13.33 L
23.088 13.33 L
cp
S
GR
GS
[0.75 0 0 0.75 656.39095 532.74901] CT
0 1 1 RC
10.0 ML
0.667 LW
N
0 -4 M
0 4 L
-4 0 M
4 0 L
-2.828 -2.828 M
2.828 2.828 L
-2.828 2.828 M
2.828 -2.828 L
S
GR
GS
[0.75 0 0 0.75 0 0.5] CT
0 1 1 RC
1 LJ
0.667 LW
N
871.104 712.033 M
870.818 712.111 L
871.034 711.907 L
S
GR
GS
[0.75 0 0 0.75 0 0.5] CT
0 1 1 RC
1 LJ
0.667 LW
N
875.188 709.665 M
870.818 712.111 L
S
GR
GS
[0.75 0 0 0.75 0 0.5] CT
0 1 1 RC
1 LJ
0.667 LW
N
834.472 717.406 M
837.676 727.288 L
843.237 736.063 L
850.805 743.18 L
859.906 748.191 L
869.967 750.781 L
880.356 750.787 L
890.42 748.21 L
899.528 743.211 L
907.105 736.104 L
912.678 727.336 L
915.894 717.457 L
916.553 707.089 L
914.613 696.883 L
910.196 687.48 L
903.579 679.471 L
895.178 673.359 L
885.521 669.528 L
875.214 668.22 L
864.906 669.515 L
855.245 673.334 L
846.836 679.435 L
840.208 687.435 L
835.779 696.833 L
833.826 707.037 L
834.472 717.406 L
S
GR
GS
[0.75 0 0 0.75 656.39145 469.78549] CT
0 1 1 RC
10.0 ML
0.667 LW
N
0 -4 M
0 4 L
-4 0 M
4 0 L
-2.828 -2.828 M
2.828 2.828 L
-2.828 2.828 M
2.828 -2.828 L
S
GR
GS
[0.75 0 0 0.75 0 0.5] CT
0 1 1 RC
1 LJ
0.667 LW
N
871.105 628.082 M
870.818 628.16 L
871.035 627.956 L
S
GR
GS
[0.75 0 0 0.75 0 0.5] CT
0 1 1 RC
1 LJ
0.667 LW
N
875.189 625.714 M
870.818 628.16 L
S
GR
GS
[0.75 0 0 0.75 0 0.5] CT
0 1 1 RC
1 LJ
0.667 LW
N
834.045 630.708 M
834.096 620.319 L
836.728 610.269 L
841.778 601.19 L
848.926 593.651 L
857.725 588.128 L
867.621 584.965 L
877.992 584.363 L
888.188 586.36 L
897.566 590.829 L
905.539 597.49 L
911.604 605.925 L
915.382 615.603 L
916.634 625.916 L
915.281 636.217 L
911.41 645.857 L
905.262 654.232 L
897.225 660.815 L
887.804 665.193 L
877.589 667.09 L
867.224 666.387 L
857.359 663.129 L
848.615 657.519 L
841.54 649.911 L
836.58 640.783 L
834.045 630.708 L
S
GR
GS
[0.75 0 0 0.75 624.90976 532.74928] CT
0 1 1 RC
10.0 ML
0.667 LW
N
0 -4 M
0 4 L
-4 0 M
4 0 L
-2.828 -2.828 M
2.828 2.828 L
-2.828 2.828 M
2.828 -2.828 L
S
GR
GS
[0.75 0 0 0.75 0 0.5] CT
0 1 1 RC
1 LJ
0.667 LW
N
829.13 712.034 M
828.843 712.111 L
829.059 711.908 L
S
GR
GS
[0.75 0 0 0.75 0 0.5] CT
0 1 1 RC
1 LJ
0.667 LW
N
833.213 709.666 M
828.843 712.111 L
S
GR
GS
[0.75 0 0 0.75 0 0.5] CT
0 1 1 RC
1 LJ
0.667 LW
N
792.042 714.424 M
792.152 704.036 L
794.842 694.001 L
799.943 684.951 L
807.135 677.453 L
815.965 671.98 L
825.879 668.874 L
836.254 668.332 L
846.437 670.387 L
855.79 674.909 L
863.724 681.616 L
869.742 690.085 L
873.463 699.785 L
874.656 710.105 L
873.245 720.398 L
869.318 730.016 L
863.123 738.356 L
855.049 744.893 L
845.602 749.216 L
835.377 751.055 L
825.016 750.292 L
815.17 746.978 L
806.458 741.318 L
799.427 733.67 L
794.518 724.514 L
792.042 714.424 L
S
GR
GS
[0.75 0 0 0.75 619.81485 532.75029] CT
0 1 1 RC
10.0 ML
0.667 LW
N
0 -4 M
0 4 L
-4 0 M
4 0 L
-2.828 -2.828 M
2.828 2.828 L
-2.828 2.828 M
2.828 -2.828 L
S
GR
GS
[0.75 0 0 0.75 0 0.5] CT
0 1 1 RC
1 LJ
0.667 LW
N
822.336 712.035 M
822.049 712.113 L
822.266 711.909 L
S
GR
GS
[0.75 0 0 0.75 0 0.5] CT
0 1 1 RC
1 LJ
0.667 LW
N
826.42 709.667 M
822.049 712.113 L
S
GR
GS
[0.75 0 0 0.75 0 0.5] CT
0 1 1 RC
1 LJ
0.667 LW
N
785.321 715.015 M
785.282 704.626 L
787.828 694.554 L
792.799 685.431 L
799.882 677.831 L
808.633 672.232 L
818.502 668.985 L
828.868 668.294 L
839.08 670.202 L
848.497 674.591 L
856.526 681.183 L
862.664 689.565 L
866.524 699.21 L
867.865 709.512 L
866.601 719.824 L
862.813 729.498 L
856.738 737.925 L
848.758 744.578 L
839.374 749.036 L
829.177 751.021 L
818.806 750.407 L
808.913 747.234 L
800.121 741.7 L
792.981 734.153 L
787.942 725.068 L
785.321 715.015 L
S
GR
GS
[0.75 0 0 0.75 657.21689 531.92238] CT
0 1 1 RC
10.0 ML
0.667 LW
N
0 -4 M
0 4 L
-4 0 M
4 0 L
-2.828 -2.828 M
2.828 2.828 L
-2.828 2.828 M
2.828 -2.828 L
S
GR
GS
[0.75 0 0 0.75 0 0.5] CT
0 1 1 RC
1 LJ
0.667 LW
N
872.206 710.931 M
871.919 711.009 L
872.135 710.805 L
S
GR
GS
[0.75 0 0 0.75 0 0.5] CT
0 1 1 RC
1 LJ
0.667 LW
N
876.289 708.563 M
871.919 711.009 L
S
GR
GS
[0.75 0 0 0.75 0 0.5] CT
0 1 1 RC
1 LJ
0.667 LW
N
835.123 713.364 M
835.222 702.975 L
837.902 692.938 L
842.994 683.882 L
850.178 676.377 L
859.003 670.895 L
868.913 667.779 L
879.288 667.226 L
889.473 669.271 L
898.831 673.784 L
906.772 680.482 L
912.798 688.945 L
916.529 698.641 L
917.733 708.96 L
916.332 719.254 L
912.415 728.877 L
906.229 737.223 L
898.161 743.768 L
888.718 748.101 L
878.495 749.95 L
868.133 749.198 L
858.284 745.893 L
849.566 740.243 L
842.527 732.602 L
837.61 723.451 L
835.123 713.364 L
S
GR
GS
[0.75 0 0 0.75 657.2168 468.95872] CT
0 1 1 RC
10.0 ML
0.667 LW
N
0 -4 M
0 4 L
-4 0 M
4 0 L
-2.828 -2.828 M
2.828 2.828 L
-2.828 2.828 M
2.828 -2.828 L
S
GR
GS
[0.75 0 0 0.75 0 0.5] CT
0 1 1 RC
1 LJ
0.667 LW
N
872.206 626.979 M
871.919 627.057 L
872.135 626.854 L
S
GR
GS
[0.75 0 0 0.75 0 0.5] CT
0 1 1 RC
1 LJ
0.667 LW
N
876.289 624.612 M
871.919 627.057 L
S
GR
GS
[0.75 0 0 0.75 0 0.5] CT
0 1 1 RC
1 LJ
0.667 LW
N
835.085 629.078 M
837.49 639.184 L
842.333 648.376 L
849.31 656.073 L
857.982 661.794 L
867.804 665.179 L
878.159 666.015 L
888.397 664.249 L
897.874 659.993 L
905.995 653.513 L
912.249 645.218 L
916.244 635.627 L
917.728 625.345 L
916.609 615.017 L
912.956 605.291 L
906.999 596.779 L
899.112 590.016 L
889.792 585.427 L
879.623 583.3 L
869.245 583.769 L
859.309 586.804 L
850.44 592.215 L
843.195 599.661 L
838.03 608.675 L
835.269 618.69 L
835.085 629.078 L
S
GR
GS
[0.75 0 0 0.75 688.69702 500.43987] CT
0 1 1 RC
10.0 ML
0.667 LW
N
0 -4 M
0 4 L
-4 0 M
4 0 L
-2.828 -2.828 M
2.828 2.828 L
-2.828 2.828 M
2.828 -2.828 L
S
GR
GS
[0.75 0 0 0.75 0 0.5] CT
0 1 1 RC
1 LJ
0.667 LW
N
914.179 668.954 M
913.892 669.032 L
914.109 668.828 L
S
GR
GS
[0.75 0 0 0.75 0 0.5] CT
0 1 1 RC
1 LJ
0.667 LW
N
918.263 666.586 M
913.892 669.032 L
S
GR
GS
[0.75 0 0 0.75 0 0.5] CT
0 1 1 RC
1 LJ
0.667 LW
N
877.066 671.12 M
877.233 660.732 L
879.978 650.712 L
885.128 641.69 L
892.361 634.232 L
901.221 628.807 L
911.152 625.756 L
921.529 625.27 L
931.702 627.38 L
941.03 631.954 L
948.927 638.704 L
954.898 647.206 L
958.567 656.926 L
959.703 667.252 L
958.235 677.537 L
954.256 687.134 L
948.015 695.44 L
939.905 701.932 L
930.435 706.204 L
920.2 707.987 L
909.843 707.168 L
900.016 703.799 L
891.335 698.092 L
884.346 690.406 L
879.488 681.222 L
877.066 671.12 L
S
GR
GS
[0.75 0 0 0.75 625.73502 531.92233] CT
0 1 1 RC
10.0 ML
0.667 LW
N
0 -4 M
0 4 L
-4 0 M
4 0 L
-2.828 -2.828 M
2.828 2.828 L
-2.828 2.828 M
2.828 -2.828 L
S
GR
GS
[0.75 0 0 0.75 0 0.5] CT
0 1 1 RC
1 LJ
0.667 LW
N
830.23 710.931 M
829.943 711.009 L
830.159 710.805 L
S
GR
GS
[0.75 0 0 0.75 0 0.5] CT
0 1 1 RC
1 LJ
0.667 LW
N
834.313 708.563 M
829.943 711.009 L
S
GR
GS
[0.75 0 0 0.75 0 0.5] CT
0 1 1 RC
1 LJ
0.667 LW
N
793.078 712.734 M
793.337 702.348 L
796.17 692.353 L
801.399 683.376 L
808.697 675.982 L
817.605 670.635 L
827.562 667.671 L
837.943 667.277 L
848.097 669.477 L
857.384 674.133 L
865.222 680.952 L
871.118 689.506 L
874.701 699.257 L
875.746 709.594 L
874.188 719.865 L
870.125 729.427 L
863.811 737.677 L
855.644 744.098 L
846.137 748.286 L
835.886 749.979 L
825.537 749.069 L
815.74 745.614 L
807.109 739.831 L
800.188 732.083 L
795.411 722.857 L
793.078 712.734 L
S
GR
GS
[0.75 0 0 0.75 662.31171 463.86208] CT
0 1 1 RC
10.0 ML
0.667 LW
N
0 -4 M
0 4 L
-4 0 M
4 0 L
-2.828 -2.828 M
2.828 2.828 L
-2.828 2.828 M
2.828 -2.828 L
S
GR
GS
[0.75 0 0 0.75 0 0.5] CT
0 1 1 RC
1 LJ
0.667 LW
N
878.999 620.184 M
878.712 620.262 L
878.928 620.058 L
S
GR
GS
[0.75 0 0 0.75 0 0.5] CT
0 1 1 RC
1 LJ
0.667 LW
N
883.082 617.816 M
878.712 620.262 L
S
GR
GS
[0.75 0 0 0.75 0 0.5] CT
0 1 1 RC
1 LJ
0.667 LW
N
841.874 622.248 M
844.271 632.357 L
849.107 641.552 L
856.077 649.255 L
864.744 654.984 L
874.563 658.377 L
884.918 659.221 L
895.157 657.464 L
904.638 653.215 L
912.764 646.742 L
919.025 638.452 L
923.028 628.865 L
924.521 618.584 L
923.41 608.255 L
919.765 598.526 L
913.815 590.009 L
905.934 583.24 L
896.618 578.643 L
886.451 576.508 L
876.072 576.968 L
866.133 579.995 L
857.26 585.398 L
850.009 592.838 L
844.837 601.848 L
842.067 611.861 L
841.874 622.248 L
S
GR
GS
[0.75 0 0 0.75 693.79243 495.34354] CT
0 1 1 RC
10.0 ML
0.667 LW
N
0 -4 M
0 4 L
-4 0 M
4 0 L
-2.828 -2.828 M
2.828 2.828 L
-2.828 2.828 M
2.828 -2.828 L
S
GR
GS
[0.75 0 0 0.75 0 0.5] CT
0 1 1 RC
1 LJ
0.667 LW
N
920.973 662.159 M
920.686 662.237 L
920.903 662.033 L
S
GR
GS
[0.75 0 0 0.75 0 0.5] CT
0 1 1 RC
1 LJ
0.667 LW
N
925.057 659.791 M
920.686 662.237 L
S
GR
GS
[0.75 0 0 0.75 0 0.5] CT
0 1 1 RC
1 LJ
0.667 LW
N
883.968 665.216 M
883.909 654.827 L
886.437 644.75 L
891.391 635.618 L
898.46 628.005 L
907.201 622.39 L
917.063 619.124 L
927.428 618.414 L
937.643 620.303 L
947.068 624.674 L
955.11 631.252 L
961.263 639.622 L
965.142 649.26 L
966.501 659.56 L
965.257 669.874 L
961.487 679.555 L
955.427 687.993 L
947.459 694.66 L
938.084 699.136 L
927.89 701.14 L
917.518 700.546 L
907.62 697.391 L
898.817 691.873 L
891.663 684.34 L
886.607 675.264 L
883.968 665.216 L
S
GR
GS
[0.75 0 0 0.75 656.39049 532.44894] CT
0 1 1 RC
10.0 ML
0.667 LW
N
0 -4 M
0 4 L
-4 0 M
4 0 L
-2.828 -2.828 M
2.828 2.828 L
-2.828 2.828 M
2.828 -2.828 L
S
GR
GS
[0.75 0 0 0.75 0 0.5] CT
0 1 1 RC
1 LJ
0.667 LW
N
871.104 711.633 M
870.817 711.711 L
871.033 711.507 L
S
GR
GS
[0.75 0 0 0.75 0 0.5] CT
0 1 1 RC
1 LJ
0.667 LW
N
875.187 709.265 M
870.817 711.711 L
S
GR
GS
[0.75 0 0 0.75 0 0.5] CT
0 1 1 RC
1 LJ
0.667 LW
N
834.097 714.678 M
834.042 704.289 L
836.572 694.213 L
841.528 685.083 L
848.6 677.472 L
857.342 671.858 L
867.205 668.596 L
877.57 667.888 L
887.785 669.781 L
897.209 674.154 L
905.249 680.734 L
911.4 689.106 L
915.275 698.745 L
916.632 709.045 L
915.385 719.359 L
911.612 729.039 L
905.55 737.476 L
897.581 744.14 L
888.204 748.614 L
878.009 750.615 L
867.638 750.017 L
857.74 746.859 L
848.939 741.339 L
841.787 733.804 L
836.734 724.727 L
834.097 714.678 L
S
GR
GS
[0.75 0 0 0.75 624.90967 532.45] CT
0 1 1 RC
10.0 ML
0.667 LW
N
0 -4 M
0 4 L
-4 0 M
4 0 L
-2.828 -2.828 M
2.828 2.828 L
-2.828 2.828 M
2.828 -2.828 L
S
GR
GS
[0.75 0 0 0.75 0 0.5] CT
0 1 1 RC
1 LJ
0.667 LW
N
829.129 711.634 M
828.843 711.712 L
829.059 711.509 L
S
GR
GS
[0.75 0 0 0.75 0 0.5] CT
0 1 1 RC
1 LJ
0.667 LW
N
833.213 709.267 M
828.843 711.712 L
S
GR
GS
[0.75 0 0 0.75 0 0.5] CT
0 1 1 RC
1 LJ
0.667 LW
N
791.993 713.585 M
792.214 703.198 L
795.011 693.193 L
800.209 684.198 L
807.48 676.777 L
816.368 671.399 L
826.315 668.399 L
836.695 667.968 L
846.856 670.131 L
856.16 674.754 L
864.022 681.545 L
869.948 690.078 L
873.567 699.816 L
874.649 710.149 L
873.128 720.426 L
869.099 730.001 L
862.815 738.275 L
854.671 744.725 L
845.179 748.947 L
834.935 750.676 L
824.582 749.804 L
814.772 746.384 L
806.121 740.632 L
799.172 732.909 L
794.362 723.7 L
791.993 713.585 L
S
GR
GS
[0.75 0 0 0.75 619.81471 532.451] CT
0 1 1 RC
10.0 ML
0.667 LW
N
0 -4 M
0 4 L
-4 0 M
4 0 L
-2.828 -2.828 M
2.828 2.828 L
-2.828 2.828 M
2.828 -2.828 L
S
GR
GS
[0.75 0 0 0.75 0 0.5] CT
0 1 1 RC
1 LJ
0.667 LW
N
822.336 711.636 M
822.049 711.714 L
822.266 711.51 L
S
GR
GS
[0.75 0 0 0.75 0 0.5] CT
0 1 1 RC
1 LJ
0.667 LW
N
826.42 709.268 M
822.049 711.714 L
S
GR
GS
[0.75 0 0 0.75 0 0.5] CT
0 1 1 RC
1 LJ
0.667 LW
N
785.277 714.27 M
787.813 724.344 L
792.776 733.472 L
799.852 741.078 L
808.597 746.686 L
818.463 749.943 L
828.828 750.643 L
839.042 748.745 L
848.463 744.365 L
856.499 737.781 L
862.645 729.405 L
866.514 719.763 L
867.865 709.462 L
866.611 699.149 L
862.832 689.472 L
856.765 681.039 L
848.791 674.379 L
839.412 669.911 L
829.216 667.917 L
818.845 668.521 L
808.949 671.685 L
800.151 677.21 L
793.004 684.75 L
787.957 693.83 L
785.326 703.881 L
785.277 714.27 L
S
GR
GS
[0.75 0 0 0.75 656.392 530.79605] CT
0 1 1 RC
10.0 ML
0.667 LW
N
0 -4 M
0 4 L
-4 0 M
4 0 L
-2.828 -2.828 M
2.828 2.828 L
-2.828 2.828 M
2.828 -2.828 L
S
GR
GS
[0.75 0 0 0.75 0 0.5] CT
0 1 1 RC
1 LJ
0.667 LW
N
871.106 709.429 M
870.819 709.507 L
871.035 709.303 L
S
GR
GS
[0.75 0 0 0.75 0 0.5] CT
0 1 1 RC
1 LJ
0.667 LW
N
875.189 707.061 M
870.819 709.507 L
S
GR
GS
[0.75 0 0 0.75 0 0.5] CT
0 1 1 RC
1 LJ
0.667 LW
N
834.087 712.381 M
836.701 722.436 L
841.733 731.524 L
848.868 739.076 L
857.657 744.616 L
867.547 747.796 L
877.918 748.417 L
888.117 746.439 L
897.503 741.987 L
905.488 735.341 L
911.569 726.917 L
915.364 717.246 L
916.635 706.935 L
915.301 696.632 L
911.447 686.984 L
905.315 678.598 L
897.29 672 L
887.877 667.606 L
877.666 665.69 L
867.299 666.374 L
857.429 669.614 L
848.674 675.208 L
841.585 682.802 L
836.608 691.922 L
834.055 701.992 L
834.087 712.381 L
S
GR
GS
[0.75 0 0 0.75 624.91013 530.79587] CT
0 1 1 RC
10.0 ML
0.667 LW
N
0 -4 M
0 4 L
-4 0 M
4 0 L
-2.828 -2.828 M
2.828 2.828 L
-2.828 2.828 M
2.828 -2.828 L
S
GR
GS
[0.75 0 0 0.75 0 0.5] CT
0 1 1 RC
1 LJ
0.667 LW
N
829.13 709.429 M
828.843 709.507 L
829.06 709.303 L
S
GR
GS
[0.75 0 0 0.75 0 0.5] CT
0 1 1 RC
1 LJ
0.667 LW
N
833.214 707.061 M
828.843 709.507 L
S
GR
GS
[0.75 0 0 0.75 0 0.5] CT
0 1 1 RC
1 LJ
0.667 LW
N
791.986 711.306 M
794.337 721.425 L
799.13 730.642 L
806.066 738.378 L
814.707 744.145 L
824.51 747.583 L
834.861 748.474 L
845.108 746.763 L
854.608 742.558 L
862.764 736.122 L
869.062 727.86 L
873.108 718.291 L
874.648 708.017 L
873.584 697.683 L
869.983 687.938 L
864.072 679.394 L
856.222 672.589 L
846.927 667.95 L
836.769 665.768 L
826.388 666.182 L
816.436 669.163 L
807.539 674.526 L
800.254 681.933 L
795.041 690.919 L
792.226 700.92 L
791.986 711.306 L
S
GR
GS
[0.75 0 0 0.75 656.39095 457.6396] CT
0 1 1 RC
10.0 ML
4 LW
N
0 -4 M
0 4 L
-4 0 M
4 0 L
-2.828 -2.828 M
2.828 2.828 L
-2.828 2.828 M
2.828 -2.828 L
S
GR
GS
[0.75 0 0 0.75 0 0.5] CT
0 1 1 RC
1 LJ
0.667 LW
N
871.104 611.887 M
870.818 611.965 L
871.034 611.761 L
S
GR
GS
[0.75 0 0 0.75 0 0.5] CT
0 1 1 RC
1 LJ
0.667 LW
N
875.188 609.519 M
870.818 611.965 L
S
GR
GS
[0.75 0 0 0.75 0 0.5] CT
0 1 1 RC
1 LJ
6.667 LW
N
834.472 617.26 M
833.826 606.891 L
835.779 596.687 L
840.208 587.29 L
846.836 579.289 L
855.244 573.188 L
864.906 569.37 L
875.214 568.074 L
885.52 569.383 L
895.177 573.213 L
903.578 579.325 L
910.196 587.334 L
914.613 596.737 L
916.553 606.943 L
915.894 617.311 L
912.678 627.19 L
907.105 635.958 L
899.528 643.065 L
890.421 648.064 L
880.356 650.641 L
869.967 650.635 L
859.906 648.045 L
850.806 643.034 L
843.237 635.918 L
837.676 627.142 L
834.472 617.26 L
S
GR
GS
[0.75 0 0 0.75 661.48645 462.73524] CT
0 1 1 RC
10.0 ML
0.667 LW
N
0 -4 M
0 4 L
-4 0 M
4 0 L
-2.828 -2.828 M
2.828 2.828 L
-2.828 2.828 M
2.828 -2.828 L
S
GR
GS
[0.75 0 0 0.75 0 0.5] CT
0 1 1 RC
1 LJ
0.667 LW
N
877.898 618.681 M
877.612 618.759 L
877.828 618.556 L
S
GR
GS
[0.75 0 0 0.75 0 0.5] CT
0 1 1 RC
1 LJ
0.667 LW
N
881.982 616.314 M
877.612 618.759 L
S
GR
GS
[0.75 0 0 0.75 0 0.5] CT
0 1 1 RC
1 LJ
0.667 LW
N
840.786 620.858 M
840.951 610.47 L
843.693 600.45 L
848.841 591.426 L
856.072 583.966 L
864.93 578.538 L
874.86 575.485 L
885.238 574.996 L
895.411 577.104 L
904.74 581.675 L
912.639 588.423 L
918.612 596.924 L
922.283 606.642 L
923.422 616.969 L
921.957 627.254 L
917.981 636.852 L
911.742 645.159 L
903.634 651.654 L
894.165 655.928 L
883.93 657.713 L
873.573 656.897 L
863.745 653.531 L
855.062 647.826 L
848.071 640.142 L
843.211 630.96 L
840.786 620.858 L
S
GR
GS
[0.75 0 0 0.75 692.96915 494.2184] CT
0 1 1 RC
10.0 ML
0.667 LW
N
0 -4 M
0 4 L
-4 0 M
4 0 L
-2.828 -2.828 M
2.828 2.828 L
-2.828 2.828 M
2.828 -2.828 L
S
GR
GS
[0.75 0 0 0.75 0 0.5] CT
0 1 1 RC
1 LJ
0.667 LW
N
919.875 660.659 M
919.589 660.737 L
919.805 660.533 L
S
GR
GS
[0.75 0 0 0.75 0 0.5] CT
0 1 1 RC
1 LJ
0.667 LW
N
923.959 658.291 M
919.589 660.737 L
S
GR
GS
[0.75 0 0 0.75 0 0.5] CT
0 1 1 RC
1 LJ
0.667 LW
N
882.86 663.642 M
882.821 653.253 L
885.366 643.18 L
890.336 634.058 L
897.419 626.457 L
906.17 620.857 L
916.038 617.61 L
926.404 616.918 L
936.617 618.826 L
946.034 623.214 L
954.063 629.805 L
960.202 638.187 L
964.063 647.832 L
965.404 658.134 L
964.141 668.446 L
960.353 678.12 L
954.279 686.548 L
946.299 693.2 L
936.916 697.659 L
926.718 699.645 L
916.347 699.032 L
906.455 695.859 L
897.662 690.326 L
890.521 682.779 L
885.482 673.695 L
882.86 663.642 L
S
GR
GS
[0.75 0 0 0.75 657.21684 531.6235] CT
0 1 1 RC
10.0 ML
0.667 LW
N
0 -4 M
0 4 L
-4 0 M
4 0 L
-2.828 -2.828 M
2.828 2.828 L
-2.828 2.828 M
2.828 -2.828 L
S
GR
GS
[0.75 0 0 0.75 0 0.5] CT
0 1 1 RC
1 LJ
0.667 LW
N
872.206 710.532 M
871.919 710.61 L
872.135 710.407 L
S
GR
GS
[0.75 0 0 0.75 0 0.5] CT
0 1 1 RC
1 LJ
0.667 LW
N
876.289 708.165 M
871.919 710.61 L
S
GR
GS
[0.75 0 0 0.75 0 0.5] CT
0 1 1 RC
1 LJ
0.667 LW
N
835.145 713.151 M
835.197 702.762 L
837.832 692.713 L
842.883 683.634 L
850.033 676.097 L
858.832 670.575 L
868.729 667.414 L
879.101 666.815 L
889.296 668.813 L
898.673 673.284 L
906.645 679.946 L
912.709 688.382 L
916.484 698.061 L
917.734 708.374 L
916.38 718.674 L
912.507 728.315 L
906.358 736.688 L
898.32 743.27 L
888.897 747.646 L
878.682 749.541 L
868.317 748.836 L
858.453 745.576 L
849.71 739.965 L
842.636 732.356 L
837.677 723.227 L
835.145 713.151 L
S
GR
GS
[0.75 0 0 0.75 657.21657 468.65967] CT
0 1 1 RC
10.0 ML
0.667 LW
N
0 -4 M
0 4 L
-4 0 M
4 0 L
-2.828 -2.828 M
2.828 2.828 L
-2.828 2.828 M
2.828 -2.828 L
S
GR
GS
[0.75 0 0 0.75 0 0.5] CT
0 1 1 RC
1 LJ
0.667 LW
N
872.205 626.581 M
871.918 626.659 L
872.135 626.455 L
S
GR
GS
[0.75 0 0 0.75 0 0.5] CT
0 1 1 RC
1 LJ
0.667 LW
N
876.289 624.213 M
871.918 626.659 L
S
GR
GS
[0.75 0 0 0.75 0 0.5] CT
0 1 1 RC
1 LJ
6.667 LW
N
835.012 627.945 M
835.38 617.563 L
838.319 607.598 L
843.644 598.677 L
851.02 591.361 L
859.984 586.109 L
869.972 583.252 L
880.357 582.968 L
890.487 585.275 L
899.724 590.029 L
907.489 596.931 L
913.293 605.548 L
916.773 615.337 L
917.708 625.683 L
916.041 635.938 L
911.876 645.456 L
905.476 653.638 L
897.241 659.972 L
887.689 664.06 L
877.422 665.643 L
867.083 664.623 L
857.323 661.064 L
848.754 655.19 L
841.915 647.369 L
837.237 638.093 L
835.012 627.945 L
S
GR
GS
[0.75 0 0 0.75 688.69675 500.13976] CT
0 1 1 RC
10.0 ML
0.667 LW
N
0 -4 M
0 4 L
-4 0 M
4 0 L
-2.828 -2.828 M
2.828 2.828 L
-2.828 2.828 M
2.828 -2.828 L
S
GR
GS
[0.75 0 0 0.75 0 0.5] CT
0 1 1 RC
1 LJ
4 LW
N
914.179 668.554 M
913.892 668.632 L
914.108 668.428 L
S
GR
GS
[0.75 0 0 0.75 0 0.5] CT
0 1 1 RC
1 LJ
4 LW
N
918.262 666.186 M
913.892 668.632 L
S
GR
GS
[0.75 0 0 0.75 0 0.5] CT
0 1 1 RC
1 LJ
6.667 LW
N
876.978 669.837 M
877.367 659.456 L
880.326 649.497 L
885.668 640.587 L
893.059 633.285 L
902.033 628.051 L
912.026 625.213 L
922.412 624.949 L
932.537 627.277 L
941.765 632.049 L
949.516 638.966 L
955.304 647.594 L
958.764 657.39 L
959.679 667.739 L
957.992 677.99 L
953.808 687.499 L
947.391 695.669 L
939.144 701.987 L
929.584 706.055 L
919.314 707.618 L
908.977 706.578 L
899.224 703 L
890.667 697.109 L
883.843 689.274 L
879.183 679.99 L
876.978 669.837 L
S
GR
GS
[0.75 0 0 0.75 625.73492 531.62318] CT
0 1 1 RC
10.0 ML
6.667 LW
N
0 -4 M
0 4 L
-4 0 M
4 0 L
-2.828 -2.828 M
2.828 2.828 L
-2.828 2.828 M
2.828 -2.828 L
S
GR
GS
[0.75 0 0 0.75 0 0.5] CT
0 1 1 RC
1 LJ
0.667 LW
N
830.23 710.532 M
829.943 710.61 L
830.159 710.406 L
S
GR
GS
[0.75 0 0 0.75 0 0.5] CT
0 1 1 RC
1 LJ
0.667 LW
N
834.313 708.164 M
829.943 710.61 L
S
GR
GS
[0.75 0 0 0.75 0 0.5] CT
0 1 1 RC
1 LJ
0.667 LW
N
793.079 712.345 M
795.414 722.468 L
800.194 731.693 L
807.117 739.439 L
815.749 745.22 L
825.548 748.672 L
835.897 749.579 L
846.147 747.884 L
855.653 743.694 L
863.818 737.271 L
870.13 729.018 L
874.191 719.456 L
875.746 709.184 L
874.698 698.848 L
871.113 689.098 L
865.215 680.545 L
857.375 673.728 L
848.087 669.074 L
837.933 666.877 L
827.551 667.274 L
817.595 670.24 L
808.689 675.59 L
801.393 682.985 L
796.165 691.964 L
793.335 701.959 L
793.079 712.345 L
S
GR
GS
[0.75 0 0 0.75 662.31161 526.52663] CT
0 1 1 RC
10.0 ML
0.667 LW
N
0 -4 M
0 4 L
-4 0 M
4 0 L
-2.828 -2.828 M
2.828 2.828 L
-2.828 2.828 M
2.828 -2.828 L
S
GR
GS
[0.75 0 0 0.75 0 0.5] CT
0 1 1 RC
1 LJ
0.667 LW
N
878.999 703.737 M
878.712 703.815 L
878.928 703.611 L
S
GR
GS
[0.75 0 0 0.75 0 0.5] CT
0 1 1 RC
1 LJ
0.667 LW
N
883.082 701.369 M
878.712 703.815 L
S
GR
GS
[0.75 0 0 0.75 0 0.5] CT
0 1 1 RC
1 LJ
0.667 LW
N
841.853 705.596 M
842.097 695.21 L
844.916 685.211 L
850.133 676.227 L
857.421 668.823 L
866.321 663.464 L
876.274 660.486 L
886.655 660.078 L
896.812 662.263 L
906.105 666.906 L
913.952 673.715 L
919.86 682.261 L
923.456 692.007 L
924.516 702.342 L
922.972 712.616 L
918.922 722.183 L
912.62 730.442 L
904.462 736.874 L
894.96 741.076 L
884.713 742.782 L
874.362 741.887 L
864.56 738.445 L
855.921 732.674 L
848.989 724.936 L
844.199 715.717 L
841.853 705.596 L
S
GR
GS
[0.75 0 0 0.75 662.31194 463.56334] CT
0 1 1 RC
10.0 ML
0.667 LW
N
0 -4 M
0 4 L
-4 0 M
4 0 L
-2.828 -2.828 M
2.828 2.828 L
-2.828 2.828 M
2.828 -2.828 L
S
GR
GS
[0.75 0 0 0.75 0 0.5] CT
0 1 1 RC
1 LJ
0.667 LW
N
878.999 619.786 M
878.712 619.864 L
878.929 619.66 L
S
GR
GS
[0.75 0 0 0.75 0 0.5] CT
0 1 1 RC
1 LJ
0.667 LW
N
883.083 617.418 M
878.712 619.864 L
S
GR
GS
[0.75 0 0 0.75 0 0.5] CT
0 1 1 RC
1 LJ
6.667 LW
N
841.884 621.937 M
844.302 632.041 L
849.157 641.226 L
856.144 648.914 L
864.823 654.624 L
874.65 657.996 L
885.006 658.819 L
895.242 657.04 L
904.713 652.771 L
912.826 646.281 L
919.069 637.977 L
923.052 628.382 L
924.522 618.098 L
923.39 607.771 L
919.724 598.05 L
913.756 589.546 L
905.861 582.793 L
896.535 578.216 L
886.363 576.102 L
875.985 576.584 L
866.053 579.632 L
857.192 585.054 L
849.957 592.51 L
844.803 601.531 L
842.055 611.549 L
841.884 621.937 L
S
GR
GS
[0.75 0 0 0.75 693.79243 495.04398] CT
0 1 1 RC
10.0 ML
4 LW
N
0 -4 M
0 4 L
-4 0 M
4 0 L
-2.828 -2.828 M
2.828 2.828 L
-2.828 2.828 M
2.828 -2.828 L
S
GR
GS
[0.75 0 0 0.75 0 0.5] CT
0 1 1 RC
1 LJ
0.667 LW
N
920.973 661.76 M
920.686 661.838 L
920.903 661.634 L
S
GR
GS
[0.75 0 0 0.75 0 0.5] CT
0 1 1 RC
1 LJ
0.667 LW
N
925.057 659.392 M
920.686 661.838 L
S
GR
GS
[0.75 0 0 0.75 0 0.5] CT
0 1 1 RC
1 LJ
6.667 LW
N
883.967 664.81 M
883.91 654.421 L
886.439 644.345 L
891.394 635.214 L
898.465 627.602 L
907.206 621.987 L
917.069 618.723 L
927.434 618.015 L
937.649 619.906 L
947.074 624.278 L
955.114 630.857 L
961.266 639.228 L
965.143 648.867 L
966.501 659.167 L
965.255 669.481 L
961.484 679.161 L
955.423 687.599 L
947.454 694.264 L
938.078 698.739 L
927.884 700.741 L
917.512 700.145 L
907.614 696.988 L
898.812 691.469 L
891.659 683.935 L
886.605 674.858 L
883.967 664.81 L
S
GR
GS
[0.75 0 0 0.75 656.25645 532.7485] CT
0 1 1 RC
10.0 ML
0.667 LW
N
0 -4 M
0 4 L
-4 0 M
4 0 L
-2.828 -2.828 M
2.828 2.828 L
-2.828 2.828 M
2.828 -2.828 L
S
GR
GS
[0.75 0 0 0.75 0 0.5] CT
0 1 1 RC
1 LJ
0.667 LW
N
870.925 712.032 M
870.638 712.11 L
870.855 711.907 L
S
GR
GS
[0.75 0 0 0.75 0 0.5] CT
0 1 1 RC
1 LJ
0.667 LW
N
875.009 709.665 M
870.638 712.11 L
S
GR
GS
[0.75 0 0 0.75 0 0.5] CT
0 1 1 RC
1 LJ
6.667 LW
N
833.919 715.085 M
833.862 704.696 L
836.39 694.62 L
841.345 685.488 L
848.415 677.876 L
857.156 672.261 L
867.019 668.997 L
877.384 668.287 L
887.599 670.178 L
897.023 674.549 L
905.065 681.128 L
911.217 689.499 L
915.095 699.137 L
916.453 709.437 L
915.208 719.751 L
911.437 729.431 L
905.377 737.87 L
897.408 744.536 L
888.032 749.011 L
877.838 751.013 L
867.466 750.418 L
857.568 747.262 L
848.766 741.744 L
841.613 734.21 L
836.558 725.133 L
833.919 715.085 L
S
GR
GS
[0.75 0 0 0.75 624.77618 532.74933] CT
0 1 1 RC
10.0 ML
0.667 LW
N
0 -4 M
0 4 L
-4 0 M
4 0 L
-2.828 -2.828 M
2.828 2.828 L
-2.828 2.828 M
2.828 -2.828 L
S
GR
GS
[0.75 0 0 0.75 0 0.5] CT
0 1 1 RC
1 LJ
0.667 LW
N
828.951 712.034 M
828.665 712.112 L
828.881 711.908 L
S
GR
GS
[0.75 0 0 0.75 0 0.5] CT
0 1 1 RC
1 LJ
0.667 LW
N
833.035 709.666 M
828.665 712.112 L
S
GR
GS
[0.75 0 0 0.75 0 0.5] CT
0 1 1 RC
1 LJ
0.667 LW
N
791.831 714.137 M
792.014 703.749 L
794.774 693.734 L
799.938 684.719 L
807.182 677.272 L
816.05 671.86 L
825.986 668.824 L
836.364 668.354 L
846.533 670.48 L
855.854 675.068 L
863.741 681.83 L
869.699 690.341 L
873.353 700.066 L
874.474 710.394 L
872.991 720.677 L
868.997 730.268 L
862.744 738.564 L
854.624 745.044 L
845.147 749.302 L
834.91 751.069 L
824.554 750.234 L
814.732 746.851 L
806.059 741.131 L
799.082 733.434 L
794.238 724.243 L
791.831 714.137 L
S
GR
GS
[0.75 0 0 0.75 651.16095 532.74873] CT
0 1 1 RC
10.0 ML
0.667 LW
N
0 -4 M
0 4 L
-4 0 M
4 0 L
-2.828 -2.828 M
2.828 2.828 L
-2.828 2.828 M
2.828 -2.828 L
S
GR
GS
[0.75 0 0 0.75 0 0.5] CT
0 1 1 RC
1 LJ
0.667 LW
N
864.131 712.033 M
863.844 712.111 L
864.061 711.907 L
S
GR
GS
[0.75 0 0 0.75 0 0.5] CT
0 1 1 RC
1 LJ
0.667 LW
N
868.215 709.665 M
863.844 712.111 L
S
GR
GS
[0.75 0 0 0.75 0 0.5] CT
0 1 1 RC
1 LJ
6.667 LW
N
827.01 714.126 M
829.414 724.234 L
834.256 733.425 L
841.232 741.124 L
849.903 746.846 L
859.725 750.232 L
870.08 751.068 L
880.318 749.304 L
889.796 745.048 L
897.917 738.57 L
904.172 730.275 L
908.168 720.685 L
909.654 710.403 L
908.535 700.074 L
904.883 690.348 L
898.927 681.836 L
891.042 675.072 L
881.722 670.482 L
871.553 668.354 L
861.175 668.822 L
851.238 671.856 L
842.369 677.265 L
835.124 684.711 L
829.957 693.724 L
827.195 703.739 L
827.01 714.126 L
S
GR
GS
[0.75 0 0 0.75 619.68105 532.75011] CT
0 1 1 RC
10.0 ML
0.667 LW
N
0 -4 M
0 4 L
-4 0 M
4 0 L
-2.828 -2.828 M
2.828 2.828 L
-2.828 2.828 M
2.828 -2.828 L
S
GR
GS
[0.75 0 0 0.75 0 0.5] CT
0 1 1 RC
1 LJ
0.667 LW
N
822.158 712.035 M
821.871 712.113 L
822.088 711.909 L
S
GR
GS
[0.75 0 0 0.75 0 0.5] CT
0 1 1 RC
1 LJ
0.667 LW
N
826.241 709.667 M
821.871 712.113 L
S
GR
GS
[0.75 0 0 0.75 0 0.5] CT
0 1 1 RC
1 LJ
0.667 LW
N
785.076 714.478 M
787.566 724.564 L
792.486 733.715 L
799.527 741.354 L
808.246 747.002 L
818.096 750.304 L
828.458 751.053 L
838.681 749.201 L
848.122 744.866 L
856.188 738.318 L
862.373 729.971 L
866.287 720.347 L
867.685 710.053 L
866.479 699.734 L
862.745 690.039 L
856.717 681.578 L
848.774 674.881 L
839.415 670.371 L
829.229 668.329 L
818.855 668.885 L
808.945 672.003 L
800.122 677.488 L
792.94 684.995 L
787.85 694.052 L
785.173 704.09 L
785.076 714.478 L
S
GR
GS
[0.75 0 0 0.75 655.43312 532.75024] CT
0 1 1 RC
10.0 ML
0.667 LW
N
0 -4 M
0 4 L
-4 0 M
4 0 L
-2.828 -2.828 M
2.828 2.828 L
-2.828 2.828 M
2.828 -2.828 L
S
GR
GS
[0.75 0 0 0.75 0 0.5] CT
0 1 1 RC
1 LJ
0.667 LW
N
869.827 712.035 M
869.54 712.113 L
869.757 711.909 L
S
GR
GS
[0.75 0 0 0.75 0 0.5] CT
0 1 1 RC
1 LJ
0.667 LW
N
873.911 709.667 M
869.54 712.113 L
S
GR
GS
[0.75 0 0 0.75 0 0.5] CT
0 1 1 RC
1 LJ
0.667 LW
N
832.815 715.037 M
835.441 725.088 L
840.485 734.171 L
847.629 741.714 L
856.424 747.243 L
866.318 750.411 L
876.69 751.019 L
886.886 749.029 L
896.268 744.566 L
904.244 737.909 L
910.315 729.478 L
914.098 719.803 L
915.356 709.49 L
914.01 699.189 L
910.144 689.546 L
904.002 681.167 L
895.969 674.579 L
886.55 670.196 L
876.337 668.293 L
865.971 668.989 L
856.104 672.242 L
847.357 677.846 L
840.277 685.449 L
835.311 694.574 L
832.77 704.648 L
832.815 715.037 L
S
GR
GS
[0.75 0 0 0.75 623.95056 532.74837] CT
0 1 1 RC
10.0 ML
0.667 LW
N
0 -4 M
0 4 L
-4 0 M
4 0 L
-2.828 -2.828 M
2.828 2.828 L
-2.828 2.828 M
2.828 -2.828 L
S
GR
GS
[0.75 0 0 0.75 0 0.5] CT
0 1 1 RC
1 LJ
0.667 LW
N
827.851 712.032 M
827.564 712.11 L
827.78 711.906 L
S
GR
GS
[0.75 0 0 0.75 0 0.5] CT
0 1 1 RC
1 LJ
0.667 LW
N
831.934 709.664 M
827.564 712.11 L
S
GR
GS
[0.75 0 0 0.75 0 0.5] CT
0 1 1 RC
1 LJ
6.667 LW
N
790.733 714.159 M
790.91 703.771 L
793.664 693.754 L
798.823 684.736 L
806.063 677.285 L
814.928 671.869 L
824.862 668.827 L
835.24 668.351 L
845.41 670.471 L
854.734 675.054 L
862.625 681.811 L
868.588 690.319 L
872.247 700.042 L
873.374 710.37 L
871.896 720.653 L
867.908 730.246 L
861.659 738.546 L
853.543 745.031 L
844.069 749.294 L
833.832 751.066 L
823.476 750.238 L
813.652 746.86 L
804.976 741.145 L
797.994 733.451 L
793.145 724.264 L
790.733 714.159 L
S
GR
GS
[0.75 0 0 0.75 618.85515 532.74901] CT
0 1 1 RC
10.0 ML
0.667 LW
N
0 -4 M
0 4 L
-4 0 M
4 0 L
-2.828 -2.828 M
2.828 2.828 L
-2.828 2.828 M
2.828 -2.828 L
S
GR
GS
[0.75 0 0 0.75 0 0.5] CT
0 1 1 RC
1 LJ
0.667 LW
N
821.057 712.033 M
820.77 712.111 L
820.986 711.907 L
S
GR
GS
[0.75 0 0 0.75 0 0.5] CT
0 1 1 RC
1 LJ
0.667 LW
N
825.14 709.665 M
820.77 712.111 L
S
GR
GS
[0.75 0 0 0.75 0 0.5] CT
0 1 1 RC
1 LJ
6.667 LW
N
784.424 717.405 M
787.628 727.288 L
793.189 736.063 L
800.757 743.18 L
809.858 748.19 L
819.919 750.781 L
830.308 750.787 L
840.372 748.21 L
849.479 743.211 L
857.057 736.104 L
862.63 727.336 L
865.847 717.458 L
866.506 707.09 L
864.566 696.884 L
860.148 687.481 L
853.531 679.471 L
845.13 673.359 L
835.473 669.529 L
825.167 668.22 L
814.859 669.515 L
805.197 673.333 L
796.788 679.434 L
790.161 687.435 L
785.732 696.832 L
783.778 707.036 L
784.424 717.405 L
S
GR
GS
[0.75 0 0 0.75 655.33969 545.50862] CT
0 0 1 RC
10.0 ML
0.667 LW
N
0 -4 M
0 4 L
-4 0 M
4 0 L
-2.828 -2.828 M
2.828 2.828 L
-2.828 2.828 M
2.828 -2.828 L
S
GR
GS
[0.75 0 0 0.75 0 0.5] CT
0 0 1 RC
1 LJ
0.667 LW
N
869.703 729.046 M
869.416 729.124 L
869.632 728.92 L
S
GR
GS
[0.75 0 0 0.75 0 0.5] CT
0 0 1 RC
1 LJ
0.667 LW
N
873.786 726.678 M
869.416 729.124 L
S
GR
GS
[0.75 0 0 0.75 0 0.5] CT
0 0 1 RC
1 LJ
0.667 LW
N
861.799 738.268 M
859.293 734.923 L
857.698 731.06 L
857.114 726.921 L
857.577 722.767 L
859.059 718.859 L
861.466 715.442 L
864.648 712.731 L
868.403 710.897 L
872.497 710.054 L
876.672 710.255 L
880.665 711.489 L
884.227 713.677 L
887.132 716.682 L
889.199 720.315 L
890.297 724.348 L
890.358 728.527 L
889.377 732.59 L
887.417 736.282 L
884.601 739.37 L
881.105 741.661 L
877.149 743.01 L
872.982 743.333 L
868.865 742.61 L
865.058 740.885 L
861.799 738.268 L
S
GR
GS
[0.75 0 0 0.75 623.85699 545.50771] CT
0 0 1 RC
10.0 ML
0.667 LW
N
0 -4 M
0 4 L
-4 0 M
4 0 L
-2.828 -2.828 M
2.828 2.828 L
-2.828 2.828 M
2.828 -2.828 L
S
GR
GS
[0.75 0 0 0.75 0 0.5] CT
0 0 1 RC
1 LJ
0.667 LW
N
827.726 729.045 M
827.439 729.123 L
827.655 728.919 L
S
GR
GS
[0.75 0 0 0.75 0 0.5] CT
0 0 1 RC
1 LJ
0.667 LW
N
831.809 726.677 M
827.439 729.123 L
S
GR
GS
[0.75 0 0 0.75 0 0.5] CT
0 0 1 RC
1 LJ
0.667 LW
N
819.677 738.115 M
817.213 734.738 L
815.667 730.855 L
815.135 726.71 L
815.651 722.562 L
817.182 718.673 L
819.632 715.286 L
822.847 712.616 L
826.626 710.829 L
830.73 710.038 L
834.902 710.292 L
838.879 711.576 L
842.413 713.808 L
845.28 716.85 L
847.301 720.508 L
848.348 724.555 L
848.356 728.734 L
847.325 732.785 L
845.318 736.451 L
842.463 739.504 L
838.938 741.75 L
834.966 743.05 L
830.795 743.32 L
826.688 742.545 L
822.902 740.773 L
819.677 738.115 L
S
GR
GS
[0.75 0 0 0.75 655.3407 472.35515] CT
0 0 1 RC
10.0 ML
0.667 LW
N
0 -4 M
0 4 L
-4 0 M
4 0 L
-2.828 -2.828 M
2.828 2.828 L
-2.828 2.828 M
2.828 -2.828 L
S
GR
GS
[0.75 0 0 0.75 0 0.5] CT
0 0 1 RC
1 LJ
0.667 LW
N
869.704 631.508 M
869.417 631.586 L
869.634 631.382 L
S
GR
GS
[0.75 0 0 0.75 0 0.5] CT
0 0 1 RC
1 LJ
0.667 LW
N
873.788 629.14 M
869.417 631.586 L
S
GR
GS
[0.75 0 0 0.75 0 0.5] CT
0 0 1 RC
1 LJ
0.667 LW
N
861.742 640.67 M
864.988 643.303 L
868.787 645.047 L
872.9 645.791 L
877.068 645.489 L
881.031 644.159 L
884.538 641.886 L
887.37 638.812 L
889.349 635.13 L
890.35 631.072 L
890.31 626.892 L
889.232 622.854 L
887.183 619.211 L
884.293 616.191 L
880.743 613.986 L
876.755 612.732 L
872.582 612.51 L
868.484 613.332 L
864.719 615.148 L
861.524 617.843 L
859.1 621.247 L
857.598 625.148 L
857.114 629.3 L
857.678 633.441 L
859.253 637.312 L
861.742 640.67 L
S
GR
GS
[0.75 0 0 0.75 618.76355 545.50945] CT
0 0 1 RC
10.0 ML
0.667 LW
N
0 -4 M
0 4 L
-4 0 M
4 0 L
-2.828 -2.828 M
2.828 2.828 L
-2.828 2.828 M
2.828 -2.828 L
S
GR
GS
[0.75 0 0 0.75 0 0.5] CT
0 0 1 RC
1 LJ
0.667 LW
N
820.935 729.047 M
820.648 729.125 L
820.864 728.921 L
S
GR
GS
[0.75 0 0 0.75 0 0.5] CT
0 0 1 RC
1 LJ
0.667 LW
N
825.018 726.679 M
820.648 729.125 L
S
GR
GS
[0.75 0 0 0.75 0 0.5] CT
0 0 1 RC
1 LJ
0.667 LW
N
812.922 738.156 M
816.156 740.804 L
819.948 742.564 L
824.057 743.326 L
828.227 743.042 L
832.196 741.73 L
835.713 739.472 L
838.558 736.41 L
840.553 732.737 L
841.571 728.683 L
841.55 724.504 L
840.489 720.461 L
838.457 716.809 L
835.58 713.777 L
832.039 711.555 L
828.058 710.284 L
823.885 710.044 L
819.783 710.848 L
816.011 712.647 L
812.804 715.328 L
810.365 718.722 L
808.846 722.616 L
808.344 726.766 L
808.889 730.909 L
810.448 734.788 L
812.922 738.156 L
S
GR
GS
[0.75 0 0 0.75 617.93875 545.50972] CT
0 0 1 RC
10.0 ML
0.667 LW
N
0 -4 M
0 4 L
-4 0 M
4 0 L
-2.828 -2.828 M
2.828 2.828 L
-2.828 2.828 M
2.828 -2.828 L
S
GR
GS
[0.75 0 0 0.75 0 0.5] CT
0 0 1 RC
1 LJ
0.667 LW
N
819.835 729.048 M
819.548 729.125 L
819.765 728.922 L
S
GR
GS
[0.75 0 0 0.75 0 0.5] CT
0 0 1 RC
1 LJ
0.667 LW
N
823.918 726.68 M
819.548 729.125 L
S
GR
GS
[0.75 0 0 0.75 0 0.5] CT
0 0 1 RC
1 LJ
0.667 LW
N
811.81 738.143 M
809.339 734.772 L
807.785 730.892 L
807.244 726.747 L
807.751 722.598 L
809.274 718.706 L
811.717 715.315 L
814.927 712.637 L
818.702 710.842 L
822.804 710.043 L
826.976 710.288 L
830.957 711.564 L
834.495 713.789 L
837.368 716.824 L
839.397 720.479 L
840.453 724.523 L
840.469 728.702 L
839.446 732.755 L
837.448 736.426 L
834.599 739.484 L
831.079 741.738 L
827.109 743.046 L
822.939 743.325 L
818.83 742.559 L
815.041 740.794 L
811.81 738.143 L
S
GR
GS
[0.75 0 0 0.75 655.47427 545.37532] CT
0 0 1 RC
10.0 ML
0.667 LW
N
0 -4 M
0 4 L
-4 0 M
4 0 L
-2.828 -2.828 M
2.828 2.828 L
-2.828 2.828 M
2.828 -2.828 L
S
GR
GS
[0.75 0 0 0.75 0 0.5] CT
0 0 1 RC
1 LJ
0.667 LW
N
869.882 728.868 M
869.595 728.946 L
869.812 728.743 L
S
GR
GS
[0.75 0 0 0.75 0 0.5] CT
0 0 1 RC
1 LJ
0.667 LW
N
873.966 726.5 M
869.595 728.946 L
S
GR
GS
[0.75 0 0 0.75 0 0.5] CT
0 0 1 RC
1 LJ
0.667 LW
N
861.742 737.842 M
864.947 740.525 L
868.718 742.327 L
872.819 743.135 L
876.992 742.898 L
880.975 741.63 L
884.517 739.412 L
887.396 736.382 L
889.432 732.732 L
890.496 728.69 L
890.521 724.51 L
889.506 720.455 L
887.514 716.781 L
884.671 713.717 L
881.156 711.456 L
877.188 710.141 L
873.019 709.853 L
868.908 710.612 L
865.116 712.369 L
861.879 715.013 L
859.402 718.38 L
857.841 722.257 L
857.292 726.4 L
857.791 730.55 L
859.306 734.445 L
861.742 737.842 L
S
GR
GS
[0.75 0 0 0.75 623.99071 545.37395] CT
0 0 1 RC
10.0 ML
0.667 LW
N
0 -4 M
0 4 L
-4 0 M
4 0 L
-2.828 -2.828 M
2.828 2.828 L
-2.828 2.828 M
2.828 -2.828 L
S
GR
GS
[0.75 0 0 0.75 0 0.5] CT
0 0 1 RC
1 LJ
0.667 LW
N
827.904 728.866 M
827.617 728.944 L
827.834 728.741 L
S
GR
GS
[0.75 0 0 0.75 0 0.5] CT
0 0 1 RC
1 LJ
0.667 LW
N
831.988 726.499 M
827.617 728.944 L
S
GR
GS
[0.75 0 0 0.75 0 0.5] CT
0 0 1 RC
1 LJ
0.667 LW
N
819.81 737.889 M
817.36 734.503 L
815.829 730.614 L
815.313 726.466 L
815.845 722.32 L
817.392 718.437 L
819.855 715.06 L
823.081 712.403 L
826.866 710.63 L
830.973 709.855 L
835.144 710.126 L
839.117 711.425 L
842.641 713.672 L
845.497 716.724 L
847.503 720.391 L
848.534 724.441 L
848.526 728.621 L
847.479 732.667 L
845.458 736.326 L
842.591 739.367 L
839.057 741.6 L
835.08 742.884 L
830.908 743.138 L
826.804 742.346 L
823.025 740.559 L
819.81 737.889 L
S
GR
GS
[0.75 0 0 0.75 655.47478 472.22176] CT
0 0 1 RC
10.0 ML
0.667 LW
N
0 -4 M
0 4 L
-4 0 M
4 0 L
-2.828 -2.828 M
2.828 2.828 L
-2.828 2.828 M
2.828 -2.828 L
S
GR
GS
[0.75 0 0 0.75 0 0.5] CT
0 0 1 RC
1 LJ
0.667 LW
N
869.883 631.33 M
869.596 631.408 L
869.813 631.204 L
S
GR
GS
[0.75 0 0 0.75 0 0.5] CT
0 0 1 RC
1 LJ
0.667 LW
N
873.966 628.962 M
869.596 631.408 L
S
GR
GS
[0.75 0 0 0.75 0 0.5] CT
0 0 1 RC
1 LJ
0.667 LW
N
861.885 640.454 M
859.406 637.089 L
857.843 633.212 L
857.292 629.069 L
857.79 624.919 L
859.303 621.023 L
861.738 617.626 L
864.942 614.941 L
868.712 613.137 L
872.813 612.328 L
876.986 612.564 L
880.969 613.83 L
884.512 616.047 L
887.393 619.075 L
889.43 622.725 L
890.495 626.767 L
890.522 630.946 L
889.509 635.001 L
887.519 638.677 L
884.677 641.742 L
881.162 644.004 L
877.196 645.321 L
873.026 645.61 L
868.915 644.853 L
865.122 643.098 L
861.885 640.454 L
S
GR
GS
[0.75 0 0 0.75 656.29898 471.39609] CT
0 0 1 RC
10.0 ML
0.667 LW
N
0 -4 M
0 4 L
-4 0 M
4 0 L
-2.828 -2.828 M
2.828 2.828 L
-2.828 2.828 M
2.828 -2.828 L
S
GR
GS
[0.75 0 0 0.75 0 0.5] CT
0 0 1 RC
1 LJ
0.667 LW
N
870.982 630.229 M
870.695 630.307 L
870.911 630.104 L
S
GR
GS
[0.75 0 0 0.75 0 0.5] CT
0 0 1 RC
1 LJ
0.667 LW
N
875.065 627.861 M
870.695 630.307 L
S
GR
GS
[0.75 0 0 0.75 0 0.5] CT
0 0 1 RC
1 LJ
0.667 LW
N
862.982 639.352 M
866.219 641.996 L
870.012 643.752 L
874.122 644.509 L
878.292 644.221 L
882.259 642.904 L
885.774 640.642 L
888.616 637.578 L
890.607 633.903 L
891.621 629.848 L
891.595 625.668 L
890.53 621.626 L
888.493 617.976 L
885.613 614.947 L
882.07 612.73 L
878.087 611.463 L
873.914 611.227 L
869.814 612.036 L
866.043 613.839 L
862.839 616.523 L
860.404 619.92 L
858.889 623.816 L
858.391 627.966 L
858.941 632.109 L
860.504 635.986 L
862.982 639.352 L
S
GR
GS
[0.75 0 0 0.75 661.39192 476.48976] CT
0 0 1 RC
10.0 ML
0.667 LW
N
0 -4 M
0 4 L
-4 0 M
4 0 L
-2.828 -2.828 M
2.828 2.828 L
-2.828 2.828 M
2.828 -2.828 L
S
GR
GS
[0.75 0 0 0.75 0 0.5] CT
0 0 1 RC
1 LJ
0.667 LW
N
877.772 637.021 M
877.486 637.099 L
877.702 636.895 L
S
GR
GS
[0.75 0 0 0.75 0 0.5] CT
0 0 1 RC
1 LJ
0.667 LW
N
881.856 634.653 M
877.486 637.099 L
S
GR
GS
[0.75 0 0 0.75 0 0.5] CT
0 0 1 RC
1 LJ
0.667 LW
N
869.818 646.191 M
867.327 642.835 L
865.749 638.965 L
865.183 634.824 L
865.664 630.672 L
867.163 626.77 L
869.585 623.364 L
872.778 620.667 L
876.541 618.849 L
880.639 618.023 L
884.812 618.243 L
888.801 619.494 L
892.352 621.697 L
895.245 624.715 L
897.295 628.356 L
898.376 632.394 L
898.419 636.573 L
897.421 640.632 L
895.445 644.315 L
892.615 647.391 L
889.11 649.667 L
885.148 650.999 L
880.979 651.304 L
876.866 650.563 L
873.066 648.822 L
869.818 646.191 L
S
GR
GS
[0.75 0 0 0.75 692.87453 507.97218] CT
0 0 1 RC
10.0 ML
0.667 LW
N
0 -4 M
0 4 L
-4 0 M
4 0 L
-2.828 -2.828 M
2.828 2.828 L
-2.828 2.828 M
2.828 -2.828 L
S
GR
GS
[0.75 0 0 0.75 0 0.5] CT
0 0 1 RC
1 LJ
0.667 LW
N
919.749 678.997 M
919.462 679.075 L
919.679 678.872 L
S
GR
GS
[0.75 0 0 0.75 0 0.5] CT
0 0 1 RC
1 LJ
0.667 LW
N
923.833 676.63 M
919.462 679.075 L
S
GR
GS
[0.75 0 0 0.75 0 0.5] CT
0 0 1 RC
1 LJ
0.667 LW
N
911.711 688.079 M
914.939 690.734 L
918.726 692.503 L
922.834 693.274 L
927.005 692.999 L
930.976 691.696 L
934.498 689.446 L
937.351 686.391 L
939.354 682.723 L
940.382 678.672 L
940.369 674.492 L
939.318 670.446 L
937.294 666.79 L
934.424 663.751 L
930.889 661.522 L
926.91 660.242 L
922.738 659.991 L
918.634 660.786 L
914.857 662.577 L
911.645 665.25 L
909.198 668.639 L
907.67 672.53 L
907.159 676.678 L
907.694 680.823 L
909.244 684.705 L
911.711 688.079 L
S
GR
GS
[0.75 0 0 0.75 655.33919 545.45914] CT
0 0 1 RC
10.0 ML
0.667 LW
N
0 -4 M
0 4 L
-4 0 M
4 0 L
-2.828 -2.828 M
2.828 2.828 L
-2.828 2.828 M
2.828 -2.828 L
S
GR
GS
[0.75 0 0 0.75 0 0.5] CT
0 0 1 RC
1 LJ
0.667 LW
N
869.702 728.98 M
869.415 729.058 L
869.632 728.854 L
S
GR
GS
[0.75 0 0 0.75 0 0.5] CT
0 0 1 RC
1 LJ
0.667 LW
N
873.786 726.612 M
869.415 729.058 L
S
GR
GS
[0.75 0 0 0.75 0 0.5] CT
0 0 1 RC
1 LJ
0.667 LW
N
861.663 738.061 M
859.197 734.687 L
857.647 730.805 L
857.111 726.66 L
857.623 722.511 L
859.151 718.621 L
861.598 715.232 L
864.811 712.559 L
868.588 710.769 L
872.691 709.974 L
876.863 710.224 L
880.842 711.505 L
884.378 713.734 L
887.247 716.773 L
889.271 720.43 L
890.322 724.475 L
890.334 728.655 L
889.306 732.706 L
887.303 736.375 L
884.451 739.43 L
880.928 741.679 L
876.957 742.982 L
872.786 743.256 L
868.678 742.485 L
864.891 740.716 L
861.663 738.061 L
S
GR
GS
[0.75 0 0 0.75 618.76341 545.46088] CT
0 0 1 RC
10.0 ML
0.667 LW
N
0 -4 M
0 4 L
-4 0 M
4 0 L
-2.828 -2.828 M
2.828 2.828 L
-2.828 2.828 M
2.828 -2.828 L
S
GR
GS
[0.75 0 0 0.75 0 0.5] CT
0 0 1 RC
1 LJ
0.667 LW
N
820.935 728.982 M
820.648 729.06 L
820.864 728.857 L
S
GR
GS
[0.75 0 0 0.75 0 0.5] CT
0 0 1 RC
1 LJ
0.667 LW
N
825.018 726.615 M
820.648 729.06 L
S
GR
GS
[0.75 0 0 0.75 0 0.5] CT
0 0 1 RC
1 LJ
0.667 LW
N
812.894 738.062 M
810.428 734.687 L
808.879 730.805 L
808.344 726.66 L
808.856 722.512 L
810.384 718.621 L
812.832 715.233 L
816.045 712.56 L
819.822 710.77 L
823.926 709.976 L
828.098 710.227 L
832.076 711.508 L
835.611 713.738 L
838.481 716.777 L
840.504 720.434 L
841.555 724.48 L
841.566 728.659 L
840.538 732.71 L
838.534 736.379 L
835.681 739.433 L
832.159 741.682 L
828.187 742.985 L
824.016 743.259 L
819.909 742.487 L
816.122 740.717 L
812.894 738.062 L
S
GR
GS
[0.75 0 0 0.75 617.93861 545.46106] CT
0 0 1 RC
10.0 ML
0.667 LW
N
0 -4 M
0 4 L
-4 0 M
4 0 L
-2.828 -2.828 M
2.828 2.828 L
-2.828 2.828 M
2.828 -2.828 L
S
GR
GS
[0.75 0 0 0.75 0 0.5] CT
0 0 1 RC
1 LJ
0.667 LW
N
819.835 728.983 M
819.548 729.061 L
819.764 728.857 L
S
GR
GS
[0.75 0 0 0.75 0 0.5] CT
0 0 1 RC
1 LJ
0.667 LW
N
823.918 726.615 M
819.548 729.061 L
S
GR
GS
[0.75 0 0 0.75 0 0.5] CT
0 0 1 RC
1 LJ
0.667 LW
N
811.777 738.044 M
809.316 734.665 L
807.773 730.781 L
807.244 726.635 L
807.763 722.488 L
809.297 718.6 L
811.749 715.215 L
814.967 712.547 L
818.746 710.763 L
822.851 709.975 L
827.023 710.232 L
830.999 711.519 L
834.531 713.754 L
837.396 716.797 L
839.414 720.458 L
840.458 724.505 L
840.464 728.685 L
839.429 732.734 L
837.42 736.399 L
834.562 739.45 L
831.036 741.693 L
827.063 742.99 L
822.891 743.257 L
818.785 742.479 L
815.001 740.704 L
811.777 738.044 L
S
GR
GS
[0.75 0 0 0.75 618.76405 545.19363] CT
0 0 1 RC
10.0 ML
0.667 LW
N
0 -4 M
0 4 L
-4 0 M
4 0 L
-2.828 -2.828 M
2.828 2.828 L
-2.828 2.828 M
2.828 -2.828 L
S
GR
GS
[0.75 0 0 0.75 0 0.5] CT
0 0 1 RC
1 LJ
0.667 LW
N
820.935 728.626 M
820.648 728.704 L
820.865 728.5 L
S
GR
GS
[0.75 0 0 0.75 0 0.5] CT
0 0 1 RC
1 LJ
0.667 LW
N
825.019 726.258 M
820.648 728.704 L
S
GR
GS
[0.75 0 0 0.75 0 0.5] CT
0 0 1 RC
1 LJ
0.667 LW
N
812.886 737.696 M
816.112 740.354 L
819.897 742.126 L
824.004 742.902 L
828.175 742.631 L
832.148 741.332 L
835.672 739.085 L
838.528 736.033 L
840.534 732.366 L
841.566 728.316 L
841.557 724.136 L
840.51 720.09 L
838.489 716.431 L
835.622 713.39 L
832.089 711.157 L
828.111 709.873 L
823.939 709.619 L
819.835 710.41 L
816.057 712.197 L
812.842 714.867 L
810.391 718.254 L
808.86 722.143 L
808.344 726.291 L
808.876 730.436 L
810.423 734.319 L
812.886 737.696 L
S
GR
GS
[0.75 0 0 0.75 655.33969 470.38818] CT
0 0 1 RC
10.0 ML
0.667 LW
N
0 -4 M
0 4 L
-4 0 M
4 0 L
-2.828 -2.828 M
2.828 2.828 L
-2.828 2.828 M
2.828 -2.828 L
S
GR
GS
[0.75 0 0 0.75 0 0.5] CT
0 0 1 RC
1 LJ
0.667 LW
N
869.703 628.885 M
869.416 628.963 L
869.632 628.76 L
S
GR
GS
[0.75 0 0 0.75 0 0.5] CT
0 0 1 RC
1 LJ
0.667 LW
N
873.786 626.518 M
869.416 628.963 L
S
GR
GS
[0.75 0 0 0.75 0 0.5] CT
0 0 1 RC
1 LJ
0.667 LW
N
861.799 638.108 M
859.293 634.762 L
857.698 630.899 L
857.114 626.76 L
857.577 622.606 L
859.059 618.698 L
861.466 615.281 L
864.648 612.571 L
868.403 610.736 L
872.497 609.893 L
876.672 610.095 L
880.665 611.328 L
884.227 613.516 L
887.132 616.521 L
889.199 620.154 L
890.297 624.187 L
890.358 628.366 L
889.377 632.429 L
887.417 636.121 L
884.601 639.209 L
881.105 641.5 L
877.149 642.849 L
872.982 643.172 L
868.865 642.449 L
865.058 640.725 L
861.799 638.108 L
S
GR
GS
[0.75 0 0 0.75 656.16486 471.21312] CT
0 0 1 RC
10.0 ML
0.667 LW
N
0 -4 M
0 4 L
-4 0 M
4 0 L
-2.828 -2.828 M
2.828 2.828 L
-2.828 2.828 M
2.828 -2.828 L
S
GR
GS
[0.75 0 0 0.75 0 0.5] CT
0 0 1 RC
1 LJ
0.667 LW
N
870.803 629.985 M
870.516 630.063 L
870.733 629.86 L
S
GR
GS
[0.75 0 0 0.75 0 0.5] CT
0 0 1 RC
1 LJ
0.667 LW
N
874.886 627.617 M
870.516 630.063 L
S
GR
GS
[0.75 0 0 0.75 0 0.5] CT
0 0 1 RC
1 LJ
0.667 LW
N
862.678 638.975 M
860.237 635.582 L
858.717 631.688 L
858.212 627.539 L
858.756 623.395 L
860.313 619.516 L
862.785 616.146 L
866.018 613.497 L
869.808 611.735 L
873.918 610.971 L
878.088 611.253 L
882.057 612.564 L
885.575 614.82 L
888.422 617.88 L
890.418 621.552 L
891.439 625.605 L
891.419 629.785 L
890.361 633.828 L
888.33 637.482 L
885.455 640.515 L
881.915 642.738 L
877.934 644.011 L
873.761 644.254 L
869.659 643.451 L
865.886 641.654 L
862.678 638.975 L
S
GR
GS
[0.75 0 0 0.75 692.74246 507.79109] CT
0 0 1 RC
10.0 ML
0.667 LW
N
0 -4 M
0 4 L
-4 0 M
4 0 L
-2.828 -2.828 M
2.828 2.828 L
-2.828 2.828 M
2.828 -2.828 L
S
GR
GS
[0.75 0 0 0.75 0 0.5] CT
0 0 1 RC
1 LJ
0.667 LW
N
919.573 678.756 M
919.286 678.834 L
919.503 678.63 L
S
GR
GS
[0.75 0 0 0.75 0 0.5] CT
0 0 1 RC
1 LJ
0.667 LW
N
923.657 676.388 M
919.286 678.834 L
S
GR
GS
[0.75 0 0 0.75 0 0.5] CT
0 0 1 RC
1 LJ
0.667 LW
N
911.54 687.843 M
914.769 690.497 L
918.557 692.263 L
922.665 693.033 L
926.836 692.756 L
930.807 691.452 L
934.328 689.2 L
937.179 686.144 L
939.18 682.474 L
940.206 678.423 L
940.192 674.243 L
939.139 670.198 L
937.114 666.542 L
934.242 663.505 L
930.706 661.277 L
926.726 659.999 L
922.554 659.75 L
918.451 660.547 L
914.675 662.34 L
911.463 665.015 L
909.018 668.404 L
907.492 672.295 L
906.982 676.444 L
907.52 680.589 L
909.072 684.47 L
911.54 687.843 L
S
GR
GS
[0.75 0 0 0.75 655.47418 545.32698] CT
0 0 1 RC
10.0 ML
0.667 LW
N
0 -4 M
0 4 L
-4 0 M
4 0 L
-2.828 -2.828 M
2.828 2.828 L
-2.828 2.828 M
2.828 -2.828 L
S
GR
GS
[0.75 0 0 0.75 0 0.5] CT
0 0 1 RC
1 LJ
0.667 LW
N
869.882 728.804 M
869.595 728.882 L
869.812 728.678 L
S
GR
GS
[0.75 0 0 0.75 0 0.5] CT
0 0 1 RC
1 LJ
0.667 LW
N
873.966 726.436 M
869.595 728.882 L
S
GR
GS
[0.75 0 0 0.75 0 0.5] CT
0 0 1 RC
1 LJ
0.667 LW
N
861.821 737.861 M
865.044 740.523 L
868.827 742.299 L
872.934 743.078 L
877.105 742.812 L
881.079 741.517 L
884.606 739.274 L
887.464 736.225 L
889.474 732.56 L
890.51 728.511 L
890.506 724.331 L
889.463 720.284 L
887.446 716.623 L
884.583 713.579 L
881.051 711.342 L
877.075 710.054 L
872.904 709.796 L
868.799 710.582 L
865.018 712.365 L
861.8 715.033 L
859.346 718.416 L
857.811 722.304 L
857.291 726.451 L
857.819 730.597 L
859.361 734.482 L
861.821 737.861 L
S
GR
GS
[0.75 0 0 0.75 623.99062 545.32547] CT
0 0 1 RC
10.0 ML
0.667 LW
N
0 -4 M
0 4 L
-4 0 M
4 0 L
-2.828 -2.828 M
2.828 2.828 L
-2.828 2.828 M
2.828 -2.828 L
S
GR
GS
[0.75 0 0 0.75 0 0.5] CT
0 0 1 RC
1 LJ
0.667 LW
N
827.904 728.802 M
827.617 728.88 L
827.834 728.676 L
S
GR
GS
[0.75 0 0 0.75 0 0.5] CT
0 0 1 RC
1 LJ
0.667 LW
N
831.987 726.434 M
827.617 728.88 L
S
GR
GS
[0.75 0 0 0.75 0 0.5] CT
0 0 1 RC
1 LJ
0.667 LW
N
819.823 737.839 M
817.369 734.455 L
815.834 730.568 L
815.313 726.421 L
815.84 722.274 L
817.382 718.39 L
819.842 715.01 L
823.064 712.348 L
826.847 710.572 L
830.954 709.792 L
835.125 710.058 L
839.099 711.352 L
842.626 713.595 L
845.485 716.644 L
847.496 720.308 L
848.532 724.357 L
848.529 728.537 L
847.486 732.584 L
845.469 736.246 L
842.606 739.29 L
839.075 741.527 L
835.099 742.815 L
830.927 743.074 L
826.822 742.288 L
823.042 740.505 L
819.823 737.839 L
S
GR
GS
[0.75 0 0 0.75 655.47441 472.17332] CT
0 0 1 RC
10.0 ML
0.667 LW
N
0 -4 M
0 4 L
-4 0 M
4 0 L
-2.828 -2.828 M
2.828 2.828 L
-2.828 2.828 M
2.828 -2.828 L
S
GR
GS
[0.75 0 0 0.75 0 0.5] CT
0 0 1 RC
1 LJ
0.667 LW
N
869.883 631.266 M
869.596 631.344 L
869.812 631.14 L
S
GR
GS
[0.75 0 0 0.75 0 0.5] CT
0 0 1 RC
1 LJ
0.667 LW
N
873.966 628.898 M
869.596 631.344 L
S
GR
GS
[0.75 0 0 0.75 0 0.5] CT
0 0 1 RC
1 LJ
0.667 LW
N
861.664 640.154 M
859.252 636.741 L
857.763 632.835 L
857.293 628.682 L
857.87 624.543 L
859.459 620.677 L
861.959 617.327 L
865.214 614.705 L
869.019 612.974 L
873.134 612.244 L
877.302 612.561 L
881.26 613.903 L
884.76 616.188 L
887.581 619.272 L
889.547 622.96 L
890.534 627.022 L
890.48 631.201 L
889.389 635.236 L
887.328 638.872 L
884.428 641.882 L
880.87 644.076 L
876.878 645.316 L
872.704 645.524 L
868.609 644.688 L
864.85 642.86 L
861.664 640.154 L
S
GR
GS
[0.75 0 0 0.75 692.04977 508.74846] CT
0 0 1 RC
10.0 ML
0.667 LW
N
0 -4 M
0 4 L
-4 0 M
4 0 L
-2.828 -2.828 M
2.828 2.828 L
-2.828 2.828 M
2.828 -2.828 L
S
GR
GS
[0.75 0 0 0.75 0 0.5] CT
0 0 1 RC
1 LJ
0.667 LW
N
918.65 680.033 M
918.363 680.11 L
918.579 679.907 L
S
GR
GS
[0.75 0 0 0.75 0 0.5] CT
0 0 1 RC
1 LJ
0.667 LW
N
922.733 677.665 M
918.363 680.11 L
S
GR
GS
[0.75 0 0 0.75 0 0.5] CT
0 0 1 RC
1 LJ
0.667 LW
N
910.394 688.879 M
907.992 685.458 L
906.517 681.548 L
906.061 677.393 L
906.652 673.255 L
908.254 669.395 L
910.766 666.054 L
914.029 663.442 L
917.84 661.725 L
921.957 661.008 L
926.124 661.339 L
930.078 662.695 L
933.57 664.992 L
936.381 668.085 L
938.334 671.78 L
939.308 675.845 L
939.24 680.024 L
938.134 684.055 L
936.061 687.684 L
933.151 690.684 L
929.586 692.866 L
925.59 694.092 L
921.415 694.287 L
917.323 693.437 L
913.57 691.596 L
910.394 688.879 L
S
GR
GS
[0.75 0 0 0.75 618.89754 545.32753] CT
0 0 1 RC
10.0 ML
0.667 LW
N
0 -4 M
0 4 L
-4 0 M
4 0 L
-2.828 -2.828 M
2.828 2.828 L
-2.828 2.828 M
2.828 -2.828 L
S
GR
GS
[0.75 0 0 0.75 0 0.5] CT
0 0 1 RC
1 LJ
0.667 LW
N
821.113 728.805 M
820.826 728.883 L
821.043 728.679 L
S
GR
GS
[0.75 0 0 0.75 0 0.5] CT
0 0 1 RC
1 LJ
0.667 LW
N
825.197 726.437 M
820.826 728.883 L
S
GR
GS
[0.75 0 0 0.75 0 0.5] CT
0 0 1 RC
1 LJ
0.667 LW
N
813.069 737.88 M
810.604 734.505 L
809.056 730.623 L
808.523 726.477 L
809.036 722.329 L
810.565 718.439 L
813.014 715.052 L
816.228 712.38 L
820.006 710.591 L
824.109 709.798 L
828.281 710.05 L
832.26 711.332 L
835.794 713.563 L
838.663 716.603 L
840.685 720.261 L
841.734 724.307 L
841.745 728.486 L
840.715 732.537 L
838.71 736.205 L
835.856 739.259 L
832.333 741.507 L
828.361 742.808 L
824.19 743.081 L
820.083 742.307 L
816.296 740.537 L
813.069 737.88 L
S
GR
GS
[0.75 0 0 0.75 656.29912 471.34802] CT
0 0 1 RC
10.0 ML
0.667 LW
N
0 -4 M
0 4 L
-4 0 M
4 0 L
-2.828 -2.828 M
2.828 2.828 L
-2.828 2.828 M
2.828 -2.828 L
S
GR
GS
[0.75 0 0 0.75 0 0.5] CT
0 0 1 RC
1 LJ
0.667 LW
N
870.982 630.165 M
870.695 630.243 L
870.912 630.039 L
S
GR
GS
[0.75 0 0 0.75 0 0.5] CT
0 0 1 RC
1 LJ
0.667 LW
N
875.065 627.797 M
870.695 630.243 L
S
GR
GS
[0.75 0 0 0.75 0 0.5] CT
0 0 1 RC
1 LJ
6.667 LW
N
862.868 639.167 M
866.079 641.843 L
869.854 643.636 L
873.957 644.435 L
878.129 644.188 L
882.109 642.911 L
885.647 640.684 L
888.519 637.648 L
890.546 633.993 L
891.6 629.948 L
891.616 625.769 L
890.591 621.716 L
888.591 618.046 L
885.741 614.989 L
882.221 612.736 L
878.25 611.43 L
874.08 611.152 L
869.971 611.92 L
866.183 613.686 L
862.953 616.338 L
860.483 619.711 L
858.93 623.591 L
858.391 627.736 L
858.9 631.885 L
860.424 635.776 L
862.868 639.167 L
S
GR
GS
[0.75 0 0 0.75 661.39201 539.40443] CT
0 0 1 RC
10.0 ML
0.667 LW
N
0 -4 M
0 4 L
-4 0 M
4 0 L
-2.828 -2.828 M
2.828 2.828 L
-2.828 2.828 M
2.828 -2.828 L
S
GR
GS
[0.75 0 0 0.75 0 0.5] CT
0 0 1 RC
1 LJ
0.667 LW
N
877.773 720.907 M
877.486 720.985 L
877.702 720.781 L
S
GR
GS
[0.75 0 0 0.75 0 0.5] CT
0 0 1 RC
1 LJ
0.667 LW
N
881.856 718.539 M
877.486 720.985 L
S
GR
GS
[0.75 0 0 0.75 0 0.5] CT
0 0 1 RC
1 LJ
6.667 LW
N
869.581 729.824 M
867.16 726.417 L
865.663 722.514 L
865.183 718.362 L
865.751 714.221 L
867.33 710.352 L
869.823 706.997 L
873.071 704.367 L
876.872 702.627 L
880.986 701.888 L
885.154 702.195 L
889.115 703.528 L
892.62 705.805 L
895.449 708.882 L
897.424 712.566 L
898.42 716.625 L
898.376 720.805 L
897.293 724.842 L
895.241 728.483 L
892.348 731.499 L
888.795 733.701 L
884.806 734.95 L
880.632 735.168 L
876.535 734.342 L
872.773 732.522 L
869.581 729.824 L
S
GR
GS
[0.75 0 0 0.75 692.87453 507.92329] CT
0 0 1 RC
10.0 ML
0.667 LW
N
0 -4 M
0 4 L
-4 0 M
4 0 L
-2.828 -2.828 M
2.828 2.828 L
-2.828 2.828 M
2.828 -2.828 L
S
GR
GS
[0.75 0 0 0.75 0 0.5] CT
0 0 1 RC
1 LJ
4 LW
N
919.749 678.932 M
919.462 679.01 L
919.679 678.806 L
S
GR
GS
[0.75 0 0 0.75 0 0.5] CT
0 0 1 RC
1 LJ
4 LW
N
923.833 676.564 M
919.462 679.01 L
S
GR
GS
[0.75 0 0 0.75 0 0.5] CT
0 0 1 RC
1 LJ
6.667 LW
N
911.71 688.013 M
914.937 690.668 L
918.724 692.437 L
922.832 693.209 L
927.003 692.935 L
930.974 691.632 L
934.497 689.383 L
937.35 686.328 L
939.353 682.659 L
940.381 678.608 L
940.37 674.429 L
939.319 670.383 L
937.295 666.726 L
934.425 663.687 L
930.89 661.457 L
926.912 660.177 L
922.739 659.926 L
918.636 660.721 L
914.859 662.511 L
911.646 665.184 L
909.199 668.572 L
907.671 672.463 L
907.159 676.611 L
907.694 680.756 L
909.243 684.638 L
911.71 688.013 L
S
GR
GS
[0.75 0 0 0.75 655.31735 545.50803] CT
0 0 1 RC
10.0 ML
0.667 LW
N
0 -4 M
0 4 L
-4 0 M
4 0 L
-2.828 -2.828 M
2.828 2.828 L
-2.828 2.828 M
2.828 -2.828 L
S
GR
GS
[0.75 0 0 0.75 0 0.5] CT
0 0 1 RC
1 LJ
0.667 LW
N
869.673 729.045 M
869.386 729.123 L
869.603 728.919 L
S
GR
GS
[0.75 0 0 0.75 0 0.5] CT
0 0 1 RC
1 LJ
0.667 LW
N
873.756 726.677 M
869.386 729.123 L
S
GR
GS
[0.75 0 0 0.75 0 0.5] CT
0 0 1 RC
1 LJ
0.667 LW
N
861.634 738.126 M
859.167 734.752 L
857.618 730.87 L
857.082 726.725 L
857.594 722.576 L
859.122 718.686 L
861.569 715.297 L
864.782 712.624 L
868.559 710.834 L
872.662 710.039 L
876.834 710.29 L
880.813 711.57 L
884.349 713.8 L
887.218 716.838 L
889.242 720.495 L
890.293 724.541 L
890.305 728.72 L
889.277 732.772 L
887.274 736.44 L
884.421 739.495 L
880.899 741.745 L
876.927 743.047 L
872.757 743.322 L
868.649 742.55 L
864.862 740.781 L
861.634 738.126 L
S
GR
GS
[0.75 0 0 0.75 655.31602 482.54364] CT
0 0 1 RC
10.0 ML
0.667 LW
N
0 -4 M
0 4 L
-4 0 M
4 0 L
-2.828 -2.828 M
2.828 2.828 L
-2.828 2.828 M
2.828 -2.828 L
S
GR
GS
[0.75 0 0 0.75 0 0.5] CT
0 0 1 RC
1 LJ
0.667 LW
N
869.671 645.093 M
869.384 645.171 L
869.601 644.967 L
S
GR
GS
[0.75 0 0 0.75 0 0.5] CT
0 0 1 RC
1 LJ
0.667 LW
N
873.755 642.725 M
869.384 645.171 L
S
GR
GS
[0.75 0 0 0.75 0 0.5] CT
0 0 1 RC
1 LJ
6.667 LW
N
861.746 654.293 M
865.001 656.916 L
868.805 658.647 L
872.92 659.378 L
877.088 659.063 L
881.046 657.72 L
884.546 655.436 L
887.368 652.353 L
889.335 648.665 L
890.323 644.603 L
890.269 640.424 L
889.178 636.389 L
887.118 632.753 L
884.218 629.743 L
880.661 627.548 L
876.67 626.307 L
872.495 626.098 L
868.4 626.934 L
864.641 628.762 L
861.455 631.467 L
859.042 634.879 L
857.553 638.785 L
857.082 642.938 L
857.659 647.077 L
859.247 650.943 L
861.746 654.293 L
S
GR
GS
[0.75 0 0 0.75 623.83612 545.50821] CT
0 0 1 RC
10.0 ML
0.667 LW
N
0 -4 M
0 4 L
-4 0 M
4 0 L
-2.828 -2.828 M
2.828 2.828 L
-2.828 2.828 M
2.828 -2.828 L
S
GR
GS
[0.75 0 0 0.75 0 0.5] CT
0 0 1 RC
1 LJ
0.667 LW
N
827.698 729.046 M
827.411 729.123 L
827.628 728.92 L
S
GR
GS
[0.75 0 0 0.75 0 0.5] CT
0 0 1 RC
1 LJ
0.667 LW
N
831.781 726.678 M
827.411 729.123 L
S
GR
GS
[0.75 0 0 0.75 0 0.5] CT
0 0 1 RC
1 LJ
0.667 LW
N
819.549 738.008 M
817.115 734.61 L
815.603 730.714 L
815.108 726.563 L
815.66 722.42 L
817.225 718.545 L
819.705 715.18 L
822.944 712.538 L
826.738 710.785 L
830.849 710.03 L
835.018 710.321 L
838.984 711.639 L
842.498 713.903 L
845.338 716.969 L
847.326 720.646 L
848.338 724.701 L
848.31 728.881 L
847.242 732.922 L
845.204 736.571 L
842.322 739.598 L
838.777 741.813 L
834.794 743.077 L
830.621 743.311 L
826.52 742.5 L
822.751 740.695 L
819.549 738.008 L
S
GR
GS
[0.75 0 0 0.75 618.74203 545.50935] CT
0 0 1 RC
10.0 ML
0.667 LW
N
0 -4 M
0 4 L
-4 0 M
4 0 L
-2.828 -2.828 M
2.828 2.828 L
-2.828 2.828 M
2.828 -2.828 L
S
GR
GS
[0.75 0 0 0.75 0 0.5] CT
0 0 1 RC
1 LJ
0.667 LW
N
820.906 729.047 M
820.619 729.125 L
820.836 728.921 L
S
GR
GS
[0.75 0 0 0.75 0 0.5] CT
0 0 1 RC
1 LJ
0.667 LW
N
824.989 726.679 M
820.619 729.125 L
S
GR
GS
[0.75 0 0 0.75 0 0.5] CT
0 0 1 RC
1 LJ
0.667 LW
N
812.78 738.036 M
815.988 740.715 L
819.762 742.513 L
823.864 743.315 L
828.036 743.073 L
832.017 741.8 L
835.557 739.577 L
838.433 736.544 L
840.464 732.891 L
841.522 728.847 L
841.542 724.668 L
840.522 720.614 L
838.525 716.942 L
835.679 713.882 L
832.16 711.626 L
828.191 710.315 L
824.021 710.033 L
819.912 710.797 L
816.122 712.558 L
812.889 715.207 L
810.416 718.577 L
808.859 722.456 L
808.315 726.6 L
808.82 730.749 L
810.34 734.643 L
812.78 738.036 L
S
GR
GS
[0.75 0 0 0.75 654.49278 545.50816] CT
0 0 1 RC
10.0 ML
0.667 LW
N
0 -4 M
0 4 L
-4 0 M
4 0 L
-2.828 -2.828 M
2.828 2.828 L
-2.828 2.828 M
2.828 -2.828 L
S
GR
GS
[0.75 0 0 0.75 0 0.5] CT
0 0 1 RC
1 LJ
0.667 LW
N
868.574 729.045 M
868.287 729.123 L
868.503 728.92 L
S
GR
GS
[0.75 0 0 0.75 0 0.5] CT
0 0 1 RC
1 LJ
0.667 LW
N
872.657 726.678 M
868.287 729.123 L
S
GR
GS
[0.75 0 0 0.75 0 0.5] CT
0 0 1 RC
1 LJ
0.667 LW
N
860.445 738.031 M
863.652 740.711 L
867.425 742.51 L
871.527 743.313 L
875.7 743.072 L
879.681 741.8 L
883.221 739.578 L
886.098 736.546 L
888.13 732.893 L
889.189 728.85 L
889.21 724.67 L
888.191 720.617 L
886.196 716.944 L
883.35 713.883 L
879.832 711.626 L
875.863 710.314 L
871.693 710.031 L
867.584 710.794 L
863.793 712.555 L
860.559 715.203 L
858.086 718.572 L
856.528 722.45 L
855.983 726.594 L
856.486 730.743 L
858.005 734.637 L
860.445 738.031 L
S
GR
GS
[0.75 0 0 0.75 623.01169 545.50848] CT
0 0 1 RC
10.0 ML
0.667 LW
N
0 -4 M
0 4 L
-4 0 M
4 0 L
-2.828 -2.828 M
2.828 2.828 L
-2.828 2.828 M
2.828 -2.828 L
S
GR
GS
[0.75 0 0 0.75 0 0.5] CT
0 0 1 RC
1 LJ
0.667 LW
N
826.599 729.046 M
826.312 729.124 L
826.528 728.92 L
S
GR
GS
[0.75 0 0 0.75 0 0.5] CT
0 0 1 RC
1 LJ
0.667 LW
N
830.682 726.678 M
826.312 729.124 L
S
GR
GS
[0.75 0 0 0.75 0 0.5] CT
0 0 1 RC
1 LJ
0.667 LW
N
818.405 737.961 M
821.597 740.66 L
825.36 742.48 L
829.457 743.307 L
833.631 743.089 L
837.619 741.841 L
841.172 739.639 L
844.066 736.623 L
846.119 732.982 L
847.202 728.945 L
847.246 724.766 L
846.251 720.707 L
844.276 717.023 L
841.448 713.945 L
837.943 711.668 L
833.982 710.334 L
829.814 710.026 L
825.7 710.766 L
821.899 712.504 L
818.651 715.134 L
816.158 718.489 L
814.577 722.358 L
814.009 726.499 L
814.488 730.651 L
815.985 734.553 L
818.405 737.961 L
S
GR
GS
[0.75 0 0 0.75 649.39691 545.50761] CT
0 0 1 RC
10.0 ML
0.667 LW
N
0 -4 M
0 4 L
-4 0 M
4 0 L
-2.828 -2.828 M
2.828 2.828 L
-2.828 2.828 M
2.828 -2.828 L
S
GR
GS
[0.75 0 0 0.75 0 0.5] CT
0 0 1 RC
1 LJ
0.667 LW
N
861.779 729.045 M
861.492 729.123 L
861.709 728.919 L
S
GR
GS
[0.75 0 0 0.75 0 0.5] CT
0 0 1 RC
1 LJ
0.667 LW
N
865.863 726.677 M
861.492 729.123 L
S
GR
GS
[0.75 0 0 0.75 0 0.5] CT
0 0 1 RC
1 LJ
0.667 LW
N
853.571 737.943 M
856.759 740.646 L
860.519 742.471 L
864.615 743.304 L
868.789 743.092 L
872.779 741.849 L
876.335 739.652 L
879.233 736.64 L
881.291 733.002 L
882.379 728.966 L
882.429 724.787 L
881.439 720.726 L
879.47 717.039 L
876.645 713.958 L
873.144 711.676 L
869.184 710.337 L
865.016 710.024 L
860.902 710.758 L
857.099 712.492 L
853.846 715.117 L
851.349 718.468 L
849.763 722.335 L
849.19 726.476 L
849.663 730.628 L
851.155 734.533 L
853.571 737.943 L
S
GR
GS
[0.75 0 0 0.75 617.91724 545.50963] CT
0 0 1 RC
10.0 ML
0.667 LW
N
0 -4 M
0 4 L
-4 0 M
4 0 L
-2.828 -2.828 M
2.828 2.828 L
-2.828 2.828 M
2.828 -2.828 L
S
GR
GS
[0.75 0 0 0.75 0 0.5] CT
0 0 1 RC
1 LJ
0.667 LW
N
819.806 729.047 M
819.519 729.125 L
819.736 728.922 L
S
GR
GS
[0.75 0 0 0.75 0 0.5] CT
0 0 1 RC
1 LJ
0.667 LW
N
823.89 726.68 M
819.519 729.125 L
S
GR
GS
[0.75 0 0 0.75 0 0.5] CT
0 0 1 RC
1 LJ
0.667 LW
N
811.668 738.023 M
814.873 740.706 L
818.645 742.507 L
822.746 743.315 L
826.919 743.076 L
830.901 741.808 L
834.443 739.589 L
837.322 736.559 L
839.357 732.908 L
840.42 728.866 L
840.444 724.686 L
839.428 720.632 L
837.436 716.957 L
834.593 713.894 L
831.077 711.634 L
827.109 710.319 L
822.94 710.032 L
818.829 710.792 L
815.037 712.549 L
811.801 715.195 L
809.325 718.562 L
807.764 722.439 L
807.216 726.583 L
807.715 730.732 L
809.231 734.627 L
811.668 738.023 L
S
GR
GS
[0.75 0 0 0.75 655.18524 545.50972] CT
0 0 1 RC
10.0 ML
0.667 LW
N
0 -4 M
0 4 L
-4 0 M
4 0 L
-2.828 -2.828 M
2.828 2.828 L
-2.828 2.828 M
2.828 -2.828 L
S
GR
GS
[0.75 0 0 0.75 0 0.5] CT
0 0 1 RC
1 LJ
4 LW
N
869.497 729.048 M
869.21 729.125 L
869.427 728.922 L
S
GR
GS
[0.75 0 0 0.75 0 0.5] CT
0 0 1 RC
1 LJ
4 LW
N
873.58 726.68 M
869.21 729.125 L
S
GR
GS
[0.75 0 0 0.75 0 0.5] CT
0 0 1 RC
1 LJ
6.667 LW
N
861.467 738.138 M
864.697 740.79 L
868.485 742.556 L
872.594 743.325 L
876.764 743.047 L
880.734 741.741 L
884.255 739.489 L
887.105 736.432 L
889.106 732.762 L
890.131 728.71 L
890.115 724.53 L
889.061 720.485 L
887.035 716.83 L
884.162 713.794 L
880.625 711.567 L
876.646 710.289 L
872.473 710.042 L
868.37 710.84 L
864.595 712.633 L
861.384 715.309 L
858.94 718.7 L
857.415 722.591 L
856.906 726.74 L
857.445 730.885 L
858.998 734.765 L
861.467 738.138 L
S
GR
GS
[0.75 0 0 0.75 623.70218 545.50757] CT
0 0 1 RC
10.0 ML
4 LW
N
0 -4 M
0 4 L
-4 0 M
4 0 L
-2.828 -2.828 M
2.828 2.828 L
-2.828 2.828 M
2.828 -2.828 L
S
GR
GS
[0.75 0 0 0.75 0 0.5] CT
0 0 1 RC
1 LJ
0.667 LW
N
827.519 729.045 M
827.233 729.123 L
827.449 728.919 L
S
GR
GS
[0.75 0 0 0.75 0 0.5] CT
0 0 1 RC
1 LJ
0.667 LW
N
831.603 726.677 M
827.233 729.123 L
S
GR
GS
[0.75 0 0 0.75 0 0.5] CT
0 0 1 RC
1 LJ
6.667 LW
N
819.362 737.999 M
822.563 740.688 L
826.331 742.496 L
830.431 743.31 L
834.604 743.079 L
838.589 741.817 L
842.135 739.604 L
845.019 736.579 L
847.06 732.931 L
848.129 728.891 L
848.161 724.711 L
847.152 720.655 L
845.166 716.978 L
842.328 713.909 L
838.816 711.643 L
834.85 710.322 L
830.681 710.028 L
826.57 710.78 L
822.774 712.531 L
819.534 715.171 L
817.052 718.534 L
815.484 722.409 L
814.929 726.551 L
815.422 730.702 L
816.931 734.6 L
819.362 737.999 L
S
GR
GS
[0.75 0 0 0.75 618.60782 545.50839] CT
0 0 1 RC
10.0 ML
0.667 LW
N
0 -4 M
0 4 L
-4 0 M
4 0 L
-2.828 -2.828 M
2.828 2.828 L
-2.828 2.828 M
2.828 -2.828 L
S
GR
GS
[0.75 0 0 0.75 0 0.5] CT
0 0 1 RC
1 LJ
0.667 LW
N
820.727 729.046 M
820.44 729.124 L
820.657 728.92 L
S
GR
GS
[0.75 0 0 0.75 0 0.5] CT
0 0 1 RC
1 LJ
0.667 LW
N
824.81 726.678 M
820.44 729.124 L
S
GR
GS
[0.75 0 0 0.75 0 0.5] CT
0 0 1 RC
1 LJ
0.667 LW
N
812.59 738.022 M
810.153 734.627 L
808.637 730.732 L
808.136 726.582 L
808.684 722.439 L
810.245 718.561 L
812.721 715.194 L
815.957 712.548 L
819.749 710.79 L
823.859 710.031 L
828.029 710.317 L
831.996 711.631 L
835.512 713.891 L
838.356 716.954 L
840.349 720.628 L
841.365 724.683 L
841.341 728.862 L
840.278 732.905 L
838.244 736.556 L
835.365 739.586 L
831.824 741.806 L
827.841 743.074 L
823.668 743.313 L
819.567 742.506 L
815.796 740.705 L
812.59 738.022 L
S
GR
GS
[0.75 0 0 0.75 617.78265 545.50862] CT
0 0 1 RC
10.0 ML
4 LW
N
0 -4 M
0 4 L
-4 0 M
4 0 L
-2.828 -2.828 M
2.828 2.828 L
-2.828 2.828 M
2.828 -2.828 L
S
GR
GS
[0.75 0 0 0.75 0 0.5] CT
0 0 1 RC
1 LJ
0.667 LW
N
819.627 729.046 M
819.34 729.124 L
819.556 728.92 L
S
GR
GS
[0.75 0 0 0.75 0 0.5] CT
0 0 1 RC
1 LJ
0.667 LW
N
823.71 726.678 M
819.34 729.124 L
S
GR
GS
[0.75 0 0 0.75 0 0.5] CT
0 0 1 RC
1 LJ
6.667 LW
N
811.723 738.268 M
814.982 740.885 L
818.789 742.61 L
822.906 743.333 L
827.073 743.01 L
831.029 741.66 L
834.525 739.37 L
837.341 736.281 L
839.301 732.59 L
840.282 728.527 L
840.221 724.347 L
839.122 720.315 L
837.056 716.682 L
834.15 713.677 L
830.589 711.489 L
826.596 710.255 L
822.421 710.054 L
818.327 710.897 L
814.571 712.731 L
811.39 715.442 L
808.983 718.859 L
807.501 722.767 L
807.038 726.921 L
807.622 731.06 L
809.217 734.923 L
811.723 738.268 L
S
GR
GS
[0.75 0 0 0.75 0 0.5] CT
1 GC
N
/f1818069950{1449 225 M
1449 84 L
1249 84 L
1249 225 L
cp}def
f1818069950
f
GR
GS
[0.75 0 0 0.75 972 77] CT
/Helvetica-Bold 26.667 F
GS
[1 0 0 1 0 0] CT
0 9 moveto 
1 -1 scale
(LandMark) t 
GR
GR
GS
[0.75 0 0 0.75 954.75 77] CT
1 0 0 RC
N
/f935408997{0 -17.773 M
-15.392 8.887 L
15.392 8.887 L
cp}def
f935408997
f
GR
GS
[0.75 0 0 0.75 954.75 77] CT
0 0 1 RC
10.0 ML
0.667 LW
N
0 -17.773 M
-15.392 8.887 L
15.392 8.887 L
cp
S
GR
GS
[0.75 0 0 0.75 972 114.5] CT
/Helvetica-Bold 26.667 F
GS
[1 0 0 1 0 0] CT
0 0 moveto 
1 -1 scale
(b) t 
GR
GR
GS
[0.75 0 0 0.75 987 104.75] CT
/Helvetica-Bold 21.333 F
GS
[1 0 0 1 0 0] CT
0 0 moveto 
1 -1 scale
(-) t 
GR
GR
GS
[0.75 0 0 0.75 993.75 114.5] CT
/Helvetica-Bold 26.667 F
GS
[1 0 0 1 0 0] CT
0 0 moveto 
1 -1 scale
([X) t 
GR
GR
GS
[0.75 0 0 0.75 1018.5 124.25] CT
/Helvetica-Bold 21.333 F
GS
[1 0 0 1 0 0] CT
0 0 moveto 
1 -1 scale
(k) t 
GR
GR
GS
[0.75 0 0 0.75 1029.75 114.5] CT
/Helvetica-Bold 26.667 F
GS
[1 0 0 1 0 0] CT
0 0 moveto 
1 -1 scale
(]) t 
GR
GR
GS
[0.75 0 0 0.75 0 0.5] CT
0 1 1 RC
1 LJ
0.667 LW
N
1253 144.5 M
1293 144.5 L
S
GR
GS
[0.75 0 0 0.75 972 153.5] CT
/Helvetica-Bold 26.667 F
GS
[1 0 0 1 0 0] CT
0 0 moveto 
1 -1 scale
(b) t 
GR
GR
GS
[0.75 0 0 0.75 987 143.75] CT
/Helvetica-Bold 21.333 F
GS
[1 0 0 1 0 0] CT
0 0 moveto 
1 -1 scale
(-) t 
GR
GR
GS
[0.75 0 0 0.75 993.75 153.5] CT
/Helvetica-Bold 26.667 F
GS
[1 0 0 1 0 0] CT
0 0 moveto 
1 -1 scale
([X) t 
GR
GR
GS
[0.75 0 0 0.75 1018.5 163.25] CT
/Helvetica-Bold 21.333 F
GS
[1 0 0 1 0 0] CT
0 0 moveto 
1 -1 scale
(k) t 
GR
GR
GS
[0.75 0 0 0.75 1029.75 153.5] CT
/Helvetica-Bold 26.667 F
GS
[1 0 0 1 0 0] CT
0 0 moveto 
1 -1 scale
(]) t 
GR
GR
GS
[0.75 0 0 0.75 0 0.5] CT
0 0 1 RC
1 LJ
6.667 LW
N
1253 197 M
1293 197 L
S
GR
GS
[0.75 0 0 0.75 0 0.5] CT
0.149 GC
10.0 ML
0.667 LW
N
1249 225 M
1249 84 L
1449 84 L
1449 225 L
cp
S
GR
%%Trailer
%%Pages: 1
%%EOF
