%!PS-Adobe-3.0 EPSF-3.0
%%Creator: (MATLAB, The Mathworks, Inc. Version 9.8.0.1380330 \(R2020a\) Update 2. Operating System: Linux)
%%Title: (/home/ohads/ANPL/papers/research/2021 RAL/Figures/TestCase_1/fig_files/Robots_estimation_k_6.eps)
%%CreationDate: 2021-02-21T16:00:43
%%Pages: (atend)
%%BoundingBox:   281    16  1109   674
%%LanguageLevel: 3
%%EndComments
%%BeginProlog
%%BeginResource: procset (Apache XML Graphics Std ProcSet) 1.2 0
%%Version: 1.2 0
%%Copyright: (Copyright 2001-2003,2010 The Apache Software Foundation. License terms: http://www.apache.org/licenses/LICENSE-2.0)
/bd{bind def}bind def
/ld{load def}bd
/GR/grestore ld
/GS/gsave ld
/RM/rmoveto ld
/C/curveto ld
/t/show ld
/L/lineto ld
/ML/setmiterlimit ld
/CT/concat ld
/f/fill ld
/N/newpath ld
/S/stroke ld
/CC/setcmykcolor ld
/A/ashow ld
/cp/closepath ld
/RC/setrgbcolor ld
/LJ/setlinejoin ld
/GC/setgray ld
/LW/setlinewidth ld
/M/moveto ld
/re {4 2 roll M
1 index 0 rlineto
0 exch rlineto
neg 0 rlineto
cp } bd
/_ctm matrix def
/_tm matrix def
/BT { _ctm currentmatrix pop matrix _tm copy pop 0 0 moveto } bd
/ET { _ctm setmatrix } bd
/iTm { _ctm setmatrix _tm concat } bd
/Tm { _tm astore pop iTm 0 0 moveto } bd
/ux 0.0 def
/uy 0.0 def
/F {
  /Tp exch def
  /Tf exch def
  Tf findfont Tp scalefont setfont
  /cf Tf def  /cs Tp def
} bd
/ULS {currentpoint /uy exch def /ux exch def} bd
/ULE {
  /Tcx currentpoint pop def
  gsave
  newpath
  cf findfont cs scalefont dup
  /FontMatrix get 0 get /Ts exch def /FontInfo get dup
  /UnderlinePosition get Ts mul /To exch def
  /UnderlineThickness get Ts mul /Tt exch def
  ux uy To add moveto  Tcx uy To add lineto
  Tt setlinewidth stroke
  grestore
} bd
/OLE {
  /Tcx currentpoint pop def
  gsave
  newpath
  cf findfont cs scalefont dup
  /FontMatrix get 0 get /Ts exch def /FontInfo get dup
  /UnderlinePosition get Ts mul /To exch def
  /UnderlineThickness get Ts mul /Tt exch def
  ux uy To add cs add moveto Tcx uy To add cs add lineto
  Tt setlinewidth stroke
  grestore
} bd
/SOE {
  /Tcx currentpoint pop def
  gsave
  newpath
  cf findfont cs scalefont dup
  /FontMatrix get 0 get /Ts exch def /FontInfo get dup
  /UnderlinePosition get Ts mul /To exch def
  /UnderlineThickness get Ts mul /Tt exch def
  ux uy To add cs 10 mul 26 idiv add moveto Tcx uy To add cs 10 mul 26 idiv add lineto
  Tt setlinewidth stroke
  grestore
} bd
/QT {
/Y22 exch store
/X22 exch store
/Y21 exch store
/X21 exch store
currentpoint
/Y21 load 2 mul add 3 div exch
/X21 load 2 mul add 3 div exch
/X21 load 2 mul /X22 load add 3 div
/Y21 load 2 mul /Y22 load add 3 div
/X22 load /Y22 load curveto
} bd
/SSPD {
dup length /d exch dict def
{
/v exch def
/k exch def
currentpagedevice k known {
/cpdv currentpagedevice k get def
v cpdv ne {
/upd false def
/nullv v type /nulltype eq def
/nullcpdv cpdv type /nulltype eq def
nullv nullcpdv or
{
/upd true def
} {
/sametype v type cpdv type eq def
sametype {
v type /arraytype eq {
/vlen v length def
/cpdvlen cpdv length def
vlen cpdvlen eq {
0 1 vlen 1 sub {
/i exch def
/obj v i get def
/cpdobj cpdv i get def
obj cpdobj ne {
/upd true def
exit
} if
} for
} {
/upd true def
} ifelse
} {
v type /dicttype eq {
v {
/dv exch def
/dk exch def
/cpddv cpdv dk get def
dv cpddv ne {
/upd true def
exit
} if
} forall
} {
/upd true def
} ifelse
} ifelse
} if
} ifelse
upd true eq {
d k v put
} if
} if
} if
} forall
d length 0 gt {
d setpagedevice
} if
} bd
/RE { % /NewFontName [NewEncodingArray] /FontName RE -
  findfont dup length dict begin
  {
    1 index /FID ne
    {def} {pop pop} ifelse
  } forall
  /Encoding exch def
  /FontName 1 index def
  currentdict definefont pop
  end
} bind def
%%EndResource
%%BeginResource: procset (Apache XML Graphics EPS ProcSet) 1.0 0
%%Version: 1.0 0
%%Copyright: (Copyright 2002-2003 The Apache Software Foundation. License terms: http://www.apache.org/licenses/LICENSE-2.0)
/BeginEPSF { %def
/b4_Inc_state save def         % Save state for cleanup
/dict_count countdictstack def % Count objects on dict stack
/op_count count 1 sub def      % Count objects on operand stack
userdict begin                 % Push userdict on dict stack
/showpage { } def              % Redefine showpage, { } = null proc
0 setgray 0 setlinecap         % Prepare graphics state
1 setlinewidth 0 setlinejoin
10 setmiterlimit [ ] 0 setdash newpath
/languagelevel where           % If level not equal to 1 then
{pop languagelevel             % set strokeadjust and
1 ne                           % overprint to their defaults.
{false setstrokeadjust false setoverprint
} if
} if
} bd
/EndEPSF { %def
count op_count sub {pop} repeat            % Clean up stacks
countdictstack dict_count sub {end} repeat
b4_Inc_state restore
} bd
%%EndResource
%FOPBeginFontDict
%%IncludeResource: font Courier-Oblique
%%IncludeResource: font Courier-BoldOblique
%%IncludeResource: font Courier-Bold
%%IncludeResource: font ZapfDingbats
%%IncludeResource: font Symbol
%%IncludeResource: font Helvetica
%%IncludeResource: font Helvetica-Oblique
%%IncludeResource: font Helvetica-Bold
%%IncludeResource: font Helvetica-BoldOblique
%%IncludeResource: font Times-Roman
%%IncludeResource: font Times-Italic
%%IncludeResource: font Times-Bold
%%IncludeResource: font Times-BoldItalic
%%IncludeResource: font Courier
%FOPEndFontDict
%%BeginResource: encoding WinAnsiEncoding
/WinAnsiEncoding [
/.notdef /.notdef /.notdef /.notdef /.notdef
/.notdef /.notdef /.notdef /.notdef /.notdef
/.notdef /.notdef /.notdef /.notdef /.notdef
/.notdef /.notdef /.notdef /.notdef /.notdef
/.notdef /.notdef /.notdef /.notdef /.notdef
/.notdef /.notdef /.notdef /.notdef /.notdef
/.notdef /.notdef /space /exclam /quotedbl
/numbersign /dollar /percent /ampersand /quotesingle
/parenleft /parenright /asterisk /plus /comma
/hyphen /period /slash /zero /one
/two /three /four /five /six
/seven /eight /nine /colon /semicolon
/less /equal /greater /question /at
/A /B /C /D /E
/F /G /H /I /J
/K /L /M /N /O
/P /Q /R /S /T
/U /V /W /X /Y
/Z /bracketleft /backslash /bracketright /asciicircum
/underscore /quoteleft /a /b /c
/d /e /f /g /h
/i /j /k /l /m
/n /o /p /q /r
/s /t /u /v /w
/x /y /z /braceleft /bar
/braceright /asciitilde /bullet /Euro /bullet
/quotesinglbase /florin /quotedblbase /ellipsis /dagger
/daggerdbl /circumflex /perthousand /Scaron /guilsinglleft
/OE /bullet /Zcaron /bullet /bullet
/quoteleft /quoteright /quotedblleft /quotedblright /bullet
/endash /emdash /asciitilde /trademark /scaron
/guilsinglright /oe /bullet /zcaron /Ydieresis
/space /exclamdown /cent /sterling /currency
/yen /brokenbar /section /dieresis /copyright
/ordfeminine /guillemotleft /logicalnot /sfthyphen /registered
/macron /degree /plusminus /twosuperior /threesuperior
/acute /mu /paragraph /middot /cedilla
/onesuperior /ordmasculine /guillemotright /onequarter /onehalf
/threequarters /questiondown /Agrave /Aacute /Acircumflex
/Atilde /Adieresis /Aring /AE /Ccedilla
/Egrave /Eacute /Ecircumflex /Edieresis /Igrave
/Iacute /Icircumflex /Idieresis /Eth /Ntilde
/Ograve /Oacute /Ocircumflex /Otilde /Odieresis
/multiply /Oslash /Ugrave /Uacute /Ucircumflex
/Udieresis /Yacute /Thorn /germandbls /agrave
/aacute /acircumflex /atilde /adieresis /aring
/ae /ccedilla /egrave /eacute /ecircumflex
/edieresis /igrave /iacute /icircumflex /idieresis
/eth /ntilde /ograve /oacute /ocircumflex
/otilde /odieresis /divide /oslash /ugrave
/uacute /ucircumflex /udieresis /yacute /thorn
/ydieresis
] def
%%EndResource
%FOPBeginFontReencode
/Courier-Oblique findfont
dup length dict begin
  {1 index /FID ne {def} {pop pop} ifelse} forall
  /Encoding WinAnsiEncoding def
  currentdict
end
/Courier-Oblique exch definefont pop
/Courier-BoldOblique findfont
dup length dict begin
  {1 index /FID ne {def} {pop pop} ifelse} forall
  /Encoding WinAnsiEncoding def
  currentdict
end
/Courier-BoldOblique exch definefont pop
/Courier-Bold findfont
dup length dict begin
  {1 index /FID ne {def} {pop pop} ifelse} forall
  /Encoding WinAnsiEncoding def
  currentdict
end
/Courier-Bold exch definefont pop
/Helvetica findfont
dup length dict begin
  {1 index /FID ne {def} {pop pop} ifelse} forall
  /Encoding WinAnsiEncoding def
  currentdict
end
/Helvetica exch definefont pop
/Helvetica-Oblique findfont
dup length dict begin
  {1 index /FID ne {def} {pop pop} ifelse} forall
  /Encoding WinAnsiEncoding def
  currentdict
end
/Helvetica-Oblique exch definefont pop
/Helvetica-Bold findfont
dup length dict begin
  {1 index /FID ne {def} {pop pop} ifelse} forall
  /Encoding WinAnsiEncoding def
  currentdict
end
/Helvetica-Bold exch definefont pop
/Helvetica-BoldOblique findfont
dup length dict begin
  {1 index /FID ne {def} {pop pop} ifelse} forall
  /Encoding WinAnsiEncoding def
  currentdict
end
/Helvetica-BoldOblique exch definefont pop
/Times-Roman findfont
dup length dict begin
  {1 index /FID ne {def} {pop pop} ifelse} forall
  /Encoding WinAnsiEncoding def
  currentdict
end
/Times-Roman exch definefont pop
/Times-Italic findfont
dup length dict begin
  {1 index /FID ne {def} {pop pop} ifelse} forall
  /Encoding WinAnsiEncoding def
  currentdict
end
/Times-Italic exch definefont pop
/Times-Bold findfont
dup length dict begin
  {1 index /FID ne {def} {pop pop} ifelse} forall
  /Encoding WinAnsiEncoding def
  currentdict
end
/Times-Bold exch definefont pop
/Times-BoldItalic findfont
dup length dict begin
  {1 index /FID ne {def} {pop pop} ifelse} forall
  /Encoding WinAnsiEncoding def
  currentdict
end
/Times-BoldItalic exch definefont pop
/Courier findfont
dup length dict begin
  {1 index /FID ne {def} {pop pop} ifelse} forall
  /Encoding WinAnsiEncoding def
  currentdict
end
/Courier exch definefont pop
%FOPEndFontReencode
%%EndProlog
%%Page: 1 1
%%PageBoundingBox: 0 0 1390 728
%%BeginPageSetup
[1 0 0 -1 0 728] CT
%%EndPageSetup
GS
[0.75 0 0 0.75 0 0.5] CT
1 GC
N
0 0 1853 970 re
f
GR
GS
[0.75 0 0 0.75 0 0.5] CT
1 GC
N
0 0 1853 970 re
f
GR
GS
[0.75 0 0 0.75 0 0.5] CT
1 GC
N
458.182 863 M
1459.818 863 L
1459.818 73 L
458.182 73 L
cp
f
GR
GS
[0.75 0 0 0.75 0 0.5] CT
0.149 GC
2 setlinecap
1 LJ
0.667 LW
N
458.182 863 M
1459.818 863 L
S
GR
GS
[0.75 0 0 0.75 0 0.5] CT
0.149 GC
2 setlinecap
1 LJ
0.667 LW
N
458.182 863 M
458.182 852.984 L
S
GR
GS
[0.75 0 0 0.75 0 0.5] CT
0.149 GC
2 setlinecap
1 LJ
0.667 LW
N
708.591 863 M
708.591 852.984 L
S
GR
GS
[0.75 0 0 0.75 0 0.5] CT
0.149 GC
2 setlinecap
1 LJ
0.667 LW
N
959 863 M
959 852.984 L
S
GR
GS
[0.75 0 0 0.75 0 0.5] CT
0.149 GC
2 setlinecap
1 LJ
0.667 LW
N
1209.409 863 M
1209.409 852.984 L
S
GR
GS
[0.75 0 0 0.75 0 0.5] CT
0.149 GC
2 setlinecap
1 LJ
0.667 LW
N
1459.818 863 M
1459.818 852.984 L
S
GR
GS
[0.75 0 0 0.75 343.63651 654.74998] CT
0.149 GC
/Helvetica 33.333 F
GS
[1 0 0 1 0 0] CT
-17 31 moveto 
1 -1 scale
(-5) t 
GR
GR
GS
[0.75 0 0 0.75 531.44325 654.74998] CT
0.149 GC
/Helvetica 33.333 F
GS
[1 0 0 1 0 0] CT
-11 31 moveto 
1 -1 scale
(0) t 
GR
GR
GS
[0.75 0 0 0.75 719.25 654.74998] CT
0.149 GC
/Helvetica 33.333 F
GS
[1 0 0 1 0 0] CT
-11 31 moveto 
1 -1 scale
(5) t 
GR
GR
GS
[0.75 0 0 0.75 907.05679 654.74998] CT
0.149 GC
/Helvetica 33.333 F
GS
[1 0 0 1 0 0] CT
-21.5 31 moveto 
1 -1 scale
(10) t 
GR
GR
GS
[0.75 0 0 0.75 1094.86349 654.74998] CT
0.149 GC
/Helvetica 33.333 F
GS
[1 0 0 1 0 0] CT
-21.5 31 moveto 
1 -1 scale
(15) t 
GR
GR
GS
[0.75 0 0 0.75 719.25037 684.99997] CT
0.149 GC
/Helvetica 36.667 F
GS
[1 0 0 1 0 0] CT
-22.5 35 moveto 
1 -1 scale
(Xs) t 
GR
GR
GS
[0.75 0 0 0.75 0 0.5] CT
0.149 GC
2 setlinecap
1 LJ
0.667 LW
N
458.182 863 M
458.182 73 L
S
GR
GS
[0.75 0 0 0.75 0 0.5] CT
0.149 GC
2 setlinecap
1 LJ
0.667 LW
N
458.182 767.641 M
468.198 767.641 L
S
GR
GS
[0.75 0 0 0.75 0 0.5] CT
0.149 GC
2 setlinecap
1 LJ
0.667 LW
N
458.182 667.478 M
468.198 667.478 L
S
GR
GS
[0.75 0 0 0.75 0 0.5] CT
0.149 GC
2 setlinecap
1 LJ
0.667 LW
N
458.182 567.314 M
468.198 567.314 L
S
GR
GS
[0.75 0 0 0.75 0 0.5] CT
0.149 GC
2 setlinecap
1 LJ
0.667 LW
N
458.182 467.15 M
468.198 467.15 L
S
GR
GS
[0.75 0 0 0.75 0 0.5] CT
0.149 GC
2 setlinecap
1 LJ
0.667 LW
N
458.182 366.987 M
468.198 366.987 L
S
GR
GS
[0.75 0 0 0.75 0 0.5] CT
0.149 GC
2 setlinecap
1 LJ
0.667 LW
N
458.182 266.823 M
468.198 266.823 L
S
GR
GS
[0.75 0 0 0.75 0 0.5] CT
0.149 GC
2 setlinecap
1 LJ
0.667 LW
N
458.182 166.66 M
468.198 166.66 L
S
GR
GS
[0.75 0 0 0.75 336.6365 576.23097] CT
0.149 GC
/Helvetica 33.333 F
GS
[1 0 0 1 0 0] CT
-34 11.5 moveto 
1 -1 scale
(-4) t 
GR
GR
GS
[0.75 0 0 0.75 336.6365 501.10825] CT
0.149 GC
/Helvetica 33.333 F
GS
[1 0 0 1 0 0] CT
-34 11.5 moveto 
1 -1 scale
(-2) t 
GR
GR
GS
[0.75 0 0 0.75 336.6365 425.98557] CT
0.149 GC
/Helvetica 33.333 F
GS
[1 0 0 1 0 0] CT
-22 11.5 moveto 
1 -1 scale
(0) t 
GR
GR
GS
[0.75 0 0 0.75 336.6365 350.86286] CT
0.149 GC
/Helvetica 33.333 F
GS
[1 0 0 1 0 0] CT
-22 11.5 moveto 
1 -1 scale
(2) t 
GR
GR
GS
[0.75 0 0 0.75 336.6365 275.74016] CT
0.149 GC
/Helvetica 33.333 F
GS
[1 0 0 1 0 0] CT
-22 11.5 moveto 
1 -1 scale
(4) t 
GR
GR
GS
[0.75 0 0 0.75 336.6365 200.61745] CT
0.149 GC
/Helvetica 33.333 F
GS
[1 0 0 1 0 0] CT
-22 11.5 moveto 
1 -1 scale
(6) t 
GR
GR
GS
[0.75 0 0 0.75 336.6365 125.49476] CT
0.149 GC
/Helvetica 33.333 F
GS
[1 0 0 1 0 0] CT
-22 11.5 moveto 
1 -1 scale
(8) t 
GR
GR
GS
[0 -0.75 0.75 0 308.1365 351.4997] CT
0.149 GC
/Helvetica 36.667 F
GS
[1 0 0 1 0 0] CT
-21 -9 moveto 
1 -1 scale
(Ys) t 
GR
GR
GS
[0.75 0 0 0.75 794.37268 388.42422] CT
1 0 0 RC
N
0 -26.66 M
-23.088 13.33 L
23.088 13.33 L
cp
f
GR
GS
[0.75 0 0 0.75 794.37268 388.42422] CT
0 0 1 RC
10.0 ML
0.667 LW
N
0 -26.66 M
-23.088 13.33 L
23.088 13.33 L
cp
S
GR
GS
[0.75 0 0 0.75 606.56593 125.49476] CT
1 0 0 RC
N
/f-1996900118{0 -26.66 M
-23.088 13.33 L
23.088 13.33 L
cp}def
f-1996900118
f
GR
GS
[0.75 0 0 0.75 606.56593 125.49476] CT
0 0 1 RC
10.0 ML
0.667 LW
N
0 -26.66 M
-23.088 13.33 L
23.088 13.33 L
cp
S
GR
GS
[0.75 0 0 0.75 794.37268 313.3015] CT
1 0 0 RC
N
f-1996900118
f
GR
GS
[0.75 0 0 0.75 794.37268 313.3015] CT
0 0 1 RC
10.0 ML
0.667 LW
N
0 -26.66 M
-23.088 13.33 L
23.088 13.33 L
cp
S
GR
GS
[0.75 0 0 0.75 719.25 125.49476] CT
1 0 0 RC
N
f-1996900118
f
GR
GS
[0.75 0 0 0.75 719.25 125.49476] CT
0 0 1 RC
10.0 ML
0.667 LW
N
0 -26.66 M
-23.088 13.33 L
23.088 13.33 L
cp
S
GR
GS
[0.75 0 0 0.75 831.93402 350.86286] CT
1 0 0 RC
N
f-1996900118
f
GR
GS
[0.75 0 0 0.75 831.93402 350.86286] CT
0 0 1 RC
10.0 ML
0.667 LW
N
0 -26.66 M
-23.088 13.33 L
23.088 13.33 L
cp
S
GR
GS
[0.75 0 0 0.75 756.81134 125.49476] CT
1 0 0 RC
N
f-1996900118
f
GR
GS
[0.75 0 0 0.75 756.81134 125.49476] CT
0 0 1 RC
10.0 ML
0.667 LW
N
0 -26.66 M
-23.088 13.33 L
23.088 13.33 L
cp
S
GR
GS
[0.75 0 0 0.75 794.37268 200.61745] CT
1 0 0 RC
N
f-1996900118
f
GR
GS
[0.75 0 0 0.75 794.37268 200.61745] CT
0 0 1 RC
10.0 ML
0.667 LW
N
0 -26.66 M
-23.088 13.33 L
23.088 13.33 L
cp
S
GR
GS
[0.75 0 0 0.75 756.81134 388.42422] CT
1 0 0 RC
N
f-1996900118
f
GR
GS
[0.75 0 0 0.75 756.81134 388.42422] CT
0 0 1 RC
10.0 ML
0.667 LW
N
0 -26.66 M
-23.088 13.33 L
23.088 13.33 L
cp
S
GR
GS
[0.75 0 0 0.75 609.96945 546.58757] CT
0 1 1 RC
10.0 ML
0.667 LW
N
0 -4 M
0 4 L
-4 0 M
4 0 L
-2.828 -2.828 M
2.828 2.828 L
-2.828 2.828 M
2.828 -2.828 L
S
GR
GS
[0.75 0 0 0.75 0 0.5] CT
0 1 1 RC
1 LJ
0.667 LW
N
809.209 730.485 M
808.922 730.563 L
809.139 730.359 L
S
GR
GS
[0.75 0 0 0.75 0 0.5] CT
0 1 1 RC
1 LJ
0.667 LW
N
813.293 728.117 M
808.922 730.563 L
S
GR
GS
[0.75 0 0 0.75 0 0.5] CT
0 1 1 RC
1 LJ
0.667 LW
N
781.276 754.435 M
788.827 761.571 L
797.915 766.604 L
807.969 769.219 L
818.358 769.252 L
828.429 766.699 L
837.549 761.723 L
845.144 754.635 L
850.738 745.881 L
853.979 736.01 L
854.664 725.644 L
852.749 715.433 L
848.355 706.019 L
841.758 697.993 L
833.373 691.86 L
823.725 688.006 L
813.422 686.671 L
803.111 687.941 L
793.44 691.736 L
785.016 697.816 L
778.369 705.8 L
773.916 715.186 L
771.937 725.385 L
772.557 735.755 L
775.737 745.646 L
781.276 754.435 L
S
GR
GS
[0.75 0 0 0.75 578.48666 546.58606] CT
0 1 1 RC
10.0 ML
0.667 LW
N
0 -4 M
0 4 L
-4 0 M
4 0 L
-2.828 -2.828 M
2.828 2.828 L
-2.828 2.828 M
2.828 -2.828 L
S
GR
GS
[0.75 0 0 0.75 0 0.5] CT
0 1 1 RC
1 LJ
0.667 LW
N
767.232 730.483 M
766.945 730.561 L
767.162 730.357 L
S
GR
GS
[0.75 0 0 0.75 0 0.5] CT
0 1 1 RC
1 LJ
0.667 LW
N
771.316 728.115 M
766.945 730.561 L
S
GR
GS
[0.75 0 0 0.75 0 0.5] CT
0 1 1 RC
1 LJ
0.667 LW
N
739.009 754.076 M
733.568 745.227 L
730.498 735.301 L
729.993 724.925 L
732.085 714.748 L
736.641 705.412 L
743.377 697.502 L
751.867 691.516 L
761.58 687.829 L
771.905 686.673 L
782.192 688.122 L
791.796 692.083 L
800.114 698.309 L
806.621 706.407 L
810.911 715.869 L
812.712 726.101 L
811.912 736.459 L
808.562 746.293 L
802.871 754.984 L
795.198 761.988 L
786.023 766.863 L
775.925 769.303 L
765.537 769.155 L
755.512 766.429 L
746.48 761.295 L
739.009 754.076 L
S
GR
GS
[0.75 0 0 0.75 609.97032 473.43405] CT
0 1 1 RC
10.0 ML
0.667 LW
N
0 -4 M
0 4 L
-4 0 M
4 0 L
-2.828 -2.828 M
2.828 2.828 L
-2.828 2.828 M
2.828 -2.828 L
S
GR
GS
[0.75 0 0 0.75 0 0.5] CT
0 1 1 RC
1 LJ
0.667 LW
N
809.21 632.947 M
808.924 633.025 L
809.14 632.821 L
S
GR
GS
[0.75 0 0 0.75 0 0.5] CT
0 1 1 RC
1 LJ
0.667 LW
N
813.294 630.579 M
808.924 633.025 L
S
GR
GS
[0.75 0 0 0.75 0 0.5] CT
0 1 1 RC
1 LJ
0.667 LW
N
781.167 656.762 M
775.664 647.95 L
772.527 638.046 L
771.95 627.673 L
773.972 617.483 L
778.464 608.115 L
785.145 600.159 L
793.594 594.114 L
803.281 590.361 L
813.598 589.134 L
823.895 590.512 L
833.526 594.407 L
841.886 600.575 L
848.449 608.628 L
852.804 618.061 L
854.675 628.28 L
853.947 638.643 L
850.664 648.5 L
845.034 657.231 L
837.408 664.287 L
828.268 669.225 L
818.187 671.734 L
807.798 671.658 L
797.755 669.001 L
788.688 663.929 L
781.167 656.762 L
S
GR
GS
[0.75 0 0 0.75 573.39322 546.58839] CT
0 1 1 RC
10.0 ML
0.667 LW
N
0 -4 M
0 4 L
-4 0 M
4 0 L
-2.828 -2.828 M
2.828 2.828 L
-2.828 2.828 M
2.828 -2.828 L
S
GR
GS
[0.75 0 0 0.75 0 0.5] CT
0 1 1 RC
1 LJ
0.667 LW
N
760.441 730.486 M
760.154 730.564 L
760.371 730.36 L
S
GR
GS
[0.75 0 0 0.75 0 0.5] CT
0 1 1 RC
1 LJ
0.667 LW
N
764.524 728.118 M
760.154 730.564 L
S
GR
GS
[0.75 0 0 0.75 0 0.5] CT
0 1 1 RC
1 LJ
0.667 LW
N
732.353 754.247 M
726.866 745.426 L
723.745 735.517 L
723.186 725.143 L
725.224 714.956 L
729.732 705.596 L
736.426 697.651 L
744.886 691.62 L
754.579 687.883 L
764.898 686.674 L
775.193 688.069 L
784.817 691.98 L
793.167 698.162 L
799.717 706.227 L
804.055 715.666 L
805.91 725.888 L
805.164 736.25 L
801.865 746.102 L
796.219 754.823 L
788.582 761.866 L
779.434 766.789 L
769.348 769.282 L
758.959 769.188 L
748.921 766.514 L
739.862 761.427 L
732.353 754.247 L
S
GR
GS
[0.75 0 0 0.75 572.56892 546.58926] CT
0 1 1 RC
10.0 ML
0.667 LW
N
0 -4 M
0 4 L
-4 0 M
4 0 L
-2.828 -2.828 M
2.828 2.828 L
-2.828 2.828 M
2.828 -2.828 L
S
GR
GS
[0.75 0 0 0.75 0 0.5] CT
0 1 1 RC
1 LJ
0.667 LW
N
759.342 730.487 M
759.055 730.565 L
759.271 730.361 L
S
GR
GS
[0.75 0 0 0.75 0 0.5] CT
0 1 1 RC
1 LJ
0.667 LW
N
763.425 728.119 M
759.055 730.565 L
S
GR
GS
[0.75 0 0 0.75 0 0.5] CT
0 1 1 RC
1 LJ
0.667 LW
N
731.235 754.226 M
725.754 745.4 L
722.64 735.489 L
722.089 725.114 L
724.135 714.929 L
728.649 705.572 L
735.349 697.632 L
743.813 691.608 L
753.509 687.877 L
763.828 686.675 L
774.122 688.078 L
783.744 691.996 L
792.089 698.184 L
798.633 706.253 L
802.965 715.696 L
804.812 725.919 L
804.059 736.281 L
800.753 746.13 L
795.101 754.847 L
787.459 761.885 L
778.307 766.801 L
768.219 769.286 L
757.831 769.185 L
747.794 766.504 L
738.739 761.411 L
731.235 754.226 L
S
GR
GS
[0.75 0 0 0.75 610.10435 546.45477] CT
0 1 1 RC
10.0 ML
0.667 LW
N
0 -4 M
0 4 L
-4 0 M
4 0 L
-2.828 -2.828 M
2.828 2.828 L
-2.828 2.828 M
2.828 -2.828 L
S
GR
GS
[0.75 0 0 0.75 0 0.5] CT
0 1 1 RC
1 LJ
0.667 LW
N
809.389 730.308 M
809.102 730.386 L
809.319 730.182 L
S
GR
GS
[0.75 0 0 0.75 0 0.5] CT
0 1 1 RC
1 LJ
0.667 LW
N
813.472 727.94 M
809.102 730.386 L
S
GR
GS
[0.75 0 0 0.75 0 0.5] CT
0 1 1 RC
1 LJ
0.667 LW
N
781.113 753.836 M
775.69 744.974 L
772.64 735.043 L
772.156 724.665 L
774.269 714.493 L
778.844 705.166 L
785.596 697.27 L
794.099 691.301 L
803.819 687.634 L
814.146 686.5 L
824.431 687.969 L
834.027 691.95 L
842.331 698.192 L
848.822 706.304 L
853.092 715.775 L
854.873 726.01 L
854.052 736.366 L
850.682 746.193 L
844.973 754.874 L
837.285 761.861 L
828.101 766.718 L
817.998 769.137 L
807.61 768.969 L
797.591 766.222 L
788.57 761.069 L
781.113 753.836 L
S
GR
GS
[0.75 0 0 0.75 578.62047 546.45239] CT
0 1 1 RC
10.0 ML
0.667 LW
N
0 -4 M
0 4 L
-4 0 M
4 0 L
-2.828 -2.828 M
2.828 2.828 L
-2.828 2.828 M
2.828 -2.828 L
S
GR
GS
[0.75 0 0 0.75 0 0.5] CT
0 1 1 RC
1 LJ
0.667 LW
N
767.411 730.305 M
767.124 730.382 L
767.34 730.179 L
S
GR
GS
[0.75 0 0 0.75 0 0.5] CT
0 1 1 RC
1 LJ
0.667 LW
N
771.494 727.937 M
767.124 730.382 L
S
GR
GS
[0.75 0 0 0.75 0 0.5] CT
0 1 1 RC
1 LJ
0.667 LW
N
739.088 753.775 M
746.532 761.022 L
755.544 766.19 L
765.559 768.955 L
775.946 769.142 L
786.054 766.74 L
795.246 761.9 L
802.947 754.926 L
808.671 746.257 L
812.059 736.436 L
812.898 726.081 L
811.136 715.842 L
806.882 706.364 L
800.406 698.241 L
792.112 691.984 L
782.523 687.986 L
772.241 686.498 L
761.913 687.614 L
752.186 691.263 L
743.672 697.217 L
736.907 705.101 L
732.314 714.42 L
730.184 724.589 L
730.649 734.967 L
733.681 744.904 L
739.088 753.775 L
S
GR
GS
[0.75 0 0 0.75 610.10449 473.3008] CT
0 1 1 RC
10.0 ML
0.667 LW
N
0 -4 M
0 4 L
-4 0 M
4 0 L
-2.828 -2.828 M
2.828 2.828 L
-2.828 2.828 M
2.828 -2.828 L
S
GR
GS
[0.75 0 0 0.75 0 0.5] CT
0 1 1 RC
1 LJ
0.667 LW
N
809.389 632.769 M
809.102 632.847 L
809.319 632.643 L
S
GR
GS
[0.75 0 0 0.75 0 0.5] CT
0 1 1 RC
1 LJ
0.667 LW
N
813.473 630.401 M
809.102 632.847 L
S
GR
GS
[0.75 0 0 0.75 0 0.5] CT
0 1 1 RC
1 LJ
0.667 LW
N
781.304 656.534 M
775.816 647.713 L
772.694 637.804 L
772.134 627.43 L
774.171 617.243 L
778.678 607.882 L
785.372 599.937 L
793.831 593.906 L
803.524 590.167 L
813.842 588.957 L
824.137 590.351 L
833.762 594.262 L
842.112 600.443 L
848.663 608.506 L
853.002 617.946 L
854.858 628.168 L
854.113 638.53 L
850.815 648.381 L
845.17 657.103 L
837.534 664.147 L
828.386 669.071 L
818.3 671.564 L
807.912 671.472 L
797.873 668.799 L
788.814 663.713 L
781.304 656.534 L
S
GR
GS
[0.75 0 0 0.75 610.9286 472.47495] CT
0 1 1 RC
10.0 ML
0.667 LW
N
0 -4 M
0 4 L
-4 0 M
4 0 L
-2.828 -2.828 M
2.828 2.828 L
-2.828 2.828 M
2.828 -2.828 L
S
GR
GS
[0.75 0 0 0.75 0 0.5] CT
0 1 1 RC
1 LJ
0.667 LW
N
810.488 631.668 M
810.201 631.746 L
810.418 631.542 L
S
GR
GS
[0.75 0 0 0.75 0 0.5] CT
0 1 1 RC
1 LJ
0.667 LW
N
814.571 629.3 M
810.201 631.746 L
S
GR
GS
[0.75 0 0 0.75 0 0.5] CT
0 1 1 RC
1 LJ
0.667 LW
N
782.403 655.433 M
789.913 662.612 L
798.972 667.698 L
809.011 670.371 L
819.4 670.463 L
829.485 667.969 L
838.633 663.046 L
846.269 656.001 L
851.914 647.28 L
855.212 637.428 L
855.957 627.066 L
854.101 616.844 L
849.761 607.405 L
843.211 599.341 L
834.86 593.16 L
825.235 589.25 L
814.94 587.856 L
804.622 589.066 L
794.929 592.805 L
786.47 598.836 L
779.777 606.782 L
775.27 616.142 L
773.233 626.33 L
773.793 636.703 L
776.915 646.612 L
782.403 655.433 L
S
GR
GS
[0.75 0 0 0.75 616.02159 477.56798] CT
0 1 1 RC
10.0 ML
0.667 LW
N
0 -4 M
0 4 L
-4 0 M
4 0 L
-2.828 -2.828 M
2.828 2.828 L
-2.828 2.828 M
2.828 -2.828 L
S
GR
GS
[0.75 0 0 0.75 0 0.5] CT
0 1 1 RC
1 LJ
6.667 LW
N
817.279 638.459 M
816.992 638.537 L
817.208 638.333 L
S
GR
GS
[0.75 0 0 0.75 0 0.5] CT
0 1 1 RC
1 LJ
6.667 LW
N
821.362 636.091 M
816.992 638.537 L
S
GR
GS
[0.75 0 0 0.75 0 0.5] CT
0 1 1 RC
1 LJ
6.667 LW
N
789.229 662.266 M
783.729 653.453 L
780.593 643.548 L
780.019 633.175 L
782.043 622.985 L
786.538 613.619 L
793.22 605.664 L
801.671 599.622 L
811.359 595.87 L
821.676 594.646 L
831.973 596.026 L
841.603 599.924 L
849.961 606.094 L
856.523 614.149 L
860.875 623.582 L
862.744 633.802 L
862.013 644.165 L
858.728 654.021 L
853.095 662.75 L
845.469 669.804 L
836.327 674.74 L
826.245 677.247 L
815.856 677.169 L
805.814 674.509 L
796.748 669.435 L
789.229 662.266 L
S
GR
GS
[0.75 0 0 0.75 647.5042 509.05104] CT
0 1 1 RC
10.0 ML
0.667 LW
N
0 -4 M
0 4 L
-4 0 M
4 0 L
-2.828 -2.828 M
2.828 2.828 L
-2.828 2.828 M
2.828 -2.828 L
S
GR
GS
[0.75 0 0 0.75 0 0.5] CT
0 1 1 RC
1 LJ
0.667 LW
N
859.256 680.436 M
858.969 680.514 L
859.185 680.31 L
S
GR
GS
[0.75 0 0 0.75 0 0.5] CT
0 1 1 RC
1 LJ
0.667 LW
N
863.339 678.068 M
858.969 680.514 L
S
GR
GS
[0.75 0 0 0.75 0 0.5] CT
0 1 1 RC
1 LJ
0.667 LW
N
831.129 704.149 M
838.627 711.34 L
847.677 716.441 L
857.712 719.13 L
868.101 719.239 L
878.19 716.761 L
887.346 711.852 L
894.994 704.821 L
900.652 696.108 L
903.966 686.262 L
904.728 675.901 L
902.888 665.676 L
898.564 656.23 L
892.026 648.156 L
883.686 641.961 L
874.068 638.035 L
863.775 636.625 L
853.455 637.818 L
843.755 641.541 L
835.287 647.559 L
828.581 655.494 L
824.059 664.847 L
822.005 675.031 L
822.548 685.406 L
825.654 695.319 L
831.129 704.149 L
S
GR
GS
[0.75 0 0 0.75 609.96886 546.53799] CT
0 1 1 RC
10.0 ML
0.667 LW
N
0 -4 M
0 4 L
-4 0 M
4 0 L
-2.828 -2.828 M
2.828 2.828 L
-2.828 2.828 M
2.828 -2.828 L
S
GR
GS
[0.75 0 0 0.75 0 0.5] CT
0 1 1 RC
1 LJ
0.667 LW
N
809.208 730.419 M
808.922 730.497 L
809.138 730.293 L
S
GR
GS
[0.75 0 0 0.75 0 0.5] CT
0 1 1 RC
1 LJ
0.667 LW
N
813.292 728.051 M
808.922 730.497 L
S
GR
GS
[0.75 0 0 0.75 0 0.5] CT
0 1 1 RC
1 LJ
0.667 LW
N
781.08 754.129 M
775.606 745.299 L
772.5 735.385 L
771.958 725.01 L
774.013 714.827 L
778.535 705.474 L
785.242 697.539 L
793.711 691.522 L
803.41 687.8 L
813.731 686.607 L
824.023 688.019 L
833.642 691.945 L
841.982 698.14 L
848.519 706.215 L
852.842 715.661 L
854.681 725.886 L
853.919 736.247 L
850.604 746.093 L
844.945 754.806 L
837.297 761.837 L
828.14 766.745 L
818.051 769.222 L
807.662 769.112 L
797.628 766.422 L
788.577 761.321 L
781.08 754.129 L
S
GR
GS
[0.75 0 0 0.75 573.39304 546.53973] CT
0 1 1 RC
10.0 ML
0.667 LW
N
0 -4 M
0 4 L
-4 0 M
4 0 L
-2.828 -2.828 M
2.828 2.828 L
-2.828 2.828 M
2.828 -2.828 L
S
GR
GS
[0.75 0 0 0.75 0 0.5] CT
0 1 1 RC
1 LJ
0.667 LW
N
760.441 730.421 M
760.154 730.499 L
760.37 730.295 L
S
GR
GS
[0.75 0 0 0.75 0 0.5] CT
0 1 1 RC
1 LJ
0.667 LW
N
764.524 728.053 M
760.154 730.499 L
S
GR
GS
[0.75 0 0 0.75 0 0.5] CT
0 1 1 RC
1 LJ
0.667 LW
N
732.31 754.13 M
726.837 745.299 L
723.732 735.385 L
723.19 725.01 L
725.246 714.826 L
729.769 705.474 L
736.476 697.54 L
744.945 691.523 L
754.645 687.802 L
764.966 686.61 L
775.258 688.022 L
784.876 691.949 L
793.216 698.144 L
799.752 706.219 L
804.075 715.666 L
805.913 725.891 L
805.15 736.252 L
801.835 746.098 L
796.175 754.81 L
788.527 761.841 L
779.37 766.748 L
769.28 769.225 L
758.892 769.114 L
748.857 766.423 L
739.807 761.322 L
732.31 754.13 L
S
GR
GS
[0.75 0 0 0.75 572.56874 546.54065] CT
0 1 1 RC
10.0 ML
0.667 LW
N
0 -4 M
0 4 L
-4 0 M
4 0 L
-2.828 -2.828 M
2.828 2.828 L
-2.828 2.828 M
2.828 -2.828 L
S
GR
GS
[0.75 0 0 0.75 0 0.5] CT
0 1 1 RC
1 LJ
0.667 LW
N
759.342 730.422 M
759.055 730.5 L
759.271 730.296 L
S
GR
GS
[0.75 0 0 0.75 0 0.5] CT
0 1 1 RC
1 LJ
0.667 LW
N
763.425 728.054 M
759.055 730.5 L
S
GR
GS
[0.75 0 0 0.75 0 0.5] CT
0 1 1 RC
1 LJ
0.667 LW
N
731.188 754.102 M
725.723 745.266 L
722.627 735.349 L
722.094 724.974 L
724.159 714.792 L
728.69 705.444 L
735.405 697.516 L
743.879 691.507 L
753.582 687.794 L
763.904 686.611 L
774.195 688.033 L
783.81 691.968 L
792.144 698.172 L
798.673 706.252 L
802.987 715.703 L
804.816 725.93 L
804.044 736.29 L
800.72 746.133 L
795.052 754.84 L
787.397 761.864 L
778.236 766.763 L
768.144 769.23 L
757.756 769.11 L
747.724 766.41 L
738.678 761.301 L
731.188 754.102 L
S
GR
GS
[0.75 0 0 0.75 573.39386 546.27277] CT
0 1 1 RC
10.0 ML
0.667 LW
N
0 -4 M
0 4 L
-4 0 M
4 0 L
-2.828 -2.828 M
2.828 2.828 L
-2.828 2.828 M
2.828 -2.828 L
S
GR
GS
[0.75 0 0 0.75 0 0.5] CT
0 1 1 RC
1 LJ
0.667 LW
N
760.442 730.065 M
760.155 730.143 L
760.371 729.939 L
S
GR
GS
[0.75 0 0 0.75 0 0.5] CT
0 1 1 RC
1 LJ
0.667 LW
N
764.525 727.697 M
760.155 730.143 L
S
GR
GS
[0.75 0 0 0.75 0 0.5] CT
0 1 1 RC
1 LJ
0.667 LW
N
732.298 753.757 M
739.791 760.953 L
748.839 766.059 L
758.872 768.755 L
769.26 768.871 L
779.351 766.4 L
788.51 761.497 L
796.163 754.47 L
801.827 745.761 L
805.147 735.917 L
805.915 725.556 L
804.083 715.33 L
799.764 705.881 L
793.232 697.803 L
784.896 691.603 L
775.28 687.671 L
764.988 686.254 L
754.667 687.441 L
744.965 691.157 L
736.493 697.17 L
729.781 705.1 L
725.253 714.451 L
723.193 724.633 L
723.73 735.008 L
726.83 744.924 L
732.298 753.757 L
S
GR
GS
[0.75 0 0 0.75 609.96945 471.46718] CT
0 1 1 RC
10.0 ML
0.667 LW
N
0 -4 M
0 4 L
-4 0 M
4 0 L
-2.828 -2.828 M
2.828 2.828 L
-2.828 2.828 M
2.828 -2.828 L
S
GR
GS
[0.75 0 0 0.75 0 0.5] CT
0 1 1 RC
1 LJ
0.667 LW
N
809.209 630.324 M
808.922 630.402 L
809.139 630.198 L
S
GR
GS
[0.75 0 0 0.75 0 0.5] CT
0 1 1 RC
1 LJ
0.667 LW
N
813.293 627.956 M
808.922 630.402 L
S
GR
GS
[0.75 0 0 0.75 0 0.5] CT
0 1 1 RC
1 LJ
0.667 LW
N
781.276 654.275 M
788.827 661.41 L
797.915 666.443 L
807.969 669.058 L
818.358 669.091 L
828.429 666.539 L
837.549 661.562 L
845.144 654.474 L
850.738 645.72 L
853.979 635.85 L
854.664 625.483 L
852.749 615.272 L
848.355 605.858 L
841.758 597.833 L
833.373 591.7 L
823.725 587.845 L
813.422 586.511 L
803.111 587.781 L
793.44 591.575 L
785.016 597.655 L
778.369 605.639 L
773.916 615.026 L
771.937 625.224 L
772.557 635.595 L
775.737 645.485 L
781.276 654.275 L
S
GR
GS
[0.75 0 0 0.75 610.79434 472.2917] CT
0 1 1 RC
10.0 ML
0.667 LW
N
0 -4 M
0 4 L
-4 0 M
4 0 L
-2.828 -2.828 M
2.828 2.828 L
-2.828 2.828 M
2.828 -2.828 L
S
GR
GS
[0.75 0 0 0.75 0 0.5] CT
0 1 1 RC
1 LJ
0.667 LW
N
810.309 631.424 M
810.022 631.502 L
810.239 631.298 L
S
GR
GS
[0.75 0 0 0.75 0 0.5] CT
0 1 1 RC
1 LJ
0.667 LW
N
814.392 629.056 M
810.022 631.502 L
S
GR
GS
[0.75 0 0 0.75 0 0.5] CT
0 1 1 RC
1 LJ
0.667 LW
N
782.057 654.981 M
789.52 662.208 L
798.546 667.352 L
808.568 670.09 L
818.956 670.249 L
829.057 667.82 L
838.237 662.955 L
845.918 655.961 L
851.618 647.275 L
854.98 637.445 L
855.791 627.088 L
854.001 616.854 L
849.722 607.387 L
843.224 599.282 L
834.913 593.047 L
825.314 589.075 L
815.028 587.615 L
804.702 588.759 L
794.985 592.435 L
786.488 598.412 L
779.743 606.314 L
775.176 615.645 L
773.073 625.819 L
773.567 636.197 L
776.625 646.125 L
782.057 654.981 L
S
GR
GS
[0.75 0 0 0.75 647.37259 508.87064] CT
0 1 1 RC
10.0 ML
0.667 LW
N
0 -4 M
0 4 L
-4 0 M
4 0 L
-2.828 -2.828 M
2.828 2.828 L
-2.828 2.828 M
2.828 -2.828 L
S
GR
GS
[0.75 0 0 0.75 0 0.5] CT
0 1 1 RC
1 LJ
0.667 LW
N
859.08 680.196 M
858.793 680.273 L
859.01 680.07 L
S
GR
GS
[0.75 0 0 0.75 0 0.5] CT
0 1 1 RC
1 LJ
0.667 LW
N
863.163 677.828 M
858.793 680.273 L
S
GR
GS
[0.75 0 0 0.75 0 0.5] CT
0 1 1 RC
1 LJ
0.667 LW
N
830.959 703.916 M
838.459 711.105 L
847.511 716.204 L
857.547 718.891 L
867.935 718.997 L
878.024 716.517 L
887.179 711.606 L
894.825 704.573 L
900.481 695.859 L
903.793 686.012 L
904.552 675.651 L
902.71 665.426 L
898.384 655.981 L
891.844 647.908 L
883.502 641.716 L
873.883 637.792 L
863.59 636.384 L
853.27 637.58 L
843.571 641.305 L
835.104 647.325 L
828.4 655.261 L
823.88 664.616 L
821.829 674.8 L
822.374 685.175 L
825.483 695.088 L
830.959 703.916 L
S
GR
GS
[0.75 0 0 0.75 610.10431 546.40652] CT
0 1 1 RC
10.0 ML
0.667 LW
N
0 -4 M
0 4 L
-4 0 M
4 0 L
-2.828 -2.828 M
2.828 2.828 L
-2.828 2.828 M
2.828 -2.828 L
S
GR
GS
[0.75 0 0 0.75 0 0.5] CT
0 1 1 RC
1 LJ
0.667 LW
N
809.389 730.243 M
809.102 730.321 L
809.319 730.118 L
S
GR
GS
[0.75 0 0 0.75 0 0.5] CT
0 1 1 RC
1 LJ
0.667 LW
N
813.472 727.875 M
809.102 730.321 L
S
GR
GS
[0.75 0 0 0.75 0 0.5] CT
0 1 1 RC
1 LJ
0.667 LW
N
781.228 753.915 M
788.717 761.116 L
797.761 766.228 L
807.793 768.93 L
818.181 769.053 L
828.273 766.588 L
837.436 761.691 L
845.093 754.669 L
850.762 745.964 L
854.089 736.122 L
854.864 725.762 L
853.038 715.534 L
848.726 706.083 L
842.199 698 L
833.866 691.795 L
824.253 687.856 L
813.962 686.433 L
803.64 687.613 L
793.936 691.323 L
785.46 697.33 L
778.743 705.256 L
774.209 714.603 L
772.142 724.785 L
772.672 735.16 L
775.766 745.078 L
781.228 753.915 L
S
GR
GS
[0.75 0 0 0.75 578.62047 546.40396] CT
0 1 1 RC
10.0 ML
0.667 LW
N
0 -4 M
0 4 L
-4 0 M
4 0 L
-2.828 -2.828 M
2.828 2.828 L
-2.828 2.828 M
2.828 -2.828 L
S
GR
GS
[0.75 0 0 0.75 0 0.5] CT
0 1 1 RC
1 LJ
0.667 LW
N
767.411 730.24 M
767.124 730.318 L
767.34 730.114 L
S
GR
GS
[0.75 0 0 0.75 0 0.5] CT
0 1 1 RC
1 LJ
0.667 LW
N
771.494 727.872 M
767.124 730.318 L
S
GR
GS
[0.75 0 0 0.75 0 0.5] CT
0 1 1 RC
1 LJ
0.667 LW
N
739.111 753.738 M
746.561 760.979 L
755.577 766.139 L
765.594 768.895 L
775.981 769.074 L
786.087 766.663 L
795.275 761.816 L
802.97 754.835 L
808.686 746.16 L
812.066 736.336 L
812.896 725.98 L
811.125 715.744 L
806.864 706.269 L
800.38 698.151 L
792.081 691.901 L
782.489 687.912 L
772.206 686.433 L
761.878 687.557 L
752.154 691.215 L
743.646 697.177 L
736.887 705.067 L
732.303 714.389 L
730.181 724.559 L
730.655 734.938 L
733.695 744.872 L
739.111 753.738 L
S
GR
GS
[0.75 0 0 0.75 610.10417 473.25237] CT
0 1 1 RC
10.0 ML
0.667 LW
N
0 -4 M
0 4 L
-4 0 M
4 0 L
-2.828 -2.828 M
2.828 2.828 L
-2.828 2.828 M
2.828 -2.828 L
S
GR
GS
[0.75 0 0 0.75 0 0.5] CT
0 1 1 RC
1 LJ
0.667 LW
N
809.389 632.705 M
809.102 632.782 L
809.318 632.579 L
S
GR
GS
[0.75 0 0 0.75 0 0.5] CT
0 1 1 RC
1 LJ
0.667 LW
N
813.472 630.336 M
809.102 632.782 L
S
GR
GS
[0.75 0 0 0.75 0 0.5] CT
0 1 1 RC
1 LJ
0.667 LW
N
781.007 656.099 M
775.62 647.216 L
772.611 637.273 L
772.17 626.893 L
774.324 616.73 L
778.938 607.421 L
785.722 599.553 L
794.249 593.619 L
803.984 589.992 L
814.316 588.9 L
824.594 590.411 L
834.174 594.431 L
842.453 600.708 L
848.911 608.846 L
853.142 618.334 L
854.88 628.576 L
854.017 638.93 L
850.606 648.743 L
844.862 657.399 L
837.146 664.355 L
827.942 669.174 L
817.829 671.552 L
807.442 671.341 L
797.434 668.553 L
788.434 663.364 L
781.007 656.099 L
S
GR
GS
[0.75 0 0 0.75 646.67926 509.82704] CT
0 1 1 RC
10.0 ML
0.667 LW
N
0 -4 M
0 4 L
-4 0 M
4 0 L
-2.828 -2.828 M
2.828 2.828 L
-2.828 2.828 M
2.828 -2.828 L
S
GR
GS
[0.75 0 0 0.75 0 0.5] CT
0 1 1 RC
1 LJ
0.667 LW
N
858.156 681.471 M
857.869 681.549 L
858.085 681.345 L
S
GR
GS
[0.75 0 0 0.75 0 0.5] CT
0 1 1 RC
1 LJ
0.667 LW
N
862.239 679.103 M
857.869 681.549 L
S
GR
GS
[0.75 0 0 0.75 0 0.5] CT
0 1 1 RC
1 LJ
0.667 LW
N
829.71 704.785 M
824.345 695.889 L
821.361 685.938 L
820.945 675.557 L
823.125 665.399 L
827.761 656.102 L
834.564 648.251 L
843.106 642.338 L
852.851 638.735 L
863.185 637.668 L
873.459 639.205 L
883.029 643.249 L
891.292 649.546 L
897.73 657.699 L
901.938 667.198 L
903.651 677.445 L
902.763 687.796 L
899.328 697.601 L
893.562 706.243 L
885.829 713.18 L
876.613 717.976 L
866.494 720.329 L
856.107 720.092 L
846.107 717.28 L
837.119 712.068 L
829.71 704.785 L
S
GR
GS
[0.75 0 0 0.75 573.52734 546.40666] CT
0 1 1 RC
10.0 ML
0.667 LW
N
0 -4 M
0 4 L
-4 0 M
4 0 L
-2.828 -2.828 M
2.828 2.828 L
-2.828 2.828 M
2.828 -2.828 L
S
GR
GS
[0.75 0 0 0.75 0 0.5] CT
0 1 1 RC
1 LJ
0.667 LW
N
760.62 730.244 M
760.333 730.322 L
760.549 730.118 L
S
GR
GS
[0.75 0 0 0.75 0 0.5] CT
0 1 1 RC
1 LJ
0.667 LW
N
764.703 727.876 M
760.333 730.322 L
S
GR
GS
[0.75 0 0 0.75 0 0.5] CT
0 1 1 RC
1 LJ
0.667 LW
N
732.484 753.946 M
727.013 745.114 L
723.91 735.199 L
723.37 724.824 L
725.427 714.641 L
729.953 705.289 L
736.661 697.357 L
745.132 691.342 L
754.832 687.623 L
765.153 686.432 L
775.445 687.846 L
785.063 691.775 L
793.401 697.973 L
799.936 706.049 L
804.257 715.497 L
806.093 725.722 L
805.328 736.083 L
802.01 745.928 L
796.349 754.639 L
788.699 761.668 L
779.541 766.574 L
769.451 769.048 L
759.063 768.935 L
749.029 766.243 L
739.98 761.139 L
732.484 753.946 L
S
GR
GS
[0.75 0 0 0.75 610.92888 472.42706] CT
0 1 1 RC
10.0 ML
6.667 LW
N
0 -4 M
0 4 L
-4 0 M
4 0 L
-2.828 -2.828 M
2.828 2.828 L
-2.828 2.828 M
2.828 -2.828 L
S
GR
GS
[0.75 0 0 0.75 0 0.5] CT
0 1 1 RC
1 LJ
0.667 LW
N
810.489 631.604 M
810.202 631.682 L
810.418 631.478 L
S
GR
GS
[0.75 0 0 0.75 0 0.5] CT
0 1 1 RC
1 LJ
0.667 LW
N
814.572 629.236 M
810.202 631.682 L
S
GR
GS
[0.75 0 0 0.75 0 0.5] CT
0 1 1 RC
1 LJ
6.667 LW
N
782.253 655.183 M
789.721 662.405 L
798.751 667.543 L
808.775 670.274 L
819.162 670.427 L
829.262 667.991 L
838.438 663.12 L
846.115 656.12 L
851.81 647.431 L
855.165 637.599 L
855.969 627.241 L
854.172 617.008 L
849.887 607.544 L
843.383 599.443 L
835.069 593.214 L
825.467 589.248 L
815.18 587.795 L
804.855 588.946 L
795.14 592.628 L
786.647 598.611 L
779.908 606.517 L
775.347 615.852 L
773.251 626.027 L
773.751 636.404 L
776.816 646.331 L
782.253 655.183 L
S
GR
GS
[0.75 0 0 0.75 616.02164 540.48265] CT
0 1 1 RC
10.0 ML
0.667 LW
N
0 -4 M
0 4 L
-4 0 M
4 0 L
-2.828 -2.828 M
2.828 2.828 L
-2.828 2.828 M
2.828 -2.828 L
S
GR
GS
[0.75 0 0 0.75 0 0.5] CT
0 1 1 RC
1 LJ
6.667 LW
N
817.279 722.345 M
816.992 722.423 L
817.208 722.219 L
S
GR
GS
[0.75 0 0 0.75 0 0.5] CT
0 1 1 RC
1 LJ
6.667 LW
N
821.362 719.977 M
816.992 722.423 L
S
GR
GS
[0.75 0 0 0.75 0 0.5] CT
0 1 1 RC
1 LJ
6.667 LW
N
788.766 745.574 M
783.424 736.664 L
780.466 726.705 L
780.078 716.323 L
782.284 706.171 L
786.945 696.886 L
793.769 689.052 L
802.326 683.162 L
812.08 679.584 L
822.417 678.545 L
832.687 680.109 L
842.246 684.178 L
850.493 690.496 L
856.909 698.667 L
861.092 708.176 L
862.779 718.428 L
861.863 728.776 L
858.402 738.572 L
852.614 747.199 L
844.862 754.116 L
835.634 758.888 L
825.509 761.214 L
815.123 760.95 L
805.13 758.111 L
796.156 752.876 L
788.766 745.574 L
S
GR
GS
[0.75 0 0 0.75 647.5042 509.00215] CT
0 1 1 RC
10.0 ML
0.667 LW
N
0 -4 M
0 4 L
-4 0 M
4 0 L
-2.828 -2.828 M
2.828 2.828 L
-2.828 2.828 M
2.828 -2.828 L
S
GR
GS
[0.75 0 0 0.75 0 0.5] CT
0 1 1 RC
1 LJ
6.667 LW
N
859.256 680.371 M
858.969 680.449 L
859.185 680.245 L
S
GR
GS
[0.75 0 0 0.75 0 0.5] CT
0 1 1 RC
1 LJ
6.667 LW
N
863.339 678.003 M
858.969 680.449 L
S
GR
GS
[0.75 0 0 0.75 0 0.5] CT
0 1 1 RC
1 LJ
6.667 LW
N
831.127 704.082 M
825.653 695.252 L
822.548 685.338 L
822.005 674.963 L
824.06 664.779 L
828.582 655.426 L
835.289 647.492 L
843.758 641.475 L
853.457 637.753 L
863.778 636.56 L
874.07 637.971 L
883.689 641.897 L
892.028 648.092 L
898.566 656.167 L
902.889 665.613 L
904.728 675.838 L
903.966 686.199 L
900.651 696.045 L
894.992 704.758 L
887.344 711.789 L
878.187 716.697 L
868.098 719.174 L
857.71 719.064 L
847.675 716.374 L
838.624 711.273 L
831.127 704.082 L
S
GR
GS
[0.75 0 0 0.75 609.94698 546.58684] CT
0 1 1 RC
10.0 ML
0.667 LW
N
0 -4 M
0 4 L
-4 0 M
4 0 L
-2.828 -2.828 M
2.828 2.828 L
-2.828 2.828 M
2.828 -2.828 L
S
GR
GS
[0.75 0 0 0.75 0 0.5] CT
0 1 1 RC
1 LJ
0.667 LW
N
809.179 730.484 M
808.892 730.562 L
809.109 730.358 L
S
GR
GS
[0.75 0 0 0.75 0 0.5] CT
0 1 1 RC
1 LJ
0.667 LW
N
813.263 728.116 M
808.892 730.562 L
S
GR
GS
[0.75 0 0 0.75 0 0.5] CT
0 1 1 RC
1 LJ
0.667 LW
N
781.052 754.196 M
788.549 761.387 L
797.6 766.488 L
807.635 769.177 L
818.023 769.287 L
828.113 766.81 L
837.269 761.901 L
844.917 754.869 L
850.576 746.157 L
853.89 736.311 L
854.652 725.95 L
852.813 715.725 L
848.488 706.278 L
841.951 698.204 L
833.611 692.009 L
823.992 688.083 L
813.7 686.673 L
803.379 687.866 L
793.68 691.588 L
785.211 697.606 L
778.505 705.541 L
773.983 714.894 L
771.929 725.078 L
772.472 735.452 L
775.578 745.366 L
781.052 754.196 L
S
GR
GS
[0.75 0 0 0.75 609.94565 483.6219] CT
0 1 1 RC
10.0 ML
0.667 LW
N
0 -4 M
0 4 L
-4 0 M
4 0 L
-2.828 -2.828 M
2.828 2.828 L
-2.828 2.828 M
2.828 -2.828 L
S
GR
GS
[0.75 0 0 0.75 0 0.5] CT
0 1 1 RC
1 LJ
6.667 LW
N
809.177 646.53 M
808.891 646.608 L
809.107 646.405 L
S
GR
GS
[0.75 0 0 0.75 0 0.5] CT
0 1 1 RC
1 LJ
6.667 LW
N
813.261 644.163 M
808.891 646.608 L
S
GR
GS
[0.75 0 0 0.75 0 0.5] CT
0 1 1 RC
1 LJ
6.667 LW
N
781.195 670.421 M
788.733 677.57 L
797.811 682.621 L
807.861 685.255 L
818.25 685.307 L
828.325 682.773 L
837.454 677.814 L
845.063 670.74 L
850.673 661.996 L
853.933 652.132 L
854.637 641.767 L
852.741 631.552 L
848.365 622.13 L
841.783 614.092 L
833.409 607.944 L
823.768 604.071 L
813.468 602.718 L
803.155 603.968 L
793.476 607.744 L
785.041 613.809 L
778.379 621.78 L
773.908 631.158 L
771.911 641.353 L
772.511 651.725 L
775.672 661.621 L
781.195 670.421 L
S
GR
GS
[0.75 0 0 0.75 578.46593 546.58693] CT
0 1 1 RC
10.0 ML
0.667 LW
N
0 -4 M
0 4 L
-4 0 M
4 0 L
-2.828 -2.828 M
2.828 2.828 L
-2.828 2.828 M
2.828 -2.828 L
S
GR
GS
[0.75 0 0 0.75 0 0.5] CT
0 1 1 RC
1 LJ
0.667 LW
N
767.205 730.484 M
766.918 730.562 L
767.134 730.358 L
S
GR
GS
[0.75 0 0 0.75 0 0.5] CT
0 1 1 RC
1 LJ
0.667 LW
N
771.288 728.116 M
766.918 730.562 L
S
GR
GS
[0.75 0 0 0.75 0 0.5] CT
0 1 1 RC
1 LJ
0.667 LW
N
738.865 753.932 M
733.463 745.058 L
730.438 735.119 L
729.98 724.74 L
732.117 714.573 L
736.716 705.258 L
743.487 697.378 L
752.004 691.43 L
761.733 687.787 L
772.063 686.678 L
782.344 688.172 L
791.93 692.177 L
800.219 698.439 L
806.691 706.567 L
810.938 716.048 L
812.693 726.288 L
811.847 736.642 L
808.452 746.461 L
802.722 755.127 L
795.018 762.096 L
785.822 766.93 L
775.712 769.325 L
765.325 769.13 L
755.313 766.359 L
746.304 761.184 L
738.865 753.932 L
S
GR
GS
[0.75 0 0 0.75 573.3718 546.58839] CT
0 1 1 RC
10.0 ML
0.667 LW
N
0 -4 M
0 4 L
-4 0 M
4 0 L
-2.828 -2.828 M
2.828 2.828 L
-2.828 2.828 M
2.828 -2.828 L
S
GR
GS
[0.75 0 0 0.75 0 0.5] CT
0 1 1 RC
1 LJ
0.667 LW
N
760.412 730.486 M
760.126 730.564 L
760.342 730.36 L
S
GR
GS
[0.75 0 0 0.75 0 0.5] CT
0 1 1 RC
1 LJ
0.667 LW
N
764.496 728.118 M
760.126 730.564 L
S
GR
GS
[0.75 0 0 0.75 0 0.5] CT
0 1 1 RC
1 LJ
0.667 LW
N
732.154 754.036 M
726.725 745.179 L
723.668 735.25 L
723.178 724.872 L
725.283 714.699 L
729.852 705.368 L
736.598 697.468 L
745.097 691.493 L
754.815 687.819 L
765.141 686.677 L
775.426 688.14 L
785.025 692.114 L
793.334 698.351 L
799.831 706.457 L
804.107 715.925 L
805.895 726.159 L
805.081 736.516 L
801.718 746.346 L
796.015 755.03 L
788.332 762.023 L
779.151 766.886 L
769.05 769.312 L
758.662 769.151 L
748.641 766.411 L
739.616 761.265 L
732.154 754.036 L
S
GR
GS
[0.75 0 0 0.75 609.12231 546.58684] CT
0 1 1 RC
10.0 ML
0.667 LW
N
0 -4 M
0 4 L
-4 0 M
4 0 L
-2.828 -2.828 M
2.828 2.828 L
-2.828 2.828 M
2.828 -2.828 L
S
GR
GS
[0.75 0 0 0.75 0 0.5] CT
0 1 1 RC
1 LJ
0.667 LW
N
808.08 730.484 M
807.793 730.562 L
808.009 730.358 L
S
GR
GS
[0.75 0 0 0.75 0 0.5] CT
0 1 1 RC
1 LJ
0.667 LW
N
812.163 728.116 M
807.793 730.562 L
S
GR
GS
[0.75 0 0 0.75 0 0.5] CT
0 1 1 RC
1 LJ
0.667 LW
N
779.811 754.02 M
787.269 761.252 L
796.292 766.402 L
806.312 769.146 L
816.7 769.312 L
826.802 766.89 L
835.985 762.031 L
843.671 755.041 L
849.377 746.36 L
852.745 736.532 L
853.563 726.175 L
851.78 715.94 L
847.507 706.47 L
841.014 698.361 L
832.708 692.121 L
823.11 688.142 L
812.826 686.676 L
802.499 687.813 L
792.78 691.482 L
784.278 697.454 L
777.529 705.352 L
772.956 714.68 L
770.846 724.853 L
771.333 735.23 L
774.385 745.161 L
779.811 754.02 L
S
GR
GS
[0.75 0 0 0.75 577.64163 546.58752] CT
0 1 1 RC
10.0 ML
0.667 LW
N
0 -4 M
0 4 L
-4 0 M
4 0 L
-2.828 -2.828 M
2.828 2.828 L
-2.828 2.828 M
2.828 -2.828 L
S
GR
GS
[0.75 0 0 0.75 0 0.5] CT
0 1 1 RC
1 LJ
0.667 LW
N
766.106 730.485 M
765.819 730.563 L
766.035 730.359 L
S
GR
GS
[0.75 0 0 0.75 0 0.5] CT
0 1 1 RC
1 LJ
0.667 LW
N
770.189 728.117 M
765.819 730.563 L
S
GR
GS
[0.75 0 0 0.75 0 0.5] CT
0 1 1 RC
1 LJ
0.667 LW
N
737.727 753.884 M
745.155 761.147 L
754.155 766.335 L
764.164 769.122 L
774.551 769.332 L
784.663 766.952 L
793.867 762.133 L
801.582 755.176 L
807.325 746.518 L
810.735 736.705 L
811.597 726.352 L
809.857 716.109 L
805.624 706.621 L
799.166 698.484 L
790.886 692.209 L
781.306 688.19 L
771.027 686.68 L
760.696 687.773 L
750.961 691.401 L
742.434 697.337 L
735.652 705.206 L
731.039 714.515 L
728.886 724.678 L
729.329 735.058 L
732.339 745.001 L
737.727 753.884 L
S
GR
GS
[0.75 0 0 0.75 604.02644 546.58601] CT
0 1 1 RC
10.0 ML
0.667 LW
N
0 -4 M
0 4 L
-4 0 M
4 0 L
-2.828 -2.828 M
2.828 2.828 L
-2.828 2.828 M
2.828 -2.828 L
S
GR
GS
[0.75 0 0 0.75 0 0.5] CT
0 1 1 RC
1 LJ
0.667 LW
N
801.285 730.483 M
800.998 730.561 L
801.215 730.357 L
S
GR
GS
[0.75 0 0 0.75 0 0.5] CT
0 1 1 RC
1 LJ
0.667 LW
N
805.369 728.115 M
800.998 730.561 L
S
GR
GS
[0.75 0 0 0.75 0 0.5] CT
0 1 1 RC
1 LJ
6.667 LW
N
772.845 753.804 M
767.478 744.909 L
764.492 734.958 L
764.074 724.577 L
766.251 714.419 L
770.886 705.121 L
777.688 697.268 L
786.229 691.353 L
795.972 687.748 L
806.306 686.68 L
816.581 688.215 L
826.151 692.257 L
834.416 698.552 L
840.855 706.704 L
845.065 716.202 L
846.781 726.449 L
845.894 736.8 L
842.461 746.605 L
836.697 755.249 L
828.965 762.187 L
819.75 766.985 L
809.632 769.34 L
799.245 769.105 L
789.244 766.295 L
780.255 761.085 L
772.845 753.804 L
S
GR
GS
[0.75 0 0 0.75 572.54727 546.58904] CT
0 1 1 RC
10.0 ML
0.667 LW
N
0 -4 M
0 4 L
-4 0 M
4 0 L
-2.828 -2.828 M
2.828 2.828 L
-2.828 2.828 M
2.828 -2.828 L
S
GR
GS
[0.75 0 0 0.75 0 0.5] CT
0 1 1 RC
1 LJ
0.667 LW
N
759.313 730.487 M
759.026 730.565 L
759.243 730.361 L
S
GR
GS
[0.75 0 0 0.75 0 0.5] CT
0 1 1 RC
1 LJ
0.667 LW
N
763.396 728.119 M
759.026 730.565 L
S
GR
GS
[0.75 0 0 0.75 0 0.5] CT
0 1 1 RC
1 LJ
0.667 LW
N
731.041 754.019 M
738.499 761.252 L
747.521 766.403 L
757.54 769.148 L
767.928 769.316 L
778.031 766.894 L
787.214 762.037 L
794.901 755.048 L
800.608 746.367 L
803.977 736.539 L
804.797 726.183 L
803.015 715.948 L
798.743 706.477 L
792.251 698.367 L
783.945 692.126 L
774.349 688.146 L
764.064 686.679 L
753.737 687.815 L
744.017 691.483 L
735.515 697.453 L
728.765 705.35 L
724.191 714.678 L
722.08 724.851 L
722.565 735.228 L
725.616 745.159 L
731.041 754.019 L
S
GR
GS
[0.75 0 0 0.75 609.81537 546.58926] CT
0 1 1 RC
10.0 ML
0.667 LW
N
0 -4 M
0 4 L
-4 0 M
4 0 L
-2.828 -2.828 M
2.828 2.828 L
-2.828 2.828 M
2.828 -2.828 L
S
GR
GS
[0.75 0 0 0.75 0 0.5] CT
0 1 1 RC
1 LJ
0.667 LW
N
809.004 730.487 M
808.717 730.565 L
808.933 730.361 L
S
GR
GS
[0.75 0 0 0.75 0 0.5] CT
0 1 1 RC
1 LJ
0.667 LW
N
813.087 728.119 M
808.717 730.565 L
S
GR
GS
[0.75 0 0 0.75 0 0.5] CT
0 1 1 RC
1 LJ
6.667 LW
N
780.889 754.215 M
788.39 761.402 L
797.443 766.499 L
807.479 769.183 L
817.868 769.288 L
827.956 766.806 L
837.11 761.892 L
844.754 754.857 L
850.409 746.142 L
853.718 736.294 L
854.475 725.933 L
852.631 715.709 L
848.302 706.264 L
841.761 698.193 L
833.418 692.003 L
823.797 688.081 L
813.504 686.676 L
803.184 687.874 L
793.487 691.601 L
785.021 697.623 L
778.319 705.561 L
773.801 714.916 L
771.752 725.101 L
772.3 735.475 L
775.411 745.388 L
780.889 754.215 L
S
GR
GS
[0.75 0 0 0.75 578.33167 546.58583] CT
0 1 1 RC
10.0 ML
0.667 LW
N
0 -4 M
0 4 L
-4 0 M
4 0 L
-2.828 -2.828 M
2.828 2.828 L
-2.828 2.828 M
2.828 -2.828 L
S
GR
GS
[0.75 0 0 0.75 0 0.5] CT
0 1 1 RC
1 LJ
0.667 LW
N
767.026 730.482 M
766.739 730.56 L
766.955 730.357 L
S
GR
GS
[0.75 0 0 0.75 0 0.5] CT
0 1 1 RC
1 LJ
0.667 LW
N
771.109 728.114 M
766.739 730.56 L
S
GR
GS
[0.75 0 0 0.75 0 0.5] CT
0 1 1 RC
1 LJ
6.667 LW
N
738.677 753.92 M
746.114 761.174 L
755.121 766.352 L
765.132 769.127 L
775.519 769.325 L
785.629 766.933 L
794.827 762.102 L
802.534 755.136 L
808.267 746.472 L
811.665 736.655 L
812.515 726.3 L
810.763 716.06 L
806.519 706.577 L
800.051 698.448 L
791.764 692.182 L
782.179 688.175 L
771.898 686.676 L
761.568 687.782 L
751.838 691.422 L
743.318 697.367 L
736.545 705.244 L
731.943 714.559 L
729.802 724.725 L
730.257 735.104 L
733.279 745.044 L
738.677 753.92 L
S
GR
GS
[0.75 0 0 0.75 573.2373 546.58698] CT
0 1 1 RC
10.0 ML
0.667 LW
N
0 -4 M
0 4 L
-4 0 M
4 0 L
-2.828 -2.828 M
2.828 2.828 L
-2.828 2.828 M
2.828 -2.828 L
S
GR
GS
[0.75 0 0 0.75 0 0.5] CT
0 1 1 RC
1 LJ
0.667 LW
N
760.233 730.484 M
759.946 730.562 L
760.163 730.358 L
S
GR
GS
[0.75 0 0 0.75 0 0.5] CT
0 1 1 RC
1 LJ
0.667 LW
N
764.316 728.116 M
759.946 730.562 L
S
GR
GS
[0.75 0 0 0.75 0 0.5] CT
0 1 1 RC
1 LJ
0.667 LW
N
731.958 754.014 M
739.415 761.247 L
748.437 766.399 L
758.456 769.145 L
768.844 769.313 L
778.947 766.893 L
788.131 762.036 L
795.819 755.048 L
801.527 746.368 L
804.897 736.541 L
805.717 726.184 L
803.936 715.949 L
799.665 706.478 L
793.174 698.367 L
784.869 692.125 L
775.272 688.145 L
764.988 686.676 L
754.661 687.811 L
744.941 691.478 L
736.438 697.448 L
729.687 705.344 L
725.112 714.672 L
723 724.844 L
723.485 735.222 L
726.534 745.153 L
731.958 754.014 L
S
GR
GS
[0.75 0 0 0.75 572.41241 546.58757] CT
0 1 1 RC
10.0 ML
0.667 LW
N
0 -4 M
0 4 L
-4 0 M
4 0 L
-2.828 -2.828 M
2.828 2.828 L
-2.828 2.828 M
2.828 -2.828 L
S
GR
GS
[0.75 0 0 0.75 0 0.5] CT
0 1 1 RC
1 LJ
6.667 LW
N
759.133 730.485 M
758.846 730.563 L
759.063 730.359 L
S
GR
GS
[0.75 0 0 0.75 0 0.5] CT
0 1 1 RC
1 LJ
6.667 LW
N
763.217 728.117 M
758.846 730.563 L
S
GR
GS
[0.75 0 0 0.75 0 0.5] CT
0 1 1 RC
1 LJ
6.667 LW
N
731.2 754.435 M
725.661 745.646 L
722.481 735.756 L
721.861 725.385 L
723.84 715.186 L
728.292 705.8 L
734.94 697.816 L
743.363 691.736 L
753.035 687.941 L
763.346 686.671 L
773.649 688.006 L
783.296 691.86 L
791.682 697.993 L
798.279 706.018 L
802.673 715.432 L
804.588 725.643 L
803.904 736.01 L
800.662 745.88 L
795.068 754.635 L
787.473 761.723 L
778.353 766.699 L
768.283 769.252 L
757.894 769.219 L
747.839 766.604 L
738.751 761.571 L
731.2 754.435 L
S
GR
GS
[0.75 0 0 0.75 0 0.5] CT
1 GC
N
/f-360605026{1449 172 M
1449 84 L
1249 84 L
1249 172 L
cp}def
f-360605026
f
GR
GS
[0.75 0 0 0.75 972 76.92373] CT
/Helvetica-Bold 26.667 F
GS
[1 0 0 1 0 0] CT
0 9 moveto 
1 -1 scale
(LandMark) t 
GR
GR
GS
[0.75 0 0 0.75 954.75 76.92373] CT
1 0 0 RC
N
/f935408997{0 -17.773 M
-15.392 8.887 L
15.392 8.887 L
cp}def
f935408997
f
GR
GS
[0.75 0 0 0.75 954.75 76.92373] CT
0 0 1 RC
10.0 ML
0.667 LW
N
0 -17.773 M
-15.392 8.887 L
15.392 8.887 L
cp
S
GR
GS
[0.75 0 0 0.75 972 113.75] CT
/Helvetica-Bold 26.667 F
GS
[1 0 0 1 0 0] CT
0 0 moveto 
1 -1 scale
(b) t 
GR
GR
GS
[0.75 0 0 0.75 987 104] CT
/Helvetica-Bold 21.333 F
GS
[1 0 0 1 0 0] CT
0 0 moveto 
1 -1 scale
(-) t 
GR
GR
GS
[0.75 0 0 0.75 993.75 113.75] CT
/Helvetica-Bold 26.667 F
GS
[1 0 0 1 0 0] CT
0 0 moveto 
1 -1 scale
([X) t 
GR
GR
GS
[0.75 0 0 0.75 1018.5 123.5] CT
/Helvetica-Bold 21.333 F
GS
[1 0 0 1 0 0] CT
0 0 moveto 
1 -1 scale
(k) t 
GR
GR
GS
[0.75 0 0 0.75 1029.75 113.75] CT
/Helvetica-Bold 26.667 F
GS
[1 0 0 1 0 0] CT
0 0 moveto 
1 -1 scale
(]) t 
GR
GR
GS
[0.75 0 0 0.75 0 0.5] CT
0 1 1 RC
1 LJ
6.667 LW
N
1253 144.158 M
1293 144.158 L
S
GR
GS
[0.75 0 0 0.75 0 0.5] CT
0.149 GC
10.0 ML
0.667 LW
N
1249 172 M
1249 84 L
1449 84 L
1449 172 L
cp
S
GR
%%Trailer
%%Pages: 1
%%EOF
