%!PS-Adobe-3.0 EPSF-3.0
%%Creator: (MATLAB, The Mathworks, Inc. Version 9.8.0.1380330 \(R2020a\) Update 2. Operating System: Linux)
%%Title: (/home/ohads/ANPL/papers/research/2021 RAL/Figures/TestCase_1/fig_files/Robots_estimation_k_0.eps)
%%CreationDate: 2021-02-21T16:00:22
%%Pages: (atend)
%%BoundingBox:   296    18  1145   692
%%LanguageLevel: 3
%%EndComments
%%BeginProlog
%%BeginResource: procset (Apache XML Graphics Std ProcSet) 1.2 0
%%Version: 1.2 0
%%Copyright: (Copyright 2001-2003,2010 The Apache Software Foundation. License terms: http://www.apache.org/licenses/LICENSE-2.0)
/bd{bind def}bind def
/ld{load def}bd
/GR/grestore ld
/GS/gsave ld
/RM/rmoveto ld
/C/curveto ld
/t/show ld
/L/lineto ld
/ML/setmiterlimit ld
/CT/concat ld
/f/fill ld
/N/newpath ld
/S/stroke ld
/CC/setcmykcolor ld
/A/ashow ld
/cp/closepath ld
/RC/setrgbcolor ld
/LJ/setlinejoin ld
/GC/setgray ld
/LW/setlinewidth ld
/M/moveto ld
/re {4 2 roll M
1 index 0 rlineto
0 exch rlineto
neg 0 rlineto
cp } bd
/_ctm matrix def
/_tm matrix def
/BT { _ctm currentmatrix pop matrix _tm copy pop 0 0 moveto } bd
/ET { _ctm setmatrix } bd
/iTm { _ctm setmatrix _tm concat } bd
/Tm { _tm astore pop iTm 0 0 moveto } bd
/ux 0.0 def
/uy 0.0 def
/F {
  /Tp exch def
  /Tf exch def
  Tf findfont Tp scalefont setfont
  /cf Tf def  /cs Tp def
} bd
/ULS {currentpoint /uy exch def /ux exch def} bd
/ULE {
  /Tcx currentpoint pop def
  gsave
  newpath
  cf findfont cs scalefont dup
  /FontMatrix get 0 get /Ts exch def /FontInfo get dup
  /UnderlinePosition get Ts mul /To exch def
  /UnderlineThickness get Ts mul /Tt exch def
  ux uy To add moveto  Tcx uy To add lineto
  Tt setlinewidth stroke
  grestore
} bd
/OLE {
  /Tcx currentpoint pop def
  gsave
  newpath
  cf findfont cs scalefont dup
  /FontMatrix get 0 get /Ts exch def /FontInfo get dup
  /UnderlinePosition get Ts mul /To exch def
  /UnderlineThickness get Ts mul /Tt exch def
  ux uy To add cs add moveto Tcx uy To add cs add lineto
  Tt setlinewidth stroke
  grestore
} bd
/SOE {
  /Tcx currentpoint pop def
  gsave
  newpath
  cf findfont cs scalefont dup
  /FontMatrix get 0 get /Ts exch def /FontInfo get dup
  /UnderlinePosition get Ts mul /To exch def
  /UnderlineThickness get Ts mul /Tt exch def
  ux uy To add cs 10 mul 26 idiv add moveto Tcx uy To add cs 10 mul 26 idiv add lineto
  Tt setlinewidth stroke
  grestore
} bd
/QT {
/Y22 exch store
/X22 exch store
/Y21 exch store
/X21 exch store
currentpoint
/Y21 load 2 mul add 3 div exch
/X21 load 2 mul add 3 div exch
/X21 load 2 mul /X22 load add 3 div
/Y21 load 2 mul /Y22 load add 3 div
/X22 load /Y22 load curveto
} bd
/SSPD {
dup length /d exch dict def
{
/v exch def
/k exch def
currentpagedevice k known {
/cpdv currentpagedevice k get def
v cpdv ne {
/upd false def
/nullv v type /nulltype eq def
/nullcpdv cpdv type /nulltype eq def
nullv nullcpdv or
{
/upd true def
} {
/sametype v type cpdv type eq def
sametype {
v type /arraytype eq {
/vlen v length def
/cpdvlen cpdv length def
vlen cpdvlen eq {
0 1 vlen 1 sub {
/i exch def
/obj v i get def
/cpdobj cpdv i get def
obj cpdobj ne {
/upd true def
exit
} if
} for
} {
/upd true def
} ifelse
} {
v type /dicttype eq {
v {
/dv exch def
/dk exch def
/cpddv cpdv dk get def
dv cpddv ne {
/upd true def
exit
} if
} forall
} {
/upd true def
} ifelse
} ifelse
} if
} ifelse
upd true eq {
d k v put
} if
} if
} if
} forall
d length 0 gt {
d setpagedevice
} if
} bd
/RE { % /NewFontName [NewEncodingArray] /FontName RE -
  findfont dup length dict begin
  {
    1 index /FID ne
    {def} {pop pop} ifelse
  } forall
  /Encoding exch def
  /FontName 1 index def
  currentdict definefont pop
  end
} bind def
%%EndResource
%%BeginResource: procset (Apache XML Graphics EPS ProcSet) 1.0 0
%%Version: 1.0 0
%%Copyright: (Copyright 2002-2003 The Apache Software Foundation. License terms: http://www.apache.org/licenses/LICENSE-2.0)
/BeginEPSF { %def
/b4_Inc_state save def         % Save state for cleanup
/dict_count countdictstack def % Count objects on dict stack
/op_count count 1 sub def      % Count objects on operand stack
userdict begin                 % Push userdict on dict stack
/showpage { } def              % Redefine showpage, { } = null proc
0 setgray 0 setlinecap         % Prepare graphics state
1 setlinewidth 0 setlinejoin
10 setmiterlimit [ ] 0 setdash newpath
/languagelevel where           % If level not equal to 1 then
{pop languagelevel             % set strokeadjust and
1 ne                           % overprint to their defaults.
{false setstrokeadjust false setoverprint
} if
} if
} bd
/EndEPSF { %def
count op_count sub {pop} repeat            % Clean up stacks
countdictstack dict_count sub {end} repeat
b4_Inc_state restore
} bd
%%EndResource
%FOPBeginFontDict
%%IncludeResource: font Courier-Oblique
%%IncludeResource: font Courier-BoldOblique
%%IncludeResource: font Courier-Bold
%%IncludeResource: font ZapfDingbats
%%IncludeResource: font Symbol
%%IncludeResource: font Helvetica
%%IncludeResource: font Helvetica-Oblique
%%IncludeResource: font Helvetica-Bold
%%IncludeResource: font Helvetica-BoldOblique
%%IncludeResource: font Times-Roman
%%IncludeResource: font Times-Italic
%%IncludeResource: font Times-Bold
%%IncludeResource: font Times-BoldItalic
%%IncludeResource: font Courier
%FOPEndFontDict
%%BeginResource: encoding WinAnsiEncoding
/WinAnsiEncoding [
/.notdef /.notdef /.notdef /.notdef /.notdef
/.notdef /.notdef /.notdef /.notdef /.notdef
/.notdef /.notdef /.notdef /.notdef /.notdef
/.notdef /.notdef /.notdef /.notdef /.notdef
/.notdef /.notdef /.notdef /.notdef /.notdef
/.notdef /.notdef /.notdef /.notdef /.notdef
/.notdef /.notdef /space /exclam /quotedbl
/numbersign /dollar /percent /ampersand /quotesingle
/parenleft /parenright /asterisk /plus /comma
/hyphen /period /slash /zero /one
/two /three /four /five /six
/seven /eight /nine /colon /semicolon
/less /equal /greater /question /at
/A /B /C /D /E
/F /G /H /I /J
/K /L /M /N /O
/P /Q /R /S /T
/U /V /W /X /Y
/Z /bracketleft /backslash /bracketright /asciicircum
/underscore /quoteleft /a /b /c
/d /e /f /g /h
/i /j /k /l /m
/n /o /p /q /r
/s /t /u /v /w
/x /y /z /braceleft /bar
/braceright /asciitilde /bullet /Euro /bullet
/quotesinglbase /florin /quotedblbase /ellipsis /dagger
/daggerdbl /circumflex /perthousand /Scaron /guilsinglleft
/OE /bullet /Zcaron /bullet /bullet
/quoteleft /quoteright /quotedblleft /quotedblright /bullet
/endash /emdash /asciitilde /trademark /scaron
/guilsinglright /oe /bullet /zcaron /Ydieresis
/space /exclamdown /cent /sterling /currency
/yen /brokenbar /section /dieresis /copyright
/ordfeminine /guillemotleft /logicalnot /sfthyphen /registered
/macron /degree /plusminus /twosuperior /threesuperior
/acute /mu /paragraph /middot /cedilla
/onesuperior /ordmasculine /guillemotright /onequarter /onehalf
/threequarters /questiondown /Agrave /Aacute /Acircumflex
/Atilde /Adieresis /Aring /AE /Ccedilla
/Egrave /Eacute /Ecircumflex /Edieresis /Igrave
/Iacute /Icircumflex /Idieresis /Eth /Ntilde
/Ograve /Oacute /Ocircumflex /Otilde /Odieresis
/multiply /Oslash /Ugrave /Uacute /Ucircumflex
/Udieresis /Yacute /Thorn /germandbls /agrave
/aacute /acircumflex /atilde /adieresis /aring
/ae /ccedilla /egrave /eacute /ecircumflex
/edieresis /igrave /iacute /icircumflex /idieresis
/eth /ntilde /ograve /oacute /ocircumflex
/otilde /odieresis /divide /oslash /ugrave
/uacute /ucircumflex /udieresis /yacute /thorn
/ydieresis
] def
%%EndResource
%FOPBeginFontReencode
/Courier-Oblique findfont
dup length dict begin
  {1 index /FID ne {def} {pop pop} ifelse} forall
  /Encoding WinAnsiEncoding def
  currentdict
end
/Courier-Oblique exch definefont pop
/Courier-BoldOblique findfont
dup length dict begin
  {1 index /FID ne {def} {pop pop} ifelse} forall
  /Encoding WinAnsiEncoding def
  currentdict
end
/Courier-BoldOblique exch definefont pop
/Courier-Bold findfont
dup length dict begin
  {1 index /FID ne {def} {pop pop} ifelse} forall
  /Encoding WinAnsiEncoding def
  currentdict
end
/Courier-Bold exch definefont pop
/Helvetica findfont
dup length dict begin
  {1 index /FID ne {def} {pop pop} ifelse} forall
  /Encoding WinAnsiEncoding def
  currentdict
end
/Helvetica exch definefont pop
/Helvetica-Oblique findfont
dup length dict begin
  {1 index /FID ne {def} {pop pop} ifelse} forall
  /Encoding WinAnsiEncoding def
  currentdict
end
/Helvetica-Oblique exch definefont pop
/Helvetica-Bold findfont
dup length dict begin
  {1 index /FID ne {def} {pop pop} ifelse} forall
  /Encoding WinAnsiEncoding def
  currentdict
end
/Helvetica-Bold exch definefont pop
/Helvetica-BoldOblique findfont
dup length dict begin
  {1 index /FID ne {def} {pop pop} ifelse} forall
  /Encoding WinAnsiEncoding def
  currentdict
end
/Helvetica-BoldOblique exch definefont pop
/Times-Roman findfont
dup length dict begin
  {1 index /FID ne {def} {pop pop} ifelse} forall
  /Encoding WinAnsiEncoding def
  currentdict
end
/Times-Roman exch definefont pop
/Times-Italic findfont
dup length dict begin
  {1 index /FID ne {def} {pop pop} ifelse} forall
  /Encoding WinAnsiEncoding def
  currentdict
end
/Times-Italic exch definefont pop
/Times-Bold findfont
dup length dict begin
  {1 index /FID ne {def} {pop pop} ifelse} forall
  /Encoding WinAnsiEncoding def
  currentdict
end
/Times-Bold exch definefont pop
/Times-BoldItalic findfont
dup length dict begin
  {1 index /FID ne {def} {pop pop} ifelse} forall
  /Encoding WinAnsiEncoding def
  currentdict
end
/Times-BoldItalic exch definefont pop
/Courier findfont
dup length dict begin
  {1 index /FID ne {def} {pop pop} ifelse} forall
  /Encoding WinAnsiEncoding def
  currentdict
end
/Courier exch definefont pop
%FOPEndFontReencode
%%EndProlog
%%Page: 1 1
%%PageBoundingBox: 0 0 1440 748
%%BeginPageSetup
[1 0 0 -1 0 748] CT
%%EndPageSetup
GS
[0.75 0 0 0.75 0 0.25] CT
N
0 0 M
1920 0 L
1920 997 L
0 997 L
0 0 L
cp
clip
1 GC
N
0 0 1920 997 re
f
GR
GS
[0.75 0 0 0.75 0 0.25] CT
1 GC
N
0 0 1920 997 re
f
GR
GS
[0.75 0 0 0.75 0 0.25] CT
1 GC
N
479.235 887 M
1508.765 887 L
1508.765 75 L
479.235 75 L
cp
f
GR
GS
[0.75 0 0 0.75 0 0.25] CT
0.149 GC
2 setlinecap
1 LJ
0.667 LW
N
479.235 887 M
1508.765 887 L
S
GR
GS
[0.75 0 0 0.75 0 0.25] CT
0.149 GC
2 setlinecap
1 LJ
0.667 LW
N
479.235 887 M
479.235 876.705 L
S
GR
GS
[0.75 0 0 0.75 0 0.25] CT
0.149 GC
2 setlinecap
1 LJ
0.667 LW
N
736.618 887 M
736.618 876.705 L
S
GR
GS
[0.75 0 0 0.75 0 0.25] CT
0.149 GC
2 setlinecap
1 LJ
0.667 LW
N
994 887 M
994 876.705 L
S
GR
GS
[0.75 0 0 0.75 0 0.25] CT
0.149 GC
2 setlinecap
1 LJ
0.667 LW
N
1251.382 887 M
1251.382 876.705 L
S
GR
GS
[0.75 0 0 0.75 0 0.25] CT
0.149 GC
2 setlinecap
1 LJ
0.667 LW
N
1508.765 887 M
1508.765 876.705 L
S
GR
GS
[0.75 0 0 0.75 359.42638 672.49998] CT
0.149 GC
/Helvetica 33.333 F
GS
[1 0 0 1 0 0] CT
-17 31 moveto 
1 -1 scale
(-5) t 
GR
GR
GS
[0.75 0 0 0.75 552.46321 672.49998] CT
0.149 GC
/Helvetica 33.333 F
GS
[1 0 0 1 0 0] CT
-11 31 moveto 
1 -1 scale
(0) t 
GR
GR
GS
[0.75 0 0 0.75 745.5 672.49998] CT
0.149 GC
/Helvetica 33.333 F
GS
[1 0 0 1 0 0] CT
-11 31 moveto 
1 -1 scale
(5) t 
GR
GR
GS
[0.75 0 0 0.75 938.53683 672.49998] CT
0.149 GC
/Helvetica 33.333 F
GS
[1 0 0 1 0 0] CT
-21.5 31 moveto 
1 -1 scale
(10) t 
GR
GR
GS
[0.75 0 0 0.75 1131.57358 672.49998] CT
0.149 GC
/Helvetica 33.333 F
GS
[1 0 0 1 0 0] CT
-21.5 31 moveto 
1 -1 scale
(15) t 
GR
GR
GS
[0.75 0 0 0.75 745.50037 702.75002] CT
0.149 GC
/Helvetica 36.667 F
GS
[1 0 0 1 0 0] CT
-22.5 35 moveto 
1 -1 scale
(Xs) t 
GR
GR
GS
[0.75 0 0 0.75 0 0.25] CT
0.149 GC
2 setlinecap
1 LJ
0.667 LW
N
479.235 887 M
479.235 75 L
S
GR
GS
[0.75 0 0 0.75 0 0.25] CT
0.149 GC
2 setlinecap
1 LJ
0.667 LW
N
479.235 877.4 M
489.53 877.4 L
S
GR
GS
[0.75 0 0 0.75 0 0.25] CT
0.149 GC
2 setlinecap
1 LJ
0.667 LW
N
479.235 774.447 M
489.53 774.447 L
S
GR
GS
[0.75 0 0 0.75 0 0.25] CT
0.149 GC
2 setlinecap
1 LJ
0.667 LW
N
479.235 671.494 M
489.53 671.494 L
S
GR
GS
[0.75 0 0 0.75 0 0.25] CT
0.149 GC
2 setlinecap
1 LJ
0.667 LW
N
479.235 568.541 M
489.53 568.541 L
S
GR
GS
[0.75 0 0 0.75 0 0.25] CT
0.149 GC
2 setlinecap
1 LJ
0.667 LW
N
479.235 465.588 M
489.53 465.588 L
S
GR
GS
[0.75 0 0 0.75 0 0.25] CT
0.149 GC
2 setlinecap
1 LJ
0.667 LW
N
479.235 362.635 M
489.53 362.635 L
S
GR
GS
[0.75 0 0 0.75 0 0.25] CT
0.149 GC
2 setlinecap
1 LJ
0.667 LW
N
479.235 259.682 M
489.53 259.682 L
S
GR
GS
[0.75 0 0 0.75 0 0.25] CT
0.149 GC
2 setlinecap
1 LJ
0.667 LW
N
479.235 156.73 M
489.53 156.73 L
S
GR
GS
[0.75 0 0 0.75 352.42639 658.3002] CT
0.149 GC
/Helvetica 33.333 F
GS
[1 0 0 1 0 0] CT
-34 11.5 moveto 
1 -1 scale
(-6) t 
GR
GR
GS
[0.75 0 0 0.75 352.42639 581.08549] CT
0.149 GC
/Helvetica 33.333 F
GS
[1 0 0 1 0 0] CT
-34 11.5 moveto 
1 -1 scale
(-4) t 
GR
GR
GS
[0.75 0 0 0.75 352.42639 503.87074] CT
0.149 GC
/Helvetica 33.333 F
GS
[1 0 0 1 0 0] CT
-34 11.5 moveto 
1 -1 scale
(-2) t 
GR
GR
GS
[0.75 0 0 0.75 352.42639 426.65604] CT
0.149 GC
/Helvetica 33.333 F
GS
[1 0 0 1 0 0] CT
-22 11.5 moveto 
1 -1 scale
(0) t 
GR
GR
GS
[0.75 0 0 0.75 352.42639 349.44131] CT
0.149 GC
/Helvetica 33.333 F
GS
[1 0 0 1 0 0] CT
-22 11.5 moveto 
1 -1 scale
(2) t 
GR
GR
GS
[0.75 0 0 0.75 352.42639 272.22658] CT
0.149 GC
/Helvetica 33.333 F
GS
[1 0 0 1 0 0] CT
-22 11.5 moveto 
1 -1 scale
(4) t 
GR
GR
GS
[0.75 0 0 0.75 352.42639 195.01185] CT
0.149 GC
/Helvetica 33.333 F
GS
[1 0 0 1 0 0] CT
-22 11.5 moveto 
1 -1 scale
(6) t 
GR
GR
GS
[0.75 0 0 0.75 352.42639 117.79713] CT
0.149 GC
/Helvetica 33.333 F
GS
[1 0 0 1 0 0] CT
-22 11.5 moveto 
1 -1 scale
(8) t 
GR
GR
GS
[0 -0.75 0.75 0 323.92639 360.9997] CT
0.149 GC
/Helvetica 36.667 F
GS
[1 0 0 1 0 0] CT
-21 -9 moveto 
1 -1 scale
(Ys) t 
GR
GR
GS
[0.75 0 0 0.75 938.53683 195.01185] CT
1 0 0 RC
N
0 -26.66 M
-23.088 13.33 L
23.088 13.33 L
cp
f
GR
GS
[0.75 0 0 0.75 938.53683 195.01185] CT
0 0 1 RC
10.0 ML
0.667 LW
N
0 -26.66 M
-23.088 13.33 L
23.088 13.33 L
cp
S
GR
GS
[0.75 0 0 0.75 668.28529 156.4045] CT
1 0 0 RC
N
/f-1996900118{0 -26.66 M
-23.088 13.33 L
23.088 13.33 L
cp}def
f-1996900118
f
GR
GS
[0.75 0 0 0.75 668.28529 156.4045] CT
0 0 1 RC
10.0 ML
0.667 LW
N
0 -26.66 M
-23.088 13.33 L
23.088 13.33 L
cp
S
GR
GS
[0.75 0 0 0.75 706.89262 388.04866] CT
1 0 0 RC
N
f-1996900118
f
GR
GS
[0.75 0 0 0.75 706.89262 388.04866] CT
0 0 1 RC
10.0 ML
0.667 LW
N
0 -26.66 M
-23.088 13.33 L
23.088 13.33 L
cp
S
GR
GS
[0.75 0 0 0.75 706.89262 349.44131] CT
1 0 0 RC
N
f-1996900118
f
GR
GS
[0.75 0 0 0.75 706.89262 349.44131] CT
0 0 1 RC
10.0 ML
0.667 LW
N
0 -26.66 M
-23.088 13.33 L
23.088 13.33 L
cp
S
GR
GS
[0.75 0 0 0.75 861.32208 156.4045] CT
1 0 0 RC
N
f-1996900118
f
GR
GS
[0.75 0 0 0.75 861.32208 156.4045] CT
0 0 1 RC
10.0 ML
0.667 LW
N
0 -26.66 M
-23.088 13.33 L
23.088 13.33 L
cp
S
GR
GS
[0.75 0 0 0.75 629.67792 272.22658] CT
1 0 0 RC
N
f-1996900118
f
GR
GS
[0.75 0 0 0.75 629.67792 272.22658] CT
0 0 1 RC
10.0 ML
0.667 LW
N
0 -26.66 M
-23.088 13.33 L
23.088 13.33 L
cp
S
GR
GS
[0.75 0 0 0.75 745.5 156.4045] CT
1 0 0 RC
N
f-1996900118
f
GR
GS
[0.75 0 0 0.75 745.5 156.4045] CT
0 0 1 RC
10.0 ML
0.667 LW
N
0 -26.66 M
-23.088 13.33 L
23.088 13.33 L
cp
S
GR
GS
[0.75 0 0 0.75 629.67792 310.83393] CT
1 0 0 RC
N
f-1996900118
f
GR
GS
[0.75 0 0 0.75 629.67792 310.83393] CT
0 0 1 RC
10.0 ML
0.667 LW
N
0 -26.66 M
-23.088 13.33 L
23.088 13.33 L
cp
S
GR
GS
[0.75 0 0 0.75 581.41873 378.39683] CT
0 1 1 RC
10.0 ML
0.667 LW
N
0 -4 M
0 4 L
-4 0 M
4 0 L
-2.828 -2.828 M
2.828 2.828 L
-2.828 2.828 M
2.828 -2.828 L
S
GR
GS
[0.75 0 0 0.75 0 0.25] CT
0 1 1 RC
1 LJ
0.667 LW
N
780.033 504.111 M
780.373 504.196 L
780.033 504.281 L
S
GR
GS
[0.75 0 0 0.75 0 0.25] CT
0 1 1 RC
1 LJ
0.667 LW
N
775.225 504.196 M
780.373 504.196 L
S
GR
GS
[0.75 0 0 0.75 0 0.25] CT
0 1 1 RC
1 LJ
6.667 LW
N
824.358 504.196 M
822.814 481.27 L
818.28 459.785 L
811.041 441.091 L
801.552 426.362 L
790.408 416.523 L
778.31 412.193 L
766.018 413.644 L
754.305 420.785 L
743.907 433.166 L
735.476 450.011 L
729.543 470.26 L
726.48 492.642 L
726.48 515.75 L
729.543 538.131 L
735.476 558.381 L
743.907 575.225 L
754.305 587.607 L
766.018 594.748 L
778.31 596.199 L
790.408 591.869 L
801.552 582.03 L
811.041 567.301 L
818.28 548.606 L
822.814 527.121 L
824.358 504.196 L
S
GR
GS
[0.75 0 0 0.75 0 0.25] CT
1 0 0 RC
1 LJ
6.667 LW
N
775.225 504.196 M
826.701 504.196 L
878.178 504.196 L
918.044 536.762 L
895.224 582.903 L
924.036 625.561 L
914.998 676.238 L
905.96 726.915 L
862.058 753.794 L
814.568 733.932 L
767.077 714.071 L
S
GR
GS
[0.75 0 0 0.75 581.41873 378.39683] CT
0 1 0 RC
N
/f-1072437594{0 -15.996 M
-13.853 7.998 L
13.853 7.998 L
cp}def
f-1072437594
f
GR
GS
[0.75 0 0 0.75 581.41873 378.39683] CT
0 0 1 RC
10.0 ML
2.667 LW
N
0 -15.996 M
-13.853 7.998 L
13.853 7.998 L
cp
S
GR
GS
[0.75 0 0 0.75 620.02606 378.39683] CT
0 1 0 RC
N
f-1072437594
f
GR
GS
[0.75 0 0 0.75 620.02606 378.39683] CT
0 0 1 RC
10.0 ML
2.667 LW
N
0 -15.996 M
-13.853 7.998 L
13.853 7.998 L
cp
S
GR
GS
[0.75 0 0 0.75 658.63344 378.39683] CT
0 1 0 RC
N
f-1072437594
f
GR
GS
[0.75 0 0 0.75 658.63344 378.39683] CT
0 0 1 RC
10.0 ML
2.667 LW
N
0 -15.996 M
-13.853 7.998 L
13.853 7.998 L
cp
S
GR
GS
[0.75 0 0 0.75 688.53291 402.8212] CT
0 1 0 RC
N
f-1072437594
f
GR
GS
[0.75 0 0 0.75 688.53291 402.8212] CT
0 0 1 RC
10.0 ML
2.667 LW
N
0 -15.996 M
-13.853 7.998 L
13.853 7.998 L
cp
S
GR
GS
[0.75 0 0 0.75 671.41768 437.42749] CT
0 1 0 RC
N
f-1072437594
f
GR
GS
[0.75 0 0 0.75 671.41768 437.42749] CT
0 0 1 RC
10.0 ML
2.667 LW
N
0 -15.996 M
-13.853 7.998 L
13.853 7.998 L
cp
S
GR
GS
[0.75 0 0 0.75 693.02696 469.42078] CT
0 1 0 RC
N
f-1072437594
f
GR
GS
[0.75 0 0 0.75 693.02696 469.42078] CT
0 0 1 RC
10.0 ML
2.667 LW
N
0 -15.996 M
-13.853 7.998 L
13.853 7.998 L
cp
S
GR
GS
[0.75 0 0 0.75 686.24835 507.42839] CT
0 1 0 RC
N
f-1072437594
f
GR
GS
[0.75 0 0 0.75 686.24835 507.42839] CT
0 0 1 RC
10.0 ML
2.667 LW
N
0 -15.996 M
-13.853 7.998 L
13.853 7.998 L
cp
S
GR
GS
[0.75 0 0 0.75 679.46974 545.436] CT
0 1 0 RC
N
f-1072437594
f
GR
GS
[0.75 0 0 0.75 679.46974 545.436] CT
0 0 1 RC
10.0 ML
2.667 LW
N
0 -15.996 M
-13.853 7.998 L
13.853 7.998 L
cp
S
GR
GS
[0.75 0 0 0.75 646.54372 565.5955] CT
0 1 0 RC
N
f-1072437594
f
GR
GS
[0.75 0 0 0.75 646.54372 565.5955] CT
0 0 1 RC
10.0 ML
2.667 LW
N
0 -15.996 M
-13.853 7.998 L
13.853 7.998 L
cp
S
GR
GS
[0.75 0 0 0.75 610.9259 550.69923] CT
0 1 0 RC
N
f-1072437594
f
GR
GS
[0.75 0 0 0.75 610.9259 550.69923] CT
0 0 1 RC
10.0 ML
2.667 LW
N
0 -15.996 M
-13.853 7.998 L
13.853 7.998 L
cp
S
GR
GS
[0.75 0 0 0.75 575.30804 535.80296] CT
0 1 0 RC
N
f-1072437594
f
GR
GS
[0.75 0 0 0.75 575.30804 535.80296] CT
0 0 1 RC
10.0 ML
2.667 LW
N
0 -15.996 M
-13.853 7.998 L
13.853 7.998 L
cp
S
GR
GS
[0.75 0 0 0.75 0 0.25] CT
1 GC
N
/f-660123666{1488 834 M
1488 672 L
1165 672 L
1165 834 L
cp}def
f-660123666
f
GR
GS
[0.75 0 0 0.75 909 519.20386] CT
/Helvetica-Bold 30 F
GS
[1 0 0 1 0 0] CT
0 10 moveto 
1 -1 scale
(LandMark) t 
GR
GR
GS
[0.75 0 0 0.75 891.75 519.20386] CT
1 0 0 RC
N
/f-1214359511{0 -19.995 M
-17.316 9.998 L
17.316 9.998 L
cp}def
f-1214359511
f
GR
GS
[0.75 0 0 0.75 891.75 519.20386] CT
0 0 1 RC
10.0 ML
0.667 LW
N
0 -19.995 M
-17.316 9.998 L
17.316 9.998 L
cp
S
GR
GS
[0.75 0 0 0.75 909 546.49463] CT
/Helvetica-Bold 30 F
GS
[1 0 0 1 0 0] CT
0 10 moveto 
1 -1 scale
(Real Pose) t 
GR
GR
GS
[0.75 0 0 0.75 891.75 546.49463] CT
0 1 0 RC
N
f-1072437594
f
GR
GS
[0.75 0 0 0.75 891.75 546.49463] CT
0 0 1 RC
10.0 ML
2.667 LW
N
0 -15.996 M
-13.853 7.998 L
13.853 7.998 L
cp
S
GR
GS
[0.75 0 0 0.75 909 581.5] CT
/Helvetica-Bold 30 F
GS
[1 0 0 1 0 0] CT
0 0 moveto 
1 -1 scale
(p \(x) t 
GR
GR
GS
[0.75 0 0 0.75 957.75 592.75] CT
/Helvetica-Bold 24 F
GS
[1 0 0 1 0 0] CT
0 0 moveto 
1 -1 scale
(0) t 
GR
GR
GS
[0.75 0 0 0.75 970.5 581.5] CT
/Helvetica-Bold 30 F
GS
[1 0 0 1 0 0] CT
0 0 moveto 
1 -1 scale
(\)) t 
GR
GR
GS
[0.75 0 0 0.75 0 0.25] CT
0 1 1 RC
1 LJ
6.667 LW
N
1169 771.194 M
1209 771.194 L
S
GR
GS
[0.75 0 0 0.75 909 610.79614] CT
/Helvetica-Bold 30 F
GS
[1 0 0 1 0 0] CT
0 10 moveto 
1 -1 scale
(Real Ttrajectory) t 
GR
GR
GS
[0.75 0 0 0.75 0 0.25] CT
1 0 0 RC
1 LJ
6.667 LW
N
1169 814.062 M
1209 814.062 L
S
GR
GS
[0.75 0 0 0.75 0 0.25] CT
0.149 GC
10.0 ML
0.667 LW
N
1165 834 M
1165 672 L
1488 672 L
1488 834 L
cp
S
GR
%%Trailer
%%Pages: 1
%%EOF
