%!PS-Adobe-3.0 EPSF-3.0
%%Creator: (MATLAB, The Mathworks, Inc. Version 9.8.0.1380330 \(R2020a\) Update 2. Operating System: Linux)
%%Title: (/home/ohads/ANPL/papers/research/2021 RAL/Figures/TestCase_1/fig_files/Robots_estimation_k_3.eps)
%%CreationDate: 2021-02-21T16:00:31
%%Pages: (atend)
%%BoundingBox:   274    16  1109   674
%%LanguageLevel: 3
%%EndComments
%%BeginProlog
%%BeginResource: procset (Apache XML Graphics Std ProcSet) 1.2 0
%%Version: 1.2 0
%%Copyright: (Copyright 2001-2003,2010 The Apache Software Foundation. License terms: http://www.apache.org/licenses/LICENSE-2.0)
/bd{bind def}bind def
/ld{load def}bd
/GR/grestore ld
/GS/gsave ld
/RM/rmoveto ld
/C/curveto ld
/t/show ld
/L/lineto ld
/ML/setmiterlimit ld
/CT/concat ld
/f/fill ld
/N/newpath ld
/S/stroke ld
/CC/setcmykcolor ld
/A/ashow ld
/cp/closepath ld
/RC/setrgbcolor ld
/LJ/setlinejoin ld
/GC/setgray ld
/LW/setlinewidth ld
/M/moveto ld
/re {4 2 roll M
1 index 0 rlineto
0 exch rlineto
neg 0 rlineto
cp } bd
/_ctm matrix def
/_tm matrix def
/BT { _ctm currentmatrix pop matrix _tm copy pop 0 0 moveto } bd
/ET { _ctm setmatrix } bd
/iTm { _ctm setmatrix _tm concat } bd
/Tm { _tm astore pop iTm 0 0 moveto } bd
/ux 0.0 def
/uy 0.0 def
/F {
  /Tp exch def
  /Tf exch def
  Tf findfont Tp scalefont setfont
  /cf Tf def  /cs Tp def
} bd
/ULS {currentpoint /uy exch def /ux exch def} bd
/ULE {
  /Tcx currentpoint pop def
  gsave
  newpath
  cf findfont cs scalefont dup
  /FontMatrix get 0 get /Ts exch def /FontInfo get dup
  /UnderlinePosition get Ts mul /To exch def
  /UnderlineThickness get Ts mul /Tt exch def
  ux uy To add moveto  Tcx uy To add lineto
  Tt setlinewidth stroke
  grestore
} bd
/OLE {
  /Tcx currentpoint pop def
  gsave
  newpath
  cf findfont cs scalefont dup
  /FontMatrix get 0 get /Ts exch def /FontInfo get dup
  /UnderlinePosition get Ts mul /To exch def
  /UnderlineThickness get Ts mul /Tt exch def
  ux uy To add cs add moveto Tcx uy To add cs add lineto
  Tt setlinewidth stroke
  grestore
} bd
/SOE {
  /Tcx currentpoint pop def
  gsave
  newpath
  cf findfont cs scalefont dup
  /FontMatrix get 0 get /Ts exch def /FontInfo get dup
  /UnderlinePosition get Ts mul /To exch def
  /UnderlineThickness get Ts mul /Tt exch def
  ux uy To add cs 10 mul 26 idiv add moveto Tcx uy To add cs 10 mul 26 idiv add lineto
  Tt setlinewidth stroke
  grestore
} bd
/QT {
/Y22 exch store
/X22 exch store
/Y21 exch store
/X21 exch store
currentpoint
/Y21 load 2 mul add 3 div exch
/X21 load 2 mul add 3 div exch
/X21 load 2 mul /X22 load add 3 div
/Y21 load 2 mul /Y22 load add 3 div
/X22 load /Y22 load curveto
} bd
/SSPD {
dup length /d exch dict def
{
/v exch def
/k exch def
currentpagedevice k known {
/cpdv currentpagedevice k get def
v cpdv ne {
/upd false def
/nullv v type /nulltype eq def
/nullcpdv cpdv type /nulltype eq def
nullv nullcpdv or
{
/upd true def
} {
/sametype v type cpdv type eq def
sametype {
v type /arraytype eq {
/vlen v length def
/cpdvlen cpdv length def
vlen cpdvlen eq {
0 1 vlen 1 sub {
/i exch def
/obj v i get def
/cpdobj cpdv i get def
obj cpdobj ne {
/upd true def
exit
} if
} for
} {
/upd true def
} ifelse
} {
v type /dicttype eq {
v {
/dv exch def
/dk exch def
/cpddv cpdv dk get def
dv cpddv ne {
/upd true def
exit
} if
} forall
} {
/upd true def
} ifelse
} ifelse
} if
} ifelse
upd true eq {
d k v put
} if
} if
} if
} forall
d length 0 gt {
d setpagedevice
} if
} bd
/RE { % /NewFontName [NewEncodingArray] /FontName RE -
  findfont dup length dict begin
  {
    1 index /FID ne
    {def} {pop pop} ifelse
  } forall
  /Encoding exch def
  /FontName 1 index def
  currentdict definefont pop
  end
} bind def
%%EndResource
%%BeginResource: procset (Apache XML Graphics EPS ProcSet) 1.0 0
%%Version: 1.0 0
%%Copyright: (Copyright 2002-2003 The Apache Software Foundation. License terms: http://www.apache.org/licenses/LICENSE-2.0)
/BeginEPSF { %def
/b4_Inc_state save def         % Save state for cleanup
/dict_count countdictstack def % Count objects on dict stack
/op_count count 1 sub def      % Count objects on operand stack
userdict begin                 % Push userdict on dict stack
/showpage { } def              % Redefine showpage, { } = null proc
0 setgray 0 setlinecap         % Prepare graphics state
1 setlinewidth 0 setlinejoin
10 setmiterlimit [ ] 0 setdash newpath
/languagelevel where           % If level not equal to 1 then
{pop languagelevel             % set strokeadjust and
1 ne                           % overprint to their defaults.
{false setstrokeadjust false setoverprint
} if
} if
} bd
/EndEPSF { %def
count op_count sub {pop} repeat            % Clean up stacks
countdictstack dict_count sub {end} repeat
b4_Inc_state restore
} bd
%%EndResource
%FOPBeginFontDict
%%IncludeResource: font Courier-Oblique
%%IncludeResource: font Courier-BoldOblique
%%IncludeResource: font Courier-Bold
%%IncludeResource: font ZapfDingbats
%%IncludeResource: font Symbol
%%IncludeResource: font Helvetica
%%IncludeResource: font Helvetica-Oblique
%%IncludeResource: font Helvetica-Bold
%%IncludeResource: font Helvetica-BoldOblique
%%IncludeResource: font Times-Roman
%%IncludeResource: font Times-Italic
%%IncludeResource: font Times-Bold
%%IncludeResource: font Times-BoldItalic
%%IncludeResource: font Courier
%FOPEndFontDict
%%BeginResource: encoding WinAnsiEncoding
/WinAnsiEncoding [
/.notdef /.notdef /.notdef /.notdef /.notdef
/.notdef /.notdef /.notdef /.notdef /.notdef
/.notdef /.notdef /.notdef /.notdef /.notdef
/.notdef /.notdef /.notdef /.notdef /.notdef
/.notdef /.notdef /.notdef /.notdef /.notdef
/.notdef /.notdef /.notdef /.notdef /.notdef
/.notdef /.notdef /space /exclam /quotedbl
/numbersign /dollar /percent /ampersand /quotesingle
/parenleft /parenright /asterisk /plus /comma
/hyphen /period /slash /zero /one
/two /three /four /five /six
/seven /eight /nine /colon /semicolon
/less /equal /greater /question /at
/A /B /C /D /E
/F /G /H /I /J
/K /L /M /N /O
/P /Q /R /S /T
/U /V /W /X /Y
/Z /bracketleft /backslash /bracketright /asciicircum
/underscore /quoteleft /a /b /c
/d /e /f /g /h
/i /j /k /l /m
/n /o /p /q /r
/s /t /u /v /w
/x /y /z /braceleft /bar
/braceright /asciitilde /bullet /Euro /bullet
/quotesinglbase /florin /quotedblbase /ellipsis /dagger
/daggerdbl /circumflex /perthousand /Scaron /guilsinglleft
/OE /bullet /Zcaron /bullet /bullet
/quoteleft /quoteright /quotedblleft /quotedblright /bullet
/endash /emdash /asciitilde /trademark /scaron
/guilsinglright /oe /bullet /zcaron /Ydieresis
/space /exclamdown /cent /sterling /currency
/yen /brokenbar /section /dieresis /copyright
/ordfeminine /guillemotleft /logicalnot /sfthyphen /registered
/macron /degree /plusminus /twosuperior /threesuperior
/acute /mu /paragraph /middot /cedilla
/onesuperior /ordmasculine /guillemotright /onequarter /onehalf
/threequarters /questiondown /Agrave /Aacute /Acircumflex
/Atilde /Adieresis /Aring /AE /Ccedilla
/Egrave /Eacute /Ecircumflex /Edieresis /Igrave
/Iacute /Icircumflex /Idieresis /Eth /Ntilde
/Ograve /Oacute /Ocircumflex /Otilde /Odieresis
/multiply /Oslash /Ugrave /Uacute /Ucircumflex
/Udieresis /Yacute /Thorn /germandbls /agrave
/aacute /acircumflex /atilde /adieresis /aring
/ae /ccedilla /egrave /eacute /ecircumflex
/edieresis /igrave /iacute /icircumflex /idieresis
/eth /ntilde /ograve /oacute /ocircumflex
/otilde /odieresis /divide /oslash /ugrave
/uacute /ucircumflex /udieresis /yacute /thorn
/ydieresis
] def
%%EndResource
%FOPBeginFontReencode
/Courier-Oblique findfont
dup length dict begin
  {1 index /FID ne {def} {pop pop} ifelse} forall
  /Encoding WinAnsiEncoding def
  currentdict
end
/Courier-Oblique exch definefont pop
/Courier-BoldOblique findfont
dup length dict begin
  {1 index /FID ne {def} {pop pop} ifelse} forall
  /Encoding WinAnsiEncoding def
  currentdict
end
/Courier-BoldOblique exch definefont pop
/Courier-Bold findfont
dup length dict begin
  {1 index /FID ne {def} {pop pop} ifelse} forall
  /Encoding WinAnsiEncoding def
  currentdict
end
/Courier-Bold exch definefont pop
/Helvetica findfont
dup length dict begin
  {1 index /FID ne {def} {pop pop} ifelse} forall
  /Encoding WinAnsiEncoding def
  currentdict
end
/Helvetica exch definefont pop
/Helvetica-Oblique findfont
dup length dict begin
  {1 index /FID ne {def} {pop pop} ifelse} forall
  /Encoding WinAnsiEncoding def
  currentdict
end
/Helvetica-Oblique exch definefont pop
/Helvetica-Bold findfont
dup length dict begin
  {1 index /FID ne {def} {pop pop} ifelse} forall
  /Encoding WinAnsiEncoding def
  currentdict
end
/Helvetica-Bold exch definefont pop
/Helvetica-BoldOblique findfont
dup length dict begin
  {1 index /FID ne {def} {pop pop} ifelse} forall
  /Encoding WinAnsiEncoding def
  currentdict
end
/Helvetica-BoldOblique exch definefont pop
/Times-Roman findfont
dup length dict begin
  {1 index /FID ne {def} {pop pop} ifelse} forall
  /Encoding WinAnsiEncoding def
  currentdict
end
/Times-Roman exch definefont pop
/Times-Italic findfont
dup length dict begin
  {1 index /FID ne {def} {pop pop} ifelse} forall
  /Encoding WinAnsiEncoding def
  currentdict
end
/Times-Italic exch definefont pop
/Times-Bold findfont
dup length dict begin
  {1 index /FID ne {def} {pop pop} ifelse} forall
  /Encoding WinAnsiEncoding def
  currentdict
end
/Times-Bold exch definefont pop
/Times-BoldItalic findfont
dup length dict begin
  {1 index /FID ne {def} {pop pop} ifelse} forall
  /Encoding WinAnsiEncoding def
  currentdict
end
/Times-BoldItalic exch definefont pop
/Courier findfont
dup length dict begin
  {1 index /FID ne {def} {pop pop} ifelse} forall
  /Encoding WinAnsiEncoding def
  currentdict
end
/Courier exch definefont pop
%FOPEndFontReencode
%%EndProlog
%%Page: 1 1
%%PageBoundingBox: 0 0 1390 728
%%BeginPageSetup
[1 0 0 -1 0 728] CT
%%EndPageSetup
GS
[0.75 0 0 0.75 0 0.5] CT
1 GC
N
0 0 1853 970 re
f
GR
GS
[0.75 0 0 0.75 0 0.5] CT
1 GC
N
0 0 1853 970 re
f
GR
GS
[0.75 0 0 0.75 0 0.5] CT
1 GC
N
458.182 863 M
1459.818 863 L
1459.818 73 L
458.182 73 L
cp
f
GR
GS
[0.75 0 0 0.75 0 0.5] CT
0.149 GC
2 setlinecap
1 LJ
0.667 LW
N
458.182 863 M
1459.818 863 L
S
GR
GS
[0.75 0 0 0.75 0 0.5] CT
0.149 GC
2 setlinecap
1 LJ
0.667 LW
N
458.182 863 M
458.182 852.984 L
S
GR
GS
[0.75 0 0 0.75 0 0.5] CT
0.149 GC
2 setlinecap
1 LJ
0.667 LW
N
708.591 863 M
708.591 852.984 L
S
GR
GS
[0.75 0 0 0.75 0 0.5] CT
0.149 GC
2 setlinecap
1 LJ
0.667 LW
N
959 863 M
959 852.984 L
S
GR
GS
[0.75 0 0 0.75 0 0.5] CT
0.149 GC
2 setlinecap
1 LJ
0.667 LW
N
1209.409 863 M
1209.409 852.984 L
S
GR
GS
[0.75 0 0 0.75 0 0.5] CT
0.149 GC
2 setlinecap
1 LJ
0.667 LW
N
1459.818 863 M
1459.818 852.984 L
S
GR
GS
[0.75 0 0 0.75 343.63651 654.74998] CT
0.149 GC
/Helvetica 33.333 F
GS
[1 0 0 1 0 0] CT
-17 31 moveto 
1 -1 scale
(-5) t 
GR
GR
GS
[0.75 0 0 0.75 531.44325 654.74998] CT
0.149 GC
/Helvetica 33.333 F
GS
[1 0 0 1 0 0] CT
-11 31 moveto 
1 -1 scale
(0) t 
GR
GR
GS
[0.75 0 0 0.75 719.25 654.74998] CT
0.149 GC
/Helvetica 33.333 F
GS
[1 0 0 1 0 0] CT
-11 31 moveto 
1 -1 scale
(5) t 
GR
GR
GS
[0.75 0 0 0.75 907.0567 654.74998] CT
0.149 GC
/Helvetica 33.333 F
GS
[1 0 0 1 0 0] CT
-21.5 31 moveto 
1 -1 scale
(10) t 
GR
GR
GS
[0.75 0 0 0.75 1094.86349 654.74998] CT
0.149 GC
/Helvetica 33.333 F
GS
[1 0 0 1 0 0] CT
-21.5 31 moveto 
1 -1 scale
(15) t 
GR
GR
GS
[0.75 0 0 0.75 719.25037 684.99997] CT
0.149 GC
/Helvetica 36.667 F
GS
[1 0 0 1 0 0] CT
-22.5 35 moveto 
1 -1 scale
(Xs) t 
GR
GR
GS
[0.75 0 0 0.75 0 0.5] CT
0.149 GC
2 setlinecap
1 LJ
0.667 LW
N
458.182 863 M
458.182 73 L
S
GR
GS
[0.75 0 0 0.75 0 0.5] CT
0.149 GC
2 setlinecap
1 LJ
0.667 LW
N
458.182 817.895 M
468.198 817.895 L
S
GR
GS
[0.75 0 0 0.75 0 0.5] CT
0.149 GC
2 setlinecap
1 LJ
0.667 LW
N
458.182 717.732 M
468.198 717.732 L
S
GR
GS
[0.75 0 0 0.75 0 0.5] CT
0.149 GC
2 setlinecap
1 LJ
0.667 LW
N
458.182 617.568 M
468.198 617.568 L
S
GR
GS
[0.75 0 0 0.75 0 0.5] CT
0.149 GC
2 setlinecap
1 LJ
0.667 LW
N
458.182 517.404 M
468.198 517.404 L
S
GR
GS
[0.75 0 0 0.75 0 0.5] CT
0.149 GC
2 setlinecap
1 LJ
0.667 LW
N
458.182 417.241 M
468.198 417.241 L
S
GR
GS
[0.75 0 0 0.75 0 0.5] CT
0.149 GC
2 setlinecap
1 LJ
0.667 LW
N
458.182 317.077 M
468.198 317.077 L
S
GR
GS
[0.75 0 0 0.75 0 0.5] CT
0.149 GC
2 setlinecap
1 LJ
0.667 LW
N
458.182 216.914 M
468.198 216.914 L
S
GR
GS
[0.75 0 0 0.75 0 0.5] CT
0.149 GC
2 setlinecap
1 LJ
0.667 LW
N
458.182 116.75 M
468.198 116.75 L
S
GR
GS
[0.75 0 0 0.75 336.6365 613.92136] CT
0.149 GC
/Helvetica 33.333 F
GS
[1 0 0 1 0 0] CT
-34 11.5 moveto 
1 -1 scale
(-4) t 
GR
GR
GS
[0.75 0 0 0.75 336.6365 538.79868] CT
0.149 GC
/Helvetica 33.333 F
GS
[1 0 0 1 0 0] CT
-34 11.5 moveto 
1 -1 scale
(-2) t 
GR
GR
GS
[0.75 0 0 0.75 336.6365 463.67599] CT
0.149 GC
/Helvetica 33.333 F
GS
[1 0 0 1 0 0] CT
-22 11.5 moveto 
1 -1 scale
(0) t 
GR
GR
GS
[0.75 0 0 0.75 336.6365 388.55327] CT
0.149 GC
/Helvetica 33.333 F
GS
[1 0 0 1 0 0] CT
-22 11.5 moveto 
1 -1 scale
(2) t 
GR
GR
GS
[0.75 0 0 0.75 336.6365 313.43059] CT
0.149 GC
/Helvetica 33.333 F
GS
[1 0 0 1 0 0] CT
-22 11.5 moveto 
1 -1 scale
(4) t 
GR
GR
GS
[0.75 0 0 0.75 336.6365 238.30788] CT
0.149 GC
/Helvetica 33.333 F
GS
[1 0 0 1 0 0] CT
-22 11.5 moveto 
1 -1 scale
(6) t 
GR
GR
GS
[0.75 0 0 0.75 336.6365 163.18518] CT
0.149 GC
/Helvetica 33.333 F
GS
[1 0 0 1 0 0] CT
-22 11.5 moveto 
1 -1 scale
(8) t 
GR
GR
GS
[0.75 0 0 0.75 336.6365 88.06248] CT
0.149 GC
/Helvetica 33.333 F
GS
[1 0 0 1 0 0] CT
-43 11.5 moveto 
1 -1 scale
(10) t 
GR
GR
GS
[0 -0.75 0.75 0 301.38652 351.4997] CT
0.149 GC
/Helvetica 36.667 F
GS
[1 0 0 1 0 0] CT
-21 -9 moveto 
1 -1 scale
(Ys) t 
GR
GR
GS
[0.75 0 0 0.75 794.37268 426.11461] CT
1 0 0 RC
N
0 -26.66 M
-23.088 13.33 L
23.088 13.33 L
cp
f
GR
GS
[0.75 0 0 0.75 794.37268 426.11461] CT
0 0 1 RC
10.0 ML
0.667 LW
N
0 -26.66 M
-23.088 13.33 L
23.088 13.33 L
cp
S
GR
GS
[0.75 0 0 0.75 606.56593 163.18518] CT
1 0 0 RC
N
/f-1996900118{0 -26.66 M
-23.088 13.33 L
23.088 13.33 L
cp}def
f-1996900118
f
GR
GS
[0.75 0 0 0.75 606.56593 163.18518] CT
0 0 1 RC
10.0 ML
0.667 LW
N
0 -26.66 M
-23.088 13.33 L
23.088 13.33 L
cp
S
GR
GS
[0.75 0 0 0.75 794.37268 350.99193] CT
1 0 0 RC
N
f-1996900118
f
GR
GS
[0.75 0 0 0.75 794.37268 350.99193] CT
0 0 1 RC
10.0 ML
0.667 LW
N
0 -26.66 M
-23.088 13.33 L
23.088 13.33 L
cp
S
GR
GS
[0.75 0 0 0.75 719.25 163.18518] CT
1 0 0 RC
N
f-1996900118
f
GR
GS
[0.75 0 0 0.75 719.25 163.18518] CT
0 0 1 RC
10.0 ML
0.667 LW
N
0 -26.66 M
-23.088 13.33 L
23.088 13.33 L
cp
S
GR
GS
[0.75 0 0 0.75 831.93402 388.55327] CT
1 0 0 RC
N
f-1996900118
f
GR
GS
[0.75 0 0 0.75 831.93402 388.55327] CT
0 0 1 RC
10.0 ML
0.667 LW
N
0 -26.66 M
-23.088 13.33 L
23.088 13.33 L
cp
S
GR
GS
[0.75 0 0 0.75 756.81134 163.18518] CT
1 0 0 RC
N
f-1996900118
f
GR
GS
[0.75 0 0 0.75 756.81134 163.18518] CT
0 0 1 RC
10.0 ML
0.667 LW
N
0 -26.66 M
-23.088 13.33 L
23.088 13.33 L
cp
S
GR
GS
[0.75 0 0 0.75 794.37268 238.30788] CT
1 0 0 RC
N
f-1996900118
f
GR
GS
[0.75 0 0 0.75 794.37268 238.30788] CT
0 0 1 RC
10.0 ML
0.667 LW
N
0 -26.66 M
-23.088 13.33 L
23.088 13.33 L
cp
S
GR
GS
[0.75 0 0 0.75 756.81134 426.11461] CT
1 0 0 RC
N
f-1996900118
f
GR
GS
[0.75 0 0 0.75 756.81134 426.11461] CT
0 0 1 RC
10.0 ML
0.667 LW
N
0 -26.66 M
-23.088 13.33 L
23.088 13.33 L
cp
S
GR
GS
[0.75 0 0 0.75 651.47919 508.78265] CT
0 1 1 RC
10.0 ML
0.667 LW
N
0 -4 M
0 4 L
-4 0 M
4 0 L
-2.828 -2.828 M
2.828 2.828 L
-2.828 2.828 M
2.828 -2.828 L
S
GR
GS
[0.75 0 0 0.75 0 0.5] CT
0 1 1 RC
1 LJ
0.667 LW
N
868.159 682.366 M
868.039 682.682 L
867.996 682.347 L
S
GR
GS
[0.75 0 0 0.75 0 0.5] CT
0 1 1 RC
1 LJ
0.667 LW
N
868.639 677.71 M
868.039 682.682 L
S
GR
GS
[0.75 0 0 0.75 0 0.5] CT
0 1 1 RC
1 LJ
6.667 LW
N
827.193 677.713 M
828.495 667.403 L
832.318 657.74 L
838.424 649.333 L
846.429 642.708 L
855.829 638.282 L
866.034 636.334 L
876.402 636.986 L
886.283 640.197 L
895.055 645.765 L
902.168 653.34 L
907.173 662.446 L
909.758 672.511 L
909.758 682.903 L
907.175 692.969 L
902.171 702.076 L
895.06 709.652 L
886.288 715.221 L
876.408 718.433 L
866.039 719.086 L
855.834 717.14 L
846.434 712.716 L
838.428 706.092 L
832.321 697.685 L
828.496 688.023 L
827.193 677.713 L
S
GR
GS
[0.75 0 0 0.75 682.96362 477.18501] CT
0 1 1 RC
10.0 ML
0.667 LW
N
0 -4 M
0 4 L
-4 0 M
4 0 L
-2.828 -2.828 M
2.828 2.828 L
-2.828 2.828 M
2.828 -2.828 L
S
GR
GS
[0.75 0 0 0.75 0 0.5] CT
0 1 1 RC
1 LJ
0.667 LW
N
910.139 640.236 M
910.018 640.552 L
909.976 640.216 L
S
GR
GS
[0.75 0 0 0.75 0 0.5] CT
0 1 1 RC
1 LJ
0.667 LW
N
910.618 635.58 M
910.018 640.552 L
S
GR
GS
[0.75 0 0 0.75 0 0.5] CT
0 1 1 RC
1 LJ
6.667 LW
N
869.172 635.582 M
870.475 645.892 L
874.3 655.554 L
880.407 663.961 L
888.412 670.585 L
897.812 675.009 L
908.017 676.956 L
918.386 676.303 L
928.266 673.091 L
937.038 667.523 L
944.149 659.947 L
949.154 650.84 L
951.737 640.774 L
951.737 630.382 L
949.153 620.317 L
944.148 611.21 L
937.035 603.635 L
928.263 598.067 L
918.383 594.856 L
908.014 594.204 L
897.809 596.152 L
888.409 600.577 L
880.404 607.201 L
874.298 615.609 L
870.474 625.271 L
869.172 635.582 L
S
GR
GS
[0.75 0 0 0.75 651.47937 497.35838] CT
0 1 1 RC
10.0 ML
0.667 LW
N
0 -4 M
0 4 L
-4 0 M
4 0 L
-2.828 -2.828 M
2.828 2.828 L
-2.828 2.828 M
2.828 -2.828 L
S
GR
GS
[0.75 0 0 0.75 0 0.5] CT
0 1 1 RC
1 LJ
0.667 LW
N
868.16 667.134 M
868.039 667.45 L
867.997 667.114 L
S
GR
GS
[0.75 0 0 0.75 0 0.5] CT
0 1 1 RC
1 LJ
0.667 LW
N
868.639 662.478 M
868.039 667.45 L
S
GR
GS
[0.75 0 0 0.75 0 0.5] CT
0 1 1 RC
1 LJ
6.667 LW
N
827.193 662.479 M
828.495 652.169 L
832.319 642.507 L
838.425 634.099 L
846.43 627.475 L
855.83 623.05 L
866.035 621.102 L
876.404 621.754 L
886.285 624.965 L
895.057 630.533 L
902.169 638.108 L
907.174 647.215 L
909.758 657.28 L
909.758 667.672 L
907.175 677.738 L
902.17 686.845 L
895.059 694.421 L
886.287 699.989 L
876.407 703.201 L
866.038 703.854 L
855.833 701.907 L
846.433 697.483 L
838.427 690.859 L
832.321 682.452 L
828.496 672.789 L
827.193 662.479 L
S
GR
GS
[0.75 0 0 0.75 651.47923 434.16443] CT
0 1 1 RC
10.0 ML
0.667 LW
N
0 -4 M
0 4 L
-4 0 M
4 0 L
-2.828 -2.828 M
2.828 2.828 L
-2.828 2.828 M
2.828 -2.828 L
S
GR
GS
[0.75 0 0 0.75 0 0.5] CT
0 1 1 RC
1 LJ
0.667 LW
N
868.159 582.875 M
868.039 583.191 L
867.996 582.856 L
S
GR
GS
[0.75 0 0 0.75 0 0.5] CT
0 1 1 RC
1 LJ
0.667 LW
N
868.639 578.219 M
868.039 583.191 L
S
GR
GS
[0.75 0 0 0.75 0 0.5] CT
0 1 1 RC
1 LJ
6.667 LW
N
827.193 578.222 M
828.496 588.532 L
832.321 598.194 L
838.428 606.601 L
846.434 613.225 L
855.834 617.649 L
866.039 619.595 L
876.408 618.942 L
886.288 615.73 L
895.06 610.161 L
902.171 602.585 L
907.175 593.478 L
909.758 583.412 L
909.758 573.02 L
907.173 562.955 L
902.168 553.849 L
895.055 546.274 L
886.283 540.706 L
876.402 537.495 L
866.034 536.843 L
855.829 538.791 L
846.429 543.217 L
838.424 549.841 L
832.318 558.249 L
828.495 567.912 L
827.193 578.222 L
S
GR
GS
[0.75 0 0 0.75 682.96371 465.76106] CT
0 1 1 RC
10.0 ML
0.667 LW
N
0 -4 M
0 4 L
-4 0 M
4 0 L
-2.828 -2.828 M
2.828 2.828 L
-2.828 2.828 M
2.828 -2.828 L
S
GR
GS
[0.75 0 0 0.75 0 0.5] CT
0 1 1 RC
1 LJ
0.667 LW
N
910.139 625.004 M
910.018 625.32 L
909.976 624.984 L
S
GR
GS
[0.75 0 0 0.75 0 0.5] CT
0 1 1 RC
1 LJ
0.667 LW
N
910.618 620.348 M
910.018 625.32 L
S
GR
GS
[0.75 0 0 0.75 0 0.5] CT
0 1 1 RC
1 LJ
6.667 LW
N
869.172 620.35 M
870.475 630.66 L
874.3 640.322 L
880.407 648.729 L
888.412 655.353 L
897.812 659.777 L
908.017 661.724 L
918.386 661.071 L
928.266 657.86 L
937.038 652.291 L
944.149 644.715 L
949.154 635.608 L
951.737 625.543 L
951.737 615.151 L
949.153 605.085 L
944.148 595.979 L
937.036 588.403 L
928.264 582.835 L
918.383 579.624 L
908.014 578.972 L
897.809 580.92 L
888.409 585.345 L
880.405 591.969 L
874.298 600.377 L
870.474 610.039 L
869.172 620.35 L
S
GR
GS
[0.75 0 0 0.75 688.07382 471.4735] CT
0 1 1 RC
10.0 ML
0.667 LW
N
0 -4 M
0 4 L
-4 0 M
4 0 L
-2.828 -2.828 M
2.828 2.828 L
-2.828 2.828 M
2.828 -2.828 L
S
GR
GS
[0.75 0 0 0.75 0 0.5] CT
0 1 1 RC
1 LJ
0.667 LW
N
916.952 632.621 M
916.831 632.937 L
916.789 632.601 L
S
GR
GS
[0.75 0 0 0.75 0 0.5] CT
0 1 1 RC
1 LJ
0.667 LW
N
917.432 627.965 M
916.831 632.937 L
S
GR
GS
[0.75 0 0 0.75 0 0.5] CT
0 1 1 RC
1 LJ
6.667 LW
N
875.986 627.968 M
877.287 617.657 L
881.111 607.995 L
887.217 599.587 L
895.222 592.962 L
904.622 588.537 L
914.826 586.589 L
925.195 587.241 L
935.076 590.451 L
943.848 596.019 L
950.96 603.594 L
955.966 612.7 L
958.55 622.766 L
958.551 633.158 L
955.968 643.224 L
950.964 652.331 L
943.853 659.907 L
935.081 665.476 L
925.201 668.688 L
914.832 669.341 L
904.627 667.394 L
895.226 662.97 L
887.221 656.347 L
881.114 647.94 L
877.289 638.278 L
875.986 627.968 L
S
GR
GS
[0.75 0 0 0.75 646.3688 508.7822] CT
0 1 1 RC
10.0 ML
0.667 LW
N
0 -4 M
0 4 L
-4 0 M
4 0 L
-2.828 -2.828 M
2.828 2.828 L
-2.828 2.828 M
2.828 -2.828 L
S
GR
GS
[0.75 0 0 0.75 0 0.5] CT
0 1 1 RC
1 LJ
0.667 LW
N
861.345 682.366 M
861.225 682.682 L
861.183 682.346 L
S
GR
GS
[0.75 0 0 0.75 0 0.5] CT
0 1 1 RC
1 LJ
0.667 LW
N
861.825 677.71 M
861.225 682.682 L
S
GR
GS
[0.75 0 0 0.75 0 0.5] CT
0 1 1 RC
1 LJ
6.667 LW
N
820.379 677.711 M
821.682 688.021 L
825.507 697.683 L
831.613 706.091 L
839.619 712.714 L
849.019 717.139 L
859.224 719.086 L
869.593 718.433 L
879.473 715.221 L
888.245 709.652 L
895.356 702.077 L
900.361 692.97 L
902.944 682.904 L
902.944 672.512 L
900.36 662.447 L
895.354 653.34 L
888.242 645.765 L
879.47 640.197 L
869.59 636.986 L
859.221 636.334 L
849.016 638.281 L
839.616 642.706 L
831.611 649.331 L
825.505 657.739 L
821.681 667.401 L
820.379 677.711 L
S
GR
GS
[0.75 0 0 0.75 614.8846 508.7827] CT
0 1 1 RC
10.0 ML
0.667 LW
N
0 -4 M
0 4 L
-4 0 M
4 0 L
-2.828 -2.828 M
2.828 2.828 L
-2.828 2.828 M
2.828 -2.828 L
S
GR
GS
[0.75 0 0 0.75 0 0.5] CT
0 1 1 RC
1 LJ
6.667 LW
N
819.367 682.366 M
819.246 682.682 L
819.204 682.347 L
S
GR
GS
[0.75 0 0 0.75 0 0.5] CT
0 1 1 RC
1 LJ
6.667 LW
N
819.846 677.71 M
819.246 682.682 L
S
GR
GS
[0.75 0 0 0.75 0 0.5] CT
0 1 1 RC
1 LJ
6.667 LW
N
778.4 677.713 M
779.702 667.403 L
783.526 657.74 L
789.631 649.333 L
797.636 642.708 L
807.036 638.282 L
817.241 636.334 L
827.609 636.986 L
837.49 640.197 L
846.263 645.765 L
853.375 653.34 L
858.38 662.446 L
860.965 672.511 L
860.965 682.903 L
858.383 692.969 L
853.378 702.076 L
846.267 709.652 L
837.495 715.221 L
827.615 718.433 L
817.247 719.086 L
807.041 717.14 L
797.641 712.716 L
789.635 706.092 L
783.528 697.685 L
779.703 688.023 L
778.4 677.713 L
S
GR
GS
[0.75 0 0 0.75 662.18335 485.93475] CT
0 0 1 RC
10.0 ML
0.667 LW
N
0 -4 M
0 4 L
-4 0 M
4 0 L
-2.828 -2.828 M
2.828 2.828 L
-2.828 2.828 M
2.828 -2.828 L
S
GR
GS
[0.75 0 0 0.75 0 0.5] CT
0 0 1 RC
1 LJ
0.667 LW
N
882.431 651.902 M
882.311 652.218 L
882.269 651.883 L
S
GR
GS
[0.75 0 0 0.75 0 0.5] CT
0 0 1 RC
1 LJ
0.667 LW
N
882.911 647.246 M
882.311 652.218 L
S
GR
GS
[0.75 0 0 0.75 0 0.5] CT
0 0 1 RC
1 LJ
0.667 LW
N
866.237 647.285 M
866.77 651.431 L
868.318 655.313 L
870.782 658.689 L
874.009 661.346 L
877.795 663.117 L
881.903 663.891 L
886.073 663.619 L
890.046 662.318 L
893.569 660.07 L
896.424 657.016 L
898.429 653.349 L
899.459 649.298 L
899.449 645.118 L
898.4 641.072 L
896.378 637.414 L
893.51 634.373 L
889.976 632.142 L
885.998 630.859 L
881.826 630.607 L
877.722 631.399 L
873.944 633.188 L
870.73 635.86 L
868.281 639.247 L
866.751 643.137 L
866.237 647.285 L
S
GR
GS
[0.75 0 0 0.75 630.70184 485.93526] CT
0 0 1 RC
10.0 ML
0.667 LW
N
0 -4 M
0 4 L
-4 0 M
4 0 L
-2.828 -2.828 M
2.828 2.828 L
-2.828 2.828 M
2.828 -2.828 L
S
GR
GS
[0.75 0 0 0.75 0 0.5] CT
0 0 1 RC
1 LJ
0.667 LW
N
840.456 651.903 M
840.335 652.219 L
840.293 651.883 L
S
GR
GS
[0.75 0 0 0.75 0 0.5] CT
0 0 1 RC
1 LJ
0.667 LW
N
840.936 647.247 M
840.335 652.219 L
S
GR
GS
[0.75 0 0 0.75 0 0.5] CT
0 0 1 RC
1 LJ
0.667 LW
N
824.262 647.269 M
824.78 643.121 L
826.314 639.233 L
828.766 635.848 L
831.983 633.18 L
835.763 631.395 L
839.867 630.606 L
844.039 630.863 L
848.016 632.15 L
851.548 634.385 L
854.413 637.428 L
856.431 641.088 L
857.476 645.135 L
857.481 649.315 L
856.447 653.365 L
854.438 657.031 L
851.581 660.081 L
848.055 662.326 L
844.082 663.623 L
839.911 663.89 L
835.804 663.113 L
832.02 661.338 L
828.796 658.678 L
826.335 655.299 L
824.791 651.415 L
824.262 647.269 L
S
GR
GS
[0.75 0 0 0.75 667.27954 480.82346] CT
0 0 1 RC
10.0 ML
0.667 LW
N
0 -4 M
0 4 L
-4 0 M
4 0 L
-2.828 -2.828 M
2.828 2.828 L
-2.828 2.828 M
2.828 -2.828 L
S
GR
GS
[0.75 0 0 0.75 0 0.5] CT
0 0 1 RC
1 LJ
0.667 LW
N
889.226 645.087 M
889.106 645.403 L
889.064 645.068 L
S
GR
GS
[0.75 0 0 0.75 0 0.5] CT
0 0 1 RC
1 LJ
0.667 LW
N
889.706 640.431 M
889.106 645.403 L
S
GR
GS
[0.75 0 0 0.75 0 0.5] CT
0 0 1 RC
1 LJ
0.667 LW
N
873.032 640.452 M
873.551 636.304 L
875.084 632.416 L
877.537 629.032 L
880.754 626.363 L
884.534 624.579 L
888.638 623.791 L
892.81 624.048 L
896.787 625.335 L
900.319 627.57 L
903.184 630.613 L
905.202 634.274 L
906.246 638.321 L
906.251 642.501 L
905.217 646.551 L
903.208 650.216 L
900.351 653.266 L
896.824 655.51 L
892.851 656.807 L
888.68 657.075 L
884.573 656.297 L
880.789 654.522 L
877.565 651.861 L
875.104 648.483 L
873.561 644.598 L
873.032 640.452 L
S
GR
GS
[0.75 0 0 0.75 698.76086 449.33792] CT
0 0 1 RC
10.0 ML
0.667 LW
N
0 -4 M
0 4 L
-4 0 M
4 0 L
-2.828 -2.828 M
2.828 2.828 L
-2.828 2.828 M
2.828 -2.828 L
S
GR
GS
[0.75 0 0 0.75 0 0.5] CT
0 0 1 RC
1 LJ
0.667 LW
N
931.201 603.107 M
931.081 603.423 L
931.039 603.087 L
S
GR
GS
[0.75 0 0 0.75 0 0.5] CT
0 0 1 RC
1 LJ
0.667 LW
N
931.681 598.451 M
931.081 603.423 L
S
GR
GS
[0.75 0 0 0.75 0 0.5] CT
0 0 1 RC
1 LJ
0.667 LW
N
915.007 598.476 M
915.525 594.328 L
917.057 590.439 L
919.509 587.054 L
922.725 584.385 L
926.505 582.599 L
930.609 581.81 L
934.781 582.066 L
938.758 583.352 L
942.29 585.586 L
945.156 588.629 L
947.175 592.289 L
948.221 596.336 L
948.227 600.516 L
947.194 604.566 L
945.186 608.232 L
942.329 611.283 L
938.804 613.528 L
934.83 614.826 L
930.659 615.094 L
926.552 614.317 L
922.768 612.543 L
919.543 609.884 L
917.082 606.506 L
915.537 602.622 L
915.007 598.476 L
S
GR
GS
[0.75 0 0 0.75 662.1833 484.08575] CT
0 0 1 RC
10.0 ML
0.667 LW
N
0 -4 M
0 4 L
-4 0 M
4 0 L
-2.828 -2.828 M
2.828 2.828 L
-2.828 2.828 M
2.828 -2.828 L
S
GR
GS
[0.75 0 0 0.75 0 0.5] CT
0 0 1 RC
1 LJ
0.667 LW
N
882.431 649.437 M
882.311 649.753 L
882.268 649.417 L
S
GR
GS
[0.75 0 0 0.75 0 0.5] CT
0 0 1 RC
1 LJ
0.667 LW
N
882.911 644.781 M
882.311 649.753 L
S
GR
GS
[0.75 0 0 0.75 0 0.5] CT
0 0 1 RC
1 LJ
0.667 LW
N
866.237 644.806 M
866.767 648.952 L
868.311 652.836 L
870.773 656.214 L
873.997 658.873 L
877.782 660.648 L
881.889 661.425 L
886.06 661.156 L
890.033 659.859 L
893.559 657.614 L
896.415 654.562 L
898.424 650.896 L
899.457 646.846 L
899.451 642.667 L
898.405 638.62 L
896.386 634.96 L
893.521 631.917 L
889.988 629.682 L
886.011 628.397 L
881.839 628.14 L
877.735 628.93 L
873.956 630.715 L
870.739 633.384 L
868.287 636.769 L
866.755 640.658 L
866.237 644.806 L
S
GR
GS
[0.75 0 0 0.75 630.70175 484.08699] CT
0 0 1 RC
10.0 ML
0.667 LW
N
0 -4 M
0 4 L
-4 0 M
4 0 L
-2.828 -2.828 M
2.828 2.828 L
-2.828 2.828 M
2.828 -2.828 L
S
GR
GS
[0.75 0 0 0.75 0 0.5] CT
0 0 1 RC
1 LJ
0.667 LW
N
840.456 649.439 M
840.335 649.755 L
840.293 649.419 L
S
GR
GS
[0.75 0 0 0.75 0 0.5] CT
0 0 1 RC
1 LJ
0.667 LW
N
840.936 644.783 M
840.335 649.755 L
S
GR
GS
[0.75 0 0 0.75 0 0.5] CT
0 0 1 RC
1 LJ
0.667 LW
N
824.261 644.802 M
824.781 640.654 L
826.315 636.766 L
828.768 633.382 L
831.985 630.714 L
835.765 628.93 L
839.87 628.142 L
844.041 628.399 L
848.018 629.687 L
851.55 631.922 L
854.414 634.966 L
856.432 638.627 L
857.476 642.674 L
857.481 646.854 L
856.446 650.904 L
854.437 654.569 L
851.579 657.619 L
848.052 659.863 L
844.079 661.159 L
839.908 661.426 L
835.801 660.647 L
832.017 658.872 L
828.794 656.211 L
826.333 652.833 L
824.79 648.948 L
824.261 644.802 L
S
GR
GS
[0.75 0 0 0.75 662.18372 473.86394] CT
0 0 1 RC
10.0 ML
0.667 LW
N
0 -4 M
0 4 L
-4 0 M
4 0 L
-2.828 -2.828 M
2.828 2.828 L
-2.828 2.828 M
2.828 -2.828 L
S
GR
GS
[0.75 0 0 0.75 0 0.5] CT
0 0 1 RC
1 LJ
0.667 LW
N
882.432 635.808 M
882.311 636.124 L
882.269 635.788 L
S
GR
GS
[0.75 0 0 0.75 0 0.5] CT
0 0 1 RC
1 LJ
0.667 LW
N
882.912 631.152 M
882.311 636.124 L
S
GR
GS
[0.75 0 0 0.75 0 0.5] CT
0 0 1 RC
1 LJ
0.667 LW
N
866.237 631.173 M
866.766 635.319 L
868.31 639.203 L
870.771 642.582 L
873.995 645.242 L
877.779 647.017 L
881.885 647.795 L
886.056 647.528 L
890.03 646.231 L
893.556 643.987 L
896.413 640.937 L
898.422 637.271 L
899.457 633.221 L
899.452 629.042 L
898.407 624.994 L
896.389 621.334 L
893.524 618.291 L
889.992 616.055 L
886.016 614.768 L
881.844 614.511 L
877.739 615.299 L
873.96 617.084 L
870.743 619.752 L
868.29 623.137 L
866.756 627.025 L
866.237 631.173 L
S
GR
GS
[0.75 0 0 0.75 662.18335 410.89378] CT
0 0 1 RC
10.0 ML
0.667 LW
N
0 -4 M
0 4 L
-4 0 M
4 0 L
-2.828 -2.828 M
2.828 2.828 L
-2.828 2.828 M
2.828 -2.828 L
S
GR
GS
[0.75 0 0 0.75 0 0.5] CT
0 0 1 RC
1 LJ
0.667 LW
N
882.431 551.848 M
882.311 552.164 L
882.269 551.828 L
S
GR
GS
[0.75 0 0 0.75 0 0.5] CT
0 0 1 RC
1 LJ
0.667 LW
N
882.911 547.192 M
882.311 552.164 L
S
GR
GS
[0.75 0 0 0.75 0 0.5] CT
0 0 1 RC
1 LJ
6.667 LW
N
866.237 547.23 M
866.751 543.082 L
868.281 539.192 L
870.73 535.805 L
873.944 533.133 L
877.722 531.345 L
881.826 530.552 L
885.998 530.805 L
889.976 532.087 L
893.51 534.319 L
896.378 537.359 L
898.4 541.017 L
899.449 545.064 L
899.459 549.243 L
898.429 553.294 L
896.424 556.962 L
893.569 560.015 L
890.046 562.263 L
886.073 563.564 L
881.903 563.836 L
877.795 563.063 L
874.009 561.292 L
870.783 558.635 L
868.318 555.259 L
866.77 551.376 L
866.237 547.23 L
S
GR
GS
[0.75 0 0 0.75 693.6655 442.37918] CT
0 0 1 RC
10.0 ML
0.667 LW
N
0 -4 M
0 4 L
-4 0 M
4 0 L
-2.828 -2.828 M
2.828 2.828 L
-2.828 2.828 M
2.828 -2.828 L
S
GR
GS
[0.75 0 0 0.75 0 0.5] CT
0 0 1 RC
1 LJ
0.667 LW
N
924.408 593.828 M
924.287 594.144 L
924.245 593.809 L
S
GR
GS
[0.75 0 0 0.75 0 0.5] CT
0 0 1 RC
1 LJ
0.667 LW
N
924.887 589.172 M
924.287 594.144 L
S
GR
GS
[0.75 0 0 0.75 0 0.5] CT
0 0 1 RC
1 LJ
6.667 LW
N
908.213 589.194 M
908.732 585.046 L
910.265 581.158 L
912.718 577.773 L
915.935 575.105 L
919.714 573.32 L
923.819 572.531 L
927.991 572.789 L
931.967 574.075 L
935.499 576.31 L
938.364 579.353 L
940.383 583.014 L
941.427 587.061 L
941.433 591.241 L
940.398 595.291 L
938.39 598.956 L
935.532 602.007 L
932.006 604.251 L
928.033 605.548 L
923.862 605.816 L
919.755 605.038 L
915.971 603.263 L
912.747 600.603 L
910.286 597.224 L
908.742 593.34 L
908.213 589.194 L
S
GR
GS
[0.75 0 0 0.75 630.70189 473.86398] CT
0 0 1 RC
10.0 ML
0.667 LW
N
0 -4 M
0 4 L
-4 0 M
4 0 L
-2.828 -2.828 M
2.828 2.828 L
-2.828 2.828 M
2.828 -2.828 L
S
GR
GS
[0.75 0 0 0.75 0 0.5] CT
0 0 1 RC
1 LJ
0.667 LW
N
840.456 635.808 M
840.335 636.124 L
840.293 635.788 L
S
GR
GS
[0.75 0 0 0.75 0 0.5] CT
0 0 1 RC
1 LJ
0.667 LW
N
840.936 631.152 M
840.335 636.124 L
S
GR
GS
[0.75 0 0 0.75 0 0.5] CT
0 0 1 RC
1 LJ
6.667 LW
N
824.262 631.172 M
824.791 635.319 L
826.334 639.203 L
828.795 642.582 L
832.019 645.242 L
835.803 647.017 L
839.909 647.795 L
844.08 647.528 L
848.054 646.231 L
851.58 643.987 L
854.438 640.937 L
856.447 637.271 L
857.481 633.222 L
857.476 629.042 L
856.432 624.995 L
854.414 621.334 L
851.549 618.291 L
848.017 616.055 L
844.04 614.769 L
839.868 614.511 L
835.764 615.299 L
831.984 617.084 L
828.767 619.752 L
826.314 623.137 L
824.78 627.025 L
824.262 631.172 L
S
GR
GS
[0.75 0 0 0.75 667.2794 478.97528] CT
0 0 1 RC
10.0 ML
0.667 LW
N
0 -4 M
0 4 L
-4 0 M
4 0 L
-2.828 -2.828 M
2.828 2.828 L
-2.828 2.828 M
2.828 -2.828 L
S
GR
GS
[0.75 0 0 0.75 0 0.5] CT
0 0 1 RC
1 LJ
0.667 LW
N
889.226 642.623 M
889.105 642.939 L
889.063 642.604 L
S
GR
GS
[0.75 0 0 0.75 0 0.5] CT
0 0 1 RC
1 LJ
0.667 LW
N
889.706 637.967 M
889.105 642.939 L
S
GR
GS
[0.75 0 0 0.75 0 0.5] CT
0 0 1 RC
1 LJ
0.667 LW
N
873.032 637.985 M
873.551 633.838 L
875.085 629.95 L
877.538 626.566 L
880.756 623.898 L
884.536 622.114 L
888.641 621.326 L
892.812 621.584 L
896.789 622.871 L
900.32 625.107 L
903.185 628.151 L
905.202 631.811 L
906.246 635.859 L
906.251 640.039 L
905.216 644.088 L
903.206 647.753 L
900.349 650.804 L
896.822 653.047 L
892.848 654.343 L
888.677 654.61 L
884.571 653.832 L
880.787 652.056 L
877.563 649.395 L
875.103 646.016 L
873.56 642.132 L
873.032 637.985 L
S
GR
GS
[0.75 0 0 0.75 667.27963 416.00627] CT
0 0 1 RC
10.0 ML
0.667 LW
N
0 -4 M
0 4 L
-4 0 M
4 0 L
-2.828 -2.828 M
2.828 2.828 L
-2.828 2.828 M
2.828 -2.828 L
S
GR
GS
[0.75 0 0 0.75 0 0.5] CT
0 0 1 RC
1 LJ
0.667 LW
N
889.227 558.664 M
889.106 558.98 L
889.064 558.645 L
S
GR
GS
[0.75 0 0 0.75 0 0.5] CT
0 0 1 RC
1 LJ
0.667 LW
N
889.706 554.008 M
889.106 558.98 L
S
GR
GS
[0.75 0 0 0.75 0 0.5] CT
0 0 1 RC
1 LJ
6.667 LW
N
873.032 554.03 M
873.55 549.882 L
875.084 545.994 L
877.536 542.609 L
880.753 539.941 L
884.533 538.156 L
888.638 537.368 L
892.809 537.625 L
896.786 538.911 L
900.318 541.146 L
903.183 544.19 L
905.201 547.85 L
906.246 551.897 L
906.252 556.077 L
905.217 560.127 L
903.209 563.792 L
900.351 566.843 L
896.825 569.087 L
892.852 570.384 L
888.681 570.652 L
884.574 569.874 L
880.79 568.099 L
877.566 565.439 L
875.105 562.06 L
873.561 558.176 L
873.032 554.03 L
S
GR
GS
[0.75 0 0 0.75 698.76091 447.48943] CT
0 0 1 RC
10.0 ML
0.667 LW
N
0 -4 M
0 4 L
-4 0 M
4 0 L
-2.828 -2.828 M
2.828 2.828 L
-2.828 2.828 M
2.828 -2.828 L
S
GR
GS
[0.75 0 0 0.75 0 0.5] CT
0 0 1 RC
1 LJ
0.667 LW
N
931.202 600.642 M
931.081 600.958 L
931.039 600.622 L
S
GR
GS
[0.75 0 0 0.75 0 0.5] CT
0 0 1 RC
1 LJ
0.667 LW
N
931.681 595.986 M
931.081 600.958 L
S
GR
GS
[0.75 0 0 0.75 0 0.5] CT
0 0 1 RC
1 LJ
0.667 LW
N
915.007 596.011 M
915.537 600.157 L
917.082 604.041 L
919.543 607.419 L
922.768 610.079 L
926.552 611.853 L
930.659 612.63 L
934.83 612.361 L
938.803 611.063 L
942.329 608.818 L
945.186 605.767 L
947.194 602.101 L
948.227 598.051 L
948.221 593.871 L
947.175 589.824 L
945.156 586.164 L
942.291 583.122 L
938.758 580.887 L
934.781 579.602 L
930.609 579.345 L
926.505 580.135 L
922.726 581.92 L
919.509 584.589 L
917.057 587.975 L
915.525 591.863 L
915.007 596.011 L
S
GR
GS
[0.75 0 0 0.75 668.10654 479.89946] CT
0 0 1 RC
10.0 ML
0.667 LW
N
0 -4 M
0 4 L
-4 0 M
4 0 L
-2.828 -2.828 M
2.828 2.828 L
-2.828 2.828 M
2.828 -2.828 L
S
GR
GS
[0.75 0 0 0.75 0 0.5] CT
0 0 1 RC
1 LJ
0.667 LW
N
890.329 643.855 M
890.208 644.171 L
890.166 643.836 L
S
GR
GS
[0.75 0 0 0.75 0 0.5] CT
0 0 1 RC
1 LJ
0.667 LW
N
890.809 639.199 M
890.208 644.171 L
S
GR
GS
[0.75 0 0 0.75 0 0.5] CT
0 0 1 RC
1 LJ
6.667 LW
N
874.135 639.22 M
874.664 643.367 L
876.207 647.251 L
878.668 650.629 L
881.892 653.29 L
885.676 655.065 L
889.783 655.843 L
893.954 655.575 L
897.927 654.278 L
901.453 652.034 L
904.311 648.984 L
906.32 645.318 L
907.354 641.268 L
907.349 637.088 L
906.304 633.041 L
904.286 629.381 L
901.421 626.338 L
897.889 624.102 L
893.912 622.816 L
889.741 622.559 L
885.636 623.347 L
881.856 625.131 L
878.639 627.8 L
876.187 631.185 L
874.653 635.073 L
874.135 639.22 L
S
GR
GS
[0.75 0 0 0.75 699.58804 448.41425] CT
0 0 1 RC
10.0 ML
0.667 LW
N
0 -4 M
0 4 L
-4 0 M
4 0 L
-2.828 -2.828 M
2.828 2.828 L
-2.828 2.828 M
2.828 -2.828 L
S
GR
GS
[0.75 0 0 0.75 0 0.5] CT
0 0 1 RC
1 LJ
0.667 LW
N
932.304 601.875 M
932.184 602.191 L
932.141 601.855 L
S
GR
GS
[0.75 0 0 0.75 0 0.5] CT
0 0 1 RC
1 LJ
0.667 LW
N
932.784 597.219 M
932.184 602.191 L
S
GR
GS
[0.75 0 0 0.75 0 0.5] CT
0 0 1 RC
1 LJ
6.667 LW
N
916.11 597.258 M
916.643 601.403 L
918.191 605.286 L
920.655 608.662 L
923.882 611.319 L
927.668 613.09 L
931.776 613.864 L
935.946 613.591 L
939.918 612.291 L
943.442 610.043 L
946.296 606.989 L
948.302 603.322 L
949.332 599.271 L
949.322 595.091 L
948.273 591.045 L
946.251 587.386 L
943.383 584.346 L
939.849 582.115 L
935.871 580.832 L
931.699 580.579 L
927.595 581.372 L
923.817 583.16 L
920.603 585.832 L
918.154 589.22 L
916.624 593.109 L
916.11 597.258 L
S
GR
GS
[0.75 0 0 0.75 661.35603 485.9342] CT
0 0 1 RC
10.0 ML
0.667 LW
N
0 -4 M
0 4 L
-4 0 M
4 0 L
-2.828 -2.828 M
2.828 2.828 L
-2.828 2.828 M
2.828 -2.828 L
S
GR
GS
[0.75 0 0 0.75 0 0.5] CT
0 0 1 RC
1 LJ
0.667 LW
N
881.328 651.902 M
881.208 652.218 L
881.165 651.882 L
S
GR
GS
[0.75 0 0 0.75 0 0.5] CT
0 0 1 RC
1 LJ
0.667 LW
N
881.808 647.246 M
881.208 652.218 L
S
GR
GS
[0.75 0 0 0.75 0 0.5] CT
0 0 1 RC
1 LJ
0.667 LW
N
865.134 647.271 M
865.651 643.123 L
867.184 639.234 L
869.636 635.849 L
872.852 633.18 L
876.631 631.394 L
880.736 630.605 L
884.908 630.861 L
888.885 632.147 L
892.417 634.381 L
895.283 637.424 L
897.302 641.084 L
898.348 645.131 L
898.354 649.311 L
897.321 653.361 L
895.313 657.027 L
892.456 660.078 L
888.93 662.323 L
884.957 663.621 L
880.786 663.889 L
876.679 663.112 L
872.895 661.338 L
869.67 658.679 L
867.208 655.301 L
865.664 651.417 L
865.134 647.271 L
S
GR
GS
[0.75 0 0 0.75 629.87485 485.93535] CT
0 0 1 RC
10.0 ML
0.667 LW
N
0 -4 M
0 4 L
-4 0 M
4 0 L
-2.828 -2.828 M
2.828 2.828 L
-2.828 2.828 M
2.828 -2.828 L
S
GR
GS
[0.75 0 0 0.75 0 0.5] CT
0 0 1 RC
1 LJ
0.667 LW
N
839.354 651.903 M
839.233 652.219 L
839.191 651.884 L
S
GR
GS
[0.75 0 0 0.75 0 0.5] CT
0 0 1 RC
1 LJ
0.667 LW
N
839.833 647.247 M
839.233 652.219 L
S
GR
GS
[0.75 0 0 0.75 0 0.5] CT
0 0 1 RC
1 LJ
0.667 LW
N
823.159 647.268 M
823.678 643.121 L
825.211 639.232 L
827.664 635.848 L
830.881 633.179 L
834.66 631.395 L
838.765 630.606 L
842.937 630.864 L
846.914 632.15 L
850.445 634.385 L
853.31 637.429 L
855.329 641.089 L
856.373 645.136 L
856.378 649.316 L
855.344 653.366 L
853.335 657.031 L
850.478 660.082 L
846.952 662.326 L
842.978 663.623 L
838.807 663.891 L
834.701 663.113 L
830.917 661.338 L
827.693 658.677 L
825.232 655.299 L
823.688 651.414 L
823.159 647.268 L
S
GR
GS
[0.75 0 0 0.75 656.26057 485.93549] CT
0 0 1 RC
10.0 ML
0.667 LW
N
0 -4 M
0 4 L
-4 0 M
4 0 L
-2.828 -2.828 M
2.828 2.828 L
-2.828 2.828 M
2.828 -2.828 L
S
GR
GS
[0.75 0 0 0.75 0 0.5] CT
0 0 1 RC
1 LJ
0.667 LW
N
874.534 651.903 M
874.414 652.219 L
874.372 651.884 L
S
GR
GS
[0.75 0 0 0.75 0 0.5] CT
0 0 1 RC
1 LJ
0.667 LW
N
875.014 647.247 M
874.414 652.219 L
S
GR
GS
[0.75 0 0 0.75 0 0.5] CT
0 0 1 RC
1 LJ
0.667 LW
N
858.34 647.27 M
858.858 643.122 L
860.392 639.234 L
862.844 635.849 L
866.061 633.18 L
869.84 631.395 L
873.945 630.607 L
878.117 630.863 L
882.093 632.15 L
885.625 634.385 L
888.491 637.428 L
890.509 641.088 L
891.554 645.135 L
891.56 649.315 L
890.526 653.365 L
888.517 657.03 L
885.66 660.081 L
882.134 662.326 L
878.161 663.623 L
873.99 663.891 L
869.883 663.113 L
866.099 661.338 L
862.875 658.678 L
860.413 655.3 L
858.869 651.416 L
858.34 647.27 L
S
GR
GS
[0.75 0 0 0.75 624.77866 485.93475] CT
0 0 1 RC
10.0 ML
0.667 LW
N
0 -4 M
0 4 L
-4 0 M
4 0 L
-2.828 -2.828 M
2.828 2.828 L
-2.828 2.828 M
2.828 -2.828 L
S
GR
GS
[0.75 0 0 0.75 0 0.5] CT
0 0 1 RC
1 LJ
0.667 LW
N
832.559 651.902 M
832.438 652.218 L
832.396 651.883 L
S
GR
GS
[0.75 0 0 0.75 0 0.5] CT
0 0 1 RC
1 LJ
0.667 LW
N
833.038 647.246 M
832.438 652.218 L
S
GR
GS
[0.75 0 0 0.75 0 0.5] CT
0 0 1 RC
1 LJ
6.667 LW
N
816.364 647.285 M
816.897 651.431 L
818.445 655.313 L
820.91 658.689 L
824.136 661.346 L
827.922 663.117 L
832.03 663.891 L
836.201 663.619 L
840.173 662.318 L
843.696 660.07 L
846.551 657.017 L
848.556 653.349 L
849.586 649.298 L
849.576 645.118 L
848.527 641.072 L
846.505 637.414 L
843.637 634.373 L
840.103 632.142 L
836.125 630.859 L
831.953 630.607 L
827.849 631.399 L
824.071 633.188 L
820.857 635.86 L
818.408 639.247 L
816.878 643.137 L
816.364 647.285 L
S
GR
GS
[0.75 0 0 0.75 0 0.5] CT
1 GC
N
/f14552094{1449 217 M
1449 84 L
1249 84 L
1249 217 L
cp}def
f14552094
f
GR
GS
[0.75 0 0 0.75 972 77] CT
/Helvetica-Bold 26.667 F
GS
[1 0 0 1 0 0] CT
0 9 moveto 
1 -1 scale
(LandMark) t 
GR
GR
GS
[0.75 0 0 0.75 954.75 77] CT
1 0 0 RC
N
/f935408997{0 -17.773 M
-15.392 8.887 L
15.392 8.887 L
cp}def
f935408997
f
GR
GS
[0.75 0 0 0.75 954.75 77] CT
0 0 1 RC
10.0 ML
0.667 LW
N
0 -17.773 M
-15.392 8.887 L
15.392 8.887 L
cp
S
GR
GS
[0.75 0 0 0.75 972 114.5] CT
/Helvetica-Bold 26.667 F
GS
[1 0 0 1 0 0] CT
0 0 moveto 
1 -1 scale
(b) t 
GR
GR
GS
[0.75 0 0 0.75 987 104.75] CT
/Helvetica-Bold 21.333 F
GS
[1 0 0 1 0 0] CT
0 0 moveto 
1 -1 scale
(-) t 
GR
GR
GS
[0.75 0 0 0.75 993.75 114.5] CT
/Helvetica-Bold 26.667 F
GS
[1 0 0 1 0 0] CT
0 0 moveto 
1 -1 scale
([X) t 
GR
GR
GS
[0.75 0 0 0.75 1018.5 124.25] CT
/Helvetica-Bold 21.333 F
GS
[1 0 0 1 0 0] CT
0 0 moveto 
1 -1 scale
(k) t 
GR
GR
GS
[0.75 0 0 0.75 1029.75 114.5] CT
/Helvetica-Bold 26.667 F
GS
[1 0 0 1 0 0] CT
0 0 moveto 
1 -1 scale
(]) t 
GR
GR
GS
[0.75 0 0 0.75 0 0.5] CT
0 1 1 RC
1 LJ
0.667 LW
N
1253 144.5 M
1293 144.5 L
S
GR
GS
[0.75 0 0 0.75 0 0.5] CT
0 1 1 RC
1 LJ
0.667 LW
N
1281 149.3 M
1293 144.5 L
1281 139.7 L
S
GR
GS
[0.75 0 0 0.75 972 147.5] CT
/Helvetica-Bold 26.667 F
GS
[1 0 0 1 0 0] CT
0 0 moveto 
1 -1 scale
(b[X) t 
GR
GR
GS
[0.75 0 0 0.75 1011 157.25] CT
/Helvetica-Bold 21.333 F
GS
[1 0 0 1 0 0] CT
0 0 moveto 
1 -1 scale
(k) t 
GR
GR
GS
[0.75 0 0 0.75 1022.25 147.5] CT
/Helvetica-Bold 26.667 F
GS
[1 0 0 1 0 0] CT
0 0 moveto 
1 -1 scale
(]) t 
GR
GR
GS
[0.75 0 0 0.75 0 0.5] CT
0 0 1 RC
1 LJ
0.667 LW
N
1253 193 M
1293 193 L
S
GR
GS
[0.75 0 0 0.75 0 0.5] CT
0.149 GC
10.0 ML
0.667 LW
N
1249 217 M
1249 84 L
1449 84 L
1449 217 L
cp
S
GR
%%Trailer
%%Pages: 1
%%EOF
