%!PS-Adobe-3.0 EPSF-3.0
%%Creator: (MATLAB, The Mathworks, Inc. Version 9.8.0.1380330 \(R2020a\) Update 2. Operating System: Linux)
%%Title: (/home/ohads/ANPL/papers/research/2021 RAL/Figures/TestCase_1/fig_files/WeightCompresent.eps)
%%CreationDate: 2021-02-21T16:00:44
%%Pages: (atend)
%%BoundingBox:   136    35  1304   701
%%LanguageLevel: 3
%%EndComments
%%BeginProlog
%%BeginResource: procset (Apache XML Graphics Std ProcSet) 1.2 0
%%Version: 1.2 0
%%Copyright: (Copyright 2001-2003,2010 The Apache Software Foundation. License terms: http://www.apache.org/licenses/LICENSE-2.0)
/bd{bind def}bind def
/ld{load def}bd
/GR/grestore ld
/GS/gsave ld
/RM/rmoveto ld
/C/curveto ld
/t/show ld
/L/lineto ld
/ML/setmiterlimit ld
/CT/concat ld
/f/fill ld
/N/newpath ld
/S/stroke ld
/CC/setcmykcolor ld
/A/ashow ld
/cp/closepath ld
/RC/setrgbcolor ld
/LJ/setlinejoin ld
/GC/setgray ld
/LW/setlinewidth ld
/M/moveto ld
/re {4 2 roll M
1 index 0 rlineto
0 exch rlineto
neg 0 rlineto
cp } bd
/_ctm matrix def
/_tm matrix def
/BT { _ctm currentmatrix pop matrix _tm copy pop 0 0 moveto } bd
/ET { _ctm setmatrix } bd
/iTm { _ctm setmatrix _tm concat } bd
/Tm { _tm astore pop iTm 0 0 moveto } bd
/ux 0.0 def
/uy 0.0 def
/F {
  /Tp exch def
  /Tf exch def
  Tf findfont Tp scalefont setfont
  /cf Tf def  /cs Tp def
} bd
/ULS {currentpoint /uy exch def /ux exch def} bd
/ULE {
  /Tcx currentpoint pop def
  gsave
  newpath
  cf findfont cs scalefont dup
  /FontMatrix get 0 get /Ts exch def /FontInfo get dup
  /UnderlinePosition get Ts mul /To exch def
  /UnderlineThickness get Ts mul /Tt exch def
  ux uy To add moveto  Tcx uy To add lineto
  Tt setlinewidth stroke
  grestore
} bd
/OLE {
  /Tcx currentpoint pop def
  gsave
  newpath
  cf findfont cs scalefont dup
  /FontMatrix get 0 get /Ts exch def /FontInfo get dup
  /UnderlinePosition get Ts mul /To exch def
  /UnderlineThickness get Ts mul /Tt exch def
  ux uy To add cs add moveto Tcx uy To add cs add lineto
  Tt setlinewidth stroke
  grestore
} bd
/SOE {
  /Tcx currentpoint pop def
  gsave
  newpath
  cf findfont cs scalefont dup
  /FontMatrix get 0 get /Ts exch def /FontInfo get dup
  /UnderlinePosition get Ts mul /To exch def
  /UnderlineThickness get Ts mul /Tt exch def
  ux uy To add cs 10 mul 26 idiv add moveto Tcx uy To add cs 10 mul 26 idiv add lineto
  Tt setlinewidth stroke
  grestore
} bd
/QT {
/Y22 exch store
/X22 exch store
/Y21 exch store
/X21 exch store
currentpoint
/Y21 load 2 mul add 3 div exch
/X21 load 2 mul add 3 div exch
/X21 load 2 mul /X22 load add 3 div
/Y21 load 2 mul /Y22 load add 3 div
/X22 load /Y22 load curveto
} bd
/SSPD {
dup length /d exch dict def
{
/v exch def
/k exch def
currentpagedevice k known {
/cpdv currentpagedevice k get def
v cpdv ne {
/upd false def
/nullv v type /nulltype eq def
/nullcpdv cpdv type /nulltype eq def
nullv nullcpdv or
{
/upd true def
} {
/sametype v type cpdv type eq def
sametype {
v type /arraytype eq {
/vlen v length def
/cpdvlen cpdv length def
vlen cpdvlen eq {
0 1 vlen 1 sub {
/i exch def
/obj v i get def
/cpdobj cpdv i get def
obj cpdobj ne {
/upd true def
exit
} if
} for
} {
/upd true def
} ifelse
} {
v type /dicttype eq {
v {
/dv exch def
/dk exch def
/cpddv cpdv dk get def
dv cpddv ne {
/upd true def
exit
} if
} forall
} {
/upd true def
} ifelse
} ifelse
} if
} ifelse
upd true eq {
d k v put
} if
} if
} if
} forall
d length 0 gt {
d setpagedevice
} if
} bd
/RE { % /NewFontName [NewEncodingArray] /FontName RE -
  findfont dup length dict begin
  {
    1 index /FID ne
    {def} {pop pop} ifelse
  } forall
  /Encoding exch def
  /FontName 1 index def
  currentdict definefont pop
  end
} bind def
%%EndResource
%%BeginResource: procset (Apache XML Graphics EPS ProcSet) 1.0 0
%%Version: 1.0 0
%%Copyright: (Copyright 2002-2003 The Apache Software Foundation. License terms: http://www.apache.org/licenses/LICENSE-2.0)
/BeginEPSF { %def
/b4_Inc_state save def         % Save state for cleanup
/dict_count countdictstack def % Count objects on dict stack
/op_count count 1 sub def      % Count objects on operand stack
userdict begin                 % Push userdict on dict stack
/showpage { } def              % Redefine showpage, { } = null proc
0 setgray 0 setlinecap         % Prepare graphics state
1 setlinewidth 0 setlinejoin
10 setmiterlimit [ ] 0 setdash newpath
/languagelevel where           % If level not equal to 1 then
{pop languagelevel             % set strokeadjust and
1 ne                           % overprint to their defaults.
{false setstrokeadjust false setoverprint
} if
} if
} bd
/EndEPSF { %def
count op_count sub {pop} repeat            % Clean up stacks
countdictstack dict_count sub {end} repeat
b4_Inc_state restore
} bd
%%EndResource
%FOPBeginFontDict
%%IncludeResource: font Courier-Oblique
%%IncludeResource: font Courier-BoldOblique
%%IncludeResource: font Courier-Bold
%%IncludeResource: font ZapfDingbats
%%IncludeResource: font Symbol
%%IncludeResource: font Helvetica
%%IncludeResource: font Helvetica-Oblique
%%IncludeResource: font Helvetica-Bold
%%IncludeResource: font Helvetica-BoldOblique
%%IncludeResource: font Times-Roman
%%IncludeResource: font Times-Italic
%%IncludeResource: font Times-Bold
%%IncludeResource: font Times-BoldItalic
%%IncludeResource: font Courier
%FOPEndFontDict
%%BeginResource: encoding WinAnsiEncoding
/WinAnsiEncoding [
/.notdef /.notdef /.notdef /.notdef /.notdef
/.notdef /.notdef /.notdef /.notdef /.notdef
/.notdef /.notdef /.notdef /.notdef /.notdef
/.notdef /.notdef /.notdef /.notdef /.notdef
/.notdef /.notdef /.notdef /.notdef /.notdef
/.notdef /.notdef /.notdef /.notdef /.notdef
/.notdef /.notdef /space /exclam /quotedbl
/numbersign /dollar /percent /ampersand /quotesingle
/parenleft /parenright /asterisk /plus /comma
/hyphen /period /slash /zero /one
/two /three /four /five /six
/seven /eight /nine /colon /semicolon
/less /equal /greater /question /at
/A /B /C /D /E
/F /G /H /I /J
/K /L /M /N /O
/P /Q /R /S /T
/U /V /W /X /Y
/Z /bracketleft /backslash /bracketright /asciicircum
/underscore /quoteleft /a /b /c
/d /e /f /g /h
/i /j /k /l /m
/n /o /p /q /r
/s /t /u /v /w
/x /y /z /braceleft /bar
/braceright /asciitilde /bullet /Euro /bullet
/quotesinglbase /florin /quotedblbase /ellipsis /dagger
/daggerdbl /circumflex /perthousand /Scaron /guilsinglleft
/OE /bullet /Zcaron /bullet /bullet
/quoteleft /quoteright /quotedblleft /quotedblright /bullet
/endash /emdash /asciitilde /trademark /scaron
/guilsinglright /oe /bullet /zcaron /Ydieresis
/space /exclamdown /cent /sterling /currency
/yen /brokenbar /section /dieresis /copyright
/ordfeminine /guillemotleft /logicalnot /sfthyphen /registered
/macron /degree /plusminus /twosuperior /threesuperior
/acute /mu /paragraph /middot /cedilla
/onesuperior /ordmasculine /guillemotright /onequarter /onehalf
/threequarters /questiondown /Agrave /Aacute /Acircumflex
/Atilde /Adieresis /Aring /AE /Ccedilla
/Egrave /Eacute /Ecircumflex /Edieresis /Igrave
/Iacute /Icircumflex /Idieresis /Eth /Ntilde
/Ograve /Oacute /Ocircumflex /Otilde /Odieresis
/multiply /Oslash /Ugrave /Uacute /Ucircumflex
/Udieresis /Yacute /Thorn /germandbls /agrave
/aacute /acircumflex /atilde /adieresis /aring
/ae /ccedilla /egrave /eacute /ecircumflex
/edieresis /igrave /iacute /icircumflex /idieresis
/eth /ntilde /ograve /oacute /ocircumflex
/otilde /odieresis /divide /oslash /ugrave
/uacute /ucircumflex /udieresis /yacute /thorn
/ydieresis
] def
%%EndResource
%FOPBeginFontReencode
/Courier-Oblique findfont
dup length dict begin
  {1 index /FID ne {def} {pop pop} ifelse} forall
  /Encoding WinAnsiEncoding def
  currentdict
end
/Courier-Oblique exch definefont pop
/Courier-BoldOblique findfont
dup length dict begin
  {1 index /FID ne {def} {pop pop} ifelse} forall
  /Encoding WinAnsiEncoding def
  currentdict
end
/Courier-BoldOblique exch definefont pop
/Courier-Bold findfont
dup length dict begin
  {1 index /FID ne {def} {pop pop} ifelse} forall
  /Encoding WinAnsiEncoding def
  currentdict
end
/Courier-Bold exch definefont pop
/Helvetica findfont
dup length dict begin
  {1 index /FID ne {def} {pop pop} ifelse} forall
  /Encoding WinAnsiEncoding def
  currentdict
end
/Helvetica exch definefont pop
/Helvetica-Oblique findfont
dup length dict begin
  {1 index /FID ne {def} {pop pop} ifelse} forall
  /Encoding WinAnsiEncoding def
  currentdict
end
/Helvetica-Oblique exch definefont pop
/Helvetica-Bold findfont
dup length dict begin
  {1 index /FID ne {def} {pop pop} ifelse} forall
  /Encoding WinAnsiEncoding def
  currentdict
end
/Helvetica-Bold exch definefont pop
/Helvetica-BoldOblique findfont
dup length dict begin
  {1 index /FID ne {def} {pop pop} ifelse} forall
  /Encoding WinAnsiEncoding def
  currentdict
end
/Helvetica-BoldOblique exch definefont pop
/Times-Roman findfont
dup length dict begin
  {1 index /FID ne {def} {pop pop} ifelse} forall
  /Encoding WinAnsiEncoding def
  currentdict
end
/Times-Roman exch definefont pop
/Times-Italic findfont
dup length dict begin
  {1 index /FID ne {def} {pop pop} ifelse} forall
  /Encoding WinAnsiEncoding def
  currentdict
end
/Times-Italic exch definefont pop
/Times-Bold findfont
dup length dict begin
  {1 index /FID ne {def} {pop pop} ifelse} forall
  /Encoding WinAnsiEncoding def
  currentdict
end
/Times-Bold exch definefont pop
/Times-BoldItalic findfont
dup length dict begin
  {1 index /FID ne {def} {pop pop} ifelse} forall
  /Encoding WinAnsiEncoding def
  currentdict
end
/Times-BoldItalic exch definefont pop
/Courier findfont
dup length dict begin
  {1 index /FID ne {def} {pop pop} ifelse} forall
  /Encoding WinAnsiEncoding def
  currentdict
end
/Courier exch definefont pop
%FOPEndFontReencode
%%EndProlog
%%Page: 1 1
%%PageBoundingBox: 0 0 1440 748
%%BeginPageSetup
[1 0 0 -1 0 748] CT
%%EndPageSetup
GS
[0.75 0 0 0.75 0 0.25] CT
N
0 0 M
1920 0 L
1920 997 L
0 997 L
0 0 L
cp
clip
1 GC
N
0 0 1920 997 re
f
GR
GS
[0.75 0 0 0.75 0 0.25] CT
1 GC
N
0 0 1920 997 re
f
GR
GS
[0.75 0 0 0.75 0 0.25] CT
1 GC
N
250 887 M
1738 887 L
1738 75 L
250 75 L
cp
f
GR
GS
[0.75 0 0 0.75 0 0.25] CT
0.149 GC
2 setlinecap
1 LJ
0.667 LW
N
250 887 M
1738 887 L
S
GR
GS
[0.75 0 0 0.75 0 0.25] CT
0.149 GC
2 setlinecap
1 LJ
0.667 LW
N
622 887 M
622 872.12 L
S
GR
GS
[0.75 0 0 0.75 0 0.25] CT
0.149 GC
2 setlinecap
1 LJ
0.667 LW
N
1366 887 M
1366 872.12 L
S
GR
GS
[0.75 0 0 0.75 411.75 695.5] CT
0.149 GC
/Helvetica-Bold 33.333 F
GS
[1 0 0 1 0 0] CT
0 0 moveto 
1 -1 scale
(w) t 
GR
GR
GS
[0.75 0 0 0.75 435 707.5] CT
0.149 GC
/Helvetica-Bold 26.667 F
GS
[1 0 0 1 0 0] CT
0 0 moveto 
1 -1 scale
(k-9) t 
GR
GR
GS
[0.75 0 0 0.75 471 707.5] CT
0.149 GC
N
3.219 6.266 M
3.219 -19.766 L
3.219 -19.969 3.375 -20.109 QT
3.531 -20.25 3.75 -20.25 QT
4.953 -20.25 5.125 -20.109 QT
5.297 -19.969 5.297 -19.766 QT
5.297 6.266 L
5.297 6.469 5.125 6.609 QT
4.953 6.75 3.75 6.75 QT
3.531 6.75 3.375 6.609 QT
3.219 6.469 3.219 6.266 QT
cp
f
GR
GS
[0.75 0 0 0.75 477.75 707.5] CT
0.149 GC
/Helvetica-Bold 26.667 F
GS
[1 0 0 1 0 0] CT
0 0 moveto 
1 -1 scale
( k-9) t 
GR
GR
GS
[0.75 0 0 0.75 981 695.5] CT
0.149 GC
/Helvetica-Bold 33.333 F
GS
[1 0 0 1 0 0] CT
0 0 moveto 
1 -1 scale
(w) t 
GR
GR
GS
[0.75 0 0 0.75 1004.25 707.5] CT
0.149 GC
/Helvetica-Bold 26.667 F
GS
[1 0 0 1 0 0] CT
0 0 moveto 
1 -1 scale
(k-9) t 
GR
GR
GS
[0.75 0 0 0.75 1040.25 707.5] CT
0.149 GC
N
/f1354345787{3.219 6.266 M
3.219 -19.766 L
3.219 -19.969 3.375 -20.109 QT
3.531 -20.25 3.75 -20.25 QT
4.953 -20.25 5.125 -20.109 QT
5.297 -19.969 5.297 -19.766 QT
5.297 6.266 L
5.297 6.469 5.125 6.609 QT
4.953 6.75 3.75 6.75 QT
3.531 6.75 3.375 6.609 QT
3.219 6.469 3.219 6.266 QT
cp}def
f1354345787
f
GR
GS
[0.75 0 0 0.75 1047 707.5] CT
0.149 GC
/Helvetica-Bold 26.667 F
GS
[1 0 0 1 0 0] CT
0 0 moveto 
1 -1 scale
( k) t 
GR
GR
GS
[0.75 0 0 0.75 0 0.25] CT
0.149 GC
2 setlinecap
1 LJ
0.667 LW
N
250 887 M
250 75 L
S
GR
GS
[0.75 0 0 0.75 0 0.25] CT
0.149 GC
2 setlinecap
1 LJ
0.667 LW
N
250 887 M
264.88 887 L
S
GR
GS
[0.75 0 0 0.75 0 0.25] CT
0.149 GC
2 setlinecap
1 LJ
0.667 LW
N
250 616.333 M
264.88 616.333 L
S
GR
GS
[0.75 0 0 0.75 0 0.25] CT
0.149 GC
2 setlinecap
1 LJ
0.667 LW
N
250 345.667 M
264.88 345.667 L
S
GR
GS
[0.75 0 0 0.75 0 0.25] CT
0.149 GC
2 setlinecap
1 LJ
0.667 LW
N
250 75 M
264.88 75 L
S
GR
GS
[0.75 0 0 0.75 180.49999 665.5] CT
0.149 GC
/Helvetica-Bold 33.333 F
GS
[1 0 0 1 0 0] CT
-24 11.5 moveto 
1 -1 scale
(0) t 
GR
GR
GS
[0.75 0 0 0.75 180.49999 462.49998] CT
0.149 GC
/Helvetica-Bold 33.333 F
GS
[1 0 0 1 0 0] CT
-60 11.5 moveto 
1 -1 scale
(0.5) t 
GR
GR
GS
[0.75 0 0 0.75 180.49999 259.49999] CT
0.149 GC
/Helvetica-Bold 33.333 F
GS
[1 0 0 1 0 0] CT
-24 11.5 moveto 
1 -1 scale
(1) t 
GR
GR
GS
[0.75 0 0 0.75 180.49999 56.5] CT
0.149 GC
/Helvetica-Bold 33.333 F
GS
[1 0 0 1 0 0] CT
-60 11.5 moveto 
1 -1 scale
(1.5) t 
GR
GR
GS
[0.75 0 0 0.75 0 0.25] CT
0.149 GC
1 LJ
0.667 LW
N
250 887 M
1738 887 L
S
GR
GS
[0.75 0 0 0.75 0 0.25] CT
0 0.447 0.741 RC
N
473.2 887 M
473.2 732.092 L
364.982 732.092 L
364.982 887 L
cp
1217.2 887 M
1217.2 828.949 L
1108.982 828.949 L
1108.982 887 L
cp
f
GR
GS
[0.75 0 0 0.75 0 0.25] CT
10.0 ML
0.667 LW
N
364.982 887 M
364.982 732.092 L
473.2 732.092 L
473.2 887 L
cp
S
GR
GS
[0.75 0 0 0.75 0 0.25] CT
10.0 ML
0.667 LW
N
1108.982 887 M
1108.982 828.949 L
1217.2 828.949 L
1217.2 887 L
cp
S
GR
GS
[0.75 0 0 0.75 0 0.25] CT
0.851 0.325 0.098 RC
N
608.473 887 M
608.473 693.243 L
500.255 693.243 L
500.255 887 L
cp
1352.473 887 M
1352.473 417.853 L
1244.255 417.853 L
1244.255 887 L
cp
f
GR
GS
[0.75 0 0 0.75 0 0.25] CT
10.0 ML
0.667 LW
N
500.255 887 M
500.255 693.243 L
608.473 693.243 L
608.473 887 L
cp
S
GR
GS
[0.75 0 0 0.75 0 0.25] CT
10.0 ML
0.667 LW
N
1244.255 887 M
1244.255 417.853 L
1352.473 417.853 L
1352.473 887 L
cp
S
GR
GS
[0.75 0 0 0.75 0 0.25] CT
0.929 0.694 0.125 RC
N
743.745 887 M
743.745 879.714 L
635.527 879.714 L
635.527 887 L
cp
f
GR
GS
[0.75 0 0 0.75 0 0.25] CT
10.0 ML
0.667 LW
N
635.527 887 M
635.527 879.714 L
743.745 879.714 L
743.745 887 L
cp
S
GR
GS
[0.75 0 0 0.75 0 0.25] CT
10.0 ML
0.667 LW
N
1379.527 887 M
1379.527 887 L
1487.745 887 L
1487.745 887 L
cp
S
GR
GS
[0.75 0 0 0.75 0 0.25] CT
0.494 0.184 0.557 RC
N
879.018 887 M
879.018 701.617 L
770.8 701.617 L
770.8 887 L
cp
1623.018 887 M
1623.018 872.864 L
1514.8 872.864 L
1514.8 887 L
cp
f
GR
GS
[0.75 0 0 0.75 0 0.25] CT
10.0 ML
0.667 LW
N
770.8 887 M
770.8 701.617 L
879.018 701.617 L
879.018 887 L
cp
S
GR
GS
[0.75 0 0 0.75 0 0.25] CT
10.0 ML
0.667 LW
N
1514.8 887 M
1514.8 872.864 L
1623.018 872.864 L
1623.018 887 L
cp
S
GR
GS
[0.75 0 0 0.75 0 0.25] CT
1 GC
N
1727 299 M
1727 86 L
1613 86 L
1613 299 L
cp
f
GR
GS
[0.75 0 0 0.75 1245 91] CT
/Helvetica-Bold 26.667 F
GS
[1 0 0 1 0 0] CT
0 0 moveto 
1 -1 scale
(w) t 
GR
GR
GS
[0.75 0 0 0.75 1263.75 81.25] CT
/Helvetica-Bold 21.333 F
GS
[1 0 0 1 0 0] CT
0 0 moveto 
1 -1 scale
(1) t 
GR
GR
GS
[0.75 0 0 0.75 1263.75 100.75] CT
/Helvetica-Bold 21.333 F
GS
[1 0 0 1 0 0] CT
0 0 moveto 
1 -1 scale
(k-9) t 
GR
GR
GS
[0.75 0 0 0.75 0 0.25] CT
0 0.447 0.741 RC
N
1657 125.906 M
1657 101.963 L
1617 101.963 L
1617 125.906 L
cp
f
GR
GS
[0.75 0 0 0.75 0 0.25] CT
10.0 ML
0.667 LW
N
1617 125.906 M
1617 101.963 L
1657 101.963 L
1657 125.906 L
cp
S
GR
GS
[0.75 0 0 0.75 1245 130] CT
/Helvetica-Bold 26.667 F
GS
[1 0 0 1 0 0] CT
0 0 moveto 
1 -1 scale
(w) t 
GR
GR
GS
[0.75 0 0 0.75 1263.75 120.25] CT
/Helvetica-Bold 21.333 F
GS
[1 0 0 1 0 0] CT
0 0 moveto 
1 -1 scale
(2) t 
GR
GR
GS
[0.75 0 0 0.75 1263.75 139.75] CT
/Helvetica-Bold 21.333 F
GS
[1 0 0 1 0 0] CT
0 0 moveto 
1 -1 scale
(k-9) t 
GR
GR
GS
[0.75 0 0 0.75 0 0.25] CT
0.851 0.325 0.098 RC
N
1657 178.283 M
1657 154.34 L
1617 154.34 L
1617 178.283 L
cp
f
GR
GS
[0.75 0 0 0.75 0 0.25] CT
10.0 ML
0.667 LW
N
1617 178.283 M
1617 154.34 L
1657 154.34 L
1657 178.283 L
cp
S
GR
GS
[0.75 0 0 0.75 1245 169.75] CT
/Helvetica-Bold 26.667 F
GS
[1 0 0 1 0 0] CT
0 0 moveto 
1 -1 scale
(w) t 
GR
GR
GS
[0.75 0 0 0.75 1263.75 160] CT
/Helvetica-Bold 21.333 F
GS
[1 0 0 1 0 0] CT
0 0 moveto 
1 -1 scale
(3) t 
GR
GR
GS
[0.75 0 0 0.75 1263.75 179.5] CT
/Helvetica-Bold 21.333 F
GS
[1 0 0 1 0 0] CT
0 0 moveto 
1 -1 scale
(k-9) t 
GR
GR
GS
[0.75 0 0 0.75 0 0.25] CT
0.929 0.694 0.125 RC
N
1657 230.66 M
1657 206.717 L
1617 206.717 L
1617 230.66 L
cp
f
GR
GS
[0.75 0 0 0.75 0 0.25] CT
10.0 ML
0.667 LW
N
1617 230.66 M
1617 206.717 L
1657 206.717 L
1657 230.66 L
cp
S
GR
GS
[0.75 0 0 0.75 1245 208.75] CT
/Helvetica-Bold 26.667 F
GS
[1 0 0 1 0 0] CT
0 0 moveto 
1 -1 scale
(w) t 
GR
GR
GS
[0.75 0 0 0.75 1263.75 199] CT
/Helvetica-Bold 21.333 F
GS
[1 0 0 1 0 0] CT
0 0 moveto 
1 -1 scale
(4) t 
GR
GR
GS
[0.75 0 0 0.75 1263.75 218.5] CT
/Helvetica-Bold 21.333 F
GS
[1 0 0 1 0 0] CT
0 0 moveto 
1 -1 scale
(k-9) t 
GR
GR
GS
[0.75 0 0 0.75 0 0.25] CT
0.494 0.184 0.557 RC
N
1657 283.037 M
1657 259.094 L
1617 259.094 L
1617 283.037 L
cp
f
GR
GS
[0.75 0 0 0.75 0 0.25] CT
10.0 ML
0.667 LW
N
1617 283.037 M
1617 259.094 L
1657 259.094 L
1657 283.037 L
cp
S
GR
GS
[0.75 0 0 0.75 0 0.25] CT
0.149 GC
10.0 ML
0.667 LW
N
1613 299 M
1613 86 L
1727 86 L
1727 299 L
cp
S
GR
%%Trailer
%%Pages: 1
%%EOF
