\relax 
\providecommand\hyper@newdestlabel[2]{}
\providecommand\HyperFirstAtBeginDocument{\AtBeginDocument}
\HyperFirstAtBeginDocument{\ifx\hyper@anchor\@undefined
\global\let\oldcontentsline\contentsline
\gdef\contentsline#1#2#3#4{\oldcontentsline{#1}{#2}{#3}}
\global\let\oldnewlabel\newlabel
\gdef\newlabel#1#2{\newlabelxx{#1}#2}
\gdef\newlabelxx#1#2#3#4#5#6{\oldnewlabel{#1}{{#2}{#3}}}
\AtEndDocument{\ifx\hyper@anchor\@undefined
\let\contentsline\oldcontentsline
\let\newlabel\oldnewlabel
\fi}
\fi}
\global\let\hyper@last\relax 
\gdef\HyperFirstAtBeginDocument#1{#1}
\providecommand\HyField@AuxAddToFields[1]{}
\providecommand\HyField@AuxAddToCoFields[2]{}
\@writefile{nav}{\headcommand {\slideentry {0}{0}{1}{1/1}{}{0}}}
\@writefile{nav}{\headcommand {\beamer@framepages {1}{1}}}
\providecommand*\caption@xref[2]{\@setref\relax\@undefined{#1}}
\newlabel{fig:Int_Images_1}{{\caption@xref {fig:Int_Images_1}{ on input line 182}}{2}{}{Doc-Start}{}}
\@writefile{snm}{\beamer@slide {fig:Int_Images_1}{2}}
\@writefile{nav}{\headcommand {\slideentry {0}{0}{2}{2/2}{}{0}}}
\@writefile{nav}{\headcommand {\beamer@framepages {2}{2}}}
\newlabel{fig:slam_model basic_flow}{{\caption@xref {fig:slam_model basic_flow}{ on input line 202}}{3}{}{Doc-Start}{}}
\@writefile{snm}{\beamer@slide {fig:slam_model basic_flow}{3}}
\@writefile{nav}{\headcommand {\slideentry {0}{0}{3}{3/3}{}{0}}}
\@writefile{nav}{\headcommand {\beamer@framepages {3}{3}}}
\newlabel{fig:Ambiguous_1}{{\caption@xref {fig:Ambiguous_1}{ on input line 236}}{4}{}{Doc-Start}{}}
\@writefile{snm}{\beamer@slide {fig:Ambiguous_1}{4}}
\@writefile{nav}{\headcommand {\slideentry {0}{0}{4}{4/4}{}{0}}}
\@writefile{nav}{\headcommand {\beamer@framepages {4}{4}}}
\@writefile{nav}{\headcommand {\slideentry {0}{0}{5}{5/5}{}{0}}}
\@writefile{nav}{\headcommand {\beamer@framepages {5}{5}}}
\newlabel{fig:DA_assumption}{{\caption@xref {fig:DA_assumption}{ on input line 271}}{6}{}{Doc-Start}{}}
\@writefile{snm}{\beamer@slide {fig:DA_assumption}{6}}
\@writefile{nav}{\headcommand {\slideentry {0}{0}{6}{6/6}{}{0}}}
\@writefile{nav}{\headcommand {\beamer@framepages {6}{6}}}
\@writefile{nav}{\headcommand {\slideentry {0}{0}{7}{7/7}{}{0}}}
\@writefile{nav}{\headcommand {\beamer@framepages {7}{7}}}
\@writefile{nav}{\headcommand {\slideentry {0}{0}{8}{8/8}{}{0}}}
\@writefile{nav}{\headcommand {\beamer@framepages {8}{8}}}
\@writefile{nav}{\headcommand {\slideentry {0}{0}{9}{9/9}{}{0}}}
\@writefile{nav}{\headcommand {\beamer@framepages {9}{9}}}
\@writefile{nav}{\headcommand {\slideentry {0}{0}{10}{10/10}{}{0}}}
\@writefile{nav}{\headcommand {\beamer@framepages {10}{10}}}
\@writefile{nav}{\headcommand {\slideentry {0}{0}{11}{11/11}{}{0}}}
\@writefile{nav}{\headcommand {\beamer@framepages {11}{11}}}
\@writefile{nav}{\headcommand {\slideentry {0}{0}{12}{12/12}{}{0}}}
\@writefile{nav}{\headcommand {\beamer@framepages {12}{12}}}
\newlabel{fig:chosen_key_hypothesis}{{\caption@xref {fig:chosen_key_hypothesis}{ on input line 382}}{13}{}{Doc-Start}{}}
\@writefile{snm}{\beamer@slide {fig:chosen_key_hypothesis}{13}}
\@writefile{nav}{\headcommand {\slideentry {0}{0}{13}{13/13}{}{0}}}
\@writefile{nav}{\headcommand {\beamer@framepages {13}{13}}}
\@writefile{nav}{\headcommand {\slideentry {0}{0}{14}{14/14}{}{0}}}
\@writefile{nav}{\headcommand {\beamer@framepages {14}{14}}}
\newlabel{eq:MotionModel}{{1}{15}{}{Doc-Start}{}}
\@writefile{snm}{\beamer@slide {eq:MotionModel}{15}}
\newlabel{eq:ObservationModel}{{1}{15}{}{Doc-Start}{}}
\@writefile{snm}{\beamer@slide {eq:ObservationModel}{15}}
\@writefile{nav}{\headcommand {\slideentry {0}{0}{15}{15/15}{}{0}}}
\@writefile{nav}{\headcommand {\beamer@framepages {15}{15}}}
\@writefile{nav}{\headcommand {\slideentry {0}{0}{16}{16/16}{}{0}}}
\@writefile{nav}{\headcommand {\beamer@framepages {16}{16}}}
\newlabel{fig:chosen_key_hypothesis}{{\caption@xref {fig:chosen_key_hypothesis}{ on input line 501}}{17}{}{Doc-Start}{}}
\@writefile{snm}{\beamer@slide {fig:chosen_key_hypothesis}{17}}
\@writefile{nav}{\headcommand {\slideentry {0}{0}{17}{17/17}{}{0}}}
\@writefile{nav}{\headcommand {\beamer@framepages {17}{17}}}
\newlabel{eq:extract_meassurment_from_history}{{1}{18}{}{Doc-Start}{}}
\@writefile{snm}{\beamer@slide {eq:extract_meassurment_from_history}{18}}
\newlabel{bayes_step_updated_weigth_calc}{{1}{18}{}{Doc-Start}{}}
\@writefile{snm}{\beamer@slide {bayes_step_updated_weigth_calc}{18}}
\@writefile{nav}{\headcommand {\slideentry {0}{0}{18}{18/18}{}{0}}}
\@writefile{nav}{\headcommand {\beamer@framepages {18}{18}}}
\newlabel{update_factor_caclulation_first_step}{{1}{19}{}{Doc-Start}{}}
\@writefile{snm}{\beamer@slide {update_factor_caclulation_first_step}{19}}
\@writefile{nav}{\headcommand {\slideentry {0}{0}{19}{19/19}{}{0}}}
\@writefile{nav}{\headcommand {\beamer@framepages {19}{19}}}
\@writefile{nav}{\headcommand {\slideentry {0}{0}{20}{20/20}{}{0}}}
\@writefile{nav}{\headcommand {\beamer@framepages {20}{20}}}
\newlabel{fig:Figures}{{\caption@xref {fig:Figures}{ on input line 625}}{21}{}{Doc-Start}{}}
\@writefile{snm}{\beamer@slide {fig:Figures}{21}}
\@writefile{nav}{\headcommand {\slideentry {0}{0}{21}{21/21}{}{0}}}
\@writefile{nav}{\headcommand {\beamer@framepages {21}{21}}}
\newlabel{fig:weight_dist_at_time_k}{{7a}{22}{\tiny {weights distribution time $K$}\relax }{Doc-Start}{}}
\@writefile{snm}{\beamer@slide {fig:weight_dist_at_time_k}{22}}
\newlabel{sub@fig:weight_dist_at_time_k}{{a}{22}{\tiny {weights distribution time $K$}\relax }{Doc-Start}{}}
\@writefile{snm}{\beamer@slide {sub@fig:weight_dist_at_time_k}{22}}
\newlabel{fig:weight_comparesent}{{7b}{22}{\tiny {Weight comparison}\relax }{Doc-Start}{}}
\@writefile{snm}{\beamer@slide {fig:weight_comparesent}{22}}
\newlabel{sub@fig:weight_comparesent}{{b}{22}{\tiny {Weight comparison}\relax }{Doc-Start}{}}
\@writefile{snm}{\beamer@slide {sub@fig:weight_comparesent}{22}}
\newlabel{fig:Figures_weights}{{\caption@xref {fig:Figures_weights}{ on input line 649}}{22}{}{Doc-Start}{}}
\@writefile{snm}{\beamer@slide {fig:Figures_weights}{22}}
\@writefile{nav}{\headcommand {\slideentry {0}{0}{22}{22/22}{}{0}}}
\@writefile{nav}{\headcommand {\beamer@framepages {22}{22}}}
\@writefile{nav}{\headcommand {\slideentry {0}{0}{23}{23/23}{}{0}}}
\@writefile{nav}{\headcommand {\beamer@framepages {23}{23}}}
\newlabel{eq:Update_factor_multiple_steps}{{1}{24}{}{Doc-Start}{}}
\@writefile{snm}{\beamer@slide {eq:Update_factor_multiple_steps}{24}}
\@writefile{nav}{\headcommand {\slideentry {0}{0}{24}{24/24}{}{0}}}
\@writefile{nav}{\headcommand {\beamer@framepages {24}{24}}}
\@writefile{nav}{\headcommand {\slideentry {0}{0}{25}{25/25}{}{0}}}
\@writefile{nav}{\headcommand {\beamer@framepages {25}{25}}}
\@writefile{nav}{\headcommand {\slideentry {0}{0}{26}{26/26}{}{0}}}
\@writefile{nav}{\headcommand {\beamer@framepages {26}{26}}}
\@writefile{nav}{\headcommand {\slideentry {0}{0}{27}{27/27}{}{0}}}
\@writefile{nav}{\headcommand {\beamer@framepages {27}{27}}}
\@writefile{nav}{\headcommand {\slideentry {0}{0}{28}{28/28}{}{0}}}
\@writefile{nav}{\headcommand {\beamer@framepages {28}{28}}}
\@writefile{nav}{\headcommand {\beamer@partpages {1}{28}}}
\@writefile{nav}{\headcommand {\beamer@subsectionpages {1}{28}}}
\@writefile{nav}{\headcommand {\beamer@sectionpages {1}{28}}}
\@writefile{nav}{\headcommand {\beamer@documentpages {28}}}
\@writefile{nav}{\headcommand {\gdef \inserttotalframenumber {28}}}
