\relax 
\providecommand\hyper@newdestlabel[2]{}
\@nameuse{bbl@beforestart}
\providecommand\HyperFirstAtBeginDocument{\AtBeginDocument}
\HyperFirstAtBeginDocument{\ifx\hyper@anchor\@undefined
\global\let\oldcontentsline\contentsline
\gdef\contentsline#1#2#3#4{\oldcontentsline{#1}{#2}{#3}}
\global\let\oldnewlabel\newlabel
\gdef\newlabel#1#2{\newlabelxx{#1}#2}
\gdef\newlabelxx#1#2#3#4#5#6{\oldnewlabel{#1}{{#2}{#3}}}
\AtEndDocument{\ifx\hyper@anchor\@undefined
\let\contentsline\oldcontentsline
\let\newlabel\oldnewlabel
\fi}
\fi}
\global\let\hyper@last\relax 
\gdef\HyperFirstAtBeginDocument#1{#1}
\providecommand\HyField@AuxAddToFields[1]{}
\providecommand\HyField@AuxAddToCoFields[2]{}
\citation{Smith87}
\citation{DurrantWhyte88tra}
\babel@aux{english}{}
\@writefile{toc}{\contentsline {section}{\numberline {I}Introduction}{1}{section.1}\protected@file@percent }
\citation{Indelman16csm,Lee13iros}
\citation{Sunderhauf13icra}
\citation{Carlone14iros}
\citation{Fourie16iros}
\citation{Pathak18ijrr}
\@writefile{lof}{\contentsline {figure}{\numberline {1}{\ignorespaces At first we have an estimated model - inference. According to our model and a set of optional actions, we choose and perform an action. Afterwards we take measurements from our new location, and re estimate our model, in case of SLAM we estimate the robots trajectory as well for our surroundings.\relax }}{2}{figure.caption.1}\protected@file@percent }
\providecommand*\caption@xref[2]{\@setref\relax\@undefined{#1}}
\newlabel{fig:salm-model}{{1}{2}{At first we have an estimated model - inference. According to our model and a set of optional actions, we choose and perform an action. Afterwards we take measurements from our new location, and re estimate our model, in case of SLAM we estimate the robots trajectory as well for our surroundings.\relax }{figure.caption.1}{}}
\newlabel{eq:GMMcurrent_time}{{1}{2}{Introduction}{equation.1.1}{}}
\@writefile{toc}{\contentsline {section}{\numberline {II}Notations and Problem Formulation}{3}{section.2}\protected@file@percent }
\@writefile{toc}{\contentsline {subsection}{\numberline {II.A}Notations}{3}{subsection.2.1}\protected@file@percent }
\citation{Pathak18ijrr,Tchuiev19iros}
\newlabel{eq:MotionModel}{{2}{4}{Notations}{equation.2.2}{}}
\newlabel{eq:ObservationModel}{{3}{4}{Notations}{equation.2.2}{}}
\newlabel{GMM_passive_case}{{4}{4}{Notations}{equation.2.4}{}}
\newlabel{GMM_weight_value_pre}{{5}{4}{Notations}{equation.2.5}{}}
\newlabel{GMM_weight_value}{{5}{4}{Notations}{equation.2.5}{}}
\@writefile{toc}{\contentsline {subsection}{\numberline {II.B}Problem Formulation}{4}{subsection.2.2}\protected@file@percent }
\newlabel{problem_formulation}{{7}{5}{Problem Formulation}{equation.2.7}{}}
\@writefile{lof}{\contentsline {figure}{\numberline {2}{\ignorespaces Diagram illustrating considered problem. In this work we aim to calculate the probability of externally-defined {\color  {red} hypothesis} from some past time $k-p$ given the information that has been obtained until current time $k$. In other words, we would like to calculate $w^{i}_{k-p\mid k}=\ensuremath  {\mathbb  {P}({\gamma _{k-p}=i\mid H_{k}})}$. The diagram illustrates, for simplicity, a branching factor of two, i.e.~each hypothesis branches at the next time into two child hypotheses (e.g.~due to obtained measurement with an ambiguous data association). For instance, we might be interested in calculating the weight $w_{k-p|k}^{i=1}$, which corresponds to probability of the hypothesis indicated by the {\color  {blue} \textbf  {blue}} node, given data until time $k$. \relax }}{5}{figure.caption.3}\protected@file@percent }
\newlabel{fig:Diagram}{{2}{5}{Diagram illustrating considered problem. In this work we aim to calculate the probability of externally-defined \OS {hypothesis} from some past time $k-p$ given the information that has been obtained until current time $k$. In other words, we would like to calculate $w^{i}_{k-p\mid k}=\prob {\gamma _{k-p}=i\mid H_{k}}$. The diagram illustrates, for simplicity, a branching factor of two, i.e.~each hypothesis branches at the next time into two child hypotheses (e.g.~due to obtained measurement with an ambiguous data association). For instance, we might be interested in calculating the weight $w_{k-p|k}^{i=1}$, which corresponds to probability of the hypothesis indicated by the {\color {blue} \textbf {blue}} node, given data until time $k$. \relax }{figure.caption.3}{}}
\@writefile{toc}{\contentsline {section}{\numberline {III}Approach}{5}{section.3}\protected@file@percent }
\@writefile{toc}{\contentsline {subsection}{\numberline {III.A}Single step update, $w^{i}_{k-1\mid k}$ }{5}{subsection.3.1}\protected@file@percent }
\newlabel{section:single_step_update}{{III.A}{5}{Single step update, $w^{i}_{k-1\mid k}$}{subsection.3.1}{}}
\newlabel{eq:extract_meassurment_from_history}{{8}{6}{Single step update, $w^{i}_{k-1\mid k}$}{equation.3.8}{}}
\newlabel{bayes_step_updated_weigth_calc}{{9}{6}{Single step update, $w^{i}_{k-1\mid k}$}{equation.3.8}{}}
\newlabel{single_step_update_factor}{{10}{6}{Single step update, $w^{i}_{k-1\mid k}$}{equation.3.8}{}}
\newlabel{eq:PropWeight}{{11}{6}{Single step update, $w^{i}_{k-1\mid k}$}{equation.3.11}{}}
\newlabel{single_step_marginalization}{{12}{6}{Calculation of the update factor in Eq.~\eqref {single_step_update_factor}}{equation.3.12}{}}
\newlabel{eq:single_step_marginalization_2}{{13}{6}{Calculation of the update factor in Eq.~\eqref {single_step_update_factor}}{equation.3.13}{}}
\newlabel{update_factor_caclulation_first_step}{{14}{6}{Calculation of the update factor in Eq.~\eqref {single_step_update_factor}}{equation.3.14}{}}
\newlabel{eq:pre_basic_observation_model}{{16}{7}{Calculation of the update factor in Eq.~\eqref {single_step_update_factor}}{equation.3.16}{}}
\newlabel{eq:basic_observation_model}{{17}{7}{Calculation of the update factor in Eq.~\eqref {single_step_update_factor}}{equation.3.17}{}}
\newlabel{single_step_update_factor_final_version}{{18}{7}{Calculation of the update factor in Eq.~\eqref {single_step_update_factor}}{equation.3.18}{}}
\@writefile{lof}{\contentsline {figure}{\numberline {3}{\ignorespaces An illustrative example how a hypotheses weight distribution from time $k-1$ can be affected by information from time $k$.\relax }}{8}{figure.caption.5}\protected@file@percent }
\newlabel{fig:Weights-distribution}{{3}{8}{An illustrative example how a hypotheses weight distribution from time $k-1$ can be affected by information from time $k$.\relax }{figure.caption.5}{}}
\@writefile{toc}{\contentsline {subsection}{\numberline {III.B}Multiple steps calculation, $w^{i}_{k-p\mid k}$}{8}{subsection.3.2}\protected@file@percent }
\newlabel{First_step_calc}{{24}{8}{Multiple steps calculation, $w^{i}_{k-p\mid k}$}{equation.3.22}{}}
\newlabel{fig:map_k_minus_2}{{4a}{9}{Belief at time $k-2$\relax }{figure.caption.6}{}}
\newlabel{sub@fig:map_k_minus_2}{{a}{9}{Belief at time $k-2$\relax }{figure.caption.6}{}}
\newlabel{fig:map_k_minus_1}{{4b}{9}{Belief at time $k-1$\relax }{figure.caption.6}{}}
\newlabel{sub@fig:map_k_minus_1}{{b}{9}{Belief at time $k-1$\relax }{figure.caption.6}{}}
\newlabel{fig:map_k}{{4c}{9}{Belief at time $k$\relax }{figure.caption.6}{}}
\newlabel{sub@fig:map_k}{{c}{9}{Belief at time $k$\relax }{figure.caption.6}{}}
\newlabel{fig:weight_dist_at_time_k}{{4d}{9}{\relax }{figure.caption.6}{}}
\newlabel{sub@fig:weight_dist_at_time_k}{{d}{9}{\relax }{figure.caption.6}{}}
\newlabel{fig:weight_compare}{{4e}{9}{\relax }{figure.caption.6}{}}
\newlabel{sub@fig:weight_compare}{{e}{9}{\relax }{figure.caption.6}{}}
\@writefile{lof}{\contentsline {figure}{\numberline {4}{\ignorespaces Basic simulation results of a toy example, where a robot navigates in a partially ambiguous environment represented by landmarks of different types (denoted by corresponding marks in the figure). \textbf  {(a)} Initial state of the scenario, two steps before our current time $k$. The robot currently has a single hypothesis with a large variance. \textbf  {(b)} The robot propagated by taking a step forward action, what resulted in receiving a single measurement from either one of the yellow triangles. Due to ambiguity we have no knowledge if the current measurement was taken from the upper or lower triangle, therefore two possible hypotheses marked in red and blue were generated from the inference stage. \textbf  {(c)}The robot performs another propagation by taking a step forward action, and in our inference stage we receive a single measurement from either one of the two purple circles, as a result four hypotheses in total are generated, two from every hypothesis at time $k-1$. \textbf  {(d)} Weight distribution of the four hypotheses at time $k$, i.e.~$w^{i}_{k\mid k}$ for $i \in [1,4]$. \textbf  {(2)} Weight distribution of the two hypotheses from time $k-1$, conditioned on data until time $k-1$ and until time $k$, i.e.~$w^{i}_{k-1\mid k}$ versus $w^{i}_{k-1\mid k-1}$ for $i \in [1,2]$. One can observe information captured at time $k$ indeed impacts hypotheses' weights from time $k-1$, and, in this case, allows disambiguation between the two hypotheses. Note the hypotheses from time $k$ (see \textbf  {(d)}) are not fully disambiguated. \relax }}{9}{figure.caption.6}\protected@file@percent }
\newlabel{fig:Figures}{{4}{9}{Basic simulation results of a toy example, where a robot navigates in a partially ambiguous environment represented by landmarks of different types (denoted by corresponding marks in the figure). \textbf {(a)} Initial state of the scenario, two steps before our current time $k$. The robot currently has a single hypothesis with a large variance. \textbf {(b)} The robot propagated by taking a step forward action, what resulted in receiving a single measurement from either one of the yellow triangles. Due to ambiguity we have no knowledge if the current measurement was taken from the upper or lower triangle, therefore two possible hypotheses marked in red and blue were generated from the inference stage. \textbf {(c)}The robot performs another propagation by taking a step forward action, and in our inference stage we receive a single measurement from either one of the two purple circles, as a result four hypotheses in total are generated, two from every hypothesis at time $k-1$. \textbf {(d)} Weight distribution of the four hypotheses at time $k$, i.e.~$w^{i}_{k\mid k}$ for $i \in [1,4]$. \textbf {(2)} Weight distribution of the two hypotheses from time $k-1$, conditioned on data until time $k-1$ and until time $k$, i.e.~$w^{i}_{k-1\mid k}$ versus $w^{i}_{k-1\mid k-1}$ for $i \in [1,2]$. One can observe information captured at time $k$ indeed impacts hypotheses' weights from time $k-1$, and, in this case, allows disambiguation between the two hypotheses. Note the hypotheses from time $k$ (see \textbf {(d)}) are not fully disambiguated. \relax }{figure.caption.6}{}}
\newlabel{Update_factor}{{27}{10}{Multiple steps calculation, $w^{i}_{k-p\mid k}$}{equation.3.27}{}}
\newlabel{Update_factor_final}{{28}{10}{Multiple steps calculation, $w^{i}_{k-p\mid k}$}{equation.3.28}{}}
\@writefile{toc}{\contentsline {subsection}{\numberline {III.C}Incremental calculation}{10}{subsection.3.3}\protected@file@percent }
\@writefile{toc}{\contentsline {subsubsection}{\numberline {III.C.1}First step - calculation for $j=p-1$}{10}{subsubsection.3.3.1}\protected@file@percent }
\newlabel{section:first_step_calc_j_eq_p_minus_1}{{III.C.1}{10}{First step - calculation for $j=p-1$}{subsubsection.3.3.1}{}}
\newlabel{eq:first_step_iter_calculation_1}{{30}{10}{First step - calculation for $j=p-1$}{equation.3.29}{}}
\newlabel{eq:first_step_iter_calculation_2}{{31}{10}{First step - calculation for $j=p-1$}{equation.3.29}{}}
\newlabel{eq:first_step_iter_calculation_3}{{31}{11}{First step - calculation for $j=p-1$}{equation.3.31}{}}
\newlabel{eq:first_step_iter_calculation_4}{{32}{11}{First step - calculation for $j=p-1$}{equation.3.32}{}}
\newlabel{eq:first_step_iter_calculation_5}{{33}{11}{First step - calculation for $j=p-1$}{equation.3.33}{}}
\@writefile{toc}{\contentsline {subsubsection}{\numberline {III.C.2}General Case: $j=p-l$}{11}{subsubsection.3.3.2}\protected@file@percent }
\newlabel{thm:GeneralCase}{{1}{11}{General Case: $j=p-l$}{theorem.1}{}}
\newlabel{eq:j_p_l_1}{{34}{11}{General Case: $j=p-l$}{equation.3.34}{}}
\newlabel{eq:f_x_k-p+l_definition}{{35}{11}{General Case: $j=p-l$}{equation.3.35}{}}
\@writefile{toc}{\contentsline {subsubsection}{\numberline {III.C.3}Final result}{11}{subsubsection.3.3.3}\protected@file@percent }
\newlabel{eq:final_result_1}{{36}{11}{Final result}{equation.3.36}{}}
\newlabel{eq:final_result_2}{{37}{12}{Final result}{equation.3.37}{}}
\@writefile{toc}{\contentsline {subsection}{\numberline {III.D}Computational Complexity Aspects}{12}{subsection.3.4}\protected@file@percent }
\@writefile{toc}{\contentsline {section}{\numberline {IV}Conclusions}{13}{section.4}\protected@file@percent }
\newlabel{section:calculation_j_p_minus_2}{{IV}{13}{Base Case: $j=p-2$}{section*.8}{}}
\newlabel{eq:second_step_iter_calc_1}{{41}{13}{Base Case: $j=p-2$}{equation.4.41}{}}
\newlabel{eq:second_step_iter_calc_2}{{41}{13}{Base Case: $j=p-2$}{equation.4.41}{}}
\newlabel{eq:star_element_calc_1}{{43}{13}{Base Case: $j=p-2$}{equation.4.42}{}}
\newlabel{eq:star_element_calc_2}{{44}{14}{Base Case: $j=p-2$}{equation.4.44}{}}
\newlabel{eq:star_element_calc_3}{{45}{14}{Base Case: $j=p-2$}{equation.4.45}{}}
\newlabel{eq:star_element_calc_4}{{46}{14}{Base Case: $j=p-2$}{equation.4.45}{}}
\newlabel{eq:star_element_calc_5}{{47}{14}{Base Case: $j=p-2$}{equation.4.47}{}}
\newlabel{eq:star_element_calc_6}{{48}{14}{Base Case: $j=p-2$}{equation.4.48}{}}
\newlabel{eq:star_element_calc_7}{{49}{14}{Base Case: $j=p-2$}{equation.4.48}{}}
\newlabel{eq:second_step_iter_calc_3}{{49}{15}{Base Case: $j=p-2$}{equation.4.49}{}}
\newlabel{eq:second_step_iter_calc_4}{{50}{15}{Base Case: $j=p-2$}{equation.4.50}{}}
\newlabel{eq:second_step_iter_calc_5}{{52}{15}{Base Case: $j=p-2$}{equation.4.52}{}}
\newlabel{eq:second_step_iter_calc_eta_calc_1}{{53}{15}{Calculation of $\eta $}{equation.4.53}{}}
\newlabel{eq:second_step_iter_calc_6}{{55}{16}{Calculation of $\eta $}{equation.4.55}{}}
\newlabel{eq:inducation_step_iter_calc_1}{{56}{16}{Induction assumption $j=p-l$}{equation.4.56}{}}
\newlabel{eq:Inducation_assumption}{{57}{16}{inductive step - j=p-l-1}{equation.4.57}{}}
\newlabel{eq:inducation_step_iter_calc_2}{{58}{16}{Proof of the required induction step}{equation.4.58}{}}
\newlabel{eq:inducation_step_iter_calc_3}{{59}{17}{Proof of the required induction step}{equation.4.59}{}}
\newlabel{eq:inducation_step_iter_calc_4}{{60}{17}{Proof of the required induction step}{equation.4.60}{}}
\newlabel{eq:inducation_step_iter_calc_5}{{61}{17}{Proof of the required induction step}{equation.4.61}{}}
\newlabel{eq:inducation_step_iter_calc_6}{{62}{17}{Proof of the required induction step}{equation.4.62}{}}
\newlabel{eq:inducation_step_iter_calc_7}{{63}{18}{Proof of the required induction step}{equation.4.63}{}}
\newlabel{eq:inducation_step_iter_calc_7}{{64}{18}{Proof of the required induction step}{equation.4.64}{}}
\newlabel{eq:inducation_step_iter_calc_8}{{65}{18}{Proof of the required induction step}{equation.4.65}{}}
\newlabel{eq:inducation_step_iter_f_function_definition}{{66}{18}{Proof of the required induction step}{equation.4.66}{}}
\newlabel{eq:inducation_step_iter_calc_9}{{67}{18}{Proof of the required induction step}{equation.4.67}{}}
\newlabel{eq:iter_calc_eta_section_1}{{68}{18}{The $\tilde {\eta }$ calculation}{equation.4.68}{}}
\newlabel{eq:inducation_step_iter_calc_10}{{70}{19}{The $\tilde {\eta }$ calculation}{equation.4.70}{}}
\bibstyle{unsrt}
\bibdata{/Users/ohads/personal/MSc/research/references/refs}
\bibcite{Smith87}{1}
\bibcite{DurrantWhyte88tra}{2}
\bibcite{Indelman16csm}{3}
\bibcite{Lee13iros}{4}
\bibcite{Sunderhauf13icra}{5}
\bibcite{Carlone14iros}{6}
\bibcite{Fourie16iros}{7}
\bibcite{Pathak18ijrr}{8}
\bibcite{Tchuiev19iros}{9}
