%!PS-Adobe-3.0 EPSF-3.0
%%Creator: (MATLAB, The Mathworks, Inc. Version 9.8.0.1380330 \(R2020a\) Update 2. Operating System: Linux)
%%Title: (/home/ohads/ANPL/papers/research/2021 RAL/Figures/TestCase_2/fig_files/RealTrejactory.eps)
%%CreationDate: 2021-02-21T16:01:58
%%Pages: (atend)
%%BoundingBox:   290    18  1145   692
%%LanguageLevel: 3
%%EndComments
%%BeginProlog
%%BeginResource: procset (Apache XML Graphics Std ProcSet) 1.2 0
%%Version: 1.2 0
%%Copyright: (Copyright 2001-2003,2010 The Apache Software Foundation. License terms: http://www.apache.org/licenses/LICENSE-2.0)
/bd{bind def}bind def
/ld{load def}bd
/GR/grestore ld
/GS/gsave ld
/RM/rmoveto ld
/C/curveto ld
/t/show ld
/L/lineto ld
/ML/setmiterlimit ld
/CT/concat ld
/f/fill ld
/N/newpath ld
/S/stroke ld
/CC/setcmykcolor ld
/A/ashow ld
/cp/closepath ld
/RC/setrgbcolor ld
/LJ/setlinejoin ld
/GC/setgray ld
/LW/setlinewidth ld
/M/moveto ld
/re {4 2 roll M
1 index 0 rlineto
0 exch rlineto
neg 0 rlineto
cp } bd
/_ctm matrix def
/_tm matrix def
/BT { _ctm currentmatrix pop matrix _tm copy pop 0 0 moveto } bd
/ET { _ctm setmatrix } bd
/iTm { _ctm setmatrix _tm concat } bd
/Tm { _tm astore pop iTm 0 0 moveto } bd
/ux 0.0 def
/uy 0.0 def
/F {
  /Tp exch def
  /Tf exch def
  Tf findfont Tp scalefont setfont
  /cf Tf def  /cs Tp def
} bd
/ULS {currentpoint /uy exch def /ux exch def} bd
/ULE {
  /Tcx currentpoint pop def
  gsave
  newpath
  cf findfont cs scalefont dup
  /FontMatrix get 0 get /Ts exch def /FontInfo get dup
  /UnderlinePosition get Ts mul /To exch def
  /UnderlineThickness get Ts mul /Tt exch def
  ux uy To add moveto  Tcx uy To add lineto
  Tt setlinewidth stroke
  grestore
} bd
/OLE {
  /Tcx currentpoint pop def
  gsave
  newpath
  cf findfont cs scalefont dup
  /FontMatrix get 0 get /Ts exch def /FontInfo get dup
  /UnderlinePosition get Ts mul /To exch def
  /UnderlineThickness get Ts mul /Tt exch def
  ux uy To add cs add moveto Tcx uy To add cs add lineto
  Tt setlinewidth stroke
  grestore
} bd
/SOE {
  /Tcx currentpoint pop def
  gsave
  newpath
  cf findfont cs scalefont dup
  /FontMatrix get 0 get /Ts exch def /FontInfo get dup
  /UnderlinePosition get Ts mul /To exch def
  /UnderlineThickness get Ts mul /Tt exch def
  ux uy To add cs 10 mul 26 idiv add moveto Tcx uy To add cs 10 mul 26 idiv add lineto
  Tt setlinewidth stroke
  grestore
} bd
/QT {
/Y22 exch store
/X22 exch store
/Y21 exch store
/X21 exch store
currentpoint
/Y21 load 2 mul add 3 div exch
/X21 load 2 mul add 3 div exch
/X21 load 2 mul /X22 load add 3 div
/Y21 load 2 mul /Y22 load add 3 div
/X22 load /Y22 load curveto
} bd
/SSPD {
dup length /d exch dict def
{
/v exch def
/k exch def
currentpagedevice k known {
/cpdv currentpagedevice k get def
v cpdv ne {
/upd false def
/nullv v type /nulltype eq def
/nullcpdv cpdv type /nulltype eq def
nullv nullcpdv or
{
/upd true def
} {
/sametype v type cpdv type eq def
sametype {
v type /arraytype eq {
/vlen v length def
/cpdvlen cpdv length def
vlen cpdvlen eq {
0 1 vlen 1 sub {
/i exch def
/obj v i get def
/cpdobj cpdv i get def
obj cpdobj ne {
/upd true def
exit
} if
} for
} {
/upd true def
} ifelse
} {
v type /dicttype eq {
v {
/dv exch def
/dk exch def
/cpddv cpdv dk get def
dv cpddv ne {
/upd true def
exit
} if
} forall
} {
/upd true def
} ifelse
} ifelse
} if
} ifelse
upd true eq {
d k v put
} if
} if
} if
} forall
d length 0 gt {
d setpagedevice
} if
} bd
/RE { % /NewFontName [NewEncodingArray] /FontName RE -
  findfont dup length dict begin
  {
    1 index /FID ne
    {def} {pop pop} ifelse
  } forall
  /Encoding exch def
  /FontName 1 index def
  currentdict definefont pop
  end
} bind def
%%EndResource
%%BeginResource: procset (Apache XML Graphics EPS ProcSet) 1.0 0
%%Version: 1.0 0
%%Copyright: (Copyright 2002-2003 The Apache Software Foundation. License terms: http://www.apache.org/licenses/LICENSE-2.0)
/BeginEPSF { %def
/b4_Inc_state save def         % Save state for cleanup
/dict_count countdictstack def % Count objects on dict stack
/op_count count 1 sub def      % Count objects on operand stack
userdict begin                 % Push userdict on dict stack
/showpage { } def              % Redefine showpage, { } = null proc
0 setgray 0 setlinecap         % Prepare graphics state
1 setlinewidth 0 setlinejoin
10 setmiterlimit [ ] 0 setdash newpath
/languagelevel where           % If level not equal to 1 then
{pop languagelevel             % set strokeadjust and
1 ne                           % overprint to their defaults.
{false setstrokeadjust false setoverprint
} if
} if
} bd
/EndEPSF { %def
count op_count sub {pop} repeat            % Clean up stacks
countdictstack dict_count sub {end} repeat
b4_Inc_state restore
} bd
%%EndResource
%FOPBeginFontDict
%%IncludeResource: font Courier-Oblique
%%IncludeResource: font Courier-BoldOblique
%%IncludeResource: font Courier-Bold
%%IncludeResource: font ZapfDingbats
%%IncludeResource: font Symbol
%%IncludeResource: font Helvetica
%%IncludeResource: font Helvetica-Oblique
%%IncludeResource: font Helvetica-Bold
%%IncludeResource: font Helvetica-BoldOblique
%%IncludeResource: font Times-Roman
%%IncludeResource: font Times-Italic
%%IncludeResource: font Times-Bold
%%IncludeResource: font Times-BoldItalic
%%IncludeResource: font Courier
%FOPEndFontDict
%%BeginResource: encoding WinAnsiEncoding
/WinAnsiEncoding [
/.notdef /.notdef /.notdef /.notdef /.notdef
/.notdef /.notdef /.notdef /.notdef /.notdef
/.notdef /.notdef /.notdef /.notdef /.notdef
/.notdef /.notdef /.notdef /.notdef /.notdef
/.notdef /.notdef /.notdef /.notdef /.notdef
/.notdef /.notdef /.notdef /.notdef /.notdef
/.notdef /.notdef /space /exclam /quotedbl
/numbersign /dollar /percent /ampersand /quotesingle
/parenleft /parenright /asterisk /plus /comma
/hyphen /period /slash /zero /one
/two /three /four /five /six
/seven /eight /nine /colon /semicolon
/less /equal /greater /question /at
/A /B /C /D /E
/F /G /H /I /J
/K /L /M /N /O
/P /Q /R /S /T
/U /V /W /X /Y
/Z /bracketleft /backslash /bracketright /asciicircum
/underscore /quoteleft /a /b /c
/d /e /f /g /h
/i /j /k /l /m
/n /o /p /q /r
/s /t /u /v /w
/x /y /z /braceleft /bar
/braceright /asciitilde /bullet /Euro /bullet
/quotesinglbase /florin /quotedblbase /ellipsis /dagger
/daggerdbl /circumflex /perthousand /Scaron /guilsinglleft
/OE /bullet /Zcaron /bullet /bullet
/quoteleft /quoteright /quotedblleft /quotedblright /bullet
/endash /emdash /asciitilde /trademark /scaron
/guilsinglright /oe /bullet /zcaron /Ydieresis
/space /exclamdown /cent /sterling /currency
/yen /brokenbar /section /dieresis /copyright
/ordfeminine /guillemotleft /logicalnot /sfthyphen /registered
/macron /degree /plusminus /twosuperior /threesuperior
/acute /mu /paragraph /middot /cedilla
/onesuperior /ordmasculine /guillemotright /onequarter /onehalf
/threequarters /questiondown /Agrave /Aacute /Acircumflex
/Atilde /Adieresis /Aring /AE /Ccedilla
/Egrave /Eacute /Ecircumflex /Edieresis /Igrave
/Iacute /Icircumflex /Idieresis /Eth /Ntilde
/Ograve /Oacute /Ocircumflex /Otilde /Odieresis
/multiply /Oslash /Ugrave /Uacute /Ucircumflex
/Udieresis /Yacute /Thorn /germandbls /agrave
/aacute /acircumflex /atilde /adieresis /aring
/ae /ccedilla /egrave /eacute /ecircumflex
/edieresis /igrave /iacute /icircumflex /idieresis
/eth /ntilde /ograve /oacute /ocircumflex
/otilde /odieresis /divide /oslash /ugrave
/uacute /ucircumflex /udieresis /yacute /thorn
/ydieresis
] def
%%EndResource
%FOPBeginFontReencode
/Courier-Oblique findfont
dup length dict begin
  {1 index /FID ne {def} {pop pop} ifelse} forall
  /Encoding WinAnsiEncoding def
  currentdict
end
/Courier-Oblique exch definefont pop
/Courier-BoldOblique findfont
dup length dict begin
  {1 index /FID ne {def} {pop pop} ifelse} forall
  /Encoding WinAnsiEncoding def
  currentdict
end
/Courier-BoldOblique exch definefont pop
/Courier-Bold findfont
dup length dict begin
  {1 index /FID ne {def} {pop pop} ifelse} forall
  /Encoding WinAnsiEncoding def
  currentdict
end
/Courier-Bold exch definefont pop
/Helvetica findfont
dup length dict begin
  {1 index /FID ne {def} {pop pop} ifelse} forall
  /Encoding WinAnsiEncoding def
  currentdict
end
/Helvetica exch definefont pop
/Helvetica-Oblique findfont
dup length dict begin
  {1 index /FID ne {def} {pop pop} ifelse} forall
  /Encoding WinAnsiEncoding def
  currentdict
end
/Helvetica-Oblique exch definefont pop
/Helvetica-Bold findfont
dup length dict begin
  {1 index /FID ne {def} {pop pop} ifelse} forall
  /Encoding WinAnsiEncoding def
  currentdict
end
/Helvetica-Bold exch definefont pop
/Helvetica-BoldOblique findfont
dup length dict begin
  {1 index /FID ne {def} {pop pop} ifelse} forall
  /Encoding WinAnsiEncoding def
  currentdict
end
/Helvetica-BoldOblique exch definefont pop
/Times-Roman findfont
dup length dict begin
  {1 index /FID ne {def} {pop pop} ifelse} forall
  /Encoding WinAnsiEncoding def
  currentdict
end
/Times-Roman exch definefont pop
/Times-Italic findfont
dup length dict begin
  {1 index /FID ne {def} {pop pop} ifelse} forall
  /Encoding WinAnsiEncoding def
  currentdict
end
/Times-Italic exch definefont pop
/Times-Bold findfont
dup length dict begin
  {1 index /FID ne {def} {pop pop} ifelse} forall
  /Encoding WinAnsiEncoding def
  currentdict
end
/Times-Bold exch definefont pop
/Times-BoldItalic findfont
dup length dict begin
  {1 index /FID ne {def} {pop pop} ifelse} forall
  /Encoding WinAnsiEncoding def
  currentdict
end
/Times-BoldItalic exch definefont pop
/Courier findfont
dup length dict begin
  {1 index /FID ne {def} {pop pop} ifelse} forall
  /Encoding WinAnsiEncoding def
  currentdict
end
/Courier exch definefont pop
%FOPEndFontReencode
%%EndProlog
%%Page: 1 1
%%PageBoundingBox: 0 0 1440 748
%%BeginPageSetup
[1 0 0 -1 0 748] CT
%%EndPageSetup
GS
[0.75 0 0 0.75 0 0.25] CT
N
0 0 M
1920 0 L
1920 997 L
0 997 L
0 0 L
cp
clip
1 GC
N
0 0 1920 997 re
f
GR
GS
[0.75 0 0 0.75 0 0.25] CT
1 GC
N
0 0 1920 997 re
f
GR
GS
[0.75 0 0 0.75 0 0.25] CT
1 GC
N
479.235 887 M
1508.765 887 L
1508.765 75 L
479.235 75 L
cp
f
GR
GS
[0.75 0 0 0.75 0 0.25] CT
0.149 GC
2 setlinecap
1 LJ
0.667 LW
N
479.235 887 M
1508.765 887 L
S
GR
GS
[0.75 0 0 0.75 0 0.25] CT
0.149 GC
2 setlinecap
1 LJ
0.667 LW
N
479.235 887 M
479.235 876.705 L
S
GR
GS
[0.75 0 0 0.75 0 0.25] CT
0.149 GC
2 setlinecap
1 LJ
0.667 LW
N
736.618 887 M
736.618 876.705 L
S
GR
GS
[0.75 0 0 0.75 0 0.25] CT
0.149 GC
2 setlinecap
1 LJ
0.667 LW
N
994 887 M
994 876.705 L
S
GR
GS
[0.75 0 0 0.75 0 0.25] CT
0.149 GC
2 setlinecap
1 LJ
0.667 LW
N
1251.382 887 M
1251.382 876.705 L
S
GR
GS
[0.75 0 0 0.75 0 0.25] CT
0.149 GC
2 setlinecap
1 LJ
0.667 LW
N
1508.765 887 M
1508.765 876.705 L
S
GR
GS
[0.75 0 0 0.75 359.42638 672.49998] CT
0.149 GC
/Helvetica 33.333 F
GS
[1 0 0 1 0 0] CT
-17 31 moveto 
1 -1 scale
(-5) t 
GR
GR
GS
[0.75 0 0 0.75 552.46321 672.49998] CT
0.149 GC
/Helvetica 33.333 F
GS
[1 0 0 1 0 0] CT
-11 31 moveto 
1 -1 scale
(0) t 
GR
GR
GS
[0.75 0 0 0.75 745.5 672.49998] CT
0.149 GC
/Helvetica 33.333 F
GS
[1 0 0 1 0 0] CT
-11 31 moveto 
1 -1 scale
(5) t 
GR
GR
GS
[0.75 0 0 0.75 938.53683 672.49998] CT
0.149 GC
/Helvetica 33.333 F
GS
[1 0 0 1 0 0] CT
-21.5 31 moveto 
1 -1 scale
(10) t 
GR
GR
GS
[0.75 0 0 0.75 1131.57358 672.49998] CT
0.149 GC
/Helvetica 33.333 F
GS
[1 0 0 1 0 0] CT
-21.5 31 moveto 
1 -1 scale
(15) t 
GR
GR
GS
[0.75 0 0 0.75 745.50037 702.75002] CT
0.149 GC
/Helvetica 36.667 F
GS
[1 0 0 1 0 0] CT
-22.5 35 moveto 
1 -1 scale
(Xs) t 
GR
GR
GS
[0.75 0 0 0.75 0 0.25] CT
0.149 GC
2 setlinecap
1 LJ
0.667 LW
N
479.235 887 M
479.235 75 L
S
GR
GS
[0.75 0 0 0.75 0 0.25] CT
0.149 GC
2 setlinecap
1 LJ
0.667 LW
N
479.235 886.377 M
489.53 886.377 L
S
GR
GS
[0.75 0 0 0.75 0 0.25] CT
0.149 GC
2 setlinecap
1 LJ
0.667 LW
N
479.235 783.424 M
489.53 783.424 L
S
GR
GS
[0.75 0 0 0.75 0 0.25] CT
0.149 GC
2 setlinecap
1 LJ
0.667 LW
N
479.235 680.471 M
489.53 680.471 L
S
GR
GS
[0.75 0 0 0.75 0 0.25] CT
0.149 GC
2 setlinecap
1 LJ
0.667 LW
N
479.235 577.518 M
489.53 577.518 L
S
GR
GS
[0.75 0 0 0.75 0 0.25] CT
0.149 GC
2 setlinecap
1 LJ
0.667 LW
N
479.235 474.565 M
489.53 474.565 L
S
GR
GS
[0.75 0 0 0.75 0 0.25] CT
0.149 GC
2 setlinecap
1 LJ
0.667 LW
N
479.235 371.612 M
489.53 371.612 L
S
GR
GS
[0.75 0 0 0.75 0 0.25] CT
0.149 GC
2 setlinecap
1 LJ
0.667 LW
N
479.235 268.66 M
489.53 268.66 L
S
GR
GS
[0.75 0 0 0.75 0 0.25] CT
0.149 GC
2 setlinecap
1 LJ
0.667 LW
N
479.235 165.707 M
489.53 165.707 L
S
GR
GS
[0.75 0 0 0.75 352.42639 665.03299] CT
0.149 GC
/Helvetica 33.333 F
GS
[1 0 0 1 0 0] CT
-34 11.5 moveto 
1 -1 scale
(-2) t 
GR
GR
GS
[0.75 0 0 0.75 352.42639 587.81824] CT
0.149 GC
/Helvetica 33.333 F
GS
[1 0 0 1 0 0] CT
-22 11.5 moveto 
1 -1 scale
(0) t 
GR
GR
GS
[0.75 0 0 0.75 352.42639 510.60353] CT
0.149 GC
/Helvetica 33.333 F
GS
[1 0 0 1 0 0] CT
-22 11.5 moveto 
1 -1 scale
(2) t 
GR
GR
GS
[0.75 0 0 0.75 352.42639 433.38882] CT
0.149 GC
/Helvetica 33.333 F
GS
[1 0 0 1 0 0] CT
-22 11.5 moveto 
1 -1 scale
(4) t 
GR
GR
GS
[0.75 0 0 0.75 352.42639 356.17407] CT
0.149 GC
/Helvetica 33.333 F
GS
[1 0 0 1 0 0] CT
-22 11.5 moveto 
1 -1 scale
(6) t 
GR
GR
GS
[0.75 0 0 0.75 352.42639 278.95937] CT
0.149 GC
/Helvetica 33.333 F
GS
[1 0 0 1 0 0] CT
-22 11.5 moveto 
1 -1 scale
(8) t 
GR
GR
GS
[0.75 0 0 0.75 352.42639 201.74464] CT
0.149 GC
/Helvetica 33.333 F
GS
[1 0 0 1 0 0] CT
-43 11.5 moveto 
1 -1 scale
(10) t 
GR
GR
GS
[0.75 0 0 0.75 352.42639 124.52991] CT
0.149 GC
/Helvetica 33.333 F
GS
[1 0 0 1 0 0] CT
-43 11.5 moveto 
1 -1 scale
(12) t 
GR
GR
GS
[0 -0.75 0.75 0 317.17639 360.99973] CT
0.149 GC
/Helvetica 36.667 F
GS
[1 0 0 1 0 0] CT
-21 -9 moveto 
1 -1 scale
(Ys) t 
GR
GR
GS
[0.75 0 0 0.75 899.92941 356.17407] CT
1 0 0 RC
N
0 -26.66 M
-23.088 13.33 L
23.088 13.33 L
cp
f
GR
GS
[0.75 0 0 0.75 899.92941 356.17407] CT
0 0 1 RC
10.0 ML
0.667 LW
N
0 -26.66 M
-23.088 13.33 L
23.088 13.33 L
cp
S
GR
GS
[0.75 0 0 0.75 938.53683 317.56672] CT
1 0 0 RC
N
/f-1996900118{0 -26.66 M
-23.088 13.33 L
23.088 13.33 L
cp}def
f-1996900118
f
GR
GS
[0.75 0 0 0.75 938.53683 317.56672] CT
0 0 1 RC
10.0 ML
0.667 LW
N
0 -26.66 M
-23.088 13.33 L
23.088 13.33 L
cp
S
GR
GS
[0.75 0 0 0.75 745.5 201.74464] CT
1 0 0 RC
N
f-1996900118
f
GR
GS
[0.75 0 0 0.75 745.5 201.74464] CT
0 0 1 RC
10.0 ML
0.667 LW
N
0 -26.66 M
-23.088 13.33 L
23.088 13.33 L
cp
S
GR
GS
[0.75 0 0 0.75 938.53683 510.60353] CT
1 0 0 RC
N
f-1996900118
f
GR
GS
[0.75 0 0 0.75 938.53683 510.60353] CT
0 0 1 RC
10.0 ML
0.667 LW
N
0 -26.66 M
-23.088 13.33 L
23.088 13.33 L
cp
S
GR
GS
[0.75 0 0 0.75 591.07054 240.35199] CT
1 0 0 RC
N
f-1996900118
f
GR
GS
[0.75 0 0 0.75 591.07054 240.35199] CT
0 0 1 RC
10.0 ML
0.667 LW
N
0 -26.66 M
-23.088 13.33 L
23.088 13.33 L
cp
S
GR
GS
[0.75 0 0 0.75 668.28529 356.17407] CT
1 0 0 RC
N
f-1996900118
f
GR
GS
[0.75 0 0 0.75 668.28529 356.17407] CT
0 0 1 RC
10.0 ML
0.667 LW
N
0 -26.66 M
-23.088 13.33 L
23.088 13.33 L
cp
S
GR
GS
[0.75 0 0 0.75 591.07054 356.17407] CT
1 0 0 RC
N
f-1996900118
f
GR
GS
[0.75 0 0 0.75 591.07054 356.17407] CT
0 0 1 RC
10.0 ML
0.667 LW
N
0 -26.66 M
-23.088 13.33 L
23.088 13.33 L
cp
S
GR
GS
[0.75 0 0 0.75 861.32208 394.78145] CT
1 0 0 RC
N
f-1996900118
f
GR
GS
[0.75 0 0 0.75 861.32208 394.78145] CT
0 0 1 RC
10.0 ML
0.667 LW
N
0 -26.66 M
-23.088 13.33 L
23.088 13.33 L
cp
S
GR
GS
[0.75 0 0 0.75 0 0.25] CT
1 0 0 RC
1 LJ
6.667 LW
N
775.225 693.341 M
826.701 693.341 L
867.437 661.869 L
903.053 624.703 L
938.67 587.537 L
968.499 545.585 L
994.233 501.002 L
1042.301 519.423 L
1090.368 537.844 L
1138.436 556.265 L
1188.093 542.701 L
S
GR
GS
[0.75 0 0 0.75 581.41873 520.25539] CT
0 1 1 RC
N
/f935408997{0 -17.773 M
-15.392 8.887 L
15.392 8.887 L
cp}def
f935408997
f
GR
GS
[0.75 0 0 0.75 581.41873 520.25539] CT
0 1 0 RC
10.0 ML
0.667 LW
N
0 -17.773 M
-15.392 8.887 L
15.392 8.887 L
cp
S
GR
GS
[0.75 0 0 0.75 620.02606 520.25539] CT
0 1 1 RC
N
f935408997
f
GR
GS
[0.75 0 0 0.75 620.02606 520.25539] CT
0 1 0 RC
10.0 ML
0.667 LW
N
0 -17.773 M
-15.392 8.887 L
15.392 8.887 L
cp
S
GR
GS
[0.75 0 0 0.75 650.57753 496.65158] CT
0 1 1 RC
N
f935408997
f
GR
GS
[0.75 0 0 0.75 650.57753 496.65158] CT
0 1 0 RC
10.0 ML
0.667 LW
N
0 -17.773 M
-15.392 8.887 L
15.392 8.887 L
cp
S
GR
GS
[0.75 0 0 0.75 677.28992 468.7773] CT
0 1 1 RC
N
f935408997
f
GR
GS
[0.75 0 0 0.75 677.28992 468.7773] CT
0 1 0 RC
10.0 ML
0.667 LW
N
0 -17.773 M
-15.392 8.887 L
15.392 8.887 L
cp
S
GR
GS
[0.75 0 0 0.75 704.0023 440.90302] CT
0 1 1 RC
N
f935408997
f
GR
GS
[0.75 0 0 0.75 704.0023 440.90302] CT
0 1 0 RC
10.0 ML
0.667 LW
N
0 -17.773 M
-15.392 8.887 L
15.392 8.887 L
cp
S
GR
GS
[0.75 0 0 0.75 726.37445 409.43849] CT
0 1 1 RC
N
f935408997
f
GR
GS
[0.75 0 0 0.75 726.37445 409.43849] CT
0 1 0 RC
10.0 ML
0.667 LW
N
0 -17.773 M
-15.392 8.887 L
15.392 8.887 L
cp
S
GR
GS
[0.75 0 0 0.75 745.67473 376.00158] CT
0 1 1 RC
N
f935408997
f
GR
GS
[0.75 0 0 0.75 745.67473 376.00158] CT
0 1 0 RC
10.0 ML
0.667 LW
N
0 -17.773 M
-15.392 8.887 L
15.392 8.887 L
cp
S
GR
GS
[0.75 0 0 0.75 781.72549 389.81728] CT
0 1 1 RC
N
f935408997
f
GR
GS
[0.75 0 0 0.75 781.72549 389.81728] CT
0 1 0 RC
10.0 ML
0.667 LW
N
0 -17.773 M
-15.392 8.887 L
15.392 8.887 L
cp
S
GR
GS
[0.75 0 0 0.75 817.77621 403.633] CT
0 1 1 RC
N
f935408997
f
GR
GS
[0.75 0 0 0.75 817.77621 403.633] CT
0 1 0 RC
10.0 ML
0.667 LW
N
0 -17.773 M
-15.392 8.887 L
15.392 8.887 L
cp
S
GR
GS
[0.75 0 0 0.75 853.82693 417.44867] CT
0 1 1 RC
N
f935408997
f
GR
GS
[0.75 0 0 0.75 853.82693 417.44867] CT
0 1 0 RC
10.0 ML
0.667 LW
N
0 -17.773 M
-15.392 8.887 L
15.392 8.887 L
cp
S
GR
GS
[0.75 0 0 0.75 891.06995 407.27592] CT
0 1 1 RC
N
f935408997
f
GR
GS
[0.75 0 0 0.75 891.06995 407.27592] CT
0 1 0 RC
10.0 ML
0.667 LW
N
0 -17.773 M
-15.392 8.887 L
15.392 8.887 L
cp
S
GR
GS
[0.75 0 0 0.75 552.75 547] CT
/Helvetica-Bold 33.333 F
GS
[1 0 0 1 0 0] CT
0 0 moveto 
1 -1 scale
(k) t 
GR
GR
GS
[0.75 0 0 0.75 570 559] CT
/Helvetica-Bold 26.667 F
GS
[1 0 0 1 0 0] CT
0 0 moveto 
1 -1 scale
(0) t 
GR
GR
GS
[0.75 0 0 0.75 584.25 547] CT
/Helvetica-Bold 33.333 F
GS
[1 0 0 1 0 0] CT
0 0 moveto 
1 -1 scale
( ) t 
GR
GR
GS
[0.75 0 0 0.75 0 0.25] CT
1 GC
N
/f1970203016{1498 199 M
1498 86 L
1169 86 L
1169 199 L
cp}def
f1970203016
f
GR
GS
[0.75 0 0 0.75 912 79.75] CT
/Helvetica-Bold 30 F
GS
[1 0 0 1 0 0] CT
0 10 moveto 
1 -1 scale
(LandMark) t 
GR
GR
GS
[0.75 0 0 0.75 894.75 79.75] CT
1 0 0 RC
N
/f-1214359511{0 -19.995 M
-17.316 9.998 L
17.316 9.998 L
cp}def
f-1214359511
f
GR
GS
[0.75 0 0 0.75 894.75 79.75] CT
0 0 1 RC
10.0 ML
0.667 LW
N
0 -19.995 M
-17.316 9.998 L
17.316 9.998 L
cp
S
GR
GS
[0.75 0 0 0.75 912 107.125] CT
/Helvetica-Bold 30 F
GS
[1 0 0 1 0 0] CT
0 10 moveto 
1 -1 scale
(RealPose) t 
GR
GR
GS
[0.75 0 0 0.75 894.75 107.125] CT
0 1 1 RC
N
f935408997
f
GR
GS
[0.75 0 0 0.75 894.75 107.125] CT
0 1 0 RC
10.0 ML
0.667 LW
N
0 -17.773 M
-15.392 8.887 L
15.392 8.887 L
cp
S
GR
GS
[0.75 0 0 0.75 912 134.5] CT
/Helvetica-Bold 30 F
GS
[1 0 0 1 0 0] CT
0 10 moveto 
1 -1 scale
(Robot trajectory) t 
GR
GR
GS
[0.75 0 0 0.75 0 0.25] CT
1 0 0 RC
1 LJ
6.667 LW
N
1173 179 M
1213 179 L
S
GR
GS
[0.75 0 0 0.75 0 0.25] CT
0.149 GC
10.0 ML
0.667 LW
N
1169 199 M
1169 86 L
1498 86 L
1498 199 L
cp
S
GR
GS
[0.75 0 0 0.75 0 0.25] CT
1 GC
10.0 ML
0.667 LW
N
1198.92 586 M
1198.92 525 L
1250 525 L
1250 586 L
cp
S
GR
GS
[0.75 0 0 0.75 904.5 420.25] CT
/Helvetica-Bold 33.333 F
GS
[1 0 0 1 0 0] CT
0 0 moveto 
1 -1 scale
(k) t 
GR
GR
GS
[0.75 0 0 0.75 921.75 432.25] CT
/Helvetica-Bold 26.667 F
GS
[1 0 0 1 0 0] CT
0 0 moveto 
1 -1 scale
(10) t 
GR
GR
%%Trailer
%%Pages: 1
%%EOF
