%!PS-Adobe-3.0 EPSF-3.0
%%Creator: (MATLAB, The Mathworks, Inc. Version 9.8.0.1380330 \(R2020a\) Update 2. Operating System: Linux)
%%Title: (/home/ohads/ANPL/papers/research/2021 RAL/Figures/TestCase_2/fig_files/Robots_estimation_k_8.epsc)
%%CreationDate: 2021-02-21T16:12:40
%%Pages: (atend)
%%BoundingBox:   290    18  1145   692
%%LanguageLevel: 3
%%EndComments
%%BeginProlog
%%BeginResource: procset (Apache XML Graphics Std ProcSet) 1.2 0
%%Version: 1.2 0
%%Copyright: (Copyright 2001-2003,2010 The Apache Software Foundation. License terms: http://www.apache.org/licenses/LICENSE-2.0)
/bd{bind def}bind def
/ld{load def}bd
/GR/grestore ld
/GS/gsave ld
/RM/rmoveto ld
/C/curveto ld
/t/show ld
/L/lineto ld
/ML/setmiterlimit ld
/CT/concat ld
/f/fill ld
/N/newpath ld
/S/stroke ld
/CC/setcmykcolor ld
/A/ashow ld
/cp/closepath ld
/RC/setrgbcolor ld
/LJ/setlinejoin ld
/GC/setgray ld
/LW/setlinewidth ld
/M/moveto ld
/re {4 2 roll M
1 index 0 rlineto
0 exch rlineto
neg 0 rlineto
cp } bd
/_ctm matrix def
/_tm matrix def
/BT { _ctm currentmatrix pop matrix _tm copy pop 0 0 moveto } bd
/ET { _ctm setmatrix } bd
/iTm { _ctm setmatrix _tm concat } bd
/Tm { _tm astore pop iTm 0 0 moveto } bd
/ux 0.0 def
/uy 0.0 def
/F {
  /Tp exch def
  /Tf exch def
  Tf findfont Tp scalefont setfont
  /cf Tf def  /cs Tp def
} bd
/ULS {currentpoint /uy exch def /ux exch def} bd
/ULE {
  /Tcx currentpoint pop def
  gsave
  newpath
  cf findfont cs scalefont dup
  /FontMatrix get 0 get /Ts exch def /FontInfo get dup
  /UnderlinePosition get Ts mul /To exch def
  /UnderlineThickness get Ts mul /Tt exch def
  ux uy To add moveto  Tcx uy To add lineto
  Tt setlinewidth stroke
  grestore
} bd
/OLE {
  /Tcx currentpoint pop def
  gsave
  newpath
  cf findfont cs scalefont dup
  /FontMatrix get 0 get /Ts exch def /FontInfo get dup
  /UnderlinePosition get Ts mul /To exch def
  /UnderlineThickness get Ts mul /Tt exch def
  ux uy To add cs add moveto Tcx uy To add cs add lineto
  Tt setlinewidth stroke
  grestore
} bd
/SOE {
  /Tcx currentpoint pop def
  gsave
  newpath
  cf findfont cs scalefont dup
  /FontMatrix get 0 get /Ts exch def /FontInfo get dup
  /UnderlinePosition get Ts mul /To exch def
  /UnderlineThickness get Ts mul /Tt exch def
  ux uy To add cs 10 mul 26 idiv add moveto Tcx uy To add cs 10 mul 26 idiv add lineto
  Tt setlinewidth stroke
  grestore
} bd
/QT {
/Y22 exch store
/X22 exch store
/Y21 exch store
/X21 exch store
currentpoint
/Y21 load 2 mul add 3 div exch
/X21 load 2 mul add 3 div exch
/X21 load 2 mul /X22 load add 3 div
/Y21 load 2 mul /Y22 load add 3 div
/X22 load /Y22 load curveto
} bd
/SSPD {
dup length /d exch dict def
{
/v exch def
/k exch def
currentpagedevice k known {
/cpdv currentpagedevice k get def
v cpdv ne {
/upd false def
/nullv v type /nulltype eq def
/nullcpdv cpdv type /nulltype eq def
nullv nullcpdv or
{
/upd true def
} {
/sametype v type cpdv type eq def
sametype {
v type /arraytype eq {
/vlen v length def
/cpdvlen cpdv length def
vlen cpdvlen eq {
0 1 vlen 1 sub {
/i exch def
/obj v i get def
/cpdobj cpdv i get def
obj cpdobj ne {
/upd true def
exit
} if
} for
} {
/upd true def
} ifelse
} {
v type /dicttype eq {
v {
/dv exch def
/dk exch def
/cpddv cpdv dk get def
dv cpddv ne {
/upd true def
exit
} if
} forall
} {
/upd true def
} ifelse
} ifelse
} if
} ifelse
upd true eq {
d k v put
} if
} if
} if
} forall
d length 0 gt {
d setpagedevice
} if
} bd
/RE { % /NewFontName [NewEncodingArray] /FontName RE -
  findfont dup length dict begin
  {
    1 index /FID ne
    {def} {pop pop} ifelse
  } forall
  /Encoding exch def
  /FontName 1 index def
  currentdict definefont pop
  end
} bind def
%%EndResource
%%BeginResource: procset (Apache XML Graphics EPS ProcSet) 1.0 0
%%Version: 1.0 0
%%Copyright: (Copyright 2002-2003 The Apache Software Foundation. License terms: http://www.apache.org/licenses/LICENSE-2.0)
/BeginEPSF { %def
/b4_Inc_state save def         % Save state for cleanup
/dict_count countdictstack def % Count objects on dict stack
/op_count count 1 sub def      % Count objects on operand stack
userdict begin                 % Push userdict on dict stack
/showpage { } def              % Redefine showpage, { } = null proc
0 setgray 0 setlinecap         % Prepare graphics state
1 setlinewidth 0 setlinejoin
10 setmiterlimit [ ] 0 setdash newpath
/languagelevel where           % If level not equal to 1 then
{pop languagelevel             % set strokeadjust and
1 ne                           % overprint to their defaults.
{false setstrokeadjust false setoverprint
} if
} if
} bd
/EndEPSF { %def
count op_count sub {pop} repeat            % Clean up stacks
countdictstack dict_count sub {end} repeat
b4_Inc_state restore
} bd
%%EndResource
%FOPBeginFontDict
%%IncludeResource: font Courier-Oblique
%%IncludeResource: font Courier-BoldOblique
%%IncludeResource: font Courier-Bold
%%IncludeResource: font ZapfDingbats
%%IncludeResource: font Symbol
%%IncludeResource: font Helvetica
%%IncludeResource: font Helvetica-Oblique
%%IncludeResource: font Helvetica-Bold
%%IncludeResource: font Helvetica-BoldOblique
%%IncludeResource: font Times-Roman
%%IncludeResource: font Times-Italic
%%IncludeResource: font Times-Bold
%%IncludeResource: font Times-BoldItalic
%%IncludeResource: font Courier
%FOPEndFontDict
%%BeginResource: encoding WinAnsiEncoding
/WinAnsiEncoding [
/.notdef /.notdef /.notdef /.notdef /.notdef
/.notdef /.notdef /.notdef /.notdef /.notdef
/.notdef /.notdef /.notdef /.notdef /.notdef
/.notdef /.notdef /.notdef /.notdef /.notdef
/.notdef /.notdef /.notdef /.notdef /.notdef
/.notdef /.notdef /.notdef /.notdef /.notdef
/.notdef /.notdef /space /exclam /quotedbl
/numbersign /dollar /percent /ampersand /quotesingle
/parenleft /parenright /asterisk /plus /comma
/hyphen /period /slash /zero /one
/two /three /four /five /six
/seven /eight /nine /colon /semicolon
/less /equal /greater /question /at
/A /B /C /D /E
/F /G /H /I /J
/K /L /M /N /O
/P /Q /R /S /T
/U /V /W /X /Y
/Z /bracketleft /backslash /bracketright /asciicircum
/underscore /quoteleft /a /b /c
/d /e /f /g /h
/i /j /k /l /m
/n /o /p /q /r
/s /t /u /v /w
/x /y /z /braceleft /bar
/braceright /asciitilde /bullet /Euro /bullet
/quotesinglbase /florin /quotedblbase /ellipsis /dagger
/daggerdbl /circumflex /perthousand /Scaron /guilsinglleft
/OE /bullet /Zcaron /bullet /bullet
/quoteleft /quoteright /quotedblleft /quotedblright /bullet
/endash /emdash /asciitilde /trademark /scaron
/guilsinglright /oe /bullet /zcaron /Ydieresis
/space /exclamdown /cent /sterling /currency
/yen /brokenbar /section /dieresis /copyright
/ordfeminine /guillemotleft /logicalnot /sfthyphen /registered
/macron /degree /plusminus /twosuperior /threesuperior
/acute /mu /paragraph /middot /cedilla
/onesuperior /ordmasculine /guillemotright /onequarter /onehalf
/threequarters /questiondown /Agrave /Aacute /Acircumflex
/Atilde /Adieresis /Aring /AE /Ccedilla
/Egrave /Eacute /Ecircumflex /Edieresis /Igrave
/Iacute /Icircumflex /Idieresis /Eth /Ntilde
/Ograve /Oacute /Ocircumflex /Otilde /Odieresis
/multiply /Oslash /Ugrave /Uacute /Ucircumflex
/Udieresis /Yacute /Thorn /germandbls /agrave
/aacute /acircumflex /atilde /adieresis /aring
/ae /ccedilla /egrave /eacute /ecircumflex
/edieresis /igrave /iacute /icircumflex /idieresis
/eth /ntilde /ograve /oacute /ocircumflex
/otilde /odieresis /divide /oslash /ugrave
/uacute /ucircumflex /udieresis /yacute /thorn
/ydieresis
] def
%%EndResource
%FOPBeginFontReencode
/Courier-Oblique findfont
dup length dict begin
  {1 index /FID ne {def} {pop pop} ifelse} forall
  /Encoding WinAnsiEncoding def
  currentdict
end
/Courier-Oblique exch definefont pop
/Courier-BoldOblique findfont
dup length dict begin
  {1 index /FID ne {def} {pop pop} ifelse} forall
  /Encoding WinAnsiEncoding def
  currentdict
end
/Courier-BoldOblique exch definefont pop
/Courier-Bold findfont
dup length dict begin
  {1 index /FID ne {def} {pop pop} ifelse} forall
  /Encoding WinAnsiEncoding def
  currentdict
end
/Courier-Bold exch definefont pop
/Helvetica findfont
dup length dict begin
  {1 index /FID ne {def} {pop pop} ifelse} forall
  /Encoding WinAnsiEncoding def
  currentdict
end
/Helvetica exch definefont pop
/Helvetica-Oblique findfont
dup length dict begin
  {1 index /FID ne {def} {pop pop} ifelse} forall
  /Encoding WinAnsiEncoding def
  currentdict
end
/Helvetica-Oblique exch definefont pop
/Helvetica-Bold findfont
dup length dict begin
  {1 index /FID ne {def} {pop pop} ifelse} forall
  /Encoding WinAnsiEncoding def
  currentdict
end
/Helvetica-Bold exch definefont pop
/Helvetica-BoldOblique findfont
dup length dict begin
  {1 index /FID ne {def} {pop pop} ifelse} forall
  /Encoding WinAnsiEncoding def
  currentdict
end
/Helvetica-BoldOblique exch definefont pop
/Times-Roman findfont
dup length dict begin
  {1 index /FID ne {def} {pop pop} ifelse} forall
  /Encoding WinAnsiEncoding def
  currentdict
end
/Times-Roman exch definefont pop
/Times-Italic findfont
dup length dict begin
  {1 index /FID ne {def} {pop pop} ifelse} forall
  /Encoding WinAnsiEncoding def
  currentdict
end
/Times-Italic exch definefont pop
/Times-Bold findfont
dup length dict begin
  {1 index /FID ne {def} {pop pop} ifelse} forall
  /Encoding WinAnsiEncoding def
  currentdict
end
/Times-Bold exch definefont pop
/Times-BoldItalic findfont
dup length dict begin
  {1 index /FID ne {def} {pop pop} ifelse} forall
  /Encoding WinAnsiEncoding def
  currentdict
end
/Times-BoldItalic exch definefont pop
/Courier findfont
dup length dict begin
  {1 index /FID ne {def} {pop pop} ifelse} forall
  /Encoding WinAnsiEncoding def
  currentdict
end
/Courier exch definefont pop
%FOPEndFontReencode
%%EndProlog
%%Page: 1 1
%%PageBoundingBox: 0 0 1440 748
%%BeginPageSetup
[1 0 0 -1 0 748] CT
%%EndPageSetup
GS
[0.75 0 0 0.75 0 0.25] CT
N
0 0 M
1920 0 L
1920 997 L
0 997 L
0 0 L
cp
clip
1 GC
N
0 0 1920 997 re
f
GR
GS
[0.75 0 0 0.75 0 0.25] CT
1 GC
N
0 0 1920 997 re
f
GR
GS
[0.75 0 0 0.75 0 0.25] CT
1 GC
N
479.235 887 M
1508.765 887 L
1508.765 75 L
479.235 75 L
cp
f
GR
GS
[0.75 0 0 0.75 0 0.25] CT
0.149 GC
2 setlinecap
1 LJ
0.667 LW
N
479.235 887 M
1508.765 887 L
S
GR
GS
[0.75 0 0 0.75 0 0.25] CT
0.149 GC
2 setlinecap
1 LJ
0.667 LW
N
479.235 887 M
479.235 876.705 L
S
GR
GS
[0.75 0 0 0.75 0 0.25] CT
0.149 GC
2 setlinecap
1 LJ
0.667 LW
N
736.618 887 M
736.618 876.705 L
S
GR
GS
[0.75 0 0 0.75 0 0.25] CT
0.149 GC
2 setlinecap
1 LJ
0.667 LW
N
994 887 M
994 876.705 L
S
GR
GS
[0.75 0 0 0.75 0 0.25] CT
0.149 GC
2 setlinecap
1 LJ
0.667 LW
N
1251.382 887 M
1251.382 876.705 L
S
GR
GS
[0.75 0 0 0.75 0 0.25] CT
0.149 GC
2 setlinecap
1 LJ
0.667 LW
N
1508.765 887 M
1508.765 876.705 L
S
GR
GS
[0.75 0 0 0.75 359.42638 672.49998] CT
0.149 GC
/Helvetica 33.333 F
GS
[1 0 0 1 0 0] CT
-17 31 moveto 
1 -1 scale
(-5) t 
GR
GR
GS
[0.75 0 0 0.75 552.46321 672.49998] CT
0.149 GC
/Helvetica 33.333 F
GS
[1 0 0 1 0 0] CT
-11 31 moveto 
1 -1 scale
(0) t 
GR
GR
GS
[0.75 0 0 0.75 745.5 672.49998] CT
0.149 GC
/Helvetica 33.333 F
GS
[1 0 0 1 0 0] CT
-11 31 moveto 
1 -1 scale
(5) t 
GR
GR
GS
[0.75 0 0 0.75 938.53683 672.49998] CT
0.149 GC
/Helvetica 33.333 F
GS
[1 0 0 1 0 0] CT
-21.5 31 moveto 
1 -1 scale
(10) t 
GR
GR
GS
[0.75 0 0 0.75 1131.57358 672.49998] CT
0.149 GC
/Helvetica 33.333 F
GS
[1 0 0 1 0 0] CT
-21.5 31 moveto 
1 -1 scale
(15) t 
GR
GR
GS
[0.75 0 0 0.75 745.50037 702.75002] CT
0.149 GC
/Helvetica 36.667 F
GS
[1 0 0 1 0 0] CT
-22.5 35 moveto 
1 -1 scale
(Xs) t 
GR
GR
GS
[0.75 0 0 0.75 0 0.25] CT
0.149 GC
2 setlinecap
1 LJ
0.667 LW
N
479.235 887 M
479.235 75 L
S
GR
GS
[0.75 0 0 0.75 0 0.25] CT
0.149 GC
2 setlinecap
1 LJ
0.667 LW
N
479.235 789.859 M
489.53 789.859 L
S
GR
GS
[0.75 0 0 0.75 0 0.25] CT
0.149 GC
2 setlinecap
1 LJ
0.667 LW
N
479.235 686.906 M
489.53 686.906 L
S
GR
GS
[0.75 0 0 0.75 0 0.25] CT
0.149 GC
2 setlinecap
1 LJ
0.667 LW
N
479.235 583.953 M
489.53 583.953 L
S
GR
GS
[0.75 0 0 0.75 0 0.25] CT
0.149 GC
2 setlinecap
1 LJ
0.667 LW
N
479.235 481 M
489.53 481 L
S
GR
GS
[0.75 0 0 0.75 0 0.25] CT
0.149 GC
2 setlinecap
1 LJ
0.667 LW
N
479.235 378.047 M
489.53 378.047 L
S
GR
GS
[0.75 0 0 0.75 0 0.25] CT
0.149 GC
2 setlinecap
1 LJ
0.667 LW
N
479.235 275.094 M
489.53 275.094 L
S
GR
GS
[0.75 0 0 0.75 0 0.25] CT
0.149 GC
2 setlinecap
1 LJ
0.667 LW
N
479.235 172.141 M
489.53 172.141 L
S
GR
GS
[0.75 0 0 0.75 352.42639 592.64417] CT
0.149 GC
/Helvetica 33.333 F
GS
[1 0 0 1 0 0] CT
-22 11.5 moveto 
1 -1 scale
(0) t 
GR
GR
GS
[0.75 0 0 0.75 352.42639 515.42946] CT
0.149 GC
/Helvetica 33.333 F
GS
[1 0 0 1 0 0] CT
-22 11.5 moveto 
1 -1 scale
(2) t 
GR
GR
GS
[0.75 0 0 0.75 352.42639 438.21471] CT
0.149 GC
/Helvetica 33.333 F
GS
[1 0 0 1 0 0] CT
-22 11.5 moveto 
1 -1 scale
(4) t 
GR
GR
GS
[0.75 0 0 0.75 352.42639 361] CT
0.149 GC
/Helvetica 33.333 F
GS
[1 0 0 1 0 0] CT
-22 11.5 moveto 
1 -1 scale
(6) t 
GR
GR
GS
[0.75 0 0 0.75 352.42639 283.78527] CT
0.149 GC
/Helvetica 33.333 F
GS
[1 0 0 1 0 0] CT
-22 11.5 moveto 
1 -1 scale
(8) t 
GR
GR
GS
[0.75 0 0 0.75 352.42639 206.57054] CT
0.149 GC
/Helvetica 33.333 F
GS
[1 0 0 1 0 0] CT
-43 11.5 moveto 
1 -1 scale
(10) t 
GR
GR
GS
[0.75 0 0 0.75 352.42639 129.35582] CT
0.149 GC
/Helvetica 33.333 F
GS
[1 0 0 1 0 0] CT
-43 11.5 moveto 
1 -1 scale
(12) t 
GR
GR
GS
[0 -0.75 0.75 0 317.17639 360.99973] CT
0.149 GC
/Helvetica 36.667 F
GS
[1 0 0 1 0 0] CT
-21 -9 moveto 
1 -1 scale
(Ys) t 
GR
GR
GS
[0.75 0 0 0.75 899.92941 361] CT
1 0 0 RC
N
0 -26.66 M
-23.088 13.33 L
23.088 13.33 L
cp
f
GR
GS
[0.75 0 0 0.75 899.92941 361] CT
0 0 1 RC
10.0 ML
0.667 LW
N
0 -26.66 M
-23.088 13.33 L
23.088 13.33 L
cp
S
GR
GS
[0.75 0 0 0.75 938.53683 322.39265] CT
1 0 0 RC
N
/f-1996900118{0 -26.66 M
-23.088 13.33 L
23.088 13.33 L
cp}def
f-1996900118
f
GR
GS
[0.75 0 0 0.75 938.53683 322.39265] CT
0 0 1 RC
10.0 ML
0.667 LW
N
0 -26.66 M
-23.088 13.33 L
23.088 13.33 L
cp
S
GR
GS
[0.75 0 0 0.75 745.5 206.57054] CT
1 0 0 RC
N
f-1996900118
f
GR
GS
[0.75 0 0 0.75 745.5 206.57054] CT
0 0 1 RC
10.0 ML
0.667 LW
N
0 -26.66 M
-23.088 13.33 L
23.088 13.33 L
cp
S
GR
GS
[0.75 0 0 0.75 938.53683 515.42946] CT
1 0 0 RC
N
f-1996900118
f
GR
GS
[0.75 0 0 0.75 938.53683 515.42946] CT
0 0 1 RC
10.0 ML
0.667 LW
N
0 -26.66 M
-23.088 13.33 L
23.088 13.33 L
cp
S
GR
GS
[0.75 0 0 0.75 591.07054 245.17792] CT
1 0 0 RC
N
f-1996900118
f
GR
GS
[0.75 0 0 0.75 591.07054 245.17792] CT
0 0 1 RC
10.0 ML
0.667 LW
N
0 -26.66 M
-23.088 13.33 L
23.088 13.33 L
cp
S
GR
GS
[0.75 0 0 0.75 668.28529 361] CT
1 0 0 RC
N
f-1996900118
f
GR
GS
[0.75 0 0 0.75 668.28529 361] CT
0 0 1 RC
10.0 ML
0.667 LW
N
0 -26.66 M
-23.088 13.33 L
23.088 13.33 L
cp
S
GR
GS
[0.75 0 0 0.75 591.07054 361] CT
1 0 0 RC
N
f-1996900118
f
GR
GS
[0.75 0 0 0.75 591.07054 361] CT
0 0 1 RC
10.0 ML
0.667 LW
N
0 -26.66 M
-23.088 13.33 L
23.088 13.33 L
cp
S
GR
GS
[0.75 0 0 0.75 861.32208 399.60738] CT
1 0 0 RC
N
f-1996900118
f
GR
GS
[0.75 0 0 0.75 861.32208 399.60738] CT
0 0 1 RC
10.0 ML
0.667 LW
N
0 -26.66 M
-23.088 13.33 L
23.088 13.33 L
cp
S
GR
GS
[0.75 0 0 0.75 795.36703 433.68857] CT
0 1 1 RC
10.0 ML
0.667 LW
N
0 -4 M
0 4 L
-4 0 M
4 0 L
-2.828 -2.828 M
2.828 2.828 L
-2.828 2.828 M
2.828 -2.828 L
S
GR
GS
[0.75 0 0 0.75 0 0.25] CT
0 1 1 RC
1 LJ
0.667 LW
N
1065.028 579.573 M
1065.296 579.76 L
1064.971 579.721 L
S
GR
GS
[0.75 0 0 0.75 0 0.25] CT
0 1 1 RC
1 LJ
0.667 LW
N
1060.489 577.918 M
1065.296 579.76 L
S
GR
GS
[0.75 0 0 0.75 0 0.25] CT
0 1 1 RC
1 LJ
6.667 LW
N
1025.279 601.897 M
1020.422 592.387 L
1018.083 581.969 L
1018.408 571.295 L
1021.377 561.038 L
1026.803 551.841 L
1034.347 544.283 L
1043.533 538.839 L
1053.784 535.849 L
1064.457 535.504 L
1074.88 537.823 L
1084.399 542.661 L
1092.416 549.715 L
1098.427 558.541 L
1102.054 568.585 L
1103.069 579.215 L
1101.409 589.763 L
1097.178 599.567 L
1090.641 608.011 L
1082.21 614.564 L
1072.414 618.815 L
1061.869 620.495 L
1051.237 619.501 L
1041.187 615.894 L
1032.349 609.9 L
1025.279 601.897 L
S
GR
GS
[0.75 0 0 0.75 827.72516 401.32939] CT
0 1 1 RC
10.0 ML
0.667 LW
N
0 -4 M
0 4 L
-4 0 M
4 0 L
-2.828 -2.828 M
2.828 2.828 L
-2.828 2.828 M
2.828 -2.828 L
S
GR
GS
[0.75 0 0 0.75 0 0.25] CT
0 1 1 RC
1 LJ
0.667 LW
N
1108.172 536.427 M
1108.44 536.615 L
1108.116 536.575 L
S
GR
GS
[0.75 0 0 0.75 0 0.25] CT
0 1 1 RC
1 LJ
0.667 LW
N
1103.634 534.773 M
1108.44 536.615 L
S
GR
GS
[0.75 0 0 0.75 0 0.25] CT
0 1 1 RC
1 LJ
6.667 LW
N
1068.963 559.525 M
1076.208 567.37 L
1085.176 573.166 L
1095.304 576.55 L
1105.956 577.309 L
1116.461 575.395 L
1126.16 570.929 L
1134.444 564.191 L
1140.792 555.604 L
1144.806 545.709 L
1146.232 535.126 L
1144.981 524.521 L
1141.133 514.56 L
1134.928 505.87 L
1126.757 498.995 L
1117.133 494.368 L
1106.661 492.281 L
1095.999 492.863 L
1085.816 496.078 L
1076.753 501.725 L
1069.379 509.448 L
1064.157 518.762 L
1061.416 529.083 L
1061.327 539.761 L
1063.897 550.125 L
1068.963 559.525 L
S
GR
GS
[0.75 0 0 0.75 789.28152 439.77303] CT
0 1 1 RC
10.0 ML
0.667 LW
N
0 -4 M
0 4 L
-4 0 M
4 0 L
-2.828 -2.828 M
2.828 2.828 L
-2.828 2.828 M
2.828 -2.828 L
S
GR
GS
[0.75 0 0 0.75 0 0.25] CT
0 1 1 RC
1 LJ
0.667 LW
N
1056.914 587.685 M
1057.182 587.873 L
1056.858 587.833 L
S
GR
GS
[0.75 0 0 0.75 0 0.25] CT
0 1 1 RC
1 LJ
0.667 LW
N
1052.375 586.031 M
1057.182 587.873 L
S
GR
GS
[0.75 0 0 0.75 0 0.25] CT
0 1 1 RC
1 LJ
6.667 LW
N
1017.699 610.775 M
1024.942 618.621 L
1033.909 624.42 L
1044.036 627.806 L
1054.687 628.568 L
1065.193 626.656 L
1074.893 622.193 L
1083.179 615.456 L
1089.529 606.871 L
1093.545 596.977 L
1094.974 586.395 L
1093.726 575.79 L
1089.88 565.828 L
1083.677 557.136 L
1075.508 550.259 L
1065.885 545.63 L
1055.413 543.539 L
1044.751 544.119 L
1034.567 547.332 L
1025.503 552.976 L
1018.127 560.698 L
1012.903 570.011 L
1010.159 580.331 L
1010.068 591.008 L
1012.635 601.374 L
1017.699 610.775 L
S
GR
GS
[0.75 0 0 0.75 827.67242 401.32957] CT
0 1 1 RC
10.0 ML
0.667 LW
N
0 -4 M
0 4 L
-4 0 M
4 0 L
-2.828 -2.828 M
2.828 2.828 L
-2.828 2.828 M
2.828 -2.828 L
S
GR
GS
[0.75 0 0 0.75 0 0.25] CT
0 1 1 RC
1 LJ
0.667 LW
N
1108.102 536.427 M
1108.37 536.615 L
1108.045 536.575 L
S
GR
GS
[0.75 0 0 0.75 0 0.25] CT
0 1 1 RC
1 LJ
0.667 LW
N
1103.563 534.773 M
1108.37 536.615 L
S
GR
GS
[0.75 0 0 0.75 0 0.25] CT
0 1 1 RC
1 LJ
6.667 LW
N
1068.899 559.534 M
1063.83 550.135 L
1061.258 539.772 L
1061.344 529.094 L
1064.083 518.773 L
1069.302 509.457 L
1076.674 501.732 L
1085.736 496.083 L
1095.918 492.865 L
1106.58 492.28 L
1117.053 494.365 L
1126.678 498.99 L
1134.851 505.862 L
1141.057 514.551 L
1144.908 524.511 L
1146.161 535.116 L
1144.738 545.699 L
1140.727 555.595 L
1134.381 564.183 L
1126.099 570.923 L
1116.401 575.392 L
1105.896 577.308 L
1095.244 576.552 L
1085.115 573.171 L
1076.146 567.377 L
1068.899 559.534 L
S
GR
GS
[0.75 0 0 0.75 795.03928 433.68857] CT
0 1 1 RC
10.0 ML
0.667 LW
N
0 -4 M
0 4 L
-4 0 M
4 0 L
-2.828 -2.828 M
2.828 2.828 L
-2.828 2.828 M
2.828 -2.828 L
S
GR
GS
[0.75 0 0 0.75 0 0.25] CT
0 1 1 RC
1 LJ
0.667 LW
N
1064.591 579.573 M
1064.859 579.76 L
1064.534 579.721 L
S
GR
GS
[0.75 0 0 0.75 0 0.25] CT
0 1 1 RC
1 LJ
0.667 LW
N
1060.052 577.918 M
1064.859 579.76 L
S
GR
GS
[0.75 0 0 0.75 0 0.25] CT
0 1 1 RC
1 LJ
6.667 LW
N
1024.828 601.875 M
1031.892 609.883 L
1040.726 615.882 L
1050.774 619.495 L
1061.406 620.496 L
1071.952 618.822 L
1081.75 614.578 L
1090.186 608.03 L
1096.728 599.59 L
1100.965 589.788 L
1102.631 579.241 L
1101.623 568.61 L
1098.002 558.565 L
1091.997 549.735 L
1083.984 542.676 L
1074.468 537.832 L
1064.046 535.506 L
1053.373 535.845 L
1043.12 538.828 L
1033.931 544.267 L
1026.383 551.821 L
1020.95 561.014 L
1017.975 571.269 L
1017.643 581.942 L
1019.976 592.363 L
1024.828 601.875 L
S
GR
GS
[0.75 0 0 0.75 827.39777 401.32939] CT
0 1 1 RC
10.0 ML
0.667 LW
N
0 -4 M
0 4 L
-4 0 M
4 0 L
-2.828 -2.828 M
2.828 2.828 L
-2.828 2.828 M
2.828 -2.828 L
S
GR
GS
[0.75 0 0 0.75 0 0.25] CT
0 1 1 RC
1 LJ
0.667 LW
N
1107.736 536.427 M
1108.004 536.615 L
1107.679 536.575 L
S
GR
GS
[0.75 0 0 0.75 0 0.25] CT
0 1 1 RC
1 LJ
0.667 LW
N
1103.197 534.773 M
1108.004 536.615 L
S
GR
GS
[0.75 0 0 0.75 0 0.25] CT
0 1 1 RC
1 LJ
6.667 LW
N
1068.502 559.491 M
1063.445 550.086 L
1060.886 539.719 L
1060.985 529.042 L
1063.736 518.724 L
1068.967 509.414 L
1076.349 501.698 L
1085.417 496.061 L
1095.603 492.855 L
1106.266 492.284 L
1116.736 494.382 L
1126.356 499.018 L
1134.52 505.9 L
1140.716 514.597 L
1144.555 524.562 L
1145.795 535.168 L
1144.358 545.749 L
1140.335 555.641 L
1133.979 564.221 L
1125.688 570.951 L
1115.985 575.408 L
1105.477 577.311 L
1094.827 576.542 L
1084.702 573.148 L
1075.74 567.343 L
1068.502 559.491 L
S
GR
GS
[0.75 0 0 0.75 789.80145 438.92552] CT
0 1 1 RC
10.0 ML
0.667 LW
N
0 -4 M
0 4 L
-4 0 M
4 0 L
-2.828 -2.828 M
2.828 2.828 L
-2.828 2.828 M
2.828 -2.828 L
S
GR
GS
[0.75 0 0 0.75 0 0.25] CT
0 1 1 RC
1 LJ
0.667 LW
N
1057.607 586.555 M
1057.875 586.743 L
1057.551 586.703 L
S
GR
GS
[0.75 0 0 0.75 0 0.25] CT
0 1 1 RC
1 LJ
0.667 LW
N
1053.069 584.901 M
1057.875 586.743 L
S
GR
GS
[0.75 0 0 0.75 0 0.25] CT
0 1 1 RC
1 LJ
6.667 LW
N
1017.913 608.96 M
1013.034 599.461 L
1010.671 589.047 L
1010.972 578.373 L
1013.918 568.109 L
1019.324 558.901 L
1026.85 551.325 L
1036.023 545.86 L
1046.268 542.847 L
1056.94 542.477 L
1067.368 544.773 L
1076.899 549.59 L
1084.931 556.625 L
1090.962 565.438 L
1094.612 575.473 L
1095.651 586.101 L
1094.015 596.653 L
1089.806 606.467 L
1083.289 614.925 L
1074.872 621.497 L
1065.086 625.77 L
1054.545 627.475 L
1043.911 626.504 L
1033.852 622.92 L
1025.001 616.946 L
1017.913 608.96 L
S
GR
GS
[0.75 0 0 0.75 788.95413 439.77303] CT
0 1 1 RC
10.0 ML
0.667 LW
N
0 -4 M
0 4 L
-4 0 M
4 0 L
-2.828 -2.828 M
2.828 2.828 L
-2.828 2.828 M
2.828 -2.828 L
S
GR
GS
[0.75 0 0 0.75 0 0.25] CT
0 1 1 RC
1 LJ
0.667 LW
N
1056.478 587.685 M
1056.746 587.873 L
1056.421 587.833 L
S
GR
GS
[0.75 0 0 0.75 0 0.25] CT
0 1 1 RC
1 LJ
0.667 LW
N
1051.939 586.031 M
1056.746 587.873 L
S
GR
GS
[0.75 0 0 0.75 0 0.25] CT
0 1 1 RC
1 LJ
6.667 LW
N
1017.238 610.741 M
1024.473 618.594 L
1033.435 624.401 L
1043.558 627.798 L
1054.209 628.57 L
1064.716 626.669 L
1074.421 622.215 L
1082.714 615.487 L
1089.072 606.908 L
1093.097 597.017 L
1094.537 586.436 L
1093.299 575.83 L
1089.463 565.865 L
1083.269 557.166 L
1075.106 550.282 L
1065.488 545.643 L
1055.019 543.542 L
1044.355 544.111 L
1034.169 547.314 L
1025.099 552.95 L
1017.715 560.664 L
1012.482 569.972 L
1009.728 580.289 L
1009.626 590.967 L
1012.183 601.335 L
1017.238 610.741 L
S
GR
GS
[0.75 0 0 0.75 821.31262 407.41458] CT
0 1 1 RC
10.0 ML
0.667 LW
N
0 -4 M
0 4 L
-4 0 M
4 0 L
-2.828 -2.828 M
2.828 2.828 L
-2.828 2.828 M
2.828 -2.828 L
S
GR
GS
[0.75 0 0 0.75 0 0.25] CT
0 1 1 RC
1 LJ
0.667 LW
N
1099.622 544.541 M
1099.89 544.728 L
1099.566 544.689 L
S
GR
GS
[0.75 0 0 0.75 0 0.25] CT
0 1 1 RC
1 LJ
0.667 LW
N
1095.083 542.886 M
1099.89 544.728 L
S
GR
GS
[0.75 0 0 0.75 0 0.25] CT
0 1 1 RC
1 LJ
6.667 LW
N
1060.582 567.874 M
1055.452 558.509 L
1052.812 548.162 L
1052.828 537.483 L
1055.499 527.145 L
1060.657 517.795 L
1067.979 510.022 L
1077.003 504.314 L
1087.164 501.029 L
1097.822 500.375 L
1108.308 502.391 L
1117.964 506.952 L
1126.181 513.771 L
1132.445 522.42 L
1136.361 532.354 L
1137.683 542.95 L
1136.329 553.542 L
1132.383 563.465 L
1126.094 572.094 L
1117.855 578.888 L
1108.187 583.421 L
1097.695 585.406 L
1087.038 584.719 L
1076.888 581.404 L
1067.88 575.669 L
1060.582 567.874 L
S
GR
GS
[0.75 0 0 0.75 756.59583 472.13202] CT
0 1 1 RC
10.0 ML
0.667 LW
N
0 -4 M
0 4 L
-4 0 M
4 0 L
-2.828 -2.828 M
2.828 2.828 L
-2.828 2.828 M
2.828 -2.828 L
S
GR
GS
[0.75 0 0 0.75 0 0.25] CT
0 1 1 RC
1 LJ
0.667 LW
N
1013.333 630.831 M
1013.601 631.018 L
1013.277 630.979 L
S
GR
GS
[0.75 0 0 0.75 0 0.25] CT
0 1 1 RC
1 LJ
0.667 LW
N
1008.794 629.176 M
1013.601 631.018 L
S
GR
GS
[0.75 0 0 0.75 0 0.25] CT
0 1 1 RC
1 LJ
6.667 LW
N
973.566 653.128 M
980.629 661.136 L
989.463 667.137 L
999.51 670.752 L
1010.141 671.754 L
1020.688 670.082 L
1030.487 665.839 L
1038.923 659.292 L
1045.466 650.853 L
1049.705 641.052 L
1051.373 630.505 L
1050.366 619.875 L
1046.747 609.828 L
1040.743 600.998 L
1032.732 593.938 L
1023.216 589.092 L
1012.795 586.765 L
1002.122 587.102 L
991.868 590.083 L
982.678 595.521 L
975.129 603.073 L
969.695 612.266 L
966.718 622.521 L
966.385 633.194 L
968.716 643.615 L
973.566 653.128 L
S
GR
GS
[0.75 0 0 0.75 820.78299 410.85834] CT
0 0 1 RC
10.0 ML
0.667 LW
N
0 -4 M
0 4 L
-4 0 M
4 0 L
-2.828 -2.828 M
2.828 2.828 L
-2.828 2.828 M
2.828 -2.828 L
S
GR
GS
[0.75 0 0 0.75 0 0.25] CT
0 0 1 RC
1 LJ
0.667 LW
N
1098.916 549.132 M
1099.184 549.32 L
1098.859 549.28 L
S
GR
GS
[0.75 0 0 0.75 0 0.25] CT
0 0 1 RC
1 LJ
0.667 LW
N
1094.377 547.478 M
1099.184 549.32 L
S
GR
GS
[0.75 0 0 0.75 0 0.25] CT
0 0 1 RC
1 LJ
6.667 LW
N
1079.994 556.798 M
1078.129 552.928 L
1077.284 548.716 L
1077.513 544.426 L
1078.801 540.328 L
1081.069 536.679 L
1084.173 533.708 L
1087.917 531.603 L
1092.068 530.495 L
1096.364 530.455 L
1100.535 531.484 L
1104.319 533.518 L
1107.479 536.429 L
1109.815 540.034 L
1111.181 544.107 L
1111.491 548.392 L
1110.726 552.619 L
1108.934 556.524 L
1106.227 559.859 L
1102.776 562.417 L
1098.797 564.037 L
1094.54 564.616 L
1090.273 564.117 L
1086.263 562.574 L
1082.764 560.082 L
1079.994 556.798 L
S
GR
GS
[0.75 0 0 0.75 782.2023 449.43898] CT
0 0 1 RC
10.0 ML
0.667 LW
N
0 -4 M
0 4 L
-4 0 M
4 0 L
-2.828 -2.828 M
2.828 2.828 L
-2.828 2.828 M
2.828 -2.828 L
S
GR
GS
[0.75 0 0 0.75 0 0.25] CT
0 0 1 RC
1 LJ
0.667 LW
N
1047.475 600.573 M
1047.743 600.761 L
1047.419 600.721 L
S
GR
GS
[0.75 0 0 0.75 0 0.25] CT
0 0 1 RC
1 LJ
0.667 LW
N
1042.936 598.919 M
1047.743 600.761 L
S
GR
GS
[0.75 0 0 0.75 0 0.25] CT
0 0 1 RC
1 LJ
6.667 LW
N
1028.553 608.238 M
1026.687 604.368 L
1025.843 600.156 L
1026.072 595.866 L
1027.361 591.768 L
1029.629 588.119 L
1032.732 585.149 L
1036.477 583.044 L
1040.628 581.936 L
1044.924 581.896 L
1049.095 582.925 L
1052.879 584.959 L
1056.038 587.87 L
1058.374 591.475 L
1059.74 595.549 L
1060.051 599.833 L
1059.285 604.061 L
1057.493 607.965 L
1054.786 611.301 L
1051.334 613.859 L
1047.355 615.478 L
1043.098 616.056 L
1038.831 615.558 L
1034.822 614.014 L
1031.323 611.522 L
1028.553 608.238 L
S
GR
GS
[0.75 0 0 0.75 820.77448 410.85852] CT
0 0 1 RC
10.0 ML
0.667 LW
N
0 -4 M
0 4 L
-4 0 M
4 0 L
-2.828 -2.828 M
2.828 2.828 L
-2.828 2.828 M
2.828 -2.828 L
S
GR
GS
[0.75 0 0 0.75 0 0.25] CT
0 0 1 RC
1 LJ
0.667 LW
N
1098.905 549.133 M
1099.173 549.32 L
1098.848 549.281 L
S
GR
GS
[0.75 0 0 0.75 0 0.25] CT
0 0 1 RC
1 LJ
0.667 LW
N
1094.366 547.478 M
1099.173 549.32 L
S
GR
GS
[0.75 0 0 0.75 0 0.25] CT
0 0 1 RC
1 LJ
6.667 LW
N
1079.984 556.799 M
1078.117 552.929 L
1077.272 548.717 L
1077.501 544.427 L
1078.79 540.329 L
1081.057 536.68 L
1084.161 533.709 L
1087.906 531.604 L
1092.056 530.496 L
1096.352 530.455 L
1100.523 531.484 L
1104.307 533.517 L
1107.467 536.428 L
1109.803 540.034 L
1111.17 544.107 L
1111.48 548.391 L
1110.715 552.619 L
1108.923 556.523 L
1106.217 559.859 L
1102.765 562.417 L
1098.786 564.037 L
1094.529 564.616 L
1090.262 564.118 L
1086.253 562.575 L
1082.753 560.083 L
1079.984 556.799 L
S
GR
GS
[0.75 0 0 0.75 820.72961 410.85834] CT
0 0 1 RC
10.0 ML
0.667 LW
N
0 -4 M
0 4 L
-4 0 M
4 0 L
-2.828 -2.828 M
2.828 2.828 L
-2.828 2.828 M
2.828 -2.828 L
S
GR
GS
[0.75 0 0 0.75 0 0.25] CT
0 0 1 RC
1 LJ
0.667 LW
N
1098.845 549.132 M
1099.113 549.32 L
1098.788 549.28 L
S
GR
GS
[0.75 0 0 0.75 0 0.25] CT
0 0 1 RC
1 LJ
0.667 LW
N
1094.306 547.478 M
1099.113 549.32 L
S
GR
GS
[0.75 0 0 0.75 0 0.25] CT
0 0 1 RC
1 LJ
6.667 LW
N
1079.922 556.796 M
1082.691 560.08 L
1086.19 562.573 L
1090.199 564.117 L
1094.466 564.616 L
1098.723 564.037 L
1102.703 562.419 L
1106.155 559.861 L
1108.862 556.525 L
1110.655 552.621 L
1111.42 548.394 L
1111.11 544.109 L
1109.745 540.036 L
1107.409 536.43 L
1104.25 533.519 L
1100.466 531.484 L
1096.295 530.455 L
1091.999 530.495 L
1087.848 531.602 L
1084.103 533.707 L
1080.999 536.677 L
1078.731 540.326 L
1077.442 544.424 L
1077.212 548.714 L
1078.057 552.926 L
1079.922 556.796 L
S
GR
GS
[0.75 0 0 0.75 853.08783 378.49914] CT
0 0 1 RC
10.0 ML
0.667 LW
N
0 -4 M
0 4 L
-4 0 M
4 0 L
-2.828 -2.828 M
2.828 2.828 L
-2.828 2.828 M
2.828 -2.828 L
S
GR
GS
[0.75 0 0 0.75 0 0.25] CT
0 0 1 RC
1 LJ
0.667 LW
N
1141.989 505.987 M
1142.257 506.174 L
1141.933 506.135 L
S
GR
GS
[0.75 0 0 0.75 0 0.25] CT
0 0 1 RC
1 LJ
0.667 LW
N
1137.45 504.332 M
1142.257 506.174 L
S
GR
GS
[0.75 0 0 0.75 0 0.25] CT
0 0 1 RC
1 LJ
6.667 LW
N
1123.128 513.745 M
1121.237 509.888 L
1120.365 505.681 L
1120.566 501.39 L
1121.829 497.283 L
1124.072 493.62 L
1127.157 490.629 L
1130.888 488.5 L
1135.031 487.365 L
1139.327 487.297 L
1143.505 488.298 L
1147.302 490.308 L
1150.48 493.198 L
1152.84 496.789 L
1154.232 500.853 L
1154.57 505.135 L
1153.833 509.368 L
1152.066 513.284 L
1149.38 516.637 L
1145.946 519.217 L
1141.977 520.862 L
1137.724 521.469 L
1133.454 520.998 L
1129.434 519.481 L
1125.919 517.011 L
1123.128 513.745 L
S
GR
GS
[0.75 0 0 0.75 782.28644 449.30193] CT
0 0 1 RC
10.0 ML
0.667 LW
N
0 -4 M
0 4 L
-4 0 M
4 0 L
-2.828 -2.828 M
2.828 2.828 L
-2.828 2.828 M
2.828 -2.828 L
S
GR
GS
[0.75 0 0 0.75 0 0.25] CT
0 0 1 RC
1 LJ
0.667 LW
N
1047.587 600.39 M
1047.855 600.578 L
1047.531 600.539 L
S
GR
GS
[0.75 0 0 0.75 0 0.25] CT
0 0 1 RC
1 LJ
0.667 LW
N
1043.049 598.736 M
1047.855 600.578 L
S
GR
GS
[0.75 0 0 0.75 0 0.25] CT
0 0 1 RC
1 LJ
6.667 LW
N
1028.656 608.041 M
1031.423 611.328 L
1034.919 613.824 L
1038.927 615.371 L
1043.194 615.874 L
1047.451 615.299 L
1051.432 613.684 L
1054.886 611.13 L
1057.596 607.796 L
1059.392 603.894 L
1060.162 599.667 L
1059.856 595.382 L
1058.494 591.308 L
1056.161 587.7 L
1053.005 584.786 L
1049.223 582.748 L
1045.052 581.715 L
1040.757 581.751 L
1036.605 582.855 L
1032.858 584.956 L
1029.751 587.924 L
1027.48 591.57 L
1026.187 595.667 L
1025.953 599.957 L
1026.794 604.17 L
1028.656 608.041 L
S
GR
GS
[0.75 0 0 0.75 814.50696 417.07999] CT
0 0 1 RC
10.0 ML
0.667 LW
N
0 -4 M
0 4 L
-4 0 M
4 0 L
-2.828 -2.828 M
2.828 2.828 L
-2.828 2.828 M
2.828 -2.828 L
S
GR
GS
[0.75 0 0 0.75 0 0.25] CT
0 0 1 RC
1 LJ
0.667 LW
N
1090.548 557.428 M
1090.816 557.615 L
1090.491 557.576 L
S
GR
GS
[0.75 0 0 0.75 0 0.25] CT
0 0 1 RC
1 LJ
0.667 LW
N
1086.009 555.773 M
1090.816 557.615 L
S
GR
GS
[0.75 0 0 0.75 0 0.25] CT
0 0 1 RC
1 LJ
6.667 LW
N
1071.686 565.185 M
1074.477 568.451 L
1077.992 570.921 L
1082.011 572.439 L
1086.281 572.91 L
1090.534 572.304 L
1094.503 570.659 L
1097.938 568.079 L
1100.624 564.726 L
1102.391 560.81 L
1103.129 556.578 L
1102.791 552.295 L
1101.399 548.231 L
1099.04 544.641 L
1095.862 541.75 L
1092.065 539.74 L
1087.887 538.738 L
1083.592 538.806 L
1079.448 539.94 L
1075.717 542.069 L
1072.632 545.06 L
1070.388 548.723 L
1069.125 552.829 L
1068.924 557.121 L
1069.796 561.327 L
1071.686 565.185 L
S
GR
GS
[0.75 0 0 0.75 782.14893 449.43898] CT
0 0 1 RC
10.0 ML
0.667 LW
N
0 -4 M
0 4 L
-4 0 M
4 0 L
-2.828 -2.828 M
2.828 2.828 L
-2.828 2.828 M
2.828 -2.828 L
S
GR
GS
[0.75 0 0 0.75 0 0.25] CT
0 0 1 RC
1 LJ
0.667 LW
N
1047.404 600.573 M
1047.672 600.761 L
1047.347 600.721 L
S
GR
GS
[0.75 0 0 0.75 0 0.25] CT
0 0 1 RC
1 LJ
0.667 LW
N
1042.865 598.919 M
1047.672 600.761 L
S
GR
GS
[0.75 0 0 0.75 0 0.25] CT
0 0 1 RC
1 LJ
6.667 LW
N
1028.481 608.236 M
1026.615 604.366 L
1025.771 600.154 L
1026.001 595.864 L
1027.291 591.766 L
1029.559 588.117 L
1032.663 585.148 L
1036.408 583.043 L
1040.559 581.936 L
1044.855 581.896 L
1049.026 582.926 L
1052.81 584.96 L
1055.969 587.872 L
1058.304 591.477 L
1059.67 595.551 L
1059.979 599.836 L
1059.214 604.063 L
1057.421 607.967 L
1054.713 611.302 L
1051.261 613.86 L
1047.282 615.478 L
1043.025 616.056 L
1038.758 615.558 L
1034.749 614.013 L
1031.25 611.521 L
1028.481 608.236 L
S
GR
GS
[0.75 0 0 0.75 819.74451 411.84267] CT
0 0 1 RC
10.0 ML
0.667 LW
N
0 -4 M
0 4 L
-4 0 M
4 0 L
-2.828 -2.828 M
2.828 2.828 L
-2.828 2.828 M
2.828 -2.828 L
S
GR
GS
[0.75 0 0 0.75 0 0.25] CT
0 0 1 RC
1 LJ
0.667 LW
N
1097.532 550.445 M
1097.799 550.632 L
1097.475 550.593 L
S
GR
GS
[0.75 0 0 0.75 0 0.25] CT
0 0 1 RC
1 LJ
0.667 LW
N
1092.993 548.79 M
1097.799 550.632 L
S
GR
GS
[0.75 0 0 0.75 0 0.25] CT
0 0 1 RC
1 LJ
6.667 LW
N
1078.624 558.132 M
1081.399 561.412 L
1084.902 563.899 L
1088.913 565.436 L
1093.181 565.928 L
1097.437 565.343 L
1101.414 563.717 L
1104.861 561.154 L
1107.563 557.814 L
1109.35 553.907 L
1110.108 549.678 L
1109.791 545.394 L
1108.419 541.323 L
1106.077 537.721 L
1102.914 534.815 L
1099.126 532.787 L
1094.954 531.764 L
1090.658 531.811 L
1086.509 532.926 L
1082.767 535.036 L
1079.668 538.011 L
1077.406 541.664 L
1076.124 545.764 L
1075.901 550.054 L
1076.752 554.265 L
1078.624 558.132 L
S
GR
GS
[0.75 0 0 0.75 809.26978 422.31772] CT
0 0 1 RC
10.0 ML
0.667 LW
N
0 -4 M
0 4 L
-4 0 M
4 0 L
-2.828 -2.828 M
2.828 2.828 L
-2.828 2.828 M
2.828 -2.828 L
S
GR
GS
[0.75 0 0 0.75 0 0.25] CT
0 0 1 RC
1 LJ
0.667 LW
N
1083.565 564.411 M
1083.833 564.599 L
1083.509 564.56 L
S
GR
GS
[0.75 0 0 0.75 0 0.25] CT
0 0 1 RC
1 LJ
0.667 LW
N
1079.026 562.757 M
1083.833 564.599 L
S
GR
GS
[0.75 0 0 0.75 0 0.25] CT
0 0 1 RC
1 LJ
6.667 LW
N
1064.754 572.246 M
1062.843 568.398 L
1061.948 564.196 L
1062.127 559.904 L
1063.367 555.791 L
1065.592 552.116 L
1068.66 549.109 L
1072.38 546.96 L
1076.517 545.803 L
1080.813 545.712 L
1084.995 546.691 L
1088.803 548.681 L
1091.997 551.554 L
1094.375 555.132 L
1095.789 559.188 L
1096.15 563.469 L
1095.435 567.705 L
1093.689 571.631 L
1091.021 574.998 L
1087.6 577.597 L
1083.641 579.263 L
1079.391 579.892 L
1075.118 579.444 L
1071.091 577.948 L
1067.563 575.497 L
1064.754 572.246 L
S
GR
GS
[0.75 0 0 0.75 776.91147 454.6763] CT
0 0 1 RC
10.0 ML
0.667 LW
N
0 -4 M
0 4 L
-4 0 M
4 0 L
-2.828 -2.828 M
2.828 2.828 L
-2.828 2.828 M
2.828 -2.828 L
S
GR
GS
[0.75 0 0 0.75 0 0.25] CT
0 0 1 RC
1 LJ
0.667 LW
N
1040.421 607.556 M
1040.689 607.744 L
1040.364 607.704 L
S
GR
GS
[0.75 0 0 0.75 0 0.25] CT
0 0 1 RC
1 LJ
0.667 LW
N
1035.882 605.902 M
1040.689 607.744 L
S
GR
GS
[0.75 0 0 0.75 0 0.25] CT
0 0 1 RC
1 LJ
6.667 LW
N
1021.537 615.28 M
1019.655 611.418 L
1018.793 607.21 L
1019.005 602.919 L
1020.277 598.815 L
1022.53 595.157 L
1025.621 592.174 L
1029.357 590.054 L
1033.504 588.929 L
1037.799 588.871 L
1041.975 589.883 L
1045.767 591.901 L
1048.938 594.799 L
1051.289 598.395 L
1052.672 602.462 L
1053 606.746 L
1052.252 610.977 L
1050.476 614.888 L
1047.782 618.235 L
1044.341 620.807 L
1040.369 622.443 L
1036.114 623.039 L
1031.845 622.558 L
1027.83 621.031 L
1024.32 618.553 L
1021.537 615.28 L
S
GR
GS
[0.75 0 0 0.75 0 0.25] CT
1 GC
N
/f-79800792{1498 235 M
1498 86 L
1279 86 L
1279 235 L
cp}def
f-79800792
f
GR
GS
[0.75 0 0 0.75 994.5 79.75] CT
/Helvetica-Bold 30 F
GS
[1 0 0 1 0 0] CT
0 10 moveto 
1 -1 scale
(LandMark) t 
GR
GR
GS
[0.75 0 0 0.75 977.25 79.75] CT
1 0 0 RC
N
/f-1214359511{0 -19.995 M
-17.316 9.998 L
17.316 9.998 L
cp}def
f-1214359511
f
GR
GS
[0.75 0 0 0.75 977.25 79.75] CT
0 0 1 RC
10.0 ML
0.667 LW
N
0 -19.995 M
-17.316 9.998 L
17.316 9.998 L
cp
S
GR
GS
[0.75 0 0 0.75 994.5 122.5] CT
/Helvetica-Bold 30 F
GS
[1 0 0 1 0 0] CT
0 0 moveto 
1 -1 scale
(b) t 
GR
GR
GS
[0.75 0 0 0.75 1011 111.25] CT
/Helvetica-Bold 24 F
GS
[1 0 0 1 0 0] CT
0 0 moveto 
1 -1 scale
(-) t 
GR
GR
GS
[0.75 0 0 0.75 1018.5 122.5] CT
/Helvetica-Bold 30 F
GS
[1 0 0 1 0 0] CT
0 0 moveto 
1 -1 scale
([X) t 
GR
GR
GS
[0.75 0 0 0.75 1046.25 133.75] CT
/Helvetica-Bold 24 F
GS
[1 0 0 1 0 0] CT
0 0 moveto 
1 -1 scale
(k) t 
GR
GR
GS
[0.75 0 0 0.75 1058.25 122.5] CT
/Helvetica-Bold 30 F
GS
[1 0 0 1 0 0] CT
0 0 moveto 
1 -1 scale
(]) t 
GR
GR
GS
[0.75 0 0 0.75 0 0.25] CT
0 1 1 RC
1 LJ
6.667 LW
N
1283 154 M
1323 154 L
S
GR
GS
[0.75 0 0 0.75 994.5 160] CT
/Helvetica-Bold 30 F
GS
[1 0 0 1 0 0] CT
0 0 moveto 
1 -1 scale
(b[X) t 
GR
GR
GS
[0.75 0 0 0.75 1038.75 171.25] CT
/Helvetica-Bold 24 F
GS
[1 0 0 1 0 0] CT
0 0 moveto 
1 -1 scale
(k) t 
GR
GR
GS
[0.75 0 0 0.75 1050.75 160] CT
/Helvetica-Bold 30 F
GS
[1 0 0 1 0 0] CT
0 0 moveto 
1 -1 scale
(]) t 
GR
GR
GS
[0.75 0 0 0.75 0 0.25] CT
0 0 1 RC
1 LJ
6.667 LW
N
1283 208.5 M
1323 208.5 L
S
GR
GS
[0.75 0 0 0.75 0 0.25] CT
0.149 GC
10.0 ML
0.667 LW
N
1279 235 M
1279 86 L
1498 86 L
1498 235 L
cp
S
GR
%%Trailer
%%Pages: 1
%%EOF
