%!PS-Adobe-3.0 EPSF-3.0
%%Creator: (MATLAB, The Mathworks, Inc. Version 9.8.0.1380330 \(R2020a\) Update 2. Operating System: Linux)
%%Title: (/home/ohads/ANPL/papers/research/2021 RAL/Figures/TestCase_2/fig_files/Robots_estimation_k_7.epsc)
%%CreationDate: 2021-02-21T16:12:17
%%Pages: (atend)
%%BoundingBox:   290    18  1145   692
%%LanguageLevel: 3
%%EndComments
%%BeginProlog
%%BeginResource: procset (Apache XML Graphics Std ProcSet) 1.2 0
%%Version: 1.2 0
%%Copyright: (Copyright 2001-2003,2010 The Apache Software Foundation. License terms: http://www.apache.org/licenses/LICENSE-2.0)
/bd{bind def}bind def
/ld{load def}bd
/GR/grestore ld
/GS/gsave ld
/RM/rmoveto ld
/C/curveto ld
/t/show ld
/L/lineto ld
/ML/setmiterlimit ld
/CT/concat ld
/f/fill ld
/N/newpath ld
/S/stroke ld
/CC/setcmykcolor ld
/A/ashow ld
/cp/closepath ld
/RC/setrgbcolor ld
/LJ/setlinejoin ld
/GC/setgray ld
/LW/setlinewidth ld
/M/moveto ld
/re {4 2 roll M
1 index 0 rlineto
0 exch rlineto
neg 0 rlineto
cp } bd
/_ctm matrix def
/_tm matrix def
/BT { _ctm currentmatrix pop matrix _tm copy pop 0 0 moveto } bd
/ET { _ctm setmatrix } bd
/iTm { _ctm setmatrix _tm concat } bd
/Tm { _tm astore pop iTm 0 0 moveto } bd
/ux 0.0 def
/uy 0.0 def
/F {
  /Tp exch def
  /Tf exch def
  Tf findfont Tp scalefont setfont
  /cf Tf def  /cs Tp def
} bd
/ULS {currentpoint /uy exch def /ux exch def} bd
/ULE {
  /Tcx currentpoint pop def
  gsave
  newpath
  cf findfont cs scalefont dup
  /FontMatrix get 0 get /Ts exch def /FontInfo get dup
  /UnderlinePosition get Ts mul /To exch def
  /UnderlineThickness get Ts mul /Tt exch def
  ux uy To add moveto  Tcx uy To add lineto
  Tt setlinewidth stroke
  grestore
} bd
/OLE {
  /Tcx currentpoint pop def
  gsave
  newpath
  cf findfont cs scalefont dup
  /FontMatrix get 0 get /Ts exch def /FontInfo get dup
  /UnderlinePosition get Ts mul /To exch def
  /UnderlineThickness get Ts mul /Tt exch def
  ux uy To add cs add moveto Tcx uy To add cs add lineto
  Tt setlinewidth stroke
  grestore
} bd
/SOE {
  /Tcx currentpoint pop def
  gsave
  newpath
  cf findfont cs scalefont dup
  /FontMatrix get 0 get /Ts exch def /FontInfo get dup
  /UnderlinePosition get Ts mul /To exch def
  /UnderlineThickness get Ts mul /Tt exch def
  ux uy To add cs 10 mul 26 idiv add moveto Tcx uy To add cs 10 mul 26 idiv add lineto
  Tt setlinewidth stroke
  grestore
} bd
/QT {
/Y22 exch store
/X22 exch store
/Y21 exch store
/X21 exch store
currentpoint
/Y21 load 2 mul add 3 div exch
/X21 load 2 mul add 3 div exch
/X21 load 2 mul /X22 load add 3 div
/Y21 load 2 mul /Y22 load add 3 div
/X22 load /Y22 load curveto
} bd
/SSPD {
dup length /d exch dict def
{
/v exch def
/k exch def
currentpagedevice k known {
/cpdv currentpagedevice k get def
v cpdv ne {
/upd false def
/nullv v type /nulltype eq def
/nullcpdv cpdv type /nulltype eq def
nullv nullcpdv or
{
/upd true def
} {
/sametype v type cpdv type eq def
sametype {
v type /arraytype eq {
/vlen v length def
/cpdvlen cpdv length def
vlen cpdvlen eq {
0 1 vlen 1 sub {
/i exch def
/obj v i get def
/cpdobj cpdv i get def
obj cpdobj ne {
/upd true def
exit
} if
} for
} {
/upd true def
} ifelse
} {
v type /dicttype eq {
v {
/dv exch def
/dk exch def
/cpddv cpdv dk get def
dv cpddv ne {
/upd true def
exit
} if
} forall
} {
/upd true def
} ifelse
} ifelse
} if
} ifelse
upd true eq {
d k v put
} if
} if
} if
} forall
d length 0 gt {
d setpagedevice
} if
} bd
/RE { % /NewFontName [NewEncodingArray] /FontName RE -
  findfont dup length dict begin
  {
    1 index /FID ne
    {def} {pop pop} ifelse
  } forall
  /Encoding exch def
  /FontName 1 index def
  currentdict definefont pop
  end
} bind def
%%EndResource
%%BeginResource: procset (Apache XML Graphics EPS ProcSet) 1.0 0
%%Version: 1.0 0
%%Copyright: (Copyright 2002-2003 The Apache Software Foundation. License terms: http://www.apache.org/licenses/LICENSE-2.0)
/BeginEPSF { %def
/b4_Inc_state save def         % Save state for cleanup
/dict_count countdictstack def % Count objects on dict stack
/op_count count 1 sub def      % Count objects on operand stack
userdict begin                 % Push userdict on dict stack
/showpage { } def              % Redefine showpage, { } = null proc
0 setgray 0 setlinecap         % Prepare graphics state
1 setlinewidth 0 setlinejoin
10 setmiterlimit [ ] 0 setdash newpath
/languagelevel where           % If level not equal to 1 then
{pop languagelevel             % set strokeadjust and
1 ne                           % overprint to their defaults.
{false setstrokeadjust false setoverprint
} if
} if
} bd
/EndEPSF { %def
count op_count sub {pop} repeat            % Clean up stacks
countdictstack dict_count sub {end} repeat
b4_Inc_state restore
} bd
%%EndResource
%FOPBeginFontDict
%%IncludeResource: font Courier-Oblique
%%IncludeResource: font Courier-BoldOblique
%%IncludeResource: font Courier-Bold
%%IncludeResource: font ZapfDingbats
%%IncludeResource: font Symbol
%%IncludeResource: font Helvetica
%%IncludeResource: font Helvetica-Oblique
%%IncludeResource: font Helvetica-Bold
%%IncludeResource: font Helvetica-BoldOblique
%%IncludeResource: font Times-Roman
%%IncludeResource: font Times-Italic
%%IncludeResource: font Times-Bold
%%IncludeResource: font Times-BoldItalic
%%IncludeResource: font Courier
%FOPEndFontDict
%%BeginResource: encoding WinAnsiEncoding
/WinAnsiEncoding [
/.notdef /.notdef /.notdef /.notdef /.notdef
/.notdef /.notdef /.notdef /.notdef /.notdef
/.notdef /.notdef /.notdef /.notdef /.notdef
/.notdef /.notdef /.notdef /.notdef /.notdef
/.notdef /.notdef /.notdef /.notdef /.notdef
/.notdef /.notdef /.notdef /.notdef /.notdef
/.notdef /.notdef /space /exclam /quotedbl
/numbersign /dollar /percent /ampersand /quotesingle
/parenleft /parenright /asterisk /plus /comma
/hyphen /period /slash /zero /one
/two /three /four /five /six
/seven /eight /nine /colon /semicolon
/less /equal /greater /question /at
/A /B /C /D /E
/F /G /H /I /J
/K /L /M /N /O
/P /Q /R /S /T
/U /V /W /X /Y
/Z /bracketleft /backslash /bracketright /asciicircum
/underscore /quoteleft /a /b /c
/d /e /f /g /h
/i /j /k /l /m
/n /o /p /q /r
/s /t /u /v /w
/x /y /z /braceleft /bar
/braceright /asciitilde /bullet /Euro /bullet
/quotesinglbase /florin /quotedblbase /ellipsis /dagger
/daggerdbl /circumflex /perthousand /Scaron /guilsinglleft
/OE /bullet /Zcaron /bullet /bullet
/quoteleft /quoteright /quotedblleft /quotedblright /bullet
/endash /emdash /asciitilde /trademark /scaron
/guilsinglright /oe /bullet /zcaron /Ydieresis
/space /exclamdown /cent /sterling /currency
/yen /brokenbar /section /dieresis /copyright
/ordfeminine /guillemotleft /logicalnot /sfthyphen /registered
/macron /degree /plusminus /twosuperior /threesuperior
/acute /mu /paragraph /middot /cedilla
/onesuperior /ordmasculine /guillemotright /onequarter /onehalf
/threequarters /questiondown /Agrave /Aacute /Acircumflex
/Atilde /Adieresis /Aring /AE /Ccedilla
/Egrave /Eacute /Ecircumflex /Edieresis /Igrave
/Iacute /Icircumflex /Idieresis /Eth /Ntilde
/Ograve /Oacute /Ocircumflex /Otilde /Odieresis
/multiply /Oslash /Ugrave /Uacute /Ucircumflex
/Udieresis /Yacute /Thorn /germandbls /agrave
/aacute /acircumflex /atilde /adieresis /aring
/ae /ccedilla /egrave /eacute /ecircumflex
/edieresis /igrave /iacute /icircumflex /idieresis
/eth /ntilde /ograve /oacute /ocircumflex
/otilde /odieresis /divide /oslash /ugrave
/uacute /ucircumflex /udieresis /yacute /thorn
/ydieresis
] def
%%EndResource
%FOPBeginFontReencode
/Courier-Oblique findfont
dup length dict begin
  {1 index /FID ne {def} {pop pop} ifelse} forall
  /Encoding WinAnsiEncoding def
  currentdict
end
/Courier-Oblique exch definefont pop
/Courier-BoldOblique findfont
dup length dict begin
  {1 index /FID ne {def} {pop pop} ifelse} forall
  /Encoding WinAnsiEncoding def
  currentdict
end
/Courier-BoldOblique exch definefont pop
/Courier-Bold findfont
dup length dict begin
  {1 index /FID ne {def} {pop pop} ifelse} forall
  /Encoding WinAnsiEncoding def
  currentdict
end
/Courier-Bold exch definefont pop
/Helvetica findfont
dup length dict begin
  {1 index /FID ne {def} {pop pop} ifelse} forall
  /Encoding WinAnsiEncoding def
  currentdict
end
/Helvetica exch definefont pop
/Helvetica-Oblique findfont
dup length dict begin
  {1 index /FID ne {def} {pop pop} ifelse} forall
  /Encoding WinAnsiEncoding def
  currentdict
end
/Helvetica-Oblique exch definefont pop
/Helvetica-Bold findfont
dup length dict begin
  {1 index /FID ne {def} {pop pop} ifelse} forall
  /Encoding WinAnsiEncoding def
  currentdict
end
/Helvetica-Bold exch definefont pop
/Helvetica-BoldOblique findfont
dup length dict begin
  {1 index /FID ne {def} {pop pop} ifelse} forall
  /Encoding WinAnsiEncoding def
  currentdict
end
/Helvetica-BoldOblique exch definefont pop
/Times-Roman findfont
dup length dict begin
  {1 index /FID ne {def} {pop pop} ifelse} forall
  /Encoding WinAnsiEncoding def
  currentdict
end
/Times-Roman exch definefont pop
/Times-Italic findfont
dup length dict begin
  {1 index /FID ne {def} {pop pop} ifelse} forall
  /Encoding WinAnsiEncoding def
  currentdict
end
/Times-Italic exch definefont pop
/Times-Bold findfont
dup length dict begin
  {1 index /FID ne {def} {pop pop} ifelse} forall
  /Encoding WinAnsiEncoding def
  currentdict
end
/Times-Bold exch definefont pop
/Times-BoldItalic findfont
dup length dict begin
  {1 index /FID ne {def} {pop pop} ifelse} forall
  /Encoding WinAnsiEncoding def
  currentdict
end
/Times-BoldItalic exch definefont pop
/Courier findfont
dup length dict begin
  {1 index /FID ne {def} {pop pop} ifelse} forall
  /Encoding WinAnsiEncoding def
  currentdict
end
/Courier exch definefont pop
%FOPEndFontReencode
%%EndProlog
%%Page: 1 1
%%PageBoundingBox: 0 0 1440 748
%%BeginPageSetup
[1 0 0 -1 0 748] CT
%%EndPageSetup
GS
[0.75 0 0 0.75 0 0.25] CT
N
0 0 M
1920 0 L
1920 997 L
0 997 L
0 0 L
cp
clip
1 GC
N
0 0 1920 997 re
f
GR
GS
[0.75 0 0 0.75 0 0.25] CT
1 GC
N
0 0 1920 997 re
f
GR
GS
[0.75 0 0 0.75 0 0.25] CT
1 GC
N
479.235 887 M
1508.765 887 L
1508.765 75 L
479.235 75 L
cp
f
GR
GS
[0.75 0 0 0.75 0 0.25] CT
0.149 GC
2 setlinecap
1 LJ
0.667 LW
N
479.235 887 M
1508.765 887 L
S
GR
GS
[0.75 0 0 0.75 0 0.25] CT
0.149 GC
2 setlinecap
1 LJ
0.667 LW
N
479.235 887 M
479.235 876.705 L
S
GR
GS
[0.75 0 0 0.75 0 0.25] CT
0.149 GC
2 setlinecap
1 LJ
0.667 LW
N
736.618 887 M
736.618 876.705 L
S
GR
GS
[0.75 0 0 0.75 0 0.25] CT
0.149 GC
2 setlinecap
1 LJ
0.667 LW
N
994 887 M
994 876.705 L
S
GR
GS
[0.75 0 0 0.75 0 0.25] CT
0.149 GC
2 setlinecap
1 LJ
0.667 LW
N
1251.382 887 M
1251.382 876.705 L
S
GR
GS
[0.75 0 0 0.75 0 0.25] CT
0.149 GC
2 setlinecap
1 LJ
0.667 LW
N
1508.765 887 M
1508.765 876.705 L
S
GR
GS
[0.75 0 0 0.75 359.42638 672.49998] CT
0.149 GC
/Helvetica 33.333 F
GS
[1 0 0 1 0 0] CT
-17 31 moveto 
1 -1 scale
(-5) t 
GR
GR
GS
[0.75 0 0 0.75 552.46321 672.49998] CT
0.149 GC
/Helvetica 33.333 F
GS
[1 0 0 1 0 0] CT
-11 31 moveto 
1 -1 scale
(0) t 
GR
GR
GS
[0.75 0 0 0.75 745.5 672.49998] CT
0.149 GC
/Helvetica 33.333 F
GS
[1 0 0 1 0 0] CT
-11 31 moveto 
1 -1 scale
(5) t 
GR
GR
GS
[0.75 0 0 0.75 938.53683 672.49998] CT
0.149 GC
/Helvetica 33.333 F
GS
[1 0 0 1 0 0] CT
-21.5 31 moveto 
1 -1 scale
(10) t 
GR
GR
GS
[0.75 0 0 0.75 1131.57358 672.49998] CT
0.149 GC
/Helvetica 33.333 F
GS
[1 0 0 1 0 0] CT
-21.5 31 moveto 
1 -1 scale
(15) t 
GR
GR
GS
[0.75 0 0 0.75 745.50037 702.75002] CT
0.149 GC
/Helvetica 36.667 F
GS
[1 0 0 1 0 0] CT
-22.5 35 moveto 
1 -1 scale
(Xs) t 
GR
GR
GS
[0.75 0 0 0.75 0 0.25] CT
0.149 GC
2 setlinecap
1 LJ
0.667 LW
N
479.235 887 M
479.235 75 L
S
GR
GS
[0.75 0 0 0.75 0 0.25] CT
0.149 GC
2 setlinecap
1 LJ
0.667 LW
N
479.235 789.859 M
489.53 789.859 L
S
GR
GS
[0.75 0 0 0.75 0 0.25] CT
0.149 GC
2 setlinecap
1 LJ
0.667 LW
N
479.235 686.906 M
489.53 686.906 L
S
GR
GS
[0.75 0 0 0.75 0 0.25] CT
0.149 GC
2 setlinecap
1 LJ
0.667 LW
N
479.235 583.953 M
489.53 583.953 L
S
GR
GS
[0.75 0 0 0.75 0 0.25] CT
0.149 GC
2 setlinecap
1 LJ
0.667 LW
N
479.235 481 M
489.53 481 L
S
GR
GS
[0.75 0 0 0.75 0 0.25] CT
0.149 GC
2 setlinecap
1 LJ
0.667 LW
N
479.235 378.047 M
489.53 378.047 L
S
GR
GS
[0.75 0 0 0.75 0 0.25] CT
0.149 GC
2 setlinecap
1 LJ
0.667 LW
N
479.235 275.094 M
489.53 275.094 L
S
GR
GS
[0.75 0 0 0.75 0 0.25] CT
0.149 GC
2 setlinecap
1 LJ
0.667 LW
N
479.235 172.141 M
489.53 172.141 L
S
GR
GS
[0.75 0 0 0.75 352.42639 592.64417] CT
0.149 GC
/Helvetica 33.333 F
GS
[1 0 0 1 0 0] CT
-22 11.5 moveto 
1 -1 scale
(0) t 
GR
GR
GS
[0.75 0 0 0.75 352.42639 515.42946] CT
0.149 GC
/Helvetica 33.333 F
GS
[1 0 0 1 0 0] CT
-22 11.5 moveto 
1 -1 scale
(2) t 
GR
GR
GS
[0.75 0 0 0.75 352.42639 438.21471] CT
0.149 GC
/Helvetica 33.333 F
GS
[1 0 0 1 0 0] CT
-22 11.5 moveto 
1 -1 scale
(4) t 
GR
GR
GS
[0.75 0 0 0.75 352.42639 361] CT
0.149 GC
/Helvetica 33.333 F
GS
[1 0 0 1 0 0] CT
-22 11.5 moveto 
1 -1 scale
(6) t 
GR
GR
GS
[0.75 0 0 0.75 352.42639 283.78527] CT
0.149 GC
/Helvetica 33.333 F
GS
[1 0 0 1 0 0] CT
-22 11.5 moveto 
1 -1 scale
(8) t 
GR
GR
GS
[0.75 0 0 0.75 352.42639 206.57054] CT
0.149 GC
/Helvetica 33.333 F
GS
[1 0 0 1 0 0] CT
-43 11.5 moveto 
1 -1 scale
(10) t 
GR
GR
GS
[0.75 0 0 0.75 352.42639 129.35582] CT
0.149 GC
/Helvetica 33.333 F
GS
[1 0 0 1 0 0] CT
-43 11.5 moveto 
1 -1 scale
(12) t 
GR
GR
GS
[0 -0.75 0.75 0 317.17639 360.99973] CT
0.149 GC
/Helvetica 36.667 F
GS
[1 0 0 1 0 0] CT
-21 -9 moveto 
1 -1 scale
(Ys) t 
GR
GR
GS
[0.75 0 0 0.75 899.92941 361] CT
1 0 0 RC
N
0 -26.66 M
-23.088 13.33 L
23.088 13.33 L
cp
f
GR
GS
[0.75 0 0 0.75 899.92941 361] CT
0 0 1 RC
10.0 ML
0.667 LW
N
0 -26.66 M
-23.088 13.33 L
23.088 13.33 L
cp
S
GR
GS
[0.75 0 0 0.75 938.53683 322.39265] CT
1 0 0 RC
N
/f-1996900118{0 -26.66 M
-23.088 13.33 L
23.088 13.33 L
cp}def
f-1996900118
f
GR
GS
[0.75 0 0 0.75 938.53683 322.39265] CT
0 0 1 RC
10.0 ML
0.667 LW
N
0 -26.66 M
-23.088 13.33 L
23.088 13.33 L
cp
S
GR
GS
[0.75 0 0 0.75 745.5 206.57054] CT
1 0 0 RC
N
f-1996900118
f
GR
GS
[0.75 0 0 0.75 745.5 206.57054] CT
0 0 1 RC
10.0 ML
0.667 LW
N
0 -26.66 M
-23.088 13.33 L
23.088 13.33 L
cp
S
GR
GS
[0.75 0 0 0.75 938.53683 515.42946] CT
1 0 0 RC
N
f-1996900118
f
GR
GS
[0.75 0 0 0.75 938.53683 515.42946] CT
0 0 1 RC
10.0 ML
0.667 LW
N
0 -26.66 M
-23.088 13.33 L
23.088 13.33 L
cp
S
GR
GS
[0.75 0 0 0.75 591.07054 245.17792] CT
1 0 0 RC
N
f-1996900118
f
GR
GS
[0.75 0 0 0.75 591.07054 245.17792] CT
0 0 1 RC
10.0 ML
0.667 LW
N
0 -26.66 M
-23.088 13.33 L
23.088 13.33 L
cp
S
GR
GS
[0.75 0 0 0.75 668.28529 361] CT
1 0 0 RC
N
f-1996900118
f
GR
GS
[0.75 0 0 0.75 668.28529 361] CT
0 0 1 RC
10.0 ML
0.667 LW
N
0 -26.66 M
-23.088 13.33 L
23.088 13.33 L
cp
S
GR
GS
[0.75 0 0 0.75 591.07054 361] CT
1 0 0 RC
N
f-1996900118
f
GR
GS
[0.75 0 0 0.75 591.07054 361] CT
0 0 1 RC
10.0 ML
0.667 LW
N
0 -26.66 M
-23.088 13.33 L
23.088 13.33 L
cp
S
GR
GS
[0.75 0 0 0.75 861.32208 399.60738] CT
1 0 0 RC
N
f-1996900118
f
GR
GS
[0.75 0 0 0.75 861.32208 399.60738] CT
0 0 1 RC
10.0 ML
0.667 LW
N
0 -26.66 M
-23.088 13.33 L
23.088 13.33 L
cp
S
GR
GS
[0.75 0 0 0.75 783.51224 363.7168] CT
0 1 1 RC
10.0 ML
0.667 LW
N
0 -4 M
0 4 L
-4 0 M
4 0 L
-2.828 -2.828 M
2.828 2.828 L
-2.828 2.828 M
2.828 -2.828 L
S
GR
GS
[0.75 0 0 0.75 0 0.25] CT
0 1 1 RC
1 LJ
0.667 LW
N
1049.222 486.277 M
1049.49 486.465 L
1049.165 486.425 L
S
GR
GS
[0.75 0 0 0.75 0 0.25] CT
0 1 1 RC
1 LJ
0.667 LW
N
1044.683 484.622 M
1049.49 486.465 L
S
GR
GS
[0.75 0 0 0.75 0 0.25] CT
0 1 1 RC
1 LJ
6.667 LW
N
1002.092 485.457 M
1003.222 474.839 L
1006.958 464.835 L
1013.064 456.075 L
1021.157 449.108 L
1030.728 444.373 L
1041.176 442.167 L
1051.844 442.629 L
1062.062 445.729 L
1071.189 451.273 L
1078.65 458.912 L
1083.976 468.167 L
1086.834 478.456 L
1087.043 489.132 L
1084.591 499.525 L
1079.631 508.982 L
1072.475 516.908 L
1063.573 522.805 L
1053.484 526.303 L
1042.842 527.182 L
1032.315 525.387 L
1022.566 521.031 L
1014.207 514.387 L
1007.762 505.872 L
1003.637 496.023 L
1002.092 485.457 L
S
GR
GS
[0.75 0 0 0.75 745.91656 401.31255] CT
0 1 1 RC
10.0 ML
0.667 LW
N
0 -4 M
0 4 L
-4 0 M
4 0 L
-2.828 -2.828 M
2.828 2.828 L
-2.828 2.828 M
2.828 -2.828 L
S
GR
GS
[0.75 0 0 0.75 0 0.25] CT
0 1 1 RC
1 LJ
0.667 LW
N
999.094 536.405 M
999.362 536.592 L
999.038 536.553 L
S
GR
GS
[0.75 0 0 0.75 0 0.25] CT
0 1 1 RC
1 LJ
0.667 LW
N
994.555 534.75 M
999.362 536.592 L
S
GR
GS
[0.75 0 0 0.75 0 0.25] CT
0 1 1 RC
1 LJ
6.667 LW
N
951.961 535.424 M
953.132 524.81 L
956.905 514.82 L
963.044 506.083 L
971.163 499.147 L
980.752 494.449 L
991.209 492.282 L
1001.875 492.784 L
1012.082 495.923 L
1021.187 501.501 L
1028.619 509.169 L
1033.911 518.444 L
1036.729 528.743 L
1036.898 539.42 L
1034.407 549.804 L
1029.411 559.241 L
1022.225 567.14 L
1013.301 573.004 L
1003.199 576.464 L
992.553 577.303 L
982.034 575.468 L
972.301 571.075 L
963.967 564.399 L
957.554 555.86 L
953.467 545.995 L
951.961 535.424 L
S
GR
GS
[0.75 0 0 0.75 783.18567 363.71724] CT
0 1 1 RC
10.0 ML
0.667 LW
N
0 -4 M
0 4 L
-4 0 M
4 0 L
-2.828 -2.828 M
2.828 2.828 L
-2.828 2.828 M
2.828 -2.828 L
S
GR
GS
[0.75 0 0 0.75 0 0.25] CT
0 1 1 RC
1 LJ
0.667 LW
N
1048.786 486.278 M
1049.054 486.465 L
1048.73 486.426 L
S
GR
GS
[0.75 0 0 0.75 0 0.25] CT
0 1 1 RC
1 LJ
0.667 LW
N
1044.248 484.623 M
1049.054 486.465 L
S
GR
GS
[0.75 0 0 0.75 0 0.25] CT
0 1 1 RC
1 LJ
6.667 LW
N
1001.654 485.37 M
1002.807 474.754 L
1006.563 464.758 L
1012.687 456.01 L
1020.794 449.061 L
1030.375 444.345 L
1040.828 442.161 L
1051.495 442.644 L
1061.707 445.766 L
1070.822 451.328 L
1078.267 458.983 L
1083.575 468.249 L
1086.411 478.544 L
1086.599 489.22 L
1084.125 499.608 L
1079.145 509.054 L
1071.973 516.966 L
1063.059 522.844 L
1052.962 526.322 L
1042.319 527.179 L
1031.796 525.362 L
1022.056 520.986 L
1013.71 514.325 L
1007.283 505.797 L
1003.178 495.939 L
1001.654 485.37 L
S
GR
GS
[0.75 0 0 0.75 781.48993 363.71678] CT
0 1 1 RC
10.0 ML
0.667 LW
N
0 -4 M
0 4 L
-4 0 M
4 0 L
-2.828 -2.828 M
2.828 2.828 L
-2.828 2.828 M
2.828 -2.828 L
S
GR
GS
[0.75 0 0 0.75 0 0.25] CT
0 1 1 RC
1 LJ
0.667 LW
N
1046.525 486.277 M
1046.793 486.465 L
1046.469 486.425 L
S
GR
GS
[0.75 0 0 0.75 0 0.25] CT
0 1 1 RC
1 LJ
0.667 LW
N
1041.987 484.622 M
1046.793 486.465 L
S
GR
GS
[0.75 0 0 0.75 0 0.25] CT
0 1 1 RC
1 LJ
6.667 LW
N
999.395 485.442 M
1000.529 474.824 L
1004.268 464.822 L
1010.378 456.064 L
1018.473 449.1 L
1028.046 444.368 L
1038.494 442.166 L
1049.162 442.631 L
1059.38 445.735 L
1068.504 451.282 L
1075.962 458.925 L
1081.286 468.181 L
1084.14 478.471 L
1084.345 489.148 L
1081.889 499.54 L
1076.926 508.994 L
1069.767 516.918 L
1060.863 522.812 L
1050.772 526.306 L
1040.13 527.182 L
1029.604 525.383 L
1019.857 521.023 L
1011.499 514.376 L
1005.058 505.859 L
1000.937 496.008 L
999.395 485.442 L
S
GR
GS
[0.75 0 0 0.75 749.13158 396.07518] CT
0 1 1 RC
10.0 ML
0.667 LW
N
0 -4 M
0 4 L
-4 0 M
4 0 L
-2.828 -2.828 M
2.828 2.828 L
-2.828 2.828 M
2.828 -2.828 L
S
GR
GS
[0.75 0 0 0.75 0 0.25] CT
0 1 1 RC
1 LJ
0.667 LW
N
1003.381 529.421 M
1003.649 529.609 L
1003.324 529.57 L
S
GR
GS
[0.75 0 0 0.75 0 0.25] CT
0 1 1 RC
1 LJ
0.667 LW
N
998.842 527.767 M
1003.649 529.609 L
S
GR
GS
[0.75 0 0 0.75 0 0.25] CT
0 1 1 RC
1 LJ
6.667 LW
N
956.245 527.303 M
957.468 537.911 L
961.291 547.882 L
967.473 556.589 L
975.626 563.484 L
985.238 568.136 L
995.705 570.251 L
1006.369 569.696 L
1016.56 566.507 L
1025.637 560.884 L
1033.031 553.18 L
1038.277 543.879 L
1041.045 533.566 L
1041.161 522.888 L
1038.619 512.517 L
1033.576 503.104 L
1026.352 495.241 L
1017.399 489.421 L
1007.279 486.011 L
996.63 485.225 L
986.12 487.111 L
976.409 491.553 L
968.107 498.269 L
961.737 506.839 L
957.699 516.724 L
956.245 527.303 L
S
GR
GS
[0.75 0 0 0.75 743.89417 401.31255] CT
0 1 1 RC
10.0 ML
0.667 LW
N
0 -4 M
0 4 L
-4 0 M
4 0 L
-2.828 -2.828 M
2.828 2.828 L
-2.828 2.828 M
2.828 -2.828 L
S
GR
GS
[0.75 0 0 0.75 0 0.25] CT
0 1 1 RC
1 LJ
0.667 LW
N
996.398 536.405 M
996.666 536.592 L
996.341 536.553 L
S
GR
GS
[0.75 0 0 0.75 0 0.25] CT
0 1 1 RC
1 LJ
0.667 LW
N
991.859 534.75 M
996.666 536.592 L
S
GR
GS
[0.75 0 0 0.75 0 0.25] CT
0 1 1 RC
1 LJ
6.667 LW
N
949.264 535.406 M
950.766 545.978 L
954.849 555.845 L
961.258 564.386 L
969.589 571.065 L
979.32 575.463 L
989.839 577.302 L
1000.485 576.467 L
1010.588 573.012 L
1019.515 567.152 L
1026.704 559.256 L
1031.704 549.82 L
1034.2 539.438 L
1034.036 528.761 L
1031.221 518.46 L
1025.933 509.183 L
1018.504 501.512 L
1009.401 495.93 L
999.196 492.787 L
988.53 492.281 L
978.073 494.443 L
968.482 499.138 L
960.36 506.07 L
954.217 514.805 L
950.439 524.792 L
949.264 535.406 L
S
GR
GS
[0.75 0 0 0.75 780.50427 409.90779] CT
0 0 1 RC
10.0 ML
0.667 LW
N
0 -4 M
0 4 L
-4 0 M
4 0 L
-2.828 -2.828 M
2.828 2.828 L
-2.828 2.828 M
2.828 -2.828 L
S
GR
GS
[0.75 0 0 0.75 0 0.25] CT
0 0 1 RC
1 LJ
0.667 LW
N
1045.211 547.865 M
1045.479 548.052 L
1045.155 548.013 L
S
GR
GS
[0.75 0 0 0.75 0 0.25] CT
0 0 1 RC
1 LJ
0.667 LW
N
1040.672 546.21 M
1045.479 548.052 L
S
GR
GS
[0.75 0 0 0.75 0 0.25] CT
0 0 1 RC
1 LJ
6.667 LW
N
1024.821 552.728 M
1026.94 556.465 L
1029.922 559.558 L
1033.579 561.812 L
1037.682 563.086 L
1041.973 563.3 L
1046.182 562.439 L
1050.045 560.559 L
1053.319 557.778 L
1055.798 554.269 L
1057.327 550.254 L
1057.81 545.986 L
1057.215 541.731 L
1055.582 537.757 L
1053.011 534.315 L
1049.665 531.621 L
1045.754 529.842 L
1041.524 529.093 L
1037.24 529.419 L
1033.172 530.8 L
1029.576 533.149 L
1026.676 536.319 L
1024.656 540.111 L
1023.642 544.286 L
1023.699 548.581 L
1024.821 552.728 L
S
GR
GS
[0.75 0 0 0.75 812.86249 377.54859] CT
0 0 1 RC
10.0 ML
0.667 LW
N
0 -4 M
0 4 L
-4 0 M
4 0 L
-2.828 -2.828 M
2.828 2.828 L
-2.828 2.828 M
2.828 -2.828 L
S
GR
GS
[0.75 0 0 0.75 0 0.25] CT
0 0 1 RC
1 LJ
0.667 LW
N
1088.356 504.719 M
1088.623 504.907 L
1088.299 504.867 L
S
GR
GS
[0.75 0 0 0.75 0 0.25] CT
0 0 1 RC
1 LJ
0.667 LW
N
1083.817 503.065 M
1088.623 504.907 L
S
GR
GS
[0.75 0 0 0.75 0 0.25] CT
0 0 1 RC
1 LJ
6.667 LW
N
1068.042 509.766 M
1070.204 513.478 L
1073.222 516.536 L
1076.905 518.748 L
1081.022 519.974 L
1085.315 520.138 L
1089.514 519.229 L
1093.355 517.304 L
1096.596 514.485 L
1099.035 510.948 L
1100.517 506.915 L
1100.95 502.641 L
1100.306 498.394 L
1098.627 494.44 L
1096.016 491.028 L
1092.64 488.372 L
1088.708 486.639 L
1084.47 485.939 L
1080.19 486.314 L
1076.138 487.742 L
1072.569 490.133 L
1069.707 493.337 L
1067.731 497.151 L
1066.765 501.338 L
1066.872 505.632 L
1068.042 509.766 L
S
GR
GS
[0.75 0 0 0.75 774.41885 415.99225] CT
0 0 1 RC
10.0 ML
0.667 LW
N
0 -4 M
0 4 L
-4 0 M
4 0 L
-2.828 -2.828 M
2.828 2.828 L
-2.828 2.828 M
2.828 -2.828 L
S
GR
GS
[0.75 0 0 0.75 0 0.25] CT
0 0 1 RC
1 LJ
0.667 LW
N
1037.097 555.977 M
1037.365 556.165 L
1037.041 556.126 L
S
GR
GS
[0.75 0 0 0.75 0 0.25] CT
0 0 1 RC
1 LJ
0.667 LW
N
1032.558 554.323 M
1037.365 556.165 L
S
GR
GS
[0.75 0 0 0.75 0 0.25] CT
0 0 1 RC
1 LJ
6.667 LW
N
1016.782 561.02 M
1015.613 556.886 L
1015.508 552.591 L
1016.474 548.405 L
1018.451 544.591 L
1021.315 541.388 L
1024.884 538.999 L
1028.937 537.572 L
1033.216 537.197 L
1037.455 537.899 L
1041.385 539.632 L
1044.761 542.289 L
1047.371 545.702 L
1049.049 549.656 L
1049.692 553.904 L
1049.258 558.178 L
1047.774 562.21 L
1045.335 565.746 L
1042.093 568.565 L
1038.251 570.488 L
1034.052 571.396 L
1029.759 571.231 L
1025.642 570.004 L
1021.96 567.792 L
1018.943 564.733 L
1016.782 561.02 L
S
GR
GS
[0.75 0 0 0.75 812.80966 377.5488] CT
0 0 1 RC
10.0 ML
0.667 LW
N
0 -4 M
0 4 L
-4 0 M
4 0 L
-2.828 -2.828 M
2.828 2.828 L
-2.828 2.828 M
2.828 -2.828 L
S
GR
GS
[0.75 0 0 0.75 0 0.25] CT
0 0 1 RC
1 LJ
0.667 LW
N
1088.285 504.72 M
1088.553 504.907 L
1088.228 504.868 L
S
GR
GS
[0.75 0 0 0.75 0 0.25] CT
0 0 1 RC
1 LJ
0.667 LW
N
1083.746 503.065 M
1088.553 504.907 L
S
GR
GS
[0.75 0 0 0.75 0 0.25] CT
0 0 1 RC
1 LJ
6.667 LW
N
1067.973 509.769 M
1066.802 505.635 L
1066.695 501.341 L
1067.659 497.154 L
1069.635 493.339 L
1072.497 490.135 L
1076.066 487.744 L
1080.117 486.315 L
1084.397 485.939 L
1088.635 486.639 L
1092.567 488.371 L
1095.944 491.026 L
1098.555 494.437 L
1100.235 498.391 L
1100.88 502.639 L
1100.447 506.913 L
1098.966 510.945 L
1096.528 514.483 L
1093.287 517.303 L
1089.446 519.228 L
1085.248 520.138 L
1080.955 519.975 L
1076.837 518.749 L
1073.154 516.538 L
1070.136 513.481 L
1067.973 509.769 L
S
GR
GS
[0.75 0 0 0.75 780.17651 409.90779] CT
0 0 1 RC
10.0 ML
0.667 LW
N
0 -4 M
0 4 L
-4 0 M
4 0 L
-2.828 -2.828 M
2.828 2.828 L
-2.828 2.828 M
2.828 -2.828 L
S
GR
GS
[0.75 0 0 0.75 0 0.25] CT
0 0 1 RC
1 LJ
0.667 LW
N
1044.774 547.865 M
1045.042 548.052 L
1044.718 548.013 L
S
GR
GS
[0.75 0 0 0.75 0 0.25] CT
0 0 1 RC
1 LJ
0.667 LW
N
1040.235 546.21 M
1045.042 548.052 L
S
GR
GS
[0.75 0 0 0.75 0 0.25] CT
0 0 1 RC
1 LJ
6.667 LW
N
1024.382 552.721 M
1026.499 556.459 L
1029.479 559.554 L
1033.136 561.809 L
1037.238 563.085 L
1041.529 563.3 L
1045.738 562.442 L
1049.602 560.563 L
1052.877 557.783 L
1055.358 554.276 L
1056.888 550.261 L
1057.373 545.993 L
1056.78 541.738 L
1055.148 537.764 L
1052.579 534.32 L
1049.234 531.624 L
1045.324 529.845 L
1041.094 529.093 L
1036.81 529.417 L
1032.742 530.797 L
1029.144 533.145 L
1026.243 536.313 L
1024.222 540.104 L
1023.206 544.278 L
1023.261 548.574 L
1024.382 552.721 L
S
GR
GS
[0.75 0 0 0.75 812.5351 377.54859] CT
0 0 1 RC
10.0 ML
0.667 LW
N
0 -4 M
0 4 L
-4 0 M
4 0 L
-2.828 -2.828 M
2.828 2.828 L
-2.828 2.828 M
2.828 -2.828 L
S
GR
GS
[0.75 0 0 0.75 0 0.25] CT
0 0 1 RC
1 LJ
0.667 LW
N
1087.919 504.719 M
1088.187 504.907 L
1087.862 504.867 L
S
GR
GS
[0.75 0 0 0.75 0 0.25] CT
0 0 1 RC
1 LJ
0.667 LW
N
1083.38 503.065 M
1088.187 504.907 L
S
GR
GS
[0.75 0 0 0.75 0 0.25] CT
0 0 1 RC
1 LJ
6.667 LW
N
1067.602 509.757 M
1069.762 513.471 L
1072.778 516.531 L
1076.46 518.744 L
1080.577 519.972 L
1084.87 520.138 L
1089.069 519.232 L
1092.911 517.309 L
1096.154 514.491 L
1098.594 510.956 L
1100.078 506.924 L
1100.514 502.65 L
1099.872 498.403 L
1098.195 494.448 L
1095.586 491.034 L
1092.211 488.376 L
1088.281 486.642 L
1084.042 485.939 L
1079.763 486.312 L
1075.71 487.738 L
1072.14 490.127 L
1069.275 493.329 L
1067.297 497.143 L
1066.33 501.328 L
1066.434 505.623 L
1067.602 509.757 L
S
GR
GS
[0.75 0 0 0.75 774.93878 415.14474] CT
0 0 1 RC
10.0 ML
0.667 LW
N
0 -4 M
0 4 L
-4 0 M
4 0 L
-2.828 -2.828 M
2.828 2.828 L
-2.828 2.828 M
2.828 -2.828 L
S
GR
GS
[0.75 0 0 0.75 0 0.25] CT
0 0 1 RC
1 LJ
0.667 LW
N
1037.791 554.847 M
1038.058 555.035 L
1037.734 554.996 L
S
GR
GS
[0.75 0 0 0.75 0 0.25] CT
0 0 1 RC
1 LJ
0.667 LW
N
1033.252 553.193 M
1038.058 555.035 L
S
GR
GS
[0.75 0 0 0.75 0 0.25] CT
0 0 1 RC
1 LJ
6.667 LW
N
1017.426 559.771 M
1016.287 555.628 L
1016.214 551.333 L
1017.212 547.154 L
1019.218 543.355 L
1022.106 540.174 L
1025.693 537.811 L
1029.756 536.415 L
1034.039 536.073 L
1038.271 536.806 L
1042.189 538.569 L
1045.545 541.251 L
1048.129 544.684 L
1049.777 548.651 L
1050.388 552.903 L
1049.922 557.174 L
1048.408 561.194 L
1045.942 564.712 L
1042.678 567.506 L
1038.823 569.401 L
1034.617 570.277 L
1030.325 570.08 L
1026.218 568.822 L
1022.552 566.581 L
1019.559 563.5 L
1017.426 559.771 L
S
GR
GS
[0.75 0 0 0.75 774.09155 415.99225] CT
0 0 1 RC
10.0 ML
0.667 LW
N
0 -4 M
0 4 L
-4 0 M
4 0 L
-2.828 -2.828 M
2.828 2.828 L
-2.828 2.828 M
2.828 -2.828 L
S
GR
GS
[0.75 0 0 0.75 0 0.25] CT
0 0 1 RC
1 LJ
0.667 LW
N
1036.661 555.977 M
1036.929 556.165 L
1036.604 556.126 L
S
GR
GS
[0.75 0 0 0.75 0 0.25] CT
0 0 1 RC
1 LJ
0.667 LW
N
1032.122 554.323 M
1036.929 556.165 L
S
GR
GS
[0.75 0 0 0.75 0 0.25] CT
0 0 1 RC
1 LJ
6.667 LW
N
1016.341 561.009 M
1015.174 556.875 L
1015.072 552.58 L
1016.042 548.394 L
1018.021 544.582 L
1020.887 541.381 L
1024.458 538.993 L
1028.511 537.569 L
1032.791 537.198 L
1037.029 537.902 L
1040.959 539.638 L
1044.333 542.297 L
1046.94 545.712 L
1048.616 549.667 L
1049.256 553.916 L
1048.819 558.189 L
1047.333 562.22 L
1044.891 565.755 L
1041.647 568.571 L
1037.804 570.492 L
1033.604 571.397 L
1029.312 571.229 L
1025.195 569.999 L
1021.514 567.784 L
1018.5 564.723 L
1016.341 561.009 L
S
GR
GS
[0.75 0 0 0.75 806.45004 383.63378] CT
0 0 1 RC
10.0 ML
0.667 LW
N
0 -4 M
0 4 L
-4 0 M
4 0 L
-2.828 -2.828 M
2.828 2.828 L
-2.828 2.828 M
2.828 -2.828 L
S
GR
GS
[0.75 0 0 0.75 0 0.25] CT
0 0 1 RC
1 LJ
0.667 LW
N
1079.806 512.833 M
1080.073 513.021 L
1079.749 512.981 L
S
GR
GS
[0.75 0 0 0.75 0 0.25] CT
0 0 1 RC
1 LJ
0.667 LW
N
1075.267 511.178 M
1080.073 513.021 L
S
GR
GS
[0.75 0 0 0.75 0 0.25] CT
0 0 1 RC
1 LJ
6.667 LW
N
1059.578 518.077 M
1058.355 513.958 L
1058.195 509.665 L
1059.108 505.467 L
1061.036 501.628 L
1063.858 498.389 L
1067.397 495.954 L
1071.43 494.475 L
1075.705 494.045 L
1079.952 494.693 L
1083.904 496.376 L
1087.314 498.989 L
1089.967 502.368 L
1091.696 506.301 L
1092.393 510.54 L
1092.014 514.819 L
1090.583 518.87 L
1088.189 522.437 L
1084.983 525.297 L
1081.166 527.269 L
1076.979 528.231 L
1072.685 528.121 L
1068.552 526.947 L
1064.842 524.782 L
1061.786 521.762 L
1059.578 518.077 L
S
GR
GS
[0.75 0 0 0.75 741.73315 448.3512] CT
0 0 1 RC
10.0 ML
0.667 LW
N
0 -4 M
0 4 L
-4 0 M
4 0 L
-2.828 -2.828 M
2.828 2.828 L
-2.828 2.828 M
2.828 -2.828 L
S
GR
GS
[0.75 0 0 0.75 0 0.25] CT
0 0 1 RC
1 LJ
0.667 LW
N
993.516 599.123 M
993.784 599.31 L
993.46 599.271 L
S
GR
GS
[0.75 0 0 0.75 0 0.25] CT
0 0 1 RC
1 LJ
0.667 LW
N
988.978 597.468 M
993.784 599.31 L
S
GR
GS
[0.75 0 0 0.75 0 0.25] CT
0 0 1 RC
1 LJ
6.667 LW
N
973.122 603.975 M
972.002 599.827 L
971.949 595.531 L
972.965 591.357 L
974.988 587.567 L
977.89 584.399 L
981.488 582.052 L
985.558 580.674 L
989.841 580.351 L
994.071 581.104 L
997.981 582.885 L
1001.325 585.582 L
1003.893 589.026 L
1005.524 593.001 L
1006.115 597.256 L
1005.629 601.524 L
1004.097 605.538 L
1001.616 609.045 L
998.34 611.824 L
994.475 613.701 L
990.266 614.558 L
985.975 614.342 L
981.873 613.065 L
978.218 610.808 L
975.238 607.713 L
973.122 603.975 L
S
GR
GS
[0.75 0 0 0.75 0 0.25] CT
1 GC
N
/f-79800792{1498 235 M
1498 86 L
1279 86 L
1279 235 L
cp}def
f-79800792
f
GR
GS
[0.75 0 0 0.75 994.5 79.75] CT
/Helvetica-Bold 30 F
GS
[1 0 0 1 0 0] CT
0 10 moveto 
1 -1 scale
(LandMark) t 
GR
GR
GS
[0.75 0 0 0.75 977.25 79.75] CT
1 0 0 RC
N
/f-1214359511{0 -19.995 M
-17.316 9.998 L
17.316 9.998 L
cp}def
f-1214359511
f
GR
GS
[0.75 0 0 0.75 977.25 79.75] CT
0 0 1 RC
10.0 ML
0.667 LW
N
0 -19.995 M
-17.316 9.998 L
17.316 9.998 L
cp
S
GR
GS
[0.75 0 0 0.75 994.5 122.5] CT
/Helvetica-Bold 30 F
GS
[1 0 0 1 0 0] CT
0 0 moveto 
1 -1 scale
(b) t 
GR
GR
GS
[0.75 0 0 0.75 1011 111.25] CT
/Helvetica-Bold 24 F
GS
[1 0 0 1 0 0] CT
0 0 moveto 
1 -1 scale
(-) t 
GR
GR
GS
[0.75 0 0 0.75 1018.5 122.5] CT
/Helvetica-Bold 30 F
GS
[1 0 0 1 0 0] CT
0 0 moveto 
1 -1 scale
([X) t 
GR
GR
GS
[0.75 0 0 0.75 1046.25 133.75] CT
/Helvetica-Bold 24 F
GS
[1 0 0 1 0 0] CT
0 0 moveto 
1 -1 scale
(k) t 
GR
GR
GS
[0.75 0 0 0.75 1058.25 122.5] CT
/Helvetica-Bold 30 F
GS
[1 0 0 1 0 0] CT
0 0 moveto 
1 -1 scale
(]) t 
GR
GR
GS
[0.75 0 0 0.75 0 0.25] CT
0 1 1 RC
1 LJ
6.667 LW
N
1283 154 M
1323 154 L
S
GR
GS
[0.75 0 0 0.75 994.5 160] CT
/Helvetica-Bold 30 F
GS
[1 0 0 1 0 0] CT
0 0 moveto 
1 -1 scale
(b[X) t 
GR
GR
GS
[0.75 0 0 0.75 1038.75 171.25] CT
/Helvetica-Bold 24 F
GS
[1 0 0 1 0 0] CT
0 0 moveto 
1 -1 scale
(k) t 
GR
GR
GS
[0.75 0 0 0.75 1050.75 160] CT
/Helvetica-Bold 30 F
GS
[1 0 0 1 0 0] CT
0 0 moveto 
1 -1 scale
(]) t 
GR
GR
GS
[0.75 0 0 0.75 0 0.25] CT
0 0 1 RC
1 LJ
6.667 LW
N
1283 208.5 M
1323 208.5 L
S
GR
GS
[0.75 0 0 0.75 0 0.25] CT
0.149 GC
10.0 ML
0.667 LW
N
1279 235 M
1279 86 L
1498 86 L
1498 235 L
cp
S
GR
%%Trailer
%%Pages: 1
%%EOF
