%!PS-Adobe-3.0 EPSF-3.0
%%Creator: (MATLAB, The Mathworks, Inc. Version 9.8.0.1380330 \(R2020a\) Update 2. Operating System: Linux)
%%Title: (/home/ohads/ANPL/papers/research/2021 RAL/Figures/TestCase_2/fig_files/Robots_estimation_k_1.epsc)
%%CreationDate: 2021-02-21T16:10:43
%%Pages: (atend)
%%BoundingBox:   290    18  1145   692
%%LanguageLevel: 3
%%EndComments
%%BeginProlog
%%BeginResource: procset (Apache XML Graphics Std ProcSet) 1.2 0
%%Version: 1.2 0
%%Copyright: (Copyright 2001-2003,2010 The Apache Software Foundation. License terms: http://www.apache.org/licenses/LICENSE-2.0)
/bd{bind def}bind def
/ld{load def}bd
/GR/grestore ld
/GS/gsave ld
/RM/rmoveto ld
/C/curveto ld
/t/show ld
/L/lineto ld
/ML/setmiterlimit ld
/CT/concat ld
/f/fill ld
/N/newpath ld
/S/stroke ld
/CC/setcmykcolor ld
/A/ashow ld
/cp/closepath ld
/RC/setrgbcolor ld
/LJ/setlinejoin ld
/GC/setgray ld
/LW/setlinewidth ld
/M/moveto ld
/re {4 2 roll M
1 index 0 rlineto
0 exch rlineto
neg 0 rlineto
cp } bd
/_ctm matrix def
/_tm matrix def
/BT { _ctm currentmatrix pop matrix _tm copy pop 0 0 moveto } bd
/ET { _ctm setmatrix } bd
/iTm { _ctm setmatrix _tm concat } bd
/Tm { _tm astore pop iTm 0 0 moveto } bd
/ux 0.0 def
/uy 0.0 def
/F {
  /Tp exch def
  /Tf exch def
  Tf findfont Tp scalefont setfont
  /cf Tf def  /cs Tp def
} bd
/ULS {currentpoint /uy exch def /ux exch def} bd
/ULE {
  /Tcx currentpoint pop def
  gsave
  newpath
  cf findfont cs scalefont dup
  /FontMatrix get 0 get /Ts exch def /FontInfo get dup
  /UnderlinePosition get Ts mul /To exch def
  /UnderlineThickness get Ts mul /Tt exch def
  ux uy To add moveto  Tcx uy To add lineto
  Tt setlinewidth stroke
  grestore
} bd
/OLE {
  /Tcx currentpoint pop def
  gsave
  newpath
  cf findfont cs scalefont dup
  /FontMatrix get 0 get /Ts exch def /FontInfo get dup
  /UnderlinePosition get Ts mul /To exch def
  /UnderlineThickness get Ts mul /Tt exch def
  ux uy To add cs add moveto Tcx uy To add cs add lineto
  Tt setlinewidth stroke
  grestore
} bd
/SOE {
  /Tcx currentpoint pop def
  gsave
  newpath
  cf findfont cs scalefont dup
  /FontMatrix get 0 get /Ts exch def /FontInfo get dup
  /UnderlinePosition get Ts mul /To exch def
  /UnderlineThickness get Ts mul /Tt exch def
  ux uy To add cs 10 mul 26 idiv add moveto Tcx uy To add cs 10 mul 26 idiv add lineto
  Tt setlinewidth stroke
  grestore
} bd
/QT {
/Y22 exch store
/X22 exch store
/Y21 exch store
/X21 exch store
currentpoint
/Y21 load 2 mul add 3 div exch
/X21 load 2 mul add 3 div exch
/X21 load 2 mul /X22 load add 3 div
/Y21 load 2 mul /Y22 load add 3 div
/X22 load /Y22 load curveto
} bd
/SSPD {
dup length /d exch dict def
{
/v exch def
/k exch def
currentpagedevice k known {
/cpdv currentpagedevice k get def
v cpdv ne {
/upd false def
/nullv v type /nulltype eq def
/nullcpdv cpdv type /nulltype eq def
nullv nullcpdv or
{
/upd true def
} {
/sametype v type cpdv type eq def
sametype {
v type /arraytype eq {
/vlen v length def
/cpdvlen cpdv length def
vlen cpdvlen eq {
0 1 vlen 1 sub {
/i exch def
/obj v i get def
/cpdobj cpdv i get def
obj cpdobj ne {
/upd true def
exit
} if
} for
} {
/upd true def
} ifelse
} {
v type /dicttype eq {
v {
/dv exch def
/dk exch def
/cpddv cpdv dk get def
dv cpddv ne {
/upd true def
exit
} if
} forall
} {
/upd true def
} ifelse
} ifelse
} if
} ifelse
upd true eq {
d k v put
} if
} if
} if
} forall
d length 0 gt {
d setpagedevice
} if
} bd
/RE { % /NewFontName [NewEncodingArray] /FontName RE -
  findfont dup length dict begin
  {
    1 index /FID ne
    {def} {pop pop} ifelse
  } forall
  /Encoding exch def
  /FontName 1 index def
  currentdict definefont pop
  end
} bind def
%%EndResource
%%BeginResource: procset (Apache XML Graphics EPS ProcSet) 1.0 0
%%Version: 1.0 0
%%Copyright: (Copyright 2002-2003 The Apache Software Foundation. License terms: http://www.apache.org/licenses/LICENSE-2.0)
/BeginEPSF { %def
/b4_Inc_state save def         % Save state for cleanup
/dict_count countdictstack def % Count objects on dict stack
/op_count count 1 sub def      % Count objects on operand stack
userdict begin                 % Push userdict on dict stack
/showpage { } def              % Redefine showpage, { } = null proc
0 setgray 0 setlinecap         % Prepare graphics state
1 setlinewidth 0 setlinejoin
10 setmiterlimit [ ] 0 setdash newpath
/languagelevel where           % If level not equal to 1 then
{pop languagelevel             % set strokeadjust and
1 ne                           % overprint to their defaults.
{false setstrokeadjust false setoverprint
} if
} if
} bd
/EndEPSF { %def
count op_count sub {pop} repeat            % Clean up stacks
countdictstack dict_count sub {end} repeat
b4_Inc_state restore
} bd
%%EndResource
%FOPBeginFontDict
%%IncludeResource: font Courier-Oblique
%%IncludeResource: font Courier-BoldOblique
%%IncludeResource: font Courier-Bold
%%IncludeResource: font ZapfDingbats
%%IncludeResource: font Symbol
%%IncludeResource: font Helvetica
%%IncludeResource: font Helvetica-Oblique
%%IncludeResource: font Helvetica-Bold
%%IncludeResource: font Helvetica-BoldOblique
%%IncludeResource: font Times-Roman
%%IncludeResource: font Times-Italic
%%IncludeResource: font Times-Bold
%%IncludeResource: font Times-BoldItalic
%%IncludeResource: font Courier
%FOPEndFontDict
%%BeginResource: encoding WinAnsiEncoding
/WinAnsiEncoding [
/.notdef /.notdef /.notdef /.notdef /.notdef
/.notdef /.notdef /.notdef /.notdef /.notdef
/.notdef /.notdef /.notdef /.notdef /.notdef
/.notdef /.notdef /.notdef /.notdef /.notdef
/.notdef /.notdef /.notdef /.notdef /.notdef
/.notdef /.notdef /.notdef /.notdef /.notdef
/.notdef /.notdef /space /exclam /quotedbl
/numbersign /dollar /percent /ampersand /quotesingle
/parenleft /parenright /asterisk /plus /comma
/hyphen /period /slash /zero /one
/two /three /four /five /six
/seven /eight /nine /colon /semicolon
/less /equal /greater /question /at
/A /B /C /D /E
/F /G /H /I /J
/K /L /M /N /O
/P /Q /R /S /T
/U /V /W /X /Y
/Z /bracketleft /backslash /bracketright /asciicircum
/underscore /quoteleft /a /b /c
/d /e /f /g /h
/i /j /k /l /m
/n /o /p /q /r
/s /t /u /v /w
/x /y /z /braceleft /bar
/braceright /asciitilde /bullet /Euro /bullet
/quotesinglbase /florin /quotedblbase /ellipsis /dagger
/daggerdbl /circumflex /perthousand /Scaron /guilsinglleft
/OE /bullet /Zcaron /bullet /bullet
/quoteleft /quoteright /quotedblleft /quotedblright /bullet
/endash /emdash /asciitilde /trademark /scaron
/guilsinglright /oe /bullet /zcaron /Ydieresis
/space /exclamdown /cent /sterling /currency
/yen /brokenbar /section /dieresis /copyright
/ordfeminine /guillemotleft /logicalnot /sfthyphen /registered
/macron /degree /plusminus /twosuperior /threesuperior
/acute /mu /paragraph /middot /cedilla
/onesuperior /ordmasculine /guillemotright /onequarter /onehalf
/threequarters /questiondown /Agrave /Aacute /Acircumflex
/Atilde /Adieresis /Aring /AE /Ccedilla
/Egrave /Eacute /Ecircumflex /Edieresis /Igrave
/Iacute /Icircumflex /Idieresis /Eth /Ntilde
/Ograve /Oacute /Ocircumflex /Otilde /Odieresis
/multiply /Oslash /Ugrave /Uacute /Ucircumflex
/Udieresis /Yacute /Thorn /germandbls /agrave
/aacute /acircumflex /atilde /adieresis /aring
/ae /ccedilla /egrave /eacute /ecircumflex
/edieresis /igrave /iacute /icircumflex /idieresis
/eth /ntilde /ograve /oacute /ocircumflex
/otilde /odieresis /divide /oslash /ugrave
/uacute /ucircumflex /udieresis /yacute /thorn
/ydieresis
] def
%%EndResource
%FOPBeginFontReencode
/Courier-Oblique findfont
dup length dict begin
  {1 index /FID ne {def} {pop pop} ifelse} forall
  /Encoding WinAnsiEncoding def
  currentdict
end
/Courier-Oblique exch definefont pop
/Courier-BoldOblique findfont
dup length dict begin
  {1 index /FID ne {def} {pop pop} ifelse} forall
  /Encoding WinAnsiEncoding def
  currentdict
end
/Courier-BoldOblique exch definefont pop
/Courier-Bold findfont
dup length dict begin
  {1 index /FID ne {def} {pop pop} ifelse} forall
  /Encoding WinAnsiEncoding def
  currentdict
end
/Courier-Bold exch definefont pop
/Helvetica findfont
dup length dict begin
  {1 index /FID ne {def} {pop pop} ifelse} forall
  /Encoding WinAnsiEncoding def
  currentdict
end
/Helvetica exch definefont pop
/Helvetica-Oblique findfont
dup length dict begin
  {1 index /FID ne {def} {pop pop} ifelse} forall
  /Encoding WinAnsiEncoding def
  currentdict
end
/Helvetica-Oblique exch definefont pop
/Helvetica-Bold findfont
dup length dict begin
  {1 index /FID ne {def} {pop pop} ifelse} forall
  /Encoding WinAnsiEncoding def
  currentdict
end
/Helvetica-Bold exch definefont pop
/Helvetica-BoldOblique findfont
dup length dict begin
  {1 index /FID ne {def} {pop pop} ifelse} forall
  /Encoding WinAnsiEncoding def
  currentdict
end
/Helvetica-BoldOblique exch definefont pop
/Times-Roman findfont
dup length dict begin
  {1 index /FID ne {def} {pop pop} ifelse} forall
  /Encoding WinAnsiEncoding def
  currentdict
end
/Times-Roman exch definefont pop
/Times-Italic findfont
dup length dict begin
  {1 index /FID ne {def} {pop pop} ifelse} forall
  /Encoding WinAnsiEncoding def
  currentdict
end
/Times-Italic exch definefont pop
/Times-Bold findfont
dup length dict begin
  {1 index /FID ne {def} {pop pop} ifelse} forall
  /Encoding WinAnsiEncoding def
  currentdict
end
/Times-Bold exch definefont pop
/Times-BoldItalic findfont
dup length dict begin
  {1 index /FID ne {def} {pop pop} ifelse} forall
  /Encoding WinAnsiEncoding def
  currentdict
end
/Times-BoldItalic exch definefont pop
/Courier findfont
dup length dict begin
  {1 index /FID ne {def} {pop pop} ifelse} forall
  /Encoding WinAnsiEncoding def
  currentdict
end
/Courier exch definefont pop
%FOPEndFontReencode
%%EndProlog
%%Page: 1 1
%%PageBoundingBox: 0 0 1440 748
%%BeginPageSetup
[1 0 0 -1 0 748] CT
%%EndPageSetup
GS
[0.75 0 0 0.75 0 0.25] CT
N
0 0 M
1920 0 L
1920 997 L
0 997 L
0 0 L
cp
clip
1 GC
N
0 0 1920 997 re
f
GR
GS
[0.75 0 0 0.75 0 0.25] CT
1 GC
N
0 0 1920 997 re
f
GR
GS
[0.75 0 0 0.75 0 0.25] CT
1 GC
N
479.235 887 M
1508.765 887 L
1508.765 75 L
479.235 75 L
cp
f
GR
GS
[0.75 0 0 0.75 0 0.25] CT
0.149 GC
2 setlinecap
1 LJ
0.667 LW
N
479.235 887 M
1508.765 887 L
S
GR
GS
[0.75 0 0 0.75 0 0.25] CT
0.149 GC
2 setlinecap
1 LJ
0.667 LW
N
479.235 887 M
479.235 876.705 L
S
GR
GS
[0.75 0 0 0.75 0 0.25] CT
0.149 GC
2 setlinecap
1 LJ
0.667 LW
N
736.618 887 M
736.618 876.705 L
S
GR
GS
[0.75 0 0 0.75 0 0.25] CT
0.149 GC
2 setlinecap
1 LJ
0.667 LW
N
994 887 M
994 876.705 L
S
GR
GS
[0.75 0 0 0.75 0 0.25] CT
0.149 GC
2 setlinecap
1 LJ
0.667 LW
N
1251.382 887 M
1251.382 876.705 L
S
GR
GS
[0.75 0 0 0.75 0 0.25] CT
0.149 GC
2 setlinecap
1 LJ
0.667 LW
N
1508.765 887 M
1508.765 876.705 L
S
GR
GS
[0.75 0 0 0.75 359.42638 672.49998] CT
0.149 GC
/Helvetica 33.333 F
GS
[1 0 0 1 0 0] CT
-17 31 moveto 
1 -1 scale
(-5) t 
GR
GR
GS
[0.75 0 0 0.75 552.46321 672.49998] CT
0.149 GC
/Helvetica 33.333 F
GS
[1 0 0 1 0 0] CT
-11 31 moveto 
1 -1 scale
(0) t 
GR
GR
GS
[0.75 0 0 0.75 745.5 672.49998] CT
0.149 GC
/Helvetica 33.333 F
GS
[1 0 0 1 0 0] CT
-11 31 moveto 
1 -1 scale
(5) t 
GR
GR
GS
[0.75 0 0 0.75 938.53683 672.49998] CT
0.149 GC
/Helvetica 33.333 F
GS
[1 0 0 1 0 0] CT
-21.5 31 moveto 
1 -1 scale
(10) t 
GR
GR
GS
[0.75 0 0 0.75 1131.57358 672.49998] CT
0.149 GC
/Helvetica 33.333 F
GS
[1 0 0 1 0 0] CT
-21.5 31 moveto 
1 -1 scale
(15) t 
GR
GR
GS
[0.75 0 0 0.75 745.50037 702.75002] CT
0.149 GC
/Helvetica 36.667 F
GS
[1 0 0 1 0 0] CT
-22.5 35 moveto 
1 -1 scale
(Xs) t 
GR
GR
GS
[0.75 0 0 0.75 0 0.25] CT
0.149 GC
2 setlinecap
1 LJ
0.667 LW
N
479.235 887 M
479.235 75 L
S
GR
GS
[0.75 0 0 0.75 0 0.25] CT
0.149 GC
2 setlinecap
1 LJ
0.667 LW
N
479.235 848.914 M
489.53 848.914 L
S
GR
GS
[0.75 0 0 0.75 0 0.25] CT
0.149 GC
2 setlinecap
1 LJ
0.667 LW
N
479.235 745.961 M
489.53 745.961 L
S
GR
GS
[0.75 0 0 0.75 0 0.25] CT
0.149 GC
2 setlinecap
1 LJ
0.667 LW
N
479.235 643.008 M
489.53 643.008 L
S
GR
GS
[0.75 0 0 0.75 0 0.25] CT
0.149 GC
2 setlinecap
1 LJ
0.667 LW
N
479.235 540.055 M
489.53 540.055 L
S
GR
GS
[0.75 0 0 0.75 0 0.25] CT
0.149 GC
2 setlinecap
1 LJ
0.667 LW
N
479.235 437.102 M
489.53 437.102 L
S
GR
GS
[0.75 0 0 0.75 0 0.25] CT
0.149 GC
2 setlinecap
1 LJ
0.667 LW
N
479.235 334.149 M
489.53 334.149 L
S
GR
GS
[0.75 0 0 0.75 0 0.25] CT
0.149 GC
2 setlinecap
1 LJ
0.667 LW
N
479.235 231.196 M
489.53 231.196 L
S
GR
GS
[0.75 0 0 0.75 0 0.25] CT
0.149 GC
2 setlinecap
1 LJ
0.667 LW
N
479.235 128.243 M
489.53 128.243 L
S
GR
GS
[0.75 0 0 0.75 352.42639 636.93559] CT
0.149 GC
/Helvetica 33.333 F
GS
[1 0 0 1 0 0] CT
-34 11.5 moveto 
1 -1 scale
(-2) t 
GR
GR
GS
[0.75 0 0 0.75 352.42639 559.72089] CT
0.149 GC
/Helvetica 33.333 F
GS
[1 0 0 1 0 0] CT
-22 11.5 moveto 
1 -1 scale
(0) t 
GR
GR
GS
[0.75 0 0 0.75 352.42639 482.50618] CT
0.149 GC
/Helvetica 33.333 F
GS
[1 0 0 1 0 0] CT
-22 11.5 moveto 
1 -1 scale
(2) t 
GR
GR
GS
[0.75 0 0 0.75 352.42639 405.29143] CT
0.149 GC
/Helvetica 33.333 F
GS
[1 0 0 1 0 0] CT
-22 11.5 moveto 
1 -1 scale
(4) t 
GR
GR
GS
[0.75 0 0 0.75 352.42639 328.07672] CT
0.149 GC
/Helvetica 33.333 F
GS
[1 0 0 1 0 0] CT
-22 11.5 moveto 
1 -1 scale
(6) t 
GR
GR
GS
[0.75 0 0 0.75 352.42639 250.86199] CT
0.149 GC
/Helvetica 33.333 F
GS
[1 0 0 1 0 0] CT
-22 11.5 moveto 
1 -1 scale
(8) t 
GR
GR
GS
[0.75 0 0 0.75 352.42639 173.64726] CT
0.149 GC
/Helvetica 33.333 F
GS
[1 0 0 1 0 0] CT
-43 11.5 moveto 
1 -1 scale
(10) t 
GR
GR
GS
[0.75 0 0 0.75 352.42639 96.43254] CT
0.149 GC
/Helvetica 33.333 F
GS
[1 0 0 1 0 0] CT
-43 11.5 moveto 
1 -1 scale
(12) t 
GR
GR
GS
[0 -0.75 0.75 0 317.17639 360.9997] CT
0.149 GC
/Helvetica 36.667 F
GS
[1 0 0 1 0 0] CT
-21 -9 moveto 
1 -1 scale
(Ys) t 
GR
GR
GS
[0.75 0 0 0.75 899.92941 328.07672] CT
1 0 0 RC
N
0 -26.66 M
-23.088 13.33 L
23.088 13.33 L
cp
f
GR
GS
[0.75 0 0 0.75 899.92941 328.07672] CT
0 0 1 RC
10.0 ML
0.667 LW
N
0 -26.66 M
-23.088 13.33 L
23.088 13.33 L
cp
S
GR
GS
[0.75 0 0 0.75 938.53683 289.46935] CT
1 0 0 RC
N
/f-1996900118{0 -26.66 M
-23.088 13.33 L
23.088 13.33 L
cp}def
f-1996900118
f
GR
GS
[0.75 0 0 0.75 938.53683 289.46935] CT
0 0 1 RC
10.0 ML
0.667 LW
N
0 -26.66 M
-23.088 13.33 L
23.088 13.33 L
cp
S
GR
GS
[0.75 0 0 0.75 745.5 173.64726] CT
1 0 0 RC
N
f-1996900118
f
GR
GS
[0.75 0 0 0.75 745.5 173.64726] CT
0 0 1 RC
10.0 ML
0.667 LW
N
0 -26.66 M
-23.088 13.33 L
23.088 13.33 L
cp
S
GR
GS
[0.75 0 0 0.75 938.53683 482.50618] CT
1 0 0 RC
N
f-1996900118
f
GR
GS
[0.75 0 0 0.75 938.53683 482.50618] CT
0 0 1 RC
10.0 ML
0.667 LW
N
0 -26.66 M
-23.088 13.33 L
23.088 13.33 L
cp
S
GR
GS
[0.75 0 0 0.75 591.07054 212.25464] CT
1 0 0 RC
N
f-1996900118
f
GR
GS
[0.75 0 0 0.75 591.07054 212.25464] CT
0 0 1 RC
10.0 ML
0.667 LW
N
0 -26.66 M
-23.088 13.33 L
23.088 13.33 L
cp
S
GR
GS
[0.75 0 0 0.75 668.28529 328.07672] CT
1 0 0 RC
N
f-1996900118
f
GR
GS
[0.75 0 0 0.75 668.28529 328.07672] CT
0 0 1 RC
10.0 ML
0.667 LW
N
0 -26.66 M
-23.088 13.33 L
23.088 13.33 L
cp
S
GR
GS
[0.75 0 0 0.75 591.07054 328.07672] CT
1 0 0 RC
N
f-1996900118
f
GR
GS
[0.75 0 0 0.75 591.07054 328.07672] CT
0 0 1 RC
10.0 ML
0.667 LW
N
0 -26.66 M
-23.088 13.33 L
23.088 13.33 L
cp
S
GR
GS
[0.75 0 0 0.75 861.32208 366.68407] CT
1 0 0 RC
N
f-1996900118
f
GR
GS
[0.75 0 0 0.75 861.32208 366.68407] CT
0 0 1 RC
10.0 ML
0.667 LW
N
0 -26.66 M
-23.088 13.33 L
23.088 13.33 L
cp
S
GR
GS
[0.75 0 0 0.75 639.31329 475.96245] CT
0 1 1 RC
10.0 ML
0.667 LW
N
0 -4 M
0 4 L
-4 0 M
4 0 L
-2.828 -2.828 M
2.828 2.828 L
-2.828 2.828 M
2.828 -2.828 L
S
GR
GS
[0.75 0 0 0.75 0 0.25] CT
0 1 1 RC
1 LJ
0.667 LW
N
856.238 631.247 M
856.491 631.136 L
856.32 631.354 L
S
GR
GS
[0.75 0 0 0.75 0 0.25] CT
0 1 1 RC
1 LJ
0.667 LW
N
852.418 634.283 M
856.491 631.136 L
S
GR
GS
[0.75 0 0 0.75 0 0.25] CT
0 1 1 RC
1 LJ
6.667 LW
N
795.99 634.511 M
797.86 658.552 L
803.158 681.067 L
811.551 700.643 L
822.512 716.049 L
835.352 726.318 L
849.264 730.804 L
863.375 729.225 L
876.797 721.68 L
888.687 708.644 L
898.299 690.936 L
905.027 669.668 L
908.45 646.176 L
908.352 621.938 L
904.739 598.475 L
897.839 577.262 L
888.085 559.632 L
876.09 546.692 L
862.608 539.256 L
848.485 537.792 L
834.609 542.389 L
821.852 552.762 L
811.016 568.256 L
802.781 587.899 L
797.665 610.456 L
795.99 634.511 L
S
GR
GS
[0.75 0 0 0.75 633.38118 501.05792] CT
0 0 1 RC
10.0 ML
0.667 LW
N
0 -4 M
0 4 L
-4 0 M
4 0 L
-2.828 -2.828 M
2.828 2.828 L
-2.828 2.828 M
2.828 -2.828 L
S
GR
GS
[0.75 0 0 0.75 0 0.25] CT
0 0 1 RC
1 LJ
0.667 LW
N
848.328 664.708 M
848.582 664.597 L
848.41 664.814 L
S
GR
GS
[0.75 0 0 0.75 0 0.25] CT
0 0 1 RC
1 LJ
0.667 LW
N
844.508 667.744 M
848.582 664.597 L
S
GR
GS
[0.75 0 0 0.75 0 0.25] CT
0 0 1 RC
1 LJ
6.667 LW
N
826.748 667.745 M
827.307 672.315 L
828.946 676.597 L
831.563 680.323 L
834.993 683.259 L
839.021 685.22 L
843.394 686.083 L
847.837 685.793 L
852.071 684.37 L
855.83 681.901 L
858.877 678.544 L
861.021 674.507 L
862.128 670.046 L
862.128 665.44 L
861.021 660.979 L
858.876 656.942 L
855.828 653.585 L
852.069 651.117 L
847.835 649.694 L
843.392 649.405 L
839.019 650.268 L
834.991 652.23 L
831.561 655.166 L
828.945 658.893 L
827.306 663.175 L
826.748 667.745 L
S
GR
GS
[0.75 0 0 0.75 563.88533 501.05669] CT
0 0 1 RC
10.0 ML
0.667 LW
N
0 -4 M
0 4 L
-4 0 M
4 0 L
-2.828 -2.828 M
2.828 2.828 L
-2.828 2.828 M
2.828 -2.828 L
S
GR
GS
[0.75 0 0 0.75 0 0.25] CT
0 0 1 RC
1 LJ
0.667 LW
N
755.667 664.706 M
755.921 664.595 L
755.749 664.813 L
S
GR
GS
[0.75 0 0 0.75 0 0.25] CT
0 0 1 RC
1 LJ
0.667 LW
N
751.847 667.742 M
755.921 664.595 L
S
GR
GS
[0.75 0 0 0.75 0 0.25] CT
0 0 1 RC
1 LJ
6.667 LW
N
734.087 667.743 M
734.645 672.313 L
736.284 676.595 L
738.901 680.322 L
742.332 683.257 L
746.36 685.218 L
750.733 686.081 L
755.176 685.792 L
759.41 684.368 L
763.169 681.9 L
766.216 678.542 L
768.36 674.506 L
769.467 670.044 L
769.467 665.438 L
768.359 660.977 L
766.215 656.941 L
763.167 653.583 L
759.408 651.115 L
755.174 649.692 L
750.731 649.403 L
746.358 650.267 L
742.33 652.228 L
738.9 655.164 L
736.283 658.891 L
734.645 663.174 L
734.087 667.743 L
S
GR
GS
[0.75 0 0 0.75 0 0.25] CT
1 GC
N
/f-79800792{1498 235 M
1498 86 L
1279 86 L
1279 235 L
cp}def
f-79800792
f
GR
GS
[0.75 0 0 0.75 994.5 79.75] CT
/Helvetica-Bold 30 F
GS
[1 0 0 1 0 0] CT
0 10 moveto 
1 -1 scale
(LandMark) t 
GR
GR
GS
[0.75 0 0 0.75 977.25 79.75] CT
1 0 0 RC
N
/f-1214359511{0 -19.995 M
-17.316 9.998 L
17.316 9.998 L
cp}def
f-1214359511
f
GR
GS
[0.75 0 0 0.75 977.25 79.75] CT
0 0 1 RC
10.0 ML
0.667 LW
N
0 -19.995 M
-17.316 9.998 L
17.316 9.998 L
cp
S
GR
GS
[0.75 0 0 0.75 994.5 122.5] CT
/Helvetica-Bold 30 F
GS
[1 0 0 1 0 0] CT
0 0 moveto 
1 -1 scale
(b) t 
GR
GR
GS
[0.75 0 0 0.75 1011 111.25] CT
/Helvetica-Bold 24 F
GS
[1 0 0 1 0 0] CT
0 0 moveto 
1 -1 scale
(-) t 
GR
GR
GS
[0.75 0 0 0.75 1018.5 122.5] CT
/Helvetica-Bold 30 F
GS
[1 0 0 1 0 0] CT
0 0 moveto 
1 -1 scale
([X) t 
GR
GR
GS
[0.75 0 0 0.75 1046.25 133.75] CT
/Helvetica-Bold 24 F
GS
[1 0 0 1 0 0] CT
0 0 moveto 
1 -1 scale
(k) t 
GR
GR
GS
[0.75 0 0 0.75 1058.25 122.5] CT
/Helvetica-Bold 30 F
GS
[1 0 0 1 0 0] CT
0 0 moveto 
1 -1 scale
(]) t 
GR
GR
GS
[0.75 0 0 0.75 0 0.25] CT
0 1 1 RC
1 LJ
6.667 LW
N
1283 154 M
1323 154 L
S
GR
GS
[0.75 0 0 0.75 994.5 160] CT
/Helvetica-Bold 30 F
GS
[1 0 0 1 0 0] CT
0 0 moveto 
1 -1 scale
(b[X) t 
GR
GR
GS
[0.75 0 0 0.75 1038.75 171.25] CT
/Helvetica-Bold 24 F
GS
[1 0 0 1 0 0] CT
0 0 moveto 
1 -1 scale
(k) t 
GR
GR
GS
[0.75 0 0 0.75 1050.75 160] CT
/Helvetica-Bold 30 F
GS
[1 0 0 1 0 0] CT
0 0 moveto 
1 -1 scale
(]) t 
GR
GR
GS
[0.75 0 0 0.75 0 0.25] CT
0 0 1 RC
1 LJ
6.667 LW
N
1283 208.5 M
1323 208.5 L
S
GR
GS
[0.75 0 0 0.75 0 0.25] CT
0.149 GC
10.0 ML
0.667 LW
N
1279 235 M
1279 86 L
1498 86 L
1498 235 L
cp
S
GR
%%Trailer
%%Pages: 1
%%EOF
