%!PS-Adobe-3.0 EPSF-3.0
%%Creator: (MATLAB, The Mathworks, Inc. Version 9.8.0.1380330 \(R2020a\) Update 2. Operating System: Linux)
%%Title: (/home/ohads/ANPL/papers/research/2021 RAL/Figures/TestCase_2/fig_files/Robots_estimation_k_10.epsc)
%%CreationDate: 2021-02-21T16:09:33
%%Pages: (atend)
%%BoundingBox:   290    18  1145   692
%%LanguageLevel: 3
%%EndComments
%%BeginProlog
%%BeginResource: procset (Apache XML Graphics Std ProcSet) 1.2 0
%%Version: 1.2 0
%%Copyright: (Copyright 2001-2003,2010 The Apache Software Foundation. License terms: http://www.apache.org/licenses/LICENSE-2.0)
/bd{bind def}bind def
/ld{load def}bd
/GR/grestore ld
/GS/gsave ld
/RM/rmoveto ld
/C/curveto ld
/t/show ld
/L/lineto ld
/ML/setmiterlimit ld
/CT/concat ld
/f/fill ld
/N/newpath ld
/S/stroke ld
/CC/setcmykcolor ld
/A/ashow ld
/cp/closepath ld
/RC/setrgbcolor ld
/LJ/setlinejoin ld
/GC/setgray ld
/LW/setlinewidth ld
/M/moveto ld
/re {4 2 roll M
1 index 0 rlineto
0 exch rlineto
neg 0 rlineto
cp } bd
/_ctm matrix def
/_tm matrix def
/BT { _ctm currentmatrix pop matrix _tm copy pop 0 0 moveto } bd
/ET { _ctm setmatrix } bd
/iTm { _ctm setmatrix _tm concat } bd
/Tm { _tm astore pop iTm 0 0 moveto } bd
/ux 0.0 def
/uy 0.0 def
/F {
  /Tp exch def
  /Tf exch def
  Tf findfont Tp scalefont setfont
  /cf Tf def  /cs Tp def
} bd
/ULS {currentpoint /uy exch def /ux exch def} bd
/ULE {
  /Tcx currentpoint pop def
  gsave
  newpath
  cf findfont cs scalefont dup
  /FontMatrix get 0 get /Ts exch def /FontInfo get dup
  /UnderlinePosition get Ts mul /To exch def
  /UnderlineThickness get Ts mul /Tt exch def
  ux uy To add moveto  Tcx uy To add lineto
  Tt setlinewidth stroke
  grestore
} bd
/OLE {
  /Tcx currentpoint pop def
  gsave
  newpath
  cf findfont cs scalefont dup
  /FontMatrix get 0 get /Ts exch def /FontInfo get dup
  /UnderlinePosition get Ts mul /To exch def
  /UnderlineThickness get Ts mul /Tt exch def
  ux uy To add cs add moveto Tcx uy To add cs add lineto
  Tt setlinewidth stroke
  grestore
} bd
/SOE {
  /Tcx currentpoint pop def
  gsave
  newpath
  cf findfont cs scalefont dup
  /FontMatrix get 0 get /Ts exch def /FontInfo get dup
  /UnderlinePosition get Ts mul /To exch def
  /UnderlineThickness get Ts mul /Tt exch def
  ux uy To add cs 10 mul 26 idiv add moveto Tcx uy To add cs 10 mul 26 idiv add lineto
  Tt setlinewidth stroke
  grestore
} bd
/QT {
/Y22 exch store
/X22 exch store
/Y21 exch store
/X21 exch store
currentpoint
/Y21 load 2 mul add 3 div exch
/X21 load 2 mul add 3 div exch
/X21 load 2 mul /X22 load add 3 div
/Y21 load 2 mul /Y22 load add 3 div
/X22 load /Y22 load curveto
} bd
/SSPD {
dup length /d exch dict def
{
/v exch def
/k exch def
currentpagedevice k known {
/cpdv currentpagedevice k get def
v cpdv ne {
/upd false def
/nullv v type /nulltype eq def
/nullcpdv cpdv type /nulltype eq def
nullv nullcpdv or
{
/upd true def
} {
/sametype v type cpdv type eq def
sametype {
v type /arraytype eq {
/vlen v length def
/cpdvlen cpdv length def
vlen cpdvlen eq {
0 1 vlen 1 sub {
/i exch def
/obj v i get def
/cpdobj cpdv i get def
obj cpdobj ne {
/upd true def
exit
} if
} for
} {
/upd true def
} ifelse
} {
v type /dicttype eq {
v {
/dv exch def
/dk exch def
/cpddv cpdv dk get def
dv cpddv ne {
/upd true def
exit
} if
} forall
} {
/upd true def
} ifelse
} ifelse
} if
} ifelse
upd true eq {
d k v put
} if
} if
} if
} forall
d length 0 gt {
d setpagedevice
} if
} bd
/RE { % /NewFontName [NewEncodingArray] /FontName RE -
  findfont dup length dict begin
  {
    1 index /FID ne
    {def} {pop pop} ifelse
  } forall
  /Encoding exch def
  /FontName 1 index def
  currentdict definefont pop
  end
} bind def
%%EndResource
%%BeginResource: procset (Apache XML Graphics EPS ProcSet) 1.0 0
%%Version: 1.0 0
%%Copyright: (Copyright 2002-2003 The Apache Software Foundation. License terms: http://www.apache.org/licenses/LICENSE-2.0)
/BeginEPSF { %def
/b4_Inc_state save def         % Save state for cleanup
/dict_count countdictstack def % Count objects on dict stack
/op_count count 1 sub def      % Count objects on operand stack
userdict begin                 % Push userdict on dict stack
/showpage { } def              % Redefine showpage, { } = null proc
0 setgray 0 setlinecap         % Prepare graphics state
1 setlinewidth 0 setlinejoin
10 setmiterlimit [ ] 0 setdash newpath
/languagelevel where           % If level not equal to 1 then
{pop languagelevel             % set strokeadjust and
1 ne                           % overprint to their defaults.
{false setstrokeadjust false setoverprint
} if
} if
} bd
/EndEPSF { %def
count op_count sub {pop} repeat            % Clean up stacks
countdictstack dict_count sub {end} repeat
b4_Inc_state restore
} bd
%%EndResource
%FOPBeginFontDict
%%IncludeResource: font Courier-Oblique
%%IncludeResource: font Courier-BoldOblique
%%IncludeResource: font Courier-Bold
%%IncludeResource: font ZapfDingbats
%%IncludeResource: font Symbol
%%IncludeResource: font Helvetica
%%IncludeResource: font Helvetica-Oblique
%%IncludeResource: font Helvetica-Bold
%%IncludeResource: font Helvetica-BoldOblique
%%IncludeResource: font Times-Roman
%%IncludeResource: font Times-Italic
%%IncludeResource: font Times-Bold
%%IncludeResource: font Times-BoldItalic
%%IncludeResource: font Courier
%FOPEndFontDict
%%BeginResource: encoding WinAnsiEncoding
/WinAnsiEncoding [
/.notdef /.notdef /.notdef /.notdef /.notdef
/.notdef /.notdef /.notdef /.notdef /.notdef
/.notdef /.notdef /.notdef /.notdef /.notdef
/.notdef /.notdef /.notdef /.notdef /.notdef
/.notdef /.notdef /.notdef /.notdef /.notdef
/.notdef /.notdef /.notdef /.notdef /.notdef
/.notdef /.notdef /space /exclam /quotedbl
/numbersign /dollar /percent /ampersand /quotesingle
/parenleft /parenright /asterisk /plus /comma
/hyphen /period /slash /zero /one
/two /three /four /five /six
/seven /eight /nine /colon /semicolon
/less /equal /greater /question /at
/A /B /C /D /E
/F /G /H /I /J
/K /L /M /N /O
/P /Q /R /S /T
/U /V /W /X /Y
/Z /bracketleft /backslash /bracketright /asciicircum
/underscore /quoteleft /a /b /c
/d /e /f /g /h
/i /j /k /l /m
/n /o /p /q /r
/s /t /u /v /w
/x /y /z /braceleft /bar
/braceright /asciitilde /bullet /Euro /bullet
/quotesinglbase /florin /quotedblbase /ellipsis /dagger
/daggerdbl /circumflex /perthousand /Scaron /guilsinglleft
/OE /bullet /Zcaron /bullet /bullet
/quoteleft /quoteright /quotedblleft /quotedblright /bullet
/endash /emdash /asciitilde /trademark /scaron
/guilsinglright /oe /bullet /zcaron /Ydieresis
/space /exclamdown /cent /sterling /currency
/yen /brokenbar /section /dieresis /copyright
/ordfeminine /guillemotleft /logicalnot /sfthyphen /registered
/macron /degree /plusminus /twosuperior /threesuperior
/acute /mu /paragraph /middot /cedilla
/onesuperior /ordmasculine /guillemotright /onequarter /onehalf
/threequarters /questiondown /Agrave /Aacute /Acircumflex
/Atilde /Adieresis /Aring /AE /Ccedilla
/Egrave /Eacute /Ecircumflex /Edieresis /Igrave
/Iacute /Icircumflex /Idieresis /Eth /Ntilde
/Ograve /Oacute /Ocircumflex /Otilde /Odieresis
/multiply /Oslash /Ugrave /Uacute /Ucircumflex
/Udieresis /Yacute /Thorn /germandbls /agrave
/aacute /acircumflex /atilde /adieresis /aring
/ae /ccedilla /egrave /eacute /ecircumflex
/edieresis /igrave /iacute /icircumflex /idieresis
/eth /ntilde /ograve /oacute /ocircumflex
/otilde /odieresis /divide /oslash /ugrave
/uacute /ucircumflex /udieresis /yacute /thorn
/ydieresis
] def
%%EndResource
%FOPBeginFontReencode
/Courier-Oblique findfont
dup length dict begin
  {1 index /FID ne {def} {pop pop} ifelse} forall
  /Encoding WinAnsiEncoding def
  currentdict
end
/Courier-Oblique exch definefont pop
/Courier-BoldOblique findfont
dup length dict begin
  {1 index /FID ne {def} {pop pop} ifelse} forall
  /Encoding WinAnsiEncoding def
  currentdict
end
/Courier-BoldOblique exch definefont pop
/Courier-Bold findfont
dup length dict begin
  {1 index /FID ne {def} {pop pop} ifelse} forall
  /Encoding WinAnsiEncoding def
  currentdict
end
/Courier-Bold exch definefont pop
/Helvetica findfont
dup length dict begin
  {1 index /FID ne {def} {pop pop} ifelse} forall
  /Encoding WinAnsiEncoding def
  currentdict
end
/Helvetica exch definefont pop
/Helvetica-Oblique findfont
dup length dict begin
  {1 index /FID ne {def} {pop pop} ifelse} forall
  /Encoding WinAnsiEncoding def
  currentdict
end
/Helvetica-Oblique exch definefont pop
/Helvetica-Bold findfont
dup length dict begin
  {1 index /FID ne {def} {pop pop} ifelse} forall
  /Encoding WinAnsiEncoding def
  currentdict
end
/Helvetica-Bold exch definefont pop
/Helvetica-BoldOblique findfont
dup length dict begin
  {1 index /FID ne {def} {pop pop} ifelse} forall
  /Encoding WinAnsiEncoding def
  currentdict
end
/Helvetica-BoldOblique exch definefont pop
/Times-Roman findfont
dup length dict begin
  {1 index /FID ne {def} {pop pop} ifelse} forall
  /Encoding WinAnsiEncoding def
  currentdict
end
/Times-Roman exch definefont pop
/Times-Italic findfont
dup length dict begin
  {1 index /FID ne {def} {pop pop} ifelse} forall
  /Encoding WinAnsiEncoding def
  currentdict
end
/Times-Italic exch definefont pop
/Times-Bold findfont
dup length dict begin
  {1 index /FID ne {def} {pop pop} ifelse} forall
  /Encoding WinAnsiEncoding def
  currentdict
end
/Times-Bold exch definefont pop
/Times-BoldItalic findfont
dup length dict begin
  {1 index /FID ne {def} {pop pop} ifelse} forall
  /Encoding WinAnsiEncoding def
  currentdict
end
/Times-BoldItalic exch definefont pop
/Courier findfont
dup length dict begin
  {1 index /FID ne {def} {pop pop} ifelse} forall
  /Encoding WinAnsiEncoding def
  currentdict
end
/Courier exch definefont pop
%FOPEndFontReencode
%%EndProlog
%%Page: 1 1
%%PageBoundingBox: 0 0 1440 748
%%BeginPageSetup
[1 0 0 -1 0 748] CT
%%EndPageSetup
GS
[0.75 0 0 0.75 0 0.25] CT
N
0 0 M
1920 0 L
1920 997 L
0 997 L
0 0 L
cp
clip
1 GC
N
0 0 1920 997 re
f
GR
GS
[0.75 0 0 0.75 0 0.25] CT
1 GC
N
0 0 1920 997 re
f
GR
GS
[0.75 0 0 0.75 0 0.25] CT
1 GC
N
479.235 887 M
1508.765 887 L
1508.765 75 L
479.235 75 L
cp
f
GR
GS
[0.75 0 0 0.75 0 0.25] CT
0.149 GC
2 setlinecap
1 LJ
0.667 LW
N
479.235 887 M
1508.765 887 L
S
GR
GS
[0.75 0 0 0.75 0 0.25] CT
0.149 GC
2 setlinecap
1 LJ
0.667 LW
N
479.235 887 M
479.235 876.705 L
S
GR
GS
[0.75 0 0 0.75 0 0.25] CT
0.149 GC
2 setlinecap
1 LJ
0.667 LW
N
736.618 887 M
736.618 876.705 L
S
GR
GS
[0.75 0 0 0.75 0 0.25] CT
0.149 GC
2 setlinecap
1 LJ
0.667 LW
N
994 887 M
994 876.705 L
S
GR
GS
[0.75 0 0 0.75 0 0.25] CT
0.149 GC
2 setlinecap
1 LJ
0.667 LW
N
1251.382 887 M
1251.382 876.705 L
S
GR
GS
[0.75 0 0 0.75 0 0.25] CT
0.149 GC
2 setlinecap
1 LJ
0.667 LW
N
1508.765 887 M
1508.765 876.705 L
S
GR
GS
[0.75 0 0 0.75 359.42638 672.49998] CT
0.149 GC
/Helvetica 33.333 F
GS
[1 0 0 1 0 0] CT
-17 31 moveto 
1 -1 scale
(-5) t 
GR
GR
GS
[0.75 0 0 0.75 552.46321 672.49998] CT
0.149 GC
/Helvetica 33.333 F
GS
[1 0 0 1 0 0] CT
-11 31 moveto 
1 -1 scale
(0) t 
GR
GR
GS
[0.75 0 0 0.75 745.5 672.49998] CT
0.149 GC
/Helvetica 33.333 F
GS
[1 0 0 1 0 0] CT
-11 31 moveto 
1 -1 scale
(5) t 
GR
GR
GS
[0.75 0 0 0.75 938.53683 672.49998] CT
0.149 GC
/Helvetica 33.333 F
GS
[1 0 0 1 0 0] CT
-21.5 31 moveto 
1 -1 scale
(10) t 
GR
GR
GS
[0.75 0 0 0.75 1131.57358 672.49998] CT
0.149 GC
/Helvetica 33.333 F
GS
[1 0 0 1 0 0] CT
-21.5 31 moveto 
1 -1 scale
(15) t 
GR
GR
GS
[0.75 0 0 0.75 745.50037 702.75002] CT
0.149 GC
/Helvetica 36.667 F
GS
[1 0 0 1 0 0] CT
-22.5 35 moveto 
1 -1 scale
(Xs) t 
GR
GR
GS
[0.75 0 0 0.75 0 0.25] CT
0.149 GC
2 setlinecap
1 LJ
0.667 LW
N
479.235 887 M
479.235 75 L
S
GR
GS
[0.75 0 0 0.75 0 0.25] CT
0.149 GC
2 setlinecap
1 LJ
0.667 LW
N
479.235 789.859 M
489.53 789.859 L
S
GR
GS
[0.75 0 0 0.75 0 0.25] CT
0.149 GC
2 setlinecap
1 LJ
0.667 LW
N
479.235 686.906 M
489.53 686.906 L
S
GR
GS
[0.75 0 0 0.75 0 0.25] CT
0.149 GC
2 setlinecap
1 LJ
0.667 LW
N
479.235 583.953 M
489.53 583.953 L
S
GR
GS
[0.75 0 0 0.75 0 0.25] CT
0.149 GC
2 setlinecap
1 LJ
0.667 LW
N
479.235 481 M
489.53 481 L
S
GR
GS
[0.75 0 0 0.75 0 0.25] CT
0.149 GC
2 setlinecap
1 LJ
0.667 LW
N
479.235 378.047 M
489.53 378.047 L
S
GR
GS
[0.75 0 0 0.75 0 0.25] CT
0.149 GC
2 setlinecap
1 LJ
0.667 LW
N
479.235 275.094 M
489.53 275.094 L
S
GR
GS
[0.75 0 0 0.75 0 0.25] CT
0.149 GC
2 setlinecap
1 LJ
0.667 LW
N
479.235 172.141 M
489.53 172.141 L
S
GR
GS
[0.75 0 0 0.75 352.42639 592.64417] CT
0.149 GC
/Helvetica 33.333 F
GS
[1 0 0 1 0 0] CT
-22 11.5 moveto 
1 -1 scale
(0) t 
GR
GR
GS
[0.75 0 0 0.75 352.42639 515.42946] CT
0.149 GC
/Helvetica 33.333 F
GS
[1 0 0 1 0 0] CT
-22 11.5 moveto 
1 -1 scale
(2) t 
GR
GR
GS
[0.75 0 0 0.75 352.42639 438.21471] CT
0.149 GC
/Helvetica 33.333 F
GS
[1 0 0 1 0 0] CT
-22 11.5 moveto 
1 -1 scale
(4) t 
GR
GR
GS
[0.75 0 0 0.75 352.42639 361] CT
0.149 GC
/Helvetica 33.333 F
GS
[1 0 0 1 0 0] CT
-22 11.5 moveto 
1 -1 scale
(6) t 
GR
GR
GS
[0.75 0 0 0.75 352.42639 283.78527] CT
0.149 GC
/Helvetica 33.333 F
GS
[1 0 0 1 0 0] CT
-22 11.5 moveto 
1 -1 scale
(8) t 
GR
GR
GS
[0.75 0 0 0.75 352.42639 206.57054] CT
0.149 GC
/Helvetica 33.333 F
GS
[1 0 0 1 0 0] CT
-43 11.5 moveto 
1 -1 scale
(10) t 
GR
GR
GS
[0.75 0 0 0.75 352.42639 129.35582] CT
0.149 GC
/Helvetica 33.333 F
GS
[1 0 0 1 0 0] CT
-43 11.5 moveto 
1 -1 scale
(12) t 
GR
GR
GS
[0 -0.75 0.75 0 317.17639 360.99973] CT
0.149 GC
/Helvetica 36.667 F
GS
[1 0 0 1 0 0] CT
-21 -9 moveto 
1 -1 scale
(Ys) t 
GR
GR
GS
[0.75 0 0 0.75 899.92941 361] CT
1 0 0 RC
N
0 -26.66 M
-23.088 13.33 L
23.088 13.33 L
cp
f
GR
GS
[0.75 0 0 0.75 899.92941 361] CT
0 0 1 RC
10.0 ML
0.667 LW
N
0 -26.66 M
-23.088 13.33 L
23.088 13.33 L
cp
S
GR
GS
[0.75 0 0 0.75 938.53683 322.39265] CT
1 0 0 RC
N
/f-1996900118{0 -26.66 M
-23.088 13.33 L
23.088 13.33 L
cp}def
f-1996900118
f
GR
GS
[0.75 0 0 0.75 938.53683 322.39265] CT
0 0 1 RC
10.0 ML
0.667 LW
N
0 -26.66 M
-23.088 13.33 L
23.088 13.33 L
cp
S
GR
GS
[0.75 0 0 0.75 745.5 206.57054] CT
1 0 0 RC
N
f-1996900118
f
GR
GS
[0.75 0 0 0.75 745.5 206.57054] CT
0 0 1 RC
10.0 ML
0.667 LW
N
0 -26.66 M
-23.088 13.33 L
23.088 13.33 L
cp
S
GR
GS
[0.75 0 0 0.75 938.53683 515.42946] CT
1 0 0 RC
N
f-1996900118
f
GR
GS
[0.75 0 0 0.75 938.53683 515.42946] CT
0 0 1 RC
10.0 ML
0.667 LW
N
0 -26.66 M
-23.088 13.33 L
23.088 13.33 L
cp
S
GR
GS
[0.75 0 0 0.75 591.07054 245.17792] CT
1 0 0 RC
N
f-1996900118
f
GR
GS
[0.75 0 0 0.75 591.07054 245.17792] CT
0 0 1 RC
10.0 ML
0.667 LW
N
0 -26.66 M
-23.088 13.33 L
23.088 13.33 L
cp
S
GR
GS
[0.75 0 0 0.75 668.28529 361] CT
1 0 0 RC
N
f-1996900118
f
GR
GS
[0.75 0 0 0.75 668.28529 361] CT
0 0 1 RC
10.0 ML
0.667 LW
N
0 -26.66 M
-23.088 13.33 L
23.088 13.33 L
cp
S
GR
GS
[0.75 0 0 0.75 591.07054 361] CT
1 0 0 RC
N
f-1996900118
f
GR
GS
[0.75 0 0 0.75 591.07054 361] CT
0 0 1 RC
10.0 ML
0.667 LW
N
0 -26.66 M
-23.088 13.33 L
23.088 13.33 L
cp
S
GR
GS
[0.75 0 0 0.75 861.32208 399.60738] CT
1 0 0 RC
N
f-1996900118
f
GR
GS
[0.75 0 0 0.75 861.32208 399.60738] CT
0 0 1 RC
10.0 ML
0.667 LW
N
0 -26.66 M
-23.088 13.33 L
23.088 13.33 L
cp
S
GR
GS
[0.75 0 0 0.75 923.06818 404.74248] CT
0 1 1 RC
10.0 ML
0.667 LW
N
0 -4 M
0 4 L
-4 0 M
4 0 L
-2.828 -2.828 M
2.828 2.828 L
-2.828 2.828 M
2.828 -2.828 L
S
GR
GS
[0.75 0 0 0.75 0 0.25] CT
0 1 1 RC
1 LJ
0.667 LW
N
1235.371 537.921 M
1235.707 537.91 L
1235.416 538.078 L
S
GR
GS
[0.75 0 0 0.75 0 0.25] CT
0 1 1 RC
1 LJ
0.667 LW
N
1230.758 539.323 M
1235.707 537.91 L
S
GR
GS
[0.75 0 0 0.75 0 0.25] CT
0 1 1 RC
1 LJ
6.667 LW
N
1267.77 518.233 M
1261.363 509.691 L
1253.032 503.011 L
1243.302 498.612 L
1232.783 496.772 L
1222.137 497.605 L
1212.033 501.059 L
1203.106 506.918 L
1195.915 514.813 L
1190.915 524.248 L
1188.417 534.63 L
1188.58 545.307 L
1191.393 555.608 L
1196.68 564.886 L
1204.108 572.558 L
1213.21 578.141 L
1223.415 581.285 L
1234.081 581.793 L
1244.539 579.632 L
1254.13 574.939 L
1262.253 568.007 L
1268.397 559.274 L
1272.176 549.286 L
1273.352 538.673 L
1271.852 528.101 L
1267.77 518.233 L
S
GR
GS
[0.75 0 0 0.75 884.46533 443.34532] CT
0 1 1 RC
10.0 ML
0.667 LW
N
0 -4 M
0 4 L
-4 0 M
4 0 L
-2.828 -2.828 M
2.828 2.828 L
-2.828 2.828 M
2.828 -2.828 L
S
GR
GS
[0.75 0 0 0.75 0 0.25] CT
0 1 1 RC
1 LJ
0.667 LW
N
1183.9 589.391 M
1184.237 589.38 L
1183.945 589.548 L
S
GR
GS
[0.75 0 0 0.75 0 0.25] CT
0 1 1 RC
1 LJ
0.667 LW
N
1179.287 590.794 M
1184.237 589.38 L
S
GR
GS
[0.75 0 0 0.75 0 0.25] CT
0 1 1 RC
1 LJ
6.667 LW
N
1216.299 569.702 M
1209.891 561.16 L
1201.56 554.48 L
1191.829 550.082 L
1181.311 548.242 L
1170.665 549.076 L
1160.561 552.531 L
1151.634 558.39 L
1144.444 566.285 L
1139.443 575.72 L
1136.947 586.102 L
1137.11 596.779 L
1139.924 607.08 L
1145.211 616.358 L
1152.639 624.029 L
1161.741 629.612 L
1171.946 632.756 L
1182.613 633.263 L
1193.07 631.102 L
1202.661 626.408 L
1210.784 619.476 L
1216.927 610.742 L
1220.706 600.755 L
1221.882 590.142 L
1220.381 579.569 L
1216.299 569.702 L
S
GR
GS
[0.75 0 0 0.75 923.06689 404.74239] CT
0 1 1 RC
10.0 ML
0.667 LW
N
0 -4 M
0 4 L
-4 0 M
4 0 L
-2.828 -2.828 M
2.828 2.828 L
-2.828 2.828 M
2.828 -2.828 L
S
GR
GS
[0.75 0 0 0.75 0 0.25] CT
0 1 1 RC
1 LJ
0.667 LW
N
1235.369 537.921 M
1235.705 537.909 L
1235.414 538.078 L
S
GR
GS
[0.75 0 0 0.75 0 0.25] CT
0 1 1 RC
1 LJ
0.667 LW
N
1230.756 539.323 M
1235.705 537.909 L
S
GR
GS
[0.75 0 0 0.75 0 0.25] CT
0 1 1 RC
1 LJ
6.667 LW
N
1251.896 576.307 M
1242.034 580.403 L
1231.464 581.917 L
1220.849 580.755 L
1210.857 576.99 L
1202.115 570.857 L
1195.172 562.744 L
1190.465 553.159 L
1188.291 542.704 L
1188.784 532.037 L
1191.914 521.828 L
1197.485 512.719 L
1205.147 505.28 L
1214.418 499.981 L
1224.715 497.154 L
1235.392 496.976 L
1245.777 499.46 L
1255.219 504.448 L
1263.124 511.627 L
1268.994 520.547 L
1272.462 530.646 L
1273.31 541.291 L
1271.484 551.812 L
1267.098 561.548 L
1260.429 569.888 L
1251.896 576.307 L
S
GR
GS
[0.75 0 0 0.75 923.05911 404.74248] CT
0 1 1 RC
10.0 ML
0.667 LW
N
0 -4 M
0 4 L
-4 0 M
4 0 L
-2.828 -2.828 M
2.828 2.828 L
-2.828 2.828 M
2.828 -2.828 L
S
GR
GS
[0.75 0 0 0.75 0 0.25] CT
0 1 1 RC
1 LJ
0.667 LW
N
1235.359 537.921 M
1235.695 537.91 L
1235.404 538.078 L
S
GR
GS
[0.75 0 0 0.75 0 0.25] CT
0 1 1 RC
1 LJ
0.667 LW
N
1230.745 539.323 M
1235.695 537.91 L
S
GR
GS
[0.75 0 0 0.75 0 0.25] CT
0 1 1 RC
1 LJ
6.667 LW
N
1251.834 576.337 M
1241.966 580.419 L
1231.394 581.918 L
1220.78 580.741 L
1210.793 576.962 L
1202.06 570.817 L
1195.129 562.694 L
1190.436 553.102 L
1188.276 542.645 L
1188.784 531.978 L
1191.929 521.774 L
1197.513 512.672 L
1205.185 505.244 L
1214.463 499.958 L
1224.764 497.146 L
1235.441 496.983 L
1245.823 499.481 L
1255.258 504.482 L
1263.152 511.673 L
1269.01 520.601 L
1272.464 530.705 L
1273.297 541.351 L
1271.456 551.869 L
1267.057 561.6 L
1260.376 569.93 L
1251.834 576.337 L
S
GR
GS
[0.75 0 0 0.75 960.65469 367.14612] CT
0 1 1 RC
10.0 ML
0.667 LW
N
0 -4 M
0 4 L
-4 0 M
4 0 L
-2.828 -2.828 M
2.828 2.828 L
-2.828 2.828 M
2.828 -2.828 L
S
GR
GS
[0.75 0 0 0.75 0 0.25] CT
0 1 1 RC
1 LJ
0.667 LW
N
1285.486 487.792 M
1285.823 487.781 L
1285.531 487.949 L
S
GR
GS
[0.75 0 0 0.75 0 0.25] CT
0 1 1 RC
1 LJ
0.667 LW
N
1280.873 489.195 M
1285.823 487.781 L
S
GR
GS
[0.75 0 0 0.75 0 0.25] CT
0 1 1 RC
1 LJ
6.667 LW
N
1301.052 526.712 M
1291.087 530.552 L
1280.481 531.793 L
1269.9 530.357 L
1260.008 526.335 L
1251.427 519.979 L
1244.697 511.689 L
1240.239 501.986 L
1238.335 491.479 L
1239.103 480.828 L
1242.496 470.703 L
1248.3 461.74 L
1256.151 454.502 L
1265.556 449.444 L
1275.922 446.884 L
1286.6 446.982 L
1296.918 449.732 L
1306.228 454.963 L
1313.945 462.344 L
1319.583 471.412 L
1322.79 481.597 L
1323.362 492.26 L
1321.265 502.731 L
1316.63 512.351 L
1309.748 520.515 L
1301.052 526.712 L
S
GR
GS
[0.75 0 0 0.75 884.47897 443.32312] CT
0 1 1 RC
10.0 ML
0.667 LW
N
0 -4 M
0 4 L
-4 0 M
4 0 L
-2.828 -2.828 M
2.828 2.828 L
-2.828 2.828 M
2.828 -2.828 L
S
GR
GS
[0.75 0 0 0.75 0 0.25] CT
0 1 1 RC
1 LJ
0.667 LW
N
1183.918 589.362 M
1184.255 589.35 L
1183.963 589.519 L
S
GR
GS
[0.75 0 0 0.75 0 0.25] CT
0 1 1 RC
1 LJ
0.667 LW
N
1179.305 590.764 M
1184.255 589.35 L
S
GR
GS
[0.75 0 0 0.75 0 0.25] CT
0 1 1 RC
1 LJ
6.667 LW
N
1200.337 627.81 M
1190.463 631.877 L
1179.888 633.36 L
1169.277 632.167 L
1159.296 628.372 L
1150.571 622.214 L
1143.653 614.08 L
1138.974 604.481 L
1136.83 594.021 L
1137.355 583.355 L
1140.515 573.155 L
1146.113 564.062 L
1153.797 556.646 L
1163.083 551.374 L
1173.388 548.577 L
1184.065 548.431 L
1194.444 550.945 L
1203.871 555.961 L
1211.754 563.163 L
1217.599 572.1 L
1221.037 582.21 L
1221.854 592.857 L
1219.996 603.372 L
1215.582 613.096 L
1208.889 621.416 L
1200.337 627.81 L
S
GR
GS
[0.75 0 0 0.75 922.05167 405.74919] CT
0 1 1 RC
10.0 ML
0.667 LW
N
0 -4 M
0 4 L
-4 0 M
4 0 L
-2.828 -2.828 M
2.828 2.828 L
-2.828 2.828 M
2.828 -2.828 L
S
GR
GS
[0.75 0 0 0.75 0 0.25] CT
0 1 1 RC
1 LJ
0.667 LW
N
1234.015 539.263 M
1234.352 539.252 L
1234.06 539.42 L
S
GR
GS
[0.75 0 0 0.75 0 0.25] CT
0 1 1 RC
1 LJ
0.667 LW
N
1229.402 540.666 M
1234.352 539.252 L
S
GR
GS
[0.75 0 0 0.75 0 0.25] CT
0 1 1 RC
1 LJ
6.667 LW
N
1249.584 578.182 M
1239.62 582.022 L
1229.014 583.264 L
1218.432 581.829 L
1208.54 577.807 L
1199.959 571.452 L
1193.228 563.163 L
1188.769 553.46 L
1186.864 542.953 L
1187.632 532.302 L
1191.024 522.177 L
1196.828 513.213 L
1204.678 505.975 L
1214.082 500.916 L
1224.448 498.355 L
1235.126 498.452 L
1245.445 501.202 L
1254.755 506.431 L
1262.472 513.812 L
1268.111 522.88 L
1271.318 533.065 L
1271.892 543.728 L
1269.795 554.198 L
1265.161 563.819 L
1258.279 571.984 L
1249.584 578.182 L
S
GR
GS
[0.75 0 0 0.75 954.41144 373.39093] CT
0 1 1 RC
10.0 ML
0.667 LW
N
0 -4 M
0 4 L
-4 0 M
4 0 L
-2.828 -2.828 M
2.828 2.828 L
-2.828 2.828 M
2.828 -2.828 L
S
GR
GS
[0.75 0 0 0.75 0 0.25] CT
0 1 1 RC
1 LJ
0.667 LW
N
1277.162 496.119 M
1277.498 496.107 L
1277.207 496.276 L
S
GR
GS
[0.75 0 0 0.75 0 0.25] CT
0 1 1 RC
1 LJ
0.667 LW
N
1272.549 497.521 M
1277.498 496.107 L
S
GR
GS
[0.75 0 0 0.75 0 0.25] CT
0 1 1 RC
1 LJ
6.667 LW
N
1294.663 533.931 M
1284.913 538.287 L
1274.387 540.081 L
1263.745 539.201 L
1253.656 535.702 L
1244.754 529.804 L
1237.599 521.878 L
1232.64 512.421 L
1230.188 502.028 L
1230.398 491.352 L
1233.257 481.063 L
1238.584 471.809 L
1246.045 464.17 L
1255.172 458.627 L
1265.391 455.527 L
1276.059 455.066 L
1286.507 457.273 L
1296.078 462.009 L
1304.17 468.976 L
1310.275 477.737 L
1314.01 487.741 L
1315.14 498.359 L
1313.594 508.925 L
1309.468 518.774 L
1303.023 527.288 L
1294.663 533.931 L
S
GR
GS
[0.75 0 0 0.75 889.69418 438.10709] CT
0 1 1 RC
10.0 ML
0.667 LW
N
0 -4 M
0 4 L
-4 0 M
4 0 L
-2.828 -2.828 M
2.828 2.828 L
-2.828 2.828 M
2.828 -2.828 L
S
GR
GS
[0.75 0 0 0.75 0 0.25] CT
0 1 1 RC
1 LJ
0.667 LW
N
1190.872 582.407 M
1191.209 582.396 L
1190.917 582.564 L
S
GR
GS
[0.75 0 0 0.75 0 0.25] CT
0 1 1 RC
1 LJ
0.667 LW
N
1186.259 583.809 M
1191.209 582.396 L
S
GR
GS
[0.75 0 0 0.75 0 0.25] CT
0 1 1 RC
1 LJ
6.667 LW
N
1221.992 560.618 M
1215.102 552.46 L
1206.4 546.272 L
1196.432 542.442 L
1185.824 541.212 L
1175.245 542.658 L
1165.357 546.69 L
1156.782 553.055 L
1150.06 561.352 L
1145.612 571.059 L
1143.718 581.568 L
1144.497 592.218 L
1147.901 602.34 L
1153.714 611.297 L
1161.572 618.527 L
1170.982 623.576 L
1181.351 626.125 L
1192.029 626.017 L
1202.344 623.256 L
1211.649 618.016 L
1219.358 610.627 L
1224.987 601.553 L
1228.183 591.365 L
1228.745 580.701 L
1226.637 570.233 L
1221.992 560.618 L
S
GR
GS
[0.75 0 0 0.75 916.81458 410.98674] CT
0 1 1 RC
10.0 ML
0.667 LW
N
0 -4 M
0 4 L
-4 0 M
4 0 L
-2.828 -2.828 M
2.828 2.828 L
-2.828 2.828 M
2.828 -2.828 L
S
GR
GS
[0.75 0 0 0.75 0 0.25] CT
0 1 1 RC
1 LJ
0.667 LW
N
1227.033 546.246 M
1227.369 546.235 L
1227.078 546.403 L
S
GR
GS
[0.75 0 0 0.75 0 0.25] CT
0 1 1 RC
1 LJ
0.667 LW
N
1222.419 547.649 M
1227.369 546.235 L
S
GR
GS
[0.75 0 0 0.75 0 0.25] CT
0 1 1 RC
1 LJ
6.667 LW
N
1259.537 526.744 M
1253.172 518.17 L
1244.875 511.448 L
1235.166 507.001 L
1224.657 505.108 L
1214.007 505.888 L
1203.886 509.292 L
1194.929 515.106 L
1187.7 522.965 L
1182.652 532.375 L
1180.103 542.745 L
1180.213 553.422 L
1182.975 563.737 L
1188.215 573.042 L
1195.604 580.75 L
1204.679 586.379 L
1214.868 589.574 L
1225.531 590.135 L
1235.999 588.026 L
1245.614 583.38 L
1253.772 576.49 L
1259.959 567.787 L
1263.788 557.818 L
1265.017 547.211 L
1263.57 536.631 L
1259.537 526.744 L
S
GR
GS
[0.75 0 0 0.75 884.45627 443.34532] CT
0 1 1 RC
10.0 ML
0.667 LW
N
0 -4 M
0 4 L
-4 0 M
4 0 L
-2.828 -2.828 M
2.828 2.828 L
-2.828 2.828 M
2.828 -2.828 L
S
GR
GS
[0.75 0 0 0.75 0 0.25] CT
0 1 1 RC
1 LJ
0.667 LW
N
1183.888 589.391 M
1184.225 589.38 L
1183.933 589.548 L
S
GR
GS
[0.75 0 0 0.75 0 0.25] CT
0 1 1 RC
1 LJ
0.667 LW
N
1179.275 590.794 M
1184.225 589.38 L
S
GR
GS
[0.75 0 0 0.75 0 0.25] CT
0 1 1 RC
1 LJ
6.667 LW
N
1216.288 569.704 M
1209.88 561.162 L
1201.55 554.482 L
1191.819 550.083 L
1181.301 548.242 L
1170.655 549.075 L
1160.551 552.53 L
1151.623 558.388 L
1144.433 566.283 L
1139.432 575.718 L
1136.935 586.1 L
1137.098 596.777 L
1139.911 607.078 L
1145.197 616.356 L
1152.625 624.028 L
1161.727 629.611 L
1171.932 632.756 L
1182.598 633.264 L
1193.056 631.103 L
1202.647 626.409 L
1210.77 619.478 L
1216.914 610.744 L
1220.693 600.757 L
1221.87 590.144 L
1220.37 579.571 L
1216.288 569.704 L
S
GR
GS
[0.75 0 0 0.75 922.89981 404.90164] CT
0 1 1 RC
10.0 ML
0.667 LW
N
0 -4 M
0 4 L
-4 0 M
4 0 L
-2.828 -2.828 M
2.828 2.828 L
-2.828 2.828 M
2.828 -2.828 L
S
GR
GS
[0.75 0 0 0.75 0 0.25] CT
0 1 1 RC
1 LJ
0.667 LW
N
1235.146 538.133 M
1235.483 538.122 L
1235.191 538.29 L
S
GR
GS
[0.75 0 0 0.75 0 0.25] CT
0 1 1 RC
1 LJ
0.667 LW
N
1230.533 539.536 M
1235.483 538.122 L
S
GR
GS
[0.75 0 0 0.75 0 0.25] CT
0 1 1 RC
1 LJ
6.667 LW
N
1252.061 576.295 M
1242.243 580.494 L
1231.689 582.12 L
1221.062 581.069 L
1211.031 577.409 L
1202.225 571.369 L
1195.198 563.329 L
1190.39 553.794 L
1188.106 543.363 L
1188.487 532.692 L
1191.51 522.45 L
1196.985 513.282 L
1204.568 505.764 L
1213.782 500.367 L
1224.049 497.432 L
1234.723 497.142 L
1245.134 499.516 L
1254.628 504.405 L
1262.608 511.501 L
1268.572 520.358 L
1272.146 530.421 L
1273.106 541.056 L
1271.39 551.595 L
1267.107 561.377 L
1260.526 569.787 L
1252.061 576.295 L
S
GR
GS
[0.75 0 0 0.75 921.20407 406.59738] CT
0 1 1 RC
10.0 ML
0.667 LW
N
0 -4 M
0 4 L
-4 0 M
4 0 L
-2.828 -2.828 M
2.828 2.828 L
-2.828 2.828 M
2.828 -2.828 L
S
GR
GS
[0.75 0 0 0.75 0 0.25] CT
0 1 1 RC
1 LJ
0.667 LW
N
1232.885 540.394 M
1233.222 540.383 L
1232.93 540.551 L
S
GR
GS
[0.75 0 0 0.75 0 0.25] CT
0 1 1 RC
1 LJ
0.667 LW
N
1228.272 541.797 M
1233.222 540.383 L
S
GR
GS
[0.75 0 0 0.75 0 0.25] CT
0 1 1 RC
1 LJ
6.667 LW
N
1265.539 521.159 M
1259.236 512.539 L
1250.987 505.758 L
1241.311 501.241 L
1230.815 499.273 L
1220.16 499.976 L
1210.015 503.307 L
1201.017 509.057 L
1193.731 516.864 L
1188.616 526.237 L
1185.992 536.588 L
1186.025 547.266 L
1188.713 557.601 L
1193.886 566.942 L
1201.22 574.704 L
1210.253 580.398 L
1220.419 583.666 L
1231.078 584.304 L
1241.561 582.27 L
1251.209 577.694 L
1259.416 570.862 L
1265.666 562.204 L
1269.566 552.263 L
1270.871 541.665 L
1269.5 531.075 L
1265.539 521.159 L
S
GR
GS
[0.75 0 0 0.75 883.60831 444.19292] CT
0 1 1 RC
10.0 ML
0.667 LW
N
0 -4 M
0 4 L
-4 0 M
4 0 L
-2.828 -2.828 M
2.828 2.828 L
-2.828 2.828 M
2.828 -2.828 L
S
GR
GS
[0.75 0 0 0.75 0 0.25] CT
0 1 1 RC
1 LJ
0.667 LW
N
1182.758 590.521 M
1183.094 590.51 L
1182.802 590.678 L
S
GR
GS
[0.75 0 0 0.75 0 0.25] CT
0 1 1 RC
1 LJ
0.667 LW
N
1178.144 591.924 M
1183.094 590.51 L
S
GR
GS
[0.75 0 0 0.75 0 0.25] CT
0 1 1 RC
1 LJ
6.667 LW
N
1215.761 571.932 M
1209.608 563.205 L
1201.477 556.282 L
1191.88 551.599 L
1181.421 549.45 L
1170.755 549.97 L
1160.554 553.126 L
1151.458 558.719 L
1144.038 566.399 L
1138.762 575.683 L
1135.96 585.987 L
1135.809 596.664 L
1138.318 607.044 L
1143.33 616.473 L
1150.529 624.36 L
1159.463 630.209 L
1169.571 633.652 L
1180.217 634.473 L
1190.734 632.621 L
1200.459 628.211 L
1208.782 621.522 L
1215.181 612.973 L
1219.252 603.101 L
1220.74 592.527 L
1219.552 581.915 L
1215.761 571.932 L
S
GR
GS
[0.75 0 0 0.75 893.17566 423.52388] CT
0 0 1 RC
10.0 ML
0.667 LW
N
0 -4 M
0 4 L
-4 0 M
4 0 L
-2.828 -2.828 M
2.828 2.828 L
-2.828 2.828 M
2.828 -2.828 L
S
GR
GS
[0.75 0 0 0.75 0 0.25] CT
0 0 1 RC
1 LJ
0.667 LW
N
1195.514 562.963 M
1195.851 562.952 L
1195.559 563.12 L
S
GR
GS
[0.75 0 0 0.75 0 0.25] CT
0 0 1 RC
1 LJ
0.667 LW
N
1190.901 564.365 M
1195.851 562.952 L
S
GR
GS
[0.75 0 0 0.75 0 0.25] CT
0 0 1 RC
1 LJ
6.667 LW
N
1190.429 581.497 M
1186.184 580.842 L
1182.234 579.151 L
1178.829 576.531 L
1176.183 573.147 L
1174.462 569.211 L
1173.773 564.97 L
1174.161 560.692 L
1175.6 556.644 L
1178.001 553.082 L
1181.212 550.228 L
1185.032 548.263 L
1189.221 547.309 L
1193.516 547.427 L
1197.646 548.61 L
1201.352 550.782 L
1204.402 553.808 L
1206.603 557.497 L
1207.818 561.618 L
1207.969 565.911 L
1207.049 570.108 L
1205.113 573.943 L
1202.285 577.177 L
1198.741 579.605 L
1194.705 581.076 L
1190.429 581.497 L
S
GR
GS
[0.75 0 0 0.75 899.25668 417.44185] CT
0 0 1 RC
10.0 ML
0.667 LW
N
0 -4 M
0 4 L
-4 0 M
4 0 L
-2.828 -2.828 M
2.828 2.828 L
-2.828 2.828 M
2.828 -2.828 L
S
GR
GS
[0.75 0 0 0.75 0 0.25] CT
0 0 1 RC
1 LJ
0.667 LW
N
1203.622 554.854 M
1203.959 554.843 L
1203.667 555.011 L
S
GR
GS
[0.75 0 0 0.75 0 0.25] CT
0 0 1 RC
1 LJ
0.667 LW
N
1199.009 556.256 M
1203.959 554.843 L
S
GR
GS
[0.75 0 0 0.75 0 0.25] CT
0 0 1 RC
1 LJ
6.667 LW
N
1198.824 573.393 M
1194.568 572.809 L
1190.59 571.184 L
1187.142 568.622 L
1184.44 565.282 L
1182.653 561.375 L
1181.893 557.147 L
1182.21 552.862 L
1183.581 548.791 L
1185.922 545.189 L
1189.086 542.282 L
1192.872 540.253 L
1197.045 539.23 L
1201.341 539.277 L
1205.49 540.39 L
1209.232 542.5 L
1212.332 545.475 L
1214.594 549.127 L
1215.878 553.227 L
1216.101 557.517 L
1215.25 561.728 L
1213.379 565.595 L
1210.605 568.875 L
1207.103 571.363 L
1203.091 572.901 L
1198.824 573.393 L
S
GR
GS
[0.75 0 0 0.75 931.61829 385.08395] CT
0 0 1 RC
10.0 ML
0.667 LW
N
0 -4 M
0 4 L
-4 0 M
4 0 L
-2.828 -2.828 M
2.828 2.828 L
-2.828 2.828 M
2.828 -2.828 L
S
GR
GS
[0.75 0 0 0.75 0 0.25] CT
0 0 1 RC
1 LJ
0.667 LW
N
1246.771 511.71 M
1247.107 511.699 L
1246.816 511.867 L
S
GR
GS
[0.75 0 0 0.75 0 0.25] CT
0 0 1 RC
1 LJ
0.667 LW
N
1242.158 513.112 M
1247.107 511.699 L
S
GR
GS
[0.75 0 0 0.75 0 0.25] CT
0 0 1 RC
1 LJ
6.667 LW
N
1259.259 514.24 M
1259.002 509.951 L
1257.687 505.862 L
1255.396 502.227 L
1252.273 499.277 L
1248.515 497.196 L
1244.357 496.115 L
1240.061 496.102 L
1235.897 497.158 L
1232.126 499.216 L
1228.985 502.148 L
1226.672 505.768 L
1225.333 509.85 L
1225.05 514.136 L
1225.842 518.359 L
1227.659 522.251 L
1230.388 525.57 L
1233.856 528.105 L
1237.845 529.699 L
1242.106 530.25 L
1246.37 529.725 L
1250.369 528.155 L
1253.852 525.641 L
1256.6 522.339 L
1258.441 518.457 L
1259.259 514.24 L
S
GR
GS
[0.75 0 0 0.75 936.854 379.8459] CT
0 0 1 RC
10.0 ML
0.667 LW
N
0 -4 M
0 4 L
-4 0 M
4 0 L
-2.828 -2.828 M
2.828 2.828 L
-2.828 2.828 M
2.828 -2.828 L
S
GR
GS
[0.75 0 0 0.75 0 0.25] CT
0 0 1 RC
1 LJ
0.667 LW
N
1253.752 504.726 M
1254.089 504.715 L
1253.797 504.883 L
S
GR
GS
[0.75 0 0 0.75 0 0.25] CT
0 0 1 RC
1 LJ
0.667 LW
N
1249.139 506.128 M
1254.089 504.715 L
S
GR
GS
[0.75 0 0 0.75 0 0.25] CT
0 0 1 RC
1 LJ
6.667 LW
N
1266.277 506.208 M
1265.759 501.943 L
1264.196 497.942 L
1261.687 494.454 L
1258.39 491.7 L
1254.511 489.853 L
1250.295 489.028 L
1246.006 489.278 L
1241.914 490.586 L
1238.276 492.871 L
1235.32 495.989 L
1233.233 499.744 L
1232.145 503.9 L
1232.125 508.196 L
1233.174 512.362 L
1235.226 516.137 L
1238.152 519.282 L
1241.769 521.601 L
1245.848 522.948 L
1250.135 523.238 L
1254.358 522.452 L
1258.254 520.641 L
1261.577 517.918 L
1264.118 514.455 L
1265.719 510.468 L
1266.277 506.208 L
S
GR
GS
[0.75 0 0 0.75 898.40945 418.28954] CT
0 0 1 RC
10.0 ML
0.667 LW
N
0 -4 M
0 4 L
-4 0 M
4 0 L
-2.828 -2.828 M
2.828 2.828 L
-2.828 2.828 M
2.828 -2.828 L
S
GR
GS
[0.75 0 0 0.75 0 0.25] CT
0 0 1 RC
1 LJ
0.667 LW
N
1202.492 555.984 M
1202.829 555.973 L
1202.537 556.141 L
S
GR
GS
[0.75 0 0 0.75 0 0.25] CT
0 0 1 RC
1 LJ
0.667 LW
N
1197.879 557.386 M
1202.829 555.973 L
S
GR
GS
[0.75 0 0 0.75 0 0.25] CT
0 0 1 RC
1 LJ
6.667 LW
N
1215.017 557.565 M
1214.523 553.298 L
1212.984 549.287 L
1210.495 545.785 L
1207.214 543.012 L
1203.346 541.143 L
1199.134 540.293 L
1194.844 540.518 L
1190.745 541.803 L
1187.094 544.067 L
1184.12 547.168 L
1182.011 550.91 L
1180.899 555.06 L
1180.854 559.356 L
1181.879 563.528 L
1183.909 567.314 L
1186.817 570.476 L
1190.42 572.816 L
1194.492 574.187 L
1198.776 574.501 L
1203.004 573.74 L
1206.911 571.952 L
1210.249 569.248 L
1212.811 565.799 L
1214.434 561.822 L
1215.017 557.565 L
S
GR
GS
[0.75 0 0 0.75 930.77124 385.93187] CT
0 0 1 RC
10.0 ML
0.667 LW
N
0 -4 M
0 4 L
-4 0 M
4 0 L
-2.828 -2.828 M
2.828 2.828 L
-2.828 2.828 M
2.828 -2.828 L
S
GR
GS
[0.75 0 0 0.75 0 0.25] CT
0 0 1 RC
1 LJ
0.667 LW
N
1245.642 512.84 M
1245.978 512.829 L
1245.686 512.997 L
S
GR
GS
[0.75 0 0 0.75 0 0.25] CT
0 0 1 RC
1 LJ
0.667 LW
N
1241.028 514.242 M
1245.978 512.829 L
S
GR
GS
[0.75 0 0 0.75 0 0.25] CT
0 0 1 RC
1 LJ
6.667 LW
N
1258.111 515.623 M
1257.918 511.332 L
1256.663 507.223 L
1254.426 503.555 L
1251.348 500.559 L
1247.62 498.422 L
1243.479 497.28 L
1239.184 497.204 L
1235.004 498.198 L
1231.203 500.2 L
1228.02 503.084 L
1225.653 506.67 L
1224.253 510.732 L
1223.907 515.014 L
1224.637 519.247 L
1226.396 523.166 L
1229.075 526.525 L
1232.505 529.112 L
1236.471 530.764 L
1240.723 531.378 L
1244.994 530.916 L
1249.016 529.406 L
1252.536 526.943 L
1255.333 523.682 L
1257.231 519.828 L
1258.111 515.623 L
S
GR
GS
[0.75 0 0 0.75 893.1731 423.5274] CT
0 0 1 RC
10.0 ML
0.667 LW
N
0 -4 M
0 4 L
-4 0 M
4 0 L
-2.828 -2.828 M
2.828 2.828 L
-2.828 2.828 M
2.828 -2.828 L
S
GR
GS
[0.75 0 0 0.75 0 0.25] CT
0 0 1 RC
1 LJ
0.667 LW
N
1195.511 562.968 M
1195.847 562.957 L
1195.556 563.125 L
S
GR
GS
[0.75 0 0 0.75 0 0.25] CT
0 0 1 RC
1 LJ
0.667 LW
N
1190.897 564.37 M
1195.847 562.957 L
S
GR
GS
[0.75 0 0 0.75 0 0.25] CT
0 0 1 RC
1 LJ
6.667 LW
N
1208.022 565.052 M
1207.654 560.771 L
1206.233 556.717 L
1203.848 553.144 L
1200.649 550.276 L
1196.838 548.294 L
1192.653 547.321 L
1188.358 547.42 L
1184.223 548.584 L
1180.507 550.74 L
1177.444 553.753 L
1175.226 557.432 L
1173.993 561.547 L
1173.822 565.84 L
1174.724 570.04 L
1176.642 573.884 L
1179.456 577.13 L
1182.989 579.575 L
1187.019 581.064 L
1191.292 581.504 L
1195.541 580.867 L
1199.498 579.194 L
1202.914 576.59 L
1205.576 573.217 L
1207.315 569.289 L
1208.022 565.052 L
S
GR
GS
[0.75 0 0 0.75 860.81369 455.88562] CT
0 0 1 RC
10.0 ML
0.667 LW
N
0 -4 M
0 4 L
-4 0 M
4 0 L
-2.828 -2.828 M
2.828 2.828 L
-2.828 2.828 M
2.828 -2.828 L
S
GR
GS
[0.75 0 0 0.75 0 0.25] CT
0 0 1 RC
1 LJ
0.667 LW
N
1152.365 606.112 M
1152.701 606.101 L
1152.41 606.269 L
S
GR
GS
[0.75 0 0 0.75 0 0.25] CT
0 0 1 RC
1 LJ
0.667 LW
N
1147.752 607.514 M
1152.701 606.101 L
S
GR
GS
[0.75 0 0 0.75 0 0.25] CT
0 0 1 RC
1 LJ
6.667 LW
N
1164.89 607.669 M
1164.39 603.402 L
1162.844 599.394 L
1160.351 595.896 L
1157.065 593.127 L
1153.195 591.263 L
1148.982 590.42 L
1144.693 590.651 L
1140.595 591.941 L
1136.947 594.21 L
1133.978 597.315 L
1131.874 601.061 L
1130.768 605.212 L
1130.729 609.508 L
1131.76 613.679 L
1133.796 617.462 L
1136.708 620.62 L
1140.314 622.955 L
1144.388 624.319 L
1148.673 624.628 L
1152.9 623.861 L
1156.804 622.067 L
1160.138 619.359 L
1162.695 615.906 L
1164.313 611.926 L
1164.89 607.669 L
S
GR
GS
[0.75 0 0 0.75 931.75342 384.94672] CT
0 0 1 RC
10.0 ML
0.667 LW
N
0 -4 M
0 4 L
-4 0 M
4 0 L
-2.828 -2.828 M
2.828 2.828 L
-2.828 2.828 M
2.828 -2.828 L
S
GR
GS
[0.75 0 0 0.75 0 0.25] CT
0 0 1 RC
1 LJ
0.667 LW
N
1246.951 511.527 M
1247.288 511.516 L
1246.996 511.684 L
S
GR
GS
[0.75 0 0 0.75 0 0.25] CT
0 0 1 RC
1 LJ
0.667 LW
N
1242.338 512.929 M
1247.288 511.516 L
S
GR
GS
[0.75 0 0 0.75 0 0.25] CT
0 0 1 RC
1 LJ
6.667 LW
N
1241.676 530.055 M
1237.438 529.352 L
1233.508 527.618 L
1230.132 524.96 L
1227.524 521.547 L
1225.846 517.592 L
1225.204 513.344 L
1225.639 509.07 L
1227.124 505.039 L
1229.564 501.503 L
1232.807 498.685 L
1236.648 496.762 L
1240.848 495.855 L
1245.141 496.021 L
1249.257 497.249 L
1252.939 499.463 L
1255.955 502.522 L
1258.115 506.236 L
1259.284 510.37 L
1259.388 514.664 L
1258.421 518.85 L
1256.443 522.664 L
1253.579 525.866 L
1250.009 528.255 L
1245.956 529.681 L
1241.676 530.055 L
S
GR
GS
[0.75 0 0 0.75 899.11935 417.57945] CT
0 0 1 RC
10.0 ML
0.667 LW
N
0 -4 M
0 4 L
-4 0 M
4 0 L
-2.828 -2.828 M
2.828 2.828 L
-2.828 2.828 M
2.828 -2.828 L
S
GR
GS
[0.75 0 0 0.75 0 0.25] CT
0 0 1 RC
1 LJ
0.667 LW
N
1203.439 555.037 M
1203.776 555.026 L
1203.484 555.194 L
S
GR
GS
[0.75 0 0 0.75 0 0.25] CT
0 0 1 RC
1 LJ
0.667 LW
N
1198.826 556.439 M
1203.776 555.026 L
S
GR
GS
[0.75 0 0 0.75 0 0.25] CT
0 0 1 RC
1 LJ
6.667 LW
N
1198.666 573.577 M
1194.409 572.999 L
1190.43 571.38 L
1186.978 568.823 L
1184.27 565.488 L
1182.477 561.583 L
1181.712 557.356 L
1182.021 553.071 L
1183.387 548.998 L
1185.723 545.392 L
1188.881 542.481 L
1192.665 540.446 L
1196.836 539.417 L
1201.132 539.457 L
1205.283 540.564 L
1209.028 542.668 L
1212.132 545.638 L
1214.401 549.287 L
1215.69 553.385 L
1215.92 557.675 L
1215.076 561.887 L
1213.21 565.757 L
1210.441 569.042 L
1206.942 571.534 L
1202.933 573.078 L
1198.666 573.577 L
S
GR
GS
[0.75 0 0 0.75 931.48114 385.22133] CT
0 0 1 RC
10.0 ML
0.667 LW
N
0 -4 M
0 4 L
-4 0 M
4 0 L
-2.828 -2.828 M
2.828 2.828 L
-2.828 2.828 M
2.828 -2.828 L
S
GR
GS
[0.75 0 0 0.75 0 0.25] CT
0 0 1 RC
1 LJ
0.667 LW
N
1246.588 511.893 M
1246.925 511.882 L
1246.633 512.05 L
S
GR
GS
[0.75 0 0 0.75 0 0.25] CT
0 0 1 RC
1 LJ
0.667 LW
N
1241.975 513.295 M
1246.925 511.882 L
S
GR
GS
[0.75 0 0 0.75 0 0.25] CT
0 0 1 RC
1 LJ
6.667 LW
N
1240.847 530.396 M
1236.63 529.579 L
1232.748 527.738 L
1229.446 524.99 L
1226.932 521.507 L
1225.362 517.508 L
1224.836 513.244 L
1225.388 508.983 L
1226.981 504.994 L
1229.517 501.526 L
1232.835 498.797 L
1236.728 496.98 L
1240.95 496.187 L
1245.237 496.47 L
1249.319 497.81 L
1252.939 500.122 L
1255.87 503.263 L
1257.929 507.034 L
1258.985 511.198 L
1258.972 515.494 L
1257.891 519.652 L
1255.81 523.41 L
1252.86 526.533 L
1249.226 528.824 L
1245.136 530.14 L
1240.847 530.396 L
S
GR
GS
[0.75 0 0 0.75 893.03741 423.66487] CT
0 0 1 RC
10.0 ML
0.667 LW
N
0 -4 M
0 4 L
-4 0 M
4 0 L
-2.828 -2.828 M
2.828 2.828 L
-2.828 2.828 M
2.828 -2.828 L
S
GR
GS
[0.75 0 0 0.75 0 0.25] CT
0 0 1 RC
1 LJ
0.667 LW
N
1195.33 563.151 M
1195.666 563.14 L
1195.375 563.308 L
S
GR
GS
[0.75 0 0 0.75 0 0.25] CT
0 0 1 RC
1 LJ
0.667 LW
N
1190.717 564.553 M
1195.666 563.14 L
S
GR
GS
[0.75 0 0 0.75 0 0.25] CT
0 0 1 RC
1 LJ
6.667 LW
N
1189.618 581.656 M
1185.399 580.846 L
1181.514 579.012 L
1178.208 576.269 L
1175.687 572.79 L
1174.111 568.794 L
1173.578 564.531 L
1174.122 560.269 L
1175.709 556.277 L
1178.239 552.805 L
1181.552 550.071 L
1185.442 548.247 L
1189.663 547.447 L
1193.95 547.722 L
1198.034 549.055 L
1201.658 551.362 L
1204.595 554.498 L
1206.66 558.265 L
1207.723 562.427 L
1207.717 566.723 L
1206.643 570.883 L
1204.569 574.645 L
1201.624 577.773 L
1197.994 580.07 L
1193.906 581.392 L
1189.618 581.656 L
S
GR
GS
[0.75 0 0 0.75 860.67627 456.02281] CT
0 0 1 RC
10.0 ML
0.667 LW
N
0 -4 M
0 4 L
-4 0 M
4 0 L
-2.828 -2.828 M
2.828 2.828 L
-2.828 2.828 M
2.828 -2.828 L
S
GR
GS
[0.75 0 0 0.75 0 0.25] CT
0 0 1 RC
1 LJ
0.667 LW
N
1152.182 606.295 M
1152.518 606.284 L
1152.226 606.452 L
S
GR
GS
[0.75 0 0 0.75 0 0.25] CT
0 0 1 RC
1 LJ
0.667 LW
N
1147.568 607.697 M
1152.518 606.284 L
S
GR
GS
[0.75 0 0 0.75 0 0.25] CT
0 0 1 RC
1 LJ
6.667 LW
N
1164.706 607.892 M
1164.216 603.624 L
1162.68 599.612 L
1160.194 596.107 L
1156.915 593.332 L
1153.049 591.458 L
1148.839 590.606 L
1144.548 590.827 L
1140.448 592.108 L
1136.794 594.368 L
1133.818 597.466 L
1131.706 601.207 L
1130.59 605.356 L
1130.542 609.652 L
1131.563 613.825 L
1133.589 617.613 L
1136.495 620.778 L
1140.095 623.121 L
1144.166 624.495 L
1148.45 624.813 L
1152.679 624.056 L
1156.587 622.271 L
1159.928 619.57 L
1162.492 616.124 L
1164.119 612.147 L
1164.706 607.892 L
S
GR
GS
[0.75 0 0 0.75 0 0.25] CT
1 GC
N
/f-79800792{1498 235 M
1498 86 L
1279 86 L
1279 235 L
cp}def
f-79800792
f
GR
GS
[0.75 0 0 0.75 994.5 79.75] CT
/Helvetica-Bold 30 F
GS
[1 0 0 1 0 0] CT
0 10 moveto 
1 -1 scale
(LandMark) t 
GR
GR
GS
[0.75 0 0 0.75 977.25 79.75] CT
1 0 0 RC
N
/f-1214359511{0 -19.995 M
-17.316 9.998 L
17.316 9.998 L
cp}def
f-1214359511
f
GR
GS
[0.75 0 0 0.75 977.25 79.75] CT
0 0 1 RC
10.0 ML
0.667 LW
N
0 -19.995 M
-17.316 9.998 L
17.316 9.998 L
cp
S
GR
GS
[0.75 0 0 0.75 994.5 122.5] CT
/Helvetica-Bold 30 F
GS
[1 0 0 1 0 0] CT
0 0 moveto 
1 -1 scale
(b) t 
GR
GR
GS
[0.75 0 0 0.75 1011 111.25] CT
/Helvetica-Bold 24 F
GS
[1 0 0 1 0 0] CT
0 0 moveto 
1 -1 scale
(-) t 
GR
GR
GS
[0.75 0 0 0.75 1018.5 122.5] CT
/Helvetica-Bold 30 F
GS
[1 0 0 1 0 0] CT
0 0 moveto 
1 -1 scale
([X) t 
GR
GR
GS
[0.75 0 0 0.75 1046.25 133.75] CT
/Helvetica-Bold 24 F
GS
[1 0 0 1 0 0] CT
0 0 moveto 
1 -1 scale
(k) t 
GR
GR
GS
[0.75 0 0 0.75 1058.25 122.5] CT
/Helvetica-Bold 30 F
GS
[1 0 0 1 0 0] CT
0 0 moveto 
1 -1 scale
(]) t 
GR
GR
GS
[0.75 0 0 0.75 0 0.25] CT
0 1 1 RC
1 LJ
6.667 LW
N
1283 154 M
1323 154 L
S
GR
GS
[0.75 0 0 0.75 994.5 160] CT
/Helvetica-Bold 30 F
GS
[1 0 0 1 0 0] CT
0 0 moveto 
1 -1 scale
(b[X) t 
GR
GR
GS
[0.75 0 0 0.75 1038.75 171.25] CT
/Helvetica-Bold 24 F
GS
[1 0 0 1 0 0] CT
0 0 moveto 
1 -1 scale
(k) t 
GR
GR
GS
[0.75 0 0 0.75 1050.75 160] CT
/Helvetica-Bold 30 F
GS
[1 0 0 1 0 0] CT
0 0 moveto 
1 -1 scale
(]) t 
GR
GR
GS
[0.75 0 0 0.75 0 0.25] CT
0 0 1 RC
1 LJ
6.667 LW
N
1283 208.5 M
1323 208.5 L
S
GR
GS
[0.75 0 0 0.75 0 0.25] CT
0.149 GC
10.0 ML
0.667 LW
N
1279 235 M
1279 86 L
1498 86 L
1498 235 L
cp
S
GR
%%Trailer
%%Pages: 1
%%EOF
