%!PS-Adobe-3.0 EPSF-3.0
%%Creator: (MATLAB, The Mathworks, Inc. Version 9.8.0.1380330 \(R2020a\) Update 2. Operating System: Linux)
%%Title: (/home/ohads/ANPL/papers/research/2021 RAL/Figures/TestCase_2/fig_files/Robots_estimation_k_3.epsc)
%%CreationDate: 2021-02-21T16:11:12
%%Pages: (atend)
%%BoundingBox:   290    18  1145   692
%%LanguageLevel: 3
%%EndComments
%%BeginProlog
%%BeginResource: procset (Apache XML Graphics Std ProcSet) 1.2 0
%%Version: 1.2 0
%%Copyright: (Copyright 2001-2003,2010 The Apache Software Foundation. License terms: http://www.apache.org/licenses/LICENSE-2.0)
/bd{bind def}bind def
/ld{load def}bd
/GR/grestore ld
/GS/gsave ld
/RM/rmoveto ld
/C/curveto ld
/t/show ld
/L/lineto ld
/ML/setmiterlimit ld
/CT/concat ld
/f/fill ld
/N/newpath ld
/S/stroke ld
/CC/setcmykcolor ld
/A/ashow ld
/cp/closepath ld
/RC/setrgbcolor ld
/LJ/setlinejoin ld
/GC/setgray ld
/LW/setlinewidth ld
/M/moveto ld
/re {4 2 roll M
1 index 0 rlineto
0 exch rlineto
neg 0 rlineto
cp } bd
/_ctm matrix def
/_tm matrix def
/BT { _ctm currentmatrix pop matrix _tm copy pop 0 0 moveto } bd
/ET { _ctm setmatrix } bd
/iTm { _ctm setmatrix _tm concat } bd
/Tm { _tm astore pop iTm 0 0 moveto } bd
/ux 0.0 def
/uy 0.0 def
/F {
  /Tp exch def
  /Tf exch def
  Tf findfont Tp scalefont setfont
  /cf Tf def  /cs Tp def
} bd
/ULS {currentpoint /uy exch def /ux exch def} bd
/ULE {
  /Tcx currentpoint pop def
  gsave
  newpath
  cf findfont cs scalefont dup
  /FontMatrix get 0 get /Ts exch def /FontInfo get dup
  /UnderlinePosition get Ts mul /To exch def
  /UnderlineThickness get Ts mul /Tt exch def
  ux uy To add moveto  Tcx uy To add lineto
  Tt setlinewidth stroke
  grestore
} bd
/OLE {
  /Tcx currentpoint pop def
  gsave
  newpath
  cf findfont cs scalefont dup
  /FontMatrix get 0 get /Ts exch def /FontInfo get dup
  /UnderlinePosition get Ts mul /To exch def
  /UnderlineThickness get Ts mul /Tt exch def
  ux uy To add cs add moveto Tcx uy To add cs add lineto
  Tt setlinewidth stroke
  grestore
} bd
/SOE {
  /Tcx currentpoint pop def
  gsave
  newpath
  cf findfont cs scalefont dup
  /FontMatrix get 0 get /Ts exch def /FontInfo get dup
  /UnderlinePosition get Ts mul /To exch def
  /UnderlineThickness get Ts mul /Tt exch def
  ux uy To add cs 10 mul 26 idiv add moveto Tcx uy To add cs 10 mul 26 idiv add lineto
  Tt setlinewidth stroke
  grestore
} bd
/QT {
/Y22 exch store
/X22 exch store
/Y21 exch store
/X21 exch store
currentpoint
/Y21 load 2 mul add 3 div exch
/X21 load 2 mul add 3 div exch
/X21 load 2 mul /X22 load add 3 div
/Y21 load 2 mul /Y22 load add 3 div
/X22 load /Y22 load curveto
} bd
/SSPD {
dup length /d exch dict def
{
/v exch def
/k exch def
currentpagedevice k known {
/cpdv currentpagedevice k get def
v cpdv ne {
/upd false def
/nullv v type /nulltype eq def
/nullcpdv cpdv type /nulltype eq def
nullv nullcpdv or
{
/upd true def
} {
/sametype v type cpdv type eq def
sametype {
v type /arraytype eq {
/vlen v length def
/cpdvlen cpdv length def
vlen cpdvlen eq {
0 1 vlen 1 sub {
/i exch def
/obj v i get def
/cpdobj cpdv i get def
obj cpdobj ne {
/upd true def
exit
} if
} for
} {
/upd true def
} ifelse
} {
v type /dicttype eq {
v {
/dv exch def
/dk exch def
/cpddv cpdv dk get def
dv cpddv ne {
/upd true def
exit
} if
} forall
} {
/upd true def
} ifelse
} ifelse
} if
} ifelse
upd true eq {
d k v put
} if
} if
} if
} forall
d length 0 gt {
d setpagedevice
} if
} bd
/RE { % /NewFontName [NewEncodingArray] /FontName RE -
  findfont dup length dict begin
  {
    1 index /FID ne
    {def} {pop pop} ifelse
  } forall
  /Encoding exch def
  /FontName 1 index def
  currentdict definefont pop
  end
} bind def
%%EndResource
%%BeginResource: procset (Apache XML Graphics EPS ProcSet) 1.0 0
%%Version: 1.0 0
%%Copyright: (Copyright 2002-2003 The Apache Software Foundation. License terms: http://www.apache.org/licenses/LICENSE-2.0)
/BeginEPSF { %def
/b4_Inc_state save def         % Save state for cleanup
/dict_count countdictstack def % Count objects on dict stack
/op_count count 1 sub def      % Count objects on operand stack
userdict begin                 % Push userdict on dict stack
/showpage { } def              % Redefine showpage, { } = null proc
0 setgray 0 setlinecap         % Prepare graphics state
1 setlinewidth 0 setlinejoin
10 setmiterlimit [ ] 0 setdash newpath
/languagelevel where           % If level not equal to 1 then
{pop languagelevel             % set strokeadjust and
1 ne                           % overprint to their defaults.
{false setstrokeadjust false setoverprint
} if
} if
} bd
/EndEPSF { %def
count op_count sub {pop} repeat            % Clean up stacks
countdictstack dict_count sub {end} repeat
b4_Inc_state restore
} bd
%%EndResource
%FOPBeginFontDict
%%IncludeResource: font Courier-Oblique
%%IncludeResource: font Courier-BoldOblique
%%IncludeResource: font Courier-Bold
%%IncludeResource: font ZapfDingbats
%%IncludeResource: font Symbol
%%IncludeResource: font Helvetica
%%IncludeResource: font Helvetica-Oblique
%%IncludeResource: font Helvetica-Bold
%%IncludeResource: font Helvetica-BoldOblique
%%IncludeResource: font Times-Roman
%%IncludeResource: font Times-Italic
%%IncludeResource: font Times-Bold
%%IncludeResource: font Times-BoldItalic
%%IncludeResource: font Courier
%FOPEndFontDict
%%BeginResource: encoding WinAnsiEncoding
/WinAnsiEncoding [
/.notdef /.notdef /.notdef /.notdef /.notdef
/.notdef /.notdef /.notdef /.notdef /.notdef
/.notdef /.notdef /.notdef /.notdef /.notdef
/.notdef /.notdef /.notdef /.notdef /.notdef
/.notdef /.notdef /.notdef /.notdef /.notdef
/.notdef /.notdef /.notdef /.notdef /.notdef
/.notdef /.notdef /space /exclam /quotedbl
/numbersign /dollar /percent /ampersand /quotesingle
/parenleft /parenright /asterisk /plus /comma
/hyphen /period /slash /zero /one
/two /three /four /five /six
/seven /eight /nine /colon /semicolon
/less /equal /greater /question /at
/A /B /C /D /E
/F /G /H /I /J
/K /L /M /N /O
/P /Q /R /S /T
/U /V /W /X /Y
/Z /bracketleft /backslash /bracketright /asciicircum
/underscore /quoteleft /a /b /c
/d /e /f /g /h
/i /j /k /l /m
/n /o /p /q /r
/s /t /u /v /w
/x /y /z /braceleft /bar
/braceright /asciitilde /bullet /Euro /bullet
/quotesinglbase /florin /quotedblbase /ellipsis /dagger
/daggerdbl /circumflex /perthousand /Scaron /guilsinglleft
/OE /bullet /Zcaron /bullet /bullet
/quoteleft /quoteright /quotedblleft /quotedblright /bullet
/endash /emdash /asciitilde /trademark /scaron
/guilsinglright /oe /bullet /zcaron /Ydieresis
/space /exclamdown /cent /sterling /currency
/yen /brokenbar /section /dieresis /copyright
/ordfeminine /guillemotleft /logicalnot /sfthyphen /registered
/macron /degree /plusminus /twosuperior /threesuperior
/acute /mu /paragraph /middot /cedilla
/onesuperior /ordmasculine /guillemotright /onequarter /onehalf
/threequarters /questiondown /Agrave /Aacute /Acircumflex
/Atilde /Adieresis /Aring /AE /Ccedilla
/Egrave /Eacute /Ecircumflex /Edieresis /Igrave
/Iacute /Icircumflex /Idieresis /Eth /Ntilde
/Ograve /Oacute /Ocircumflex /Otilde /Odieresis
/multiply /Oslash /Ugrave /Uacute /Ucircumflex
/Udieresis /Yacute /Thorn /germandbls /agrave
/aacute /acircumflex /atilde /adieresis /aring
/ae /ccedilla /egrave /eacute /ecircumflex
/edieresis /igrave /iacute /icircumflex /idieresis
/eth /ntilde /ograve /oacute /ocircumflex
/otilde /odieresis /divide /oslash /ugrave
/uacute /ucircumflex /udieresis /yacute /thorn
/ydieresis
] def
%%EndResource
%FOPBeginFontReencode
/Courier-Oblique findfont
dup length dict begin
  {1 index /FID ne {def} {pop pop} ifelse} forall
  /Encoding WinAnsiEncoding def
  currentdict
end
/Courier-Oblique exch definefont pop
/Courier-BoldOblique findfont
dup length dict begin
  {1 index /FID ne {def} {pop pop} ifelse} forall
  /Encoding WinAnsiEncoding def
  currentdict
end
/Courier-BoldOblique exch definefont pop
/Courier-Bold findfont
dup length dict begin
  {1 index /FID ne {def} {pop pop} ifelse} forall
  /Encoding WinAnsiEncoding def
  currentdict
end
/Courier-Bold exch definefont pop
/Helvetica findfont
dup length dict begin
  {1 index /FID ne {def} {pop pop} ifelse} forall
  /Encoding WinAnsiEncoding def
  currentdict
end
/Helvetica exch definefont pop
/Helvetica-Oblique findfont
dup length dict begin
  {1 index /FID ne {def} {pop pop} ifelse} forall
  /Encoding WinAnsiEncoding def
  currentdict
end
/Helvetica-Oblique exch definefont pop
/Helvetica-Bold findfont
dup length dict begin
  {1 index /FID ne {def} {pop pop} ifelse} forall
  /Encoding WinAnsiEncoding def
  currentdict
end
/Helvetica-Bold exch definefont pop
/Helvetica-BoldOblique findfont
dup length dict begin
  {1 index /FID ne {def} {pop pop} ifelse} forall
  /Encoding WinAnsiEncoding def
  currentdict
end
/Helvetica-BoldOblique exch definefont pop
/Times-Roman findfont
dup length dict begin
  {1 index /FID ne {def} {pop pop} ifelse} forall
  /Encoding WinAnsiEncoding def
  currentdict
end
/Times-Roman exch definefont pop
/Times-Italic findfont
dup length dict begin
  {1 index /FID ne {def} {pop pop} ifelse} forall
  /Encoding WinAnsiEncoding def
  currentdict
end
/Times-Italic exch definefont pop
/Times-Bold findfont
dup length dict begin
  {1 index /FID ne {def} {pop pop} ifelse} forall
  /Encoding WinAnsiEncoding def
  currentdict
end
/Times-Bold exch definefont pop
/Times-BoldItalic findfont
dup length dict begin
  {1 index /FID ne {def} {pop pop} ifelse} forall
  /Encoding WinAnsiEncoding def
  currentdict
end
/Times-BoldItalic exch definefont pop
/Courier findfont
dup length dict begin
  {1 index /FID ne {def} {pop pop} ifelse} forall
  /Encoding WinAnsiEncoding def
  currentdict
end
/Courier exch definefont pop
%FOPEndFontReencode
%%EndProlog
%%Page: 1 1
%%PageBoundingBox: 0 0 1440 748
%%BeginPageSetup
[1 0 0 -1 0 748] CT
%%EndPageSetup
GS
[0.75 0 0 0.75 0 0.25] CT
N
0 0 M
1920 0 L
1920 997 L
0 997 L
0 0 L
cp
clip
1 GC
N
0 0 1920 997 re
f
GR
GS
[0.75 0 0 0.75 0 0.25] CT
1 GC
N
0 0 1920 997 re
f
GR
GS
[0.75 0 0 0.75 0 0.25] CT
1 GC
N
479.235 887 M
1508.765 887 L
1508.765 75 L
479.235 75 L
cp
f
GR
GS
[0.75 0 0 0.75 0 0.25] CT
0.149 GC
2 setlinecap
1 LJ
0.667 LW
N
479.235 887 M
1508.765 887 L
S
GR
GS
[0.75 0 0 0.75 0 0.25] CT
0.149 GC
2 setlinecap
1 LJ
0.667 LW
N
479.235 887 M
479.235 876.705 L
S
GR
GS
[0.75 0 0 0.75 0 0.25] CT
0.149 GC
2 setlinecap
1 LJ
0.667 LW
N
736.618 887 M
736.618 876.705 L
S
GR
GS
[0.75 0 0 0.75 0 0.25] CT
0.149 GC
2 setlinecap
1 LJ
0.667 LW
N
994 887 M
994 876.705 L
S
GR
GS
[0.75 0 0 0.75 0 0.25] CT
0.149 GC
2 setlinecap
1 LJ
0.667 LW
N
1251.382 887 M
1251.382 876.705 L
S
GR
GS
[0.75 0 0 0.75 0 0.25] CT
0.149 GC
2 setlinecap
1 LJ
0.667 LW
N
1508.765 887 M
1508.765 876.705 L
S
GR
GS
[0.75 0 0 0.75 359.42638 672.49998] CT
0.149 GC
/Helvetica 33.333 F
GS
[1 0 0 1 0 0] CT
-17 31 moveto 
1 -1 scale
(-5) t 
GR
GR
GS
[0.75 0 0 0.75 552.46321 672.49998] CT
0.149 GC
/Helvetica 33.333 F
GS
[1 0 0 1 0 0] CT
-11 31 moveto 
1 -1 scale
(0) t 
GR
GR
GS
[0.75 0 0 0.75 745.5 672.49998] CT
0.149 GC
/Helvetica 33.333 F
GS
[1 0 0 1 0 0] CT
-11 31 moveto 
1 -1 scale
(5) t 
GR
GR
GS
[0.75 0 0 0.75 938.53683 672.49998] CT
0.149 GC
/Helvetica 33.333 F
GS
[1 0 0 1 0 0] CT
-21.5 31 moveto 
1 -1 scale
(10) t 
GR
GR
GS
[0.75 0 0 0.75 1131.57358 672.49998] CT
0.149 GC
/Helvetica 33.333 F
GS
[1 0 0 1 0 0] CT
-21.5 31 moveto 
1 -1 scale
(15) t 
GR
GR
GS
[0.75 0 0 0.75 745.50037 702.75002] CT
0.149 GC
/Helvetica 36.667 F
GS
[1 0 0 1 0 0] CT
-22.5 35 moveto 
1 -1 scale
(Xs) t 
GR
GR
GS
[0.75 0 0 0.75 0 0.25] CT
0.149 GC
2 setlinecap
1 LJ
0.667 LW
N
479.235 887 M
479.235 75 L
S
GR
GS
[0.75 0 0 0.75 0 0.25] CT
0.149 GC
2 setlinecap
1 LJ
0.667 LW
N
479.235 789.859 M
489.53 789.859 L
S
GR
GS
[0.75 0 0 0.75 0 0.25] CT
0.149 GC
2 setlinecap
1 LJ
0.667 LW
N
479.235 686.906 M
489.53 686.906 L
S
GR
GS
[0.75 0 0 0.75 0 0.25] CT
0.149 GC
2 setlinecap
1 LJ
0.667 LW
N
479.235 583.953 M
489.53 583.953 L
S
GR
GS
[0.75 0 0 0.75 0 0.25] CT
0.149 GC
2 setlinecap
1 LJ
0.667 LW
N
479.235 481 M
489.53 481 L
S
GR
GS
[0.75 0 0 0.75 0 0.25] CT
0.149 GC
2 setlinecap
1 LJ
0.667 LW
N
479.235 378.047 M
489.53 378.047 L
S
GR
GS
[0.75 0 0 0.75 0 0.25] CT
0.149 GC
2 setlinecap
1 LJ
0.667 LW
N
479.235 275.094 M
489.53 275.094 L
S
GR
GS
[0.75 0 0 0.75 0 0.25] CT
0.149 GC
2 setlinecap
1 LJ
0.667 LW
N
479.235 172.141 M
489.53 172.141 L
S
GR
GS
[0.75 0 0 0.75 352.42639 592.64417] CT
0.149 GC
/Helvetica 33.333 F
GS
[1 0 0 1 0 0] CT
-22 11.5 moveto 
1 -1 scale
(0) t 
GR
GR
GS
[0.75 0 0 0.75 352.42639 515.42946] CT
0.149 GC
/Helvetica 33.333 F
GS
[1 0 0 1 0 0] CT
-22 11.5 moveto 
1 -1 scale
(2) t 
GR
GR
GS
[0.75 0 0 0.75 352.42639 438.21471] CT
0.149 GC
/Helvetica 33.333 F
GS
[1 0 0 1 0 0] CT
-22 11.5 moveto 
1 -1 scale
(4) t 
GR
GR
GS
[0.75 0 0 0.75 352.42639 361] CT
0.149 GC
/Helvetica 33.333 F
GS
[1 0 0 1 0 0] CT
-22 11.5 moveto 
1 -1 scale
(6) t 
GR
GR
GS
[0.75 0 0 0.75 352.42639 283.78527] CT
0.149 GC
/Helvetica 33.333 F
GS
[1 0 0 1 0 0] CT
-22 11.5 moveto 
1 -1 scale
(8) t 
GR
GR
GS
[0.75 0 0 0.75 352.42639 206.57054] CT
0.149 GC
/Helvetica 33.333 F
GS
[1 0 0 1 0 0] CT
-43 11.5 moveto 
1 -1 scale
(10) t 
GR
GR
GS
[0.75 0 0 0.75 352.42639 129.35582] CT
0.149 GC
/Helvetica 33.333 F
GS
[1 0 0 1 0 0] CT
-43 11.5 moveto 
1 -1 scale
(12) t 
GR
GR
GS
[0 -0.75 0.75 0 317.17639 360.99973] CT
0.149 GC
/Helvetica 36.667 F
GS
[1 0 0 1 0 0] CT
-21 -9 moveto 
1 -1 scale
(Ys) t 
GR
GR
GS
[0.75 0 0 0.75 899.92941 361] CT
1 0 0 RC
N
0 -26.66 M
-23.088 13.33 L
23.088 13.33 L
cp
f
GR
GS
[0.75 0 0 0.75 899.92941 361] CT
0 0 1 RC
10.0 ML
0.667 LW
N
0 -26.66 M
-23.088 13.33 L
23.088 13.33 L
cp
S
GR
GS
[0.75 0 0 0.75 938.53683 322.39265] CT
1 0 0 RC
N
/f-1996900118{0 -26.66 M
-23.088 13.33 L
23.088 13.33 L
cp}def
f-1996900118
f
GR
GS
[0.75 0 0 0.75 938.53683 322.39265] CT
0 0 1 RC
10.0 ML
0.667 LW
N
0 -26.66 M
-23.088 13.33 L
23.088 13.33 L
cp
S
GR
GS
[0.75 0 0 0.75 745.5 206.57054] CT
1 0 0 RC
N
f-1996900118
f
GR
GS
[0.75 0 0 0.75 745.5 206.57054] CT
0 0 1 RC
10.0 ML
0.667 LW
N
0 -26.66 M
-23.088 13.33 L
23.088 13.33 L
cp
S
GR
GS
[0.75 0 0 0.75 938.53683 515.42946] CT
1 0 0 RC
N
f-1996900118
f
GR
GS
[0.75 0 0 0.75 938.53683 515.42946] CT
0 0 1 RC
10.0 ML
0.667 LW
N
0 -26.66 M
-23.088 13.33 L
23.088 13.33 L
cp
S
GR
GS
[0.75 0 0 0.75 591.07054 245.17792] CT
1 0 0 RC
N
f-1996900118
f
GR
GS
[0.75 0 0 0.75 591.07054 245.17792] CT
0 0 1 RC
10.0 ML
0.667 LW
N
0 -26.66 M
-23.088 13.33 L
23.088 13.33 L
cp
S
GR
GS
[0.75 0 0 0.75 668.28529 361] CT
1 0 0 RC
N
f-1996900118
f
GR
GS
[0.75 0 0 0.75 668.28529 361] CT
0 0 1 RC
10.0 ML
0.667 LW
N
0 -26.66 M
-23.088 13.33 L
23.088 13.33 L
cp
S
GR
GS
[0.75 0 0 0.75 591.07054 361] CT
1 0 0 RC
N
f-1996900118
f
GR
GS
[0.75 0 0 0.75 591.07054 361] CT
0 0 1 RC
10.0 ML
0.667 LW
N
0 -26.66 M
-23.088 13.33 L
23.088 13.33 L
cp
S
GR
GS
[0.75 0 0 0.75 861.32208 399.60738] CT
1 0 0 RC
N
f-1996900118
f
GR
GS
[0.75 0 0 0.75 861.32208 399.60738] CT
0 0 1 RC
10.0 ML
0.667 LW
N
0 -26.66 M
-23.088 13.33 L
23.088 13.33 L
cp
S
GR
GS
[0.75 0 0 0.75 685.48526 462.54764] CT
0 1 1 RC
10.0 ML
0.667 LW
N
0 -4 M
0 4 L
-4 0 M
4 0 L
-2.828 -2.828 M
2.828 2.828 L
-2.828 2.828 M
2.828 -2.828 L
S
GR
GS
[0.75 0 0 0.75 0 0.25] CT
0 1 1 RC
1 LJ
0.667 LW
N
917.328 612.815 M
917.542 612.68 L
917.416 612.9 L
S
GR
GS
[0.75 0 0 0.75 0 0.25] CT
0 1 1 RC
1 LJ
0.667 LW
N
913.98 616.397 M
917.542 612.68 L
S
GR
GS
[0.75 0 0 0.75 0 0.25] CT
0 1 1 RC
1 LJ
6.667 LW
N
871.374 616.398 M
872.712 605.801 L
876.643 595.869 L
882.921 587.227 L
891.15 580.418 L
900.813 575.87 L
911.304 573.868 L
921.963 574.538 L
932.12 577.839 L
941.138 583.562 L
948.449 591.348 L
953.594 600.709 L
956.25 611.055 L
956.251 621.736 L
953.595 632.082 L
948.45 641.443 L
941.14 649.23 L
932.123 654.954 L
921.965 658.255 L
911.307 658.926 L
900.816 656.925 L
891.152 652.377 L
882.923 645.568 L
876.645 636.927 L
872.713 626.996 L
871.374 616.398 L
S
GR
GS
[0.75 0 0 0.75 609.50789 462.5475] CT
0 1 1 RC
10.0 ML
0.667 LW
N
0 -4 M
0 4 L
-4 0 M
4 0 L
-2.828 -2.828 M
2.828 2.828 L
-2.828 2.828 M
2.828 -2.828 L
S
GR
GS
[0.75 0 0 0.75 0 0.25] CT
0 1 1 RC
1 LJ
0.667 LW
N
816.025 612.815 M
816.239 612.68 L
816.113 612.899 L
S
GR
GS
[0.75 0 0 0.75 0 0.25] CT
0 1 1 RC
1 LJ
0.667 LW
N
812.677 616.397 M
816.239 612.68 L
S
GR
GS
[0.75 0 0 0.75 0 0.25] CT
0 1 1 RC
1 LJ
6.667 LW
N
770.071 616.398 M
771.41 626.995 L
775.342 636.927 L
781.62 645.568 L
789.849 652.377 L
799.512 656.924 L
810.003 658.926 L
820.662 658.255 L
830.819 654.953 L
839.837 649.23 L
847.147 641.443 L
852.292 632.082 L
854.948 621.736 L
854.947 611.054 L
852.291 600.708 L
847.146 591.348 L
839.834 583.562 L
830.817 577.839 L
820.659 574.538 L
810 573.868 L
799.51 575.87 L
789.846 580.418 L
781.618 587.227 L
775.34 595.869 L
771.409 605.801 L
770.071 616.398 L
S
GR
GS
[0.75 0 0 0.75 682.88686 482.71387] CT
0 0 1 RC
10.0 ML
0.667 LW
N
0 -4 M
0 4 L
-4 0 M
4 0 L
-2.828 -2.828 M
2.828 2.828 L
-2.828 2.828 M
2.828 -2.828 L
S
GR
GS
[0.75 0 0 0.75 0 0.25] CT
0 0 1 RC
1 LJ
0.667 LW
N
913.863 639.703 M
914.077 639.569 L
913.952 639.788 L
S
GR
GS
[0.75 0 0 0.75 0 0.25] CT
0 0 1 RC
1 LJ
0.667 LW
N
910.516 643.285 M
914.077 639.569 L
S
GR
GS
[0.75 0 0 0.75 0 0.25] CT
0 0 1 RC
1 LJ
6.667 LW
N
893.377 643.27 M
893.919 639.008 L
895.504 635.015 L
898.032 631.541 L
901.345 628.806 L
905.234 626.98 L
909.455 626.179 L
913.742 626.452 L
917.827 627.783 L
921.452 630.089 L
924.39 633.223 L
926.457 636.99 L
927.522 641.152 L
927.518 645.448 L
926.446 649.609 L
924.373 653.372 L
921.429 656.501 L
917.8 658.8 L
913.713 660.124 L
909.425 660.39 L
905.205 659.581 L
901.32 657.748 L
898.012 655.007 L
895.49 651.529 L
893.911 647.533 L
893.377 643.27 L
S
GR
GS
[0.75 0 0 0.75 605.8726 482.71382] CT
0 0 1 RC
10.0 ML
0.667 LW
N
0 -4 M
0 4 L
-4 0 M
4 0 L
-2.828 -2.828 M
2.828 2.828 L
-2.828 2.828 M
2.828 -2.828 L
S
GR
GS
[0.75 0 0 0.75 0 0.25] CT
0 0 1 RC
1 LJ
0.667 LW
N
811.178 639.703 M
811.392 639.569 L
811.266 639.788 L
S
GR
GS
[0.75 0 0 0.75 0 0.25] CT
0 0 1 RC
1 LJ
0.667 LW
N
807.83 643.285 M
811.392 639.569 L
S
GR
GS
[0.75 0 0 0.75 0 0.25] CT
0 0 1 RC
1 LJ
6.667 LW
N
790.691 643.27 M
791.233 639.008 L
792.818 635.015 L
795.347 631.541 L
798.659 628.806 L
802.548 626.98 L
806.769 626.178 L
811.057 626.452 L
815.141 627.783 L
818.767 630.089 L
821.705 633.223 L
823.771 636.99 L
824.836 641.152 L
824.832 645.448 L
823.76 649.609 L
821.687 653.372 L
818.743 656.501 L
815.114 658.8 L
811.027 660.124 L
806.739 660.39 L
802.519 659.581 L
798.634 657.748 L
795.326 655.007 L
792.804 651.529 L
791.226 647.533 L
790.691 643.27 L
S
GR
GS
[0.75 0 0 0.75 0 0.25] CT
1 GC
N
/f-79800792{1498 235 M
1498 86 L
1279 86 L
1279 235 L
cp}def
f-79800792
f
GR
GS
[0.75 0 0 0.75 994.5 79.75] CT
/Helvetica-Bold 30 F
GS
[1 0 0 1 0 0] CT
0 10 moveto 
1 -1 scale
(LandMark) t 
GR
GR
GS
[0.75 0 0 0.75 977.25 79.75] CT
1 0 0 RC
N
/f-1214359511{0 -19.995 M
-17.316 9.998 L
17.316 9.998 L
cp}def
f-1214359511
f
GR
GS
[0.75 0 0 0.75 977.25 79.75] CT
0 0 1 RC
10.0 ML
0.667 LW
N
0 -19.995 M
-17.316 9.998 L
17.316 9.998 L
cp
S
GR
GS
[0.75 0 0 0.75 994.5 122.5] CT
/Helvetica-Bold 30 F
GS
[1 0 0 1 0 0] CT
0 0 moveto 
1 -1 scale
(b) t 
GR
GR
GS
[0.75 0 0 0.75 1011 111.25] CT
/Helvetica-Bold 24 F
GS
[1 0 0 1 0 0] CT
0 0 moveto 
1 -1 scale
(-) t 
GR
GR
GS
[0.75 0 0 0.75 1018.5 122.5] CT
/Helvetica-Bold 30 F
GS
[1 0 0 1 0 0] CT
0 0 moveto 
1 -1 scale
([X) t 
GR
GR
GS
[0.75 0 0 0.75 1046.25 133.75] CT
/Helvetica-Bold 24 F
GS
[1 0 0 1 0 0] CT
0 0 moveto 
1 -1 scale
(k) t 
GR
GR
GS
[0.75 0 0 0.75 1058.25 122.5] CT
/Helvetica-Bold 30 F
GS
[1 0 0 1 0 0] CT
0 0 moveto 
1 -1 scale
(]) t 
GR
GR
GS
[0.75 0 0 0.75 0 0.25] CT
0 1 1 RC
1 LJ
6.667 LW
N
1283 154 M
1323 154 L
S
GR
GS
[0.75 0 0 0.75 994.5 160] CT
/Helvetica-Bold 30 F
GS
[1 0 0 1 0 0] CT
0 0 moveto 
1 -1 scale
(b[X) t 
GR
GR
GS
[0.75 0 0 0.75 1038.75 171.25] CT
/Helvetica-Bold 24 F
GS
[1 0 0 1 0 0] CT
0 0 moveto 
1 -1 scale
(k) t 
GR
GR
GS
[0.75 0 0 0.75 1050.75 160] CT
/Helvetica-Bold 30 F
GS
[1 0 0 1 0 0] CT
0 0 moveto 
1 -1 scale
(]) t 
GR
GR
GS
[0.75 0 0 0.75 0 0.25] CT
0 0 1 RC
1 LJ
6.667 LW
N
1283 208.5 M
1323 208.5 L
S
GR
GS
[0.75 0 0 0.75 0 0.25] CT
0.149 GC
10.0 ML
0.667 LW
N
1279 235 M
1279 86 L
1498 86 L
1498 235 L
cp
S
GR
%%Trailer
%%Pages: 1
%%EOF
