%!PS-Adobe-3.0 EPSF-3.0
%%Creator: (MATLAB, The Mathworks, Inc. Version 9.8.0.1380330 \(R2020a\) Update 2. Operating System: Linux)
%%Title: (/home/ohads/ANPL/papers/research/2021 RAL/Figures/TestCase_2/fig_files/Robots_estimation_k_6.epsc)
%%CreationDate: 2021-02-21T16:11:51
%%Pages: (atend)
%%BoundingBox:   290    18  1145   692
%%LanguageLevel: 3
%%EndComments
%%BeginProlog
%%BeginResource: procset (Apache XML Graphics Std ProcSet) 1.2 0
%%Version: 1.2 0
%%Copyright: (Copyright 2001-2003,2010 The Apache Software Foundation. License terms: http://www.apache.org/licenses/LICENSE-2.0)
/bd{bind def}bind def
/ld{load def}bd
/GR/grestore ld
/GS/gsave ld
/RM/rmoveto ld
/C/curveto ld
/t/show ld
/L/lineto ld
/ML/setmiterlimit ld
/CT/concat ld
/f/fill ld
/N/newpath ld
/S/stroke ld
/CC/setcmykcolor ld
/A/ashow ld
/cp/closepath ld
/RC/setrgbcolor ld
/LJ/setlinejoin ld
/GC/setgray ld
/LW/setlinewidth ld
/M/moveto ld
/re {4 2 roll M
1 index 0 rlineto
0 exch rlineto
neg 0 rlineto
cp } bd
/_ctm matrix def
/_tm matrix def
/BT { _ctm currentmatrix pop matrix _tm copy pop 0 0 moveto } bd
/ET { _ctm setmatrix } bd
/iTm { _ctm setmatrix _tm concat } bd
/Tm { _tm astore pop iTm 0 0 moveto } bd
/ux 0.0 def
/uy 0.0 def
/F {
  /Tp exch def
  /Tf exch def
  Tf findfont Tp scalefont setfont
  /cf Tf def  /cs Tp def
} bd
/ULS {currentpoint /uy exch def /ux exch def} bd
/ULE {
  /Tcx currentpoint pop def
  gsave
  newpath
  cf findfont cs scalefont dup
  /FontMatrix get 0 get /Ts exch def /FontInfo get dup
  /UnderlinePosition get Ts mul /To exch def
  /UnderlineThickness get Ts mul /Tt exch def
  ux uy To add moveto  Tcx uy To add lineto
  Tt setlinewidth stroke
  grestore
} bd
/OLE {
  /Tcx currentpoint pop def
  gsave
  newpath
  cf findfont cs scalefont dup
  /FontMatrix get 0 get /Ts exch def /FontInfo get dup
  /UnderlinePosition get Ts mul /To exch def
  /UnderlineThickness get Ts mul /Tt exch def
  ux uy To add cs add moveto Tcx uy To add cs add lineto
  Tt setlinewidth stroke
  grestore
} bd
/SOE {
  /Tcx currentpoint pop def
  gsave
  newpath
  cf findfont cs scalefont dup
  /FontMatrix get 0 get /Ts exch def /FontInfo get dup
  /UnderlinePosition get Ts mul /To exch def
  /UnderlineThickness get Ts mul /Tt exch def
  ux uy To add cs 10 mul 26 idiv add moveto Tcx uy To add cs 10 mul 26 idiv add lineto
  Tt setlinewidth stroke
  grestore
} bd
/QT {
/Y22 exch store
/X22 exch store
/Y21 exch store
/X21 exch store
currentpoint
/Y21 load 2 mul add 3 div exch
/X21 load 2 mul add 3 div exch
/X21 load 2 mul /X22 load add 3 div
/Y21 load 2 mul /Y22 load add 3 div
/X22 load /Y22 load curveto
} bd
/SSPD {
dup length /d exch dict def
{
/v exch def
/k exch def
currentpagedevice k known {
/cpdv currentpagedevice k get def
v cpdv ne {
/upd false def
/nullv v type /nulltype eq def
/nullcpdv cpdv type /nulltype eq def
nullv nullcpdv or
{
/upd true def
} {
/sametype v type cpdv type eq def
sametype {
v type /arraytype eq {
/vlen v length def
/cpdvlen cpdv length def
vlen cpdvlen eq {
0 1 vlen 1 sub {
/i exch def
/obj v i get def
/cpdobj cpdv i get def
obj cpdobj ne {
/upd true def
exit
} if
} for
} {
/upd true def
} ifelse
} {
v type /dicttype eq {
v {
/dv exch def
/dk exch def
/cpddv cpdv dk get def
dv cpddv ne {
/upd true def
exit
} if
} forall
} {
/upd true def
} ifelse
} ifelse
} if
} ifelse
upd true eq {
d k v put
} if
} if
} if
} forall
d length 0 gt {
d setpagedevice
} if
} bd
/RE { % /NewFontName [NewEncodingArray] /FontName RE -
  findfont dup length dict begin
  {
    1 index /FID ne
    {def} {pop pop} ifelse
  } forall
  /Encoding exch def
  /FontName 1 index def
  currentdict definefont pop
  end
} bind def
%%EndResource
%%BeginResource: procset (Apache XML Graphics EPS ProcSet) 1.0 0
%%Version: 1.0 0
%%Copyright: (Copyright 2002-2003 The Apache Software Foundation. License terms: http://www.apache.org/licenses/LICENSE-2.0)
/BeginEPSF { %def
/b4_Inc_state save def         % Save state for cleanup
/dict_count countdictstack def % Count objects on dict stack
/op_count count 1 sub def      % Count objects on operand stack
userdict begin                 % Push userdict on dict stack
/showpage { } def              % Redefine showpage, { } = null proc
0 setgray 0 setlinecap         % Prepare graphics state
1 setlinewidth 0 setlinejoin
10 setmiterlimit [ ] 0 setdash newpath
/languagelevel where           % If level not equal to 1 then
{pop languagelevel             % set strokeadjust and
1 ne                           % overprint to their defaults.
{false setstrokeadjust false setoverprint
} if
} if
} bd
/EndEPSF { %def
count op_count sub {pop} repeat            % Clean up stacks
countdictstack dict_count sub {end} repeat
b4_Inc_state restore
} bd
%%EndResource
%FOPBeginFontDict
%%IncludeResource: font Courier-Oblique
%%IncludeResource: font Courier-BoldOblique
%%IncludeResource: font Courier-Bold
%%IncludeResource: font ZapfDingbats
%%IncludeResource: font Symbol
%%IncludeResource: font Helvetica
%%IncludeResource: font Helvetica-Oblique
%%IncludeResource: font Helvetica-Bold
%%IncludeResource: font Helvetica-BoldOblique
%%IncludeResource: font Times-Roman
%%IncludeResource: font Times-Italic
%%IncludeResource: font Times-Bold
%%IncludeResource: font Times-BoldItalic
%%IncludeResource: font Courier
%FOPEndFontDict
%%BeginResource: encoding WinAnsiEncoding
/WinAnsiEncoding [
/.notdef /.notdef /.notdef /.notdef /.notdef
/.notdef /.notdef /.notdef /.notdef /.notdef
/.notdef /.notdef /.notdef /.notdef /.notdef
/.notdef /.notdef /.notdef /.notdef /.notdef
/.notdef /.notdef /.notdef /.notdef /.notdef
/.notdef /.notdef /.notdef /.notdef /.notdef
/.notdef /.notdef /space /exclam /quotedbl
/numbersign /dollar /percent /ampersand /quotesingle
/parenleft /parenright /asterisk /plus /comma
/hyphen /period /slash /zero /one
/two /three /four /five /six
/seven /eight /nine /colon /semicolon
/less /equal /greater /question /at
/A /B /C /D /E
/F /G /H /I /J
/K /L /M /N /O
/P /Q /R /S /T
/U /V /W /X /Y
/Z /bracketleft /backslash /bracketright /asciicircum
/underscore /quoteleft /a /b /c
/d /e /f /g /h
/i /j /k /l /m
/n /o /p /q /r
/s /t /u /v /w
/x /y /z /braceleft /bar
/braceright /asciitilde /bullet /Euro /bullet
/quotesinglbase /florin /quotedblbase /ellipsis /dagger
/daggerdbl /circumflex /perthousand /Scaron /guilsinglleft
/OE /bullet /Zcaron /bullet /bullet
/quoteleft /quoteright /quotedblleft /quotedblright /bullet
/endash /emdash /asciitilde /trademark /scaron
/guilsinglright /oe /bullet /zcaron /Ydieresis
/space /exclamdown /cent /sterling /currency
/yen /brokenbar /section /dieresis /copyright
/ordfeminine /guillemotleft /logicalnot /sfthyphen /registered
/macron /degree /plusminus /twosuperior /threesuperior
/acute /mu /paragraph /middot /cedilla
/onesuperior /ordmasculine /guillemotright /onequarter /onehalf
/threequarters /questiondown /Agrave /Aacute /Acircumflex
/Atilde /Adieresis /Aring /AE /Ccedilla
/Egrave /Eacute /Ecircumflex /Edieresis /Igrave
/Iacute /Icircumflex /Idieresis /Eth /Ntilde
/Ograve /Oacute /Ocircumflex /Otilde /Odieresis
/multiply /Oslash /Ugrave /Uacute /Ucircumflex
/Udieresis /Yacute /Thorn /germandbls /agrave
/aacute /acircumflex /atilde /adieresis /aring
/ae /ccedilla /egrave /eacute /ecircumflex
/edieresis /igrave /iacute /icircumflex /idieresis
/eth /ntilde /ograve /oacute /ocircumflex
/otilde /odieresis /divide /oslash /ugrave
/uacute /ucircumflex /udieresis /yacute /thorn
/ydieresis
] def
%%EndResource
%FOPBeginFontReencode
/Courier-Oblique findfont
dup length dict begin
  {1 index /FID ne {def} {pop pop} ifelse} forall
  /Encoding WinAnsiEncoding def
  currentdict
end
/Courier-Oblique exch definefont pop
/Courier-BoldOblique findfont
dup length dict begin
  {1 index /FID ne {def} {pop pop} ifelse} forall
  /Encoding WinAnsiEncoding def
  currentdict
end
/Courier-BoldOblique exch definefont pop
/Courier-Bold findfont
dup length dict begin
  {1 index /FID ne {def} {pop pop} ifelse} forall
  /Encoding WinAnsiEncoding def
  currentdict
end
/Courier-Bold exch definefont pop
/Helvetica findfont
dup length dict begin
  {1 index /FID ne {def} {pop pop} ifelse} forall
  /Encoding WinAnsiEncoding def
  currentdict
end
/Helvetica exch definefont pop
/Helvetica-Oblique findfont
dup length dict begin
  {1 index /FID ne {def} {pop pop} ifelse} forall
  /Encoding WinAnsiEncoding def
  currentdict
end
/Helvetica-Oblique exch definefont pop
/Helvetica-Bold findfont
dup length dict begin
  {1 index /FID ne {def} {pop pop} ifelse} forall
  /Encoding WinAnsiEncoding def
  currentdict
end
/Helvetica-Bold exch definefont pop
/Helvetica-BoldOblique findfont
dup length dict begin
  {1 index /FID ne {def} {pop pop} ifelse} forall
  /Encoding WinAnsiEncoding def
  currentdict
end
/Helvetica-BoldOblique exch definefont pop
/Times-Roman findfont
dup length dict begin
  {1 index /FID ne {def} {pop pop} ifelse} forall
  /Encoding WinAnsiEncoding def
  currentdict
end
/Times-Roman exch definefont pop
/Times-Italic findfont
dup length dict begin
  {1 index /FID ne {def} {pop pop} ifelse} forall
  /Encoding WinAnsiEncoding def
  currentdict
end
/Times-Italic exch definefont pop
/Times-Bold findfont
dup length dict begin
  {1 index /FID ne {def} {pop pop} ifelse} forall
  /Encoding WinAnsiEncoding def
  currentdict
end
/Times-Bold exch definefont pop
/Times-BoldItalic findfont
dup length dict begin
  {1 index /FID ne {def} {pop pop} ifelse} forall
  /Encoding WinAnsiEncoding def
  currentdict
end
/Times-BoldItalic exch definefont pop
/Courier findfont
dup length dict begin
  {1 index /FID ne {def} {pop pop} ifelse} forall
  /Encoding WinAnsiEncoding def
  currentdict
end
/Courier exch definefont pop
%FOPEndFontReencode
%%EndProlog
%%Page: 1 1
%%PageBoundingBox: 0 0 1440 748
%%BeginPageSetup
[1 0 0 -1 0 748] CT
%%EndPageSetup
GS
[0.75 0 0 0.75 0 0.25] CT
N
0 0 M
1920 0 L
1920 997 L
0 997 L
0 0 L
cp
clip
1 GC
N
0 0 1920 997 re
f
GR
GS
[0.75 0 0 0.75 0 0.25] CT
1 GC
N
0 0 1920 997 re
f
GR
GS
[0.75 0 0 0.75 0 0.25] CT
1 GC
N
479.235 887 M
1508.765 887 L
1508.765 75 L
479.235 75 L
cp
f
GR
GS
[0.75 0 0 0.75 0 0.25] CT
0.149 GC
2 setlinecap
1 LJ
0.667 LW
N
479.235 887 M
1508.765 887 L
S
GR
GS
[0.75 0 0 0.75 0 0.25] CT
0.149 GC
2 setlinecap
1 LJ
0.667 LW
N
479.235 887 M
479.235 876.705 L
S
GR
GS
[0.75 0 0 0.75 0 0.25] CT
0.149 GC
2 setlinecap
1 LJ
0.667 LW
N
736.618 887 M
736.618 876.705 L
S
GR
GS
[0.75 0 0 0.75 0 0.25] CT
0.149 GC
2 setlinecap
1 LJ
0.667 LW
N
994 887 M
994 876.705 L
S
GR
GS
[0.75 0 0 0.75 0 0.25] CT
0.149 GC
2 setlinecap
1 LJ
0.667 LW
N
1251.382 887 M
1251.382 876.705 L
S
GR
GS
[0.75 0 0 0.75 0 0.25] CT
0.149 GC
2 setlinecap
1 LJ
0.667 LW
N
1508.765 887 M
1508.765 876.705 L
S
GR
GS
[0.75 0 0 0.75 359.42638 672.49998] CT
0.149 GC
/Helvetica 33.333 F
GS
[1 0 0 1 0 0] CT
-17 31 moveto 
1 -1 scale
(-5) t 
GR
GR
GS
[0.75 0 0 0.75 552.46321 672.49998] CT
0.149 GC
/Helvetica 33.333 F
GS
[1 0 0 1 0 0] CT
-11 31 moveto 
1 -1 scale
(0) t 
GR
GR
GS
[0.75 0 0 0.75 745.5 672.49998] CT
0.149 GC
/Helvetica 33.333 F
GS
[1 0 0 1 0 0] CT
-11 31 moveto 
1 -1 scale
(5) t 
GR
GR
GS
[0.75 0 0 0.75 938.53683 672.49998] CT
0.149 GC
/Helvetica 33.333 F
GS
[1 0 0 1 0 0] CT
-21.5 31 moveto 
1 -1 scale
(10) t 
GR
GR
GS
[0.75 0 0 0.75 1131.57358 672.49998] CT
0.149 GC
/Helvetica 33.333 F
GS
[1 0 0 1 0 0] CT
-21.5 31 moveto 
1 -1 scale
(15) t 
GR
GR
GS
[0.75 0 0 0.75 745.50037 702.75002] CT
0.149 GC
/Helvetica 36.667 F
GS
[1 0 0 1 0 0] CT
-22.5 35 moveto 
1 -1 scale
(Xs) t 
GR
GR
GS
[0.75 0 0 0.75 0 0.25] CT
0.149 GC
2 setlinecap
1 LJ
0.667 LW
N
479.235 887 M
479.235 75 L
S
GR
GS
[0.75 0 0 0.75 0 0.25] CT
0.149 GC
2 setlinecap
1 LJ
0.667 LW
N
479.235 789.859 M
489.53 789.859 L
S
GR
GS
[0.75 0 0 0.75 0 0.25] CT
0.149 GC
2 setlinecap
1 LJ
0.667 LW
N
479.235 686.906 M
489.53 686.906 L
S
GR
GS
[0.75 0 0 0.75 0 0.25] CT
0.149 GC
2 setlinecap
1 LJ
0.667 LW
N
479.235 583.953 M
489.53 583.953 L
S
GR
GS
[0.75 0 0 0.75 0 0.25] CT
0.149 GC
2 setlinecap
1 LJ
0.667 LW
N
479.235 481 M
489.53 481 L
S
GR
GS
[0.75 0 0 0.75 0 0.25] CT
0.149 GC
2 setlinecap
1 LJ
0.667 LW
N
479.235 378.047 M
489.53 378.047 L
S
GR
GS
[0.75 0 0 0.75 0 0.25] CT
0.149 GC
2 setlinecap
1 LJ
0.667 LW
N
479.235 275.094 M
489.53 275.094 L
S
GR
GS
[0.75 0 0 0.75 0 0.25] CT
0.149 GC
2 setlinecap
1 LJ
0.667 LW
N
479.235 172.141 M
489.53 172.141 L
S
GR
GS
[0.75 0 0 0.75 352.42639 592.64417] CT
0.149 GC
/Helvetica 33.333 F
GS
[1 0 0 1 0 0] CT
-22 11.5 moveto 
1 -1 scale
(0) t 
GR
GR
GS
[0.75 0 0 0.75 352.42639 515.42946] CT
0.149 GC
/Helvetica 33.333 F
GS
[1 0 0 1 0 0] CT
-22 11.5 moveto 
1 -1 scale
(2) t 
GR
GR
GS
[0.75 0 0 0.75 352.42639 438.21471] CT
0.149 GC
/Helvetica 33.333 F
GS
[1 0 0 1 0 0] CT
-22 11.5 moveto 
1 -1 scale
(4) t 
GR
GR
GS
[0.75 0 0 0.75 352.42639 361] CT
0.149 GC
/Helvetica 33.333 F
GS
[1 0 0 1 0 0] CT
-22 11.5 moveto 
1 -1 scale
(6) t 
GR
GR
GS
[0.75 0 0 0.75 352.42639 283.78527] CT
0.149 GC
/Helvetica 33.333 F
GS
[1 0 0 1 0 0] CT
-22 11.5 moveto 
1 -1 scale
(8) t 
GR
GR
GS
[0.75 0 0 0.75 352.42639 206.57054] CT
0.149 GC
/Helvetica 33.333 F
GS
[1 0 0 1 0 0] CT
-43 11.5 moveto 
1 -1 scale
(10) t 
GR
GR
GS
[0.75 0 0 0.75 352.42639 129.35582] CT
0.149 GC
/Helvetica 33.333 F
GS
[1 0 0 1 0 0] CT
-43 11.5 moveto 
1 -1 scale
(12) t 
GR
GR
GS
[0 -0.75 0.75 0 317.17639 360.99973] CT
0.149 GC
/Helvetica 36.667 F
GS
[1 0 0 1 0 0] CT
-21 -9 moveto 
1 -1 scale
(Ys) t 
GR
GR
GS
[0.75 0 0 0.75 899.92941 361] CT
1 0 0 RC
N
0 -26.66 M
-23.088 13.33 L
23.088 13.33 L
cp
f
GR
GS
[0.75 0 0 0.75 899.92941 361] CT
0 0 1 RC
10.0 ML
0.667 LW
N
0 -26.66 M
-23.088 13.33 L
23.088 13.33 L
cp
S
GR
GS
[0.75 0 0 0.75 938.53683 322.39265] CT
1 0 0 RC
N
/f-1996900118{0 -26.66 M
-23.088 13.33 L
23.088 13.33 L
cp}def
f-1996900118
f
GR
GS
[0.75 0 0 0.75 938.53683 322.39265] CT
0 0 1 RC
10.0 ML
0.667 LW
N
0 -26.66 M
-23.088 13.33 L
23.088 13.33 L
cp
S
GR
GS
[0.75 0 0 0.75 745.5 206.57054] CT
1 0 0 RC
N
f-1996900118
f
GR
GS
[0.75 0 0 0.75 745.5 206.57054] CT
0 0 1 RC
10.0 ML
0.667 LW
N
0 -26.66 M
-23.088 13.33 L
23.088 13.33 L
cp
S
GR
GS
[0.75 0 0 0.75 938.53683 515.42946] CT
1 0 0 RC
N
f-1996900118
f
GR
GS
[0.75 0 0 0.75 938.53683 515.42946] CT
0 0 1 RC
10.0 ML
0.667 LW
N
0 -26.66 M
-23.088 13.33 L
23.088 13.33 L
cp
S
GR
GS
[0.75 0 0 0.75 591.07054 245.17792] CT
1 0 0 RC
N
f-1996900118
f
GR
GS
[0.75 0 0 0.75 591.07054 245.17792] CT
0 0 1 RC
10.0 ML
0.667 LW
N
0 -26.66 M
-23.088 13.33 L
23.088 13.33 L
cp
S
GR
GS
[0.75 0 0 0.75 668.28529 361] CT
1 0 0 RC
N
f-1996900118
f
GR
GS
[0.75 0 0 0.75 668.28529 361] CT
0 0 1 RC
10.0 ML
0.667 LW
N
0 -26.66 M
-23.088 13.33 L
23.088 13.33 L
cp
S
GR
GS
[0.75 0 0 0.75 591.07054 361] CT
1 0 0 RC
N
f-1996900118
f
GR
GS
[0.75 0 0 0.75 591.07054 361] CT
0 0 1 RC
10.0 ML
0.667 LW
N
0 -26.66 M
-23.088 13.33 L
23.088 13.33 L
cp
S
GR
GS
[0.75 0 0 0.75 861.32208 399.60738] CT
1 0 0 RC
N
f-1996900118
f
GR
GS
[0.75 0 0 0.75 861.32208 399.60738] CT
0 0 1 RC
10.0 ML
0.667 LW
N
0 -26.66 M
-23.088 13.33 L
23.088 13.33 L
cp
S
GR
GS
[0.75 0 0 0.75 774.13522 414.00587] CT
0 1 1 RC
10.0 ML
0.667 LW
N
0 -4 M
0 4 L
-4 0 M
4 0 L
-2.828 -2.828 M
2.828 2.828 L
-2.828 2.828 M
2.828 -2.828 L
S
GR
GS
[0.75 0 0 0.75 0 0.25] CT
0 1 1 RC
1 LJ
0.667 LW
N
1036.719 553.329 M
1036.987 553.517 L
1036.662 553.477 L
S
GR
GS
[0.75 0 0 0.75 0 0.25] CT
0 1 1 RC
1 LJ
0.667 LW
N
1032.18 551.674 M
1036.987 553.517 L
S
GR
GS
[0.75 0 0 0.75 0 0.25] CT
0 1 1 RC
1 LJ
6.667 LW
N
992.802 567.926 M
989.998 557.622 L
989.844 546.945 L
992.35 536.565 L
997.359 527.134 L
1004.556 519.246 L
1013.489 513.395 L
1023.596 509.949 L
1034.242 509.125 L
1044.759 510.974 L
1054.485 515.381 L
1062.811 522.068 L
1069.211 530.616 L
1073.285 540.487 L
1074.776 551.06 L
1073.59 561.673 L
1069.803 571.657 L
1063.651 580.385 L
1055.522 587.31 L
1045.927 591.995 L
1035.468 594.147 L
1024.802 593.63 L
1014.6 590.477 L
1005.502 584.886 L
998.081 577.208 L
992.802 567.926 L
S
GR
GS
[0.75 0 0 0.75 741.77673 446.36436] CT
0 1 1 RC
10.0 ML
0.667 LW
N
0 -4 M
0 4 L
-4 0 M
4 0 L
-2.828 -2.828 M
2.828 2.828 L
-2.828 2.828 M
2.828 -2.828 L
S
GR
GS
[0.75 0 0 0.75 0 0.25] CT
0 1 1 RC
1 LJ
0.667 LW
N
993.575 596.474 M
993.842 596.661 L
993.518 596.622 L
S
GR
GS
[0.75 0 0 0.75 0 0.25] CT
0 1 1 RC
1 LJ
0.667 LW
N
989.036 594.819 M
993.842 596.661 L
S
GR
GS
[0.75 0 0 0.75 0 0.25] CT
0 1 1 RC
1 LJ
6.667 LW
N
949.526 610.747 M
946.806 600.421 L
946.74 589.743 L
949.331 579.384 L
954.417 569.994 L
961.678 562.165 L
970.658 556.387 L
980.793 553.025 L
991.446 552.288 L
1001.948 554.223 L
1011.638 558.71 L
1019.908 565.465 L
1026.238 574.065 L
1030.23 583.969 L
1031.635 594.554 L
1030.362 605.157 L
1026.493 615.109 L
1020.27 623.787 L
1012.085 630.645 L
1002.451 635.251 L
991.975 637.317 L
981.314 636.713 L
971.138 633.477 L
962.086 627.811 L
954.728 620.072 L
949.526 610.747 L
S
GR
GS
[0.75 0 0 0.75 772.11804 414.00615] CT
0 1 1 RC
10.0 ML
0.667 LW
N
0 -4 M
0 4 L
-4 0 M
4 0 L
-2.828 -2.828 M
2.828 2.828 L
-2.828 2.828 M
2.828 -2.828 L
S
GR
GS
[0.75 0 0 0.75 0 0.25] CT
0 1 1 RC
1 LJ
0.667 LW
N
1034.03 553.329 M
1034.297 553.517 L
1033.973 553.477 L
S
GR
GS
[0.75 0 0 0.75 0 0.25] CT
0 1 1 RC
1 LJ
0.667 LW
N
1029.491 551.675 M
1034.297 553.517 L
S
GR
GS
[0.75 0 0 0.75 0 0.25] CT
0 1 1 RC
1 LJ
6.667 LW
N
989.753 567.025 M
994.819 576.426 L
1002.063 584.271 L
1011.031 590.067 L
1021.159 593.452 L
1031.81 594.211 L
1042.316 592.298 L
1052.016 587.832 L
1060.3 581.095 L
1066.648 572.509 L
1070.662 562.613 L
1072.089 552.031 L
1070.839 541.426 L
1066.991 531.465 L
1060.787 522.774 L
1052.616 515.899 L
1042.993 511.272 L
1032.521 509.183 L
1021.858 509.765 L
1011.675 512.979 L
1002.612 518.626 L
995.237 526.348 L
990.015 535.663 L
987.273 545.983 L
987.184 556.661 L
989.753 567.025 L
S
GR
GS
[0.75 0 0 0.75 761.64272 414.00592] CT
0 1 1 RC
10.0 ML
0.667 LW
N
0 -4 M
0 4 L
-4 0 M
4 0 L
-2.828 -2.828 M
2.828 2.828 L
-2.828 2.828 M
2.828 -2.828 L
S
GR
GS
[0.75 0 0 0.75 0 0.25] CT
0 1 1 RC
1 LJ
0.667 LW
N
1020.063 553.329 M
1020.33 553.517 L
1020.006 553.477 L
S
GR
GS
[0.75 0 0 0.75 0 0.25] CT
0 1 1 RC
1 LJ
0.667 LW
N
1015.524 551.675 M
1020.33 553.517 L
S
GR
GS
[0.75 0 0 0.75 0 0.25] CT
0 1 1 RC
1 LJ
6.667 LW
N
975.744 566.916 M
980.784 576.33 L
988.007 584.195 L
996.959 590.016 L
1007.077 593.428 L
1017.726 594.217 L
1028.237 592.333 L
1037.949 587.894 L
1046.252 581.179 L
1052.624 572.61 L
1056.665 562.726 L
1058.121 552.147 L
1056.9 541.539 L
1053.079 531.568 L
1046.899 522.86 L
1038.748 515.962 L
1029.137 511.309 L
1018.67 509.191 L
1008.006 509.743 L
997.815 512.93 L
988.736 518.552 L
981.34 526.254 L
976.092 535.554 L
973.322 545.867 L
973.203 556.544 L
975.744 566.916 L
S
GR
GS
[0.75 0 0 0.75 729.28427 446.36432] CT
0 1 1 RC
10.0 ML
0.667 LW
N
0 -4 M
0 4 L
-4 0 M
4 0 L
-2.828 -2.828 M
2.828 2.828 L
-2.828 2.828 M
2.828 -2.828 L
S
GR
GS
[0.75 0 0 0.75 0 0.25] CT
0 1 1 RC
1 LJ
0.667 LW
N
976.918 596.474 M
977.186 596.661 L
976.861 596.622 L
S
GR
GS
[0.75 0 0 0.75 0 0.25] CT
0 1 1 RC
1 LJ
0.667 LW
N
972.379 594.819 M
977.186 596.661 L
S
GR
GS
[0.75 0 0 0.75 0 0.25] CT
0 1 1 RC
1 LJ
6.667 LW
N
932.456 609.682 M
937.407 619.144 L
944.555 627.077 L
953.451 632.983 L
963.537 636.491 L
974.178 637.381 L
984.706 635.596 L
994.46 631.249 L
1002.826 624.614 L
1009.279 616.106 L
1013.414 606.26 L
1014.97 595.696 L
1013.85 585.077 L
1010.124 575.069 L
1004.027 566.303 L
995.941 559.329 L
986.374 554.584 L
975.929 552.368 L
965.26 552.819 L
955.038 555.909 L
945.906 561.444 L
938.438 569.076 L
933.102 578.325 L
930.234 588.611 L
930.014 599.287 L
932.456 609.682 L
S
GR
GS
[0.75 0 0 0.75 750.22993 379.31325] CT
0 0 1 RC
10.0 ML
0.667 LW
N
0 -4 M
0 4 L
-4 0 M
4 0 L
-2.828 -2.828 M
2.828 2.828 L
-2.828 2.828 M
2.828 -2.828 L
S
GR
GS
[0.75 0 0 0.75 0 0.25] CT
0 0 1 RC
1 LJ
0.667 LW
N
1004.845 507.072 M
1005.113 507.26 L
1004.789 507.22 L
S
GR
GS
[0.75 0 0 0.75 0 0.25] CT
0 0 1 RC
1 LJ
0.667 LW
N
1000.307 505.418 M
1005.113 507.26 L
S
GR
GS
[0.75 0 0 0.75 0 0.25] CT
0 0 1 RC
1 LJ
6.667 LW
N
983.285 507.419 M
984.318 511.589 L
986.355 515.372 L
989.269 518.529 L
992.876 520.862 L
996.95 522.224 L
1001.235 522.531 L
1005.462 521.762 L
1009.365 519.967 L
1012.699 517.257 L
1015.254 513.803 L
1016.869 509.823 L
1017.445 505.565 L
1016.943 501.299 L
1015.396 497.291 L
1012.901 493.794 L
1009.614 491.027 L
1005.743 489.164 L
1001.53 488.323 L
997.24 488.556 L
993.143 489.848 L
989.496 492.118 L
986.528 495.225 L
984.426 498.971 L
983.322 503.123 L
983.285 507.419 L
S
GR
GS
[0.75 0 0 0.75 712.63417 416.90901] CT
0 0 1 RC
10.0 ML
0.667 LW
N
0 -4 M
0 4 L
-4 0 M
4 0 L
-2.828 -2.828 M
2.828 2.828 L
-2.828 2.828 M
2.828 -2.828 L
S
GR
GS
[0.75 0 0 0.75 0 0.25] CT
0 0 1 RC
1 LJ
0.667 LW
N
954.718 557.2 M
954.986 557.387 L
954.661 557.348 L
S
GR
GS
[0.75 0 0 0.75 0 0.25] CT
0 0 1 RC
1 LJ
0.667 LW
N
950.179 555.545 M
954.986 557.387 L
S
GR
GS
[0.75 0 0 0.75 0 0.25] CT
0 0 1 RC
1 LJ
6.667 LW
N
933.158 557.551 M
933.194 553.255 L
934.297 549.103 L
936.398 545.356 L
939.365 542.249 L
943.012 539.977 L
947.109 538.684 L
951.398 538.45 L
955.612 539.291 L
959.483 541.152 L
962.77 543.918 L
965.266 547.415 L
966.814 551.422 L
967.317 555.689 L
966.743 559.947 L
965.128 563.928 L
962.574 567.382 L
959.241 570.092 L
955.338 571.889 L
951.112 572.659 L
946.826 572.353 L
942.752 570.991 L
939.144 568.659 L
936.229 565.503 L
934.191 561.721 L
933.158 557.551 L
S
GR
GS
[0.75 0 0 0.75 749.90337 379.31382] CT
0 0 1 RC
10.0 ML
0.667 LW
N
0 -4 M
0 4 L
-4 0 M
4 0 L
-2.828 -2.828 M
2.828 2.828 L
-2.828 2.828 M
2.828 -2.828 L
S
GR
GS
[0.75 0 0 0.75 0 0.25] CT
0 0 1 RC
1 LJ
0.667 LW
N
1004.41 507.073 M
1004.678 507.26 L
1004.353 507.221 L
S
GR
GS
[0.75 0 0 0.75 0 0.25] CT
0 0 1 RC
1 LJ
0.667 LW
N
999.871 505.418 M
1004.678 507.26 L
S
GR
GS
[0.75 0 0 0.75 0 0.25] CT
0 0 1 RC
1 LJ
6.667 LW
N
982.848 507.404 M
982.889 503.108 L
983.997 498.957 L
986.103 495.212 L
989.073 492.109 L
992.723 489.842 L
996.821 488.553 L
1001.111 488.325 L
1005.323 489.17 L
1009.193 491.036 L
1012.476 493.806 L
1014.968 497.306 L
1016.511 501.315 L
1017.009 505.582 L
1016.43 509.839 L
1014.81 513.818 L
1012.252 517.27 L
1008.916 519.976 L
1005.011 521.768 L
1000.784 522.533 L
996.499 522.222 L
992.426 520.855 L
988.821 518.519 L
985.91 515.359 L
983.876 511.575 L
982.848 507.404 L
S
GR
GS
[0.75 0 0 0.75 748.20753 379.31322] CT
0 0 1 RC
10.0 ML
0.667 LW
N
0 -4 M
0 4 L
-4 0 M
4 0 L
-2.828 -2.828 M
2.828 2.828 L
-2.828 2.828 M
2.828 -2.828 L
S
GR
GS
[0.75 0 0 0.75 0 0.25] CT
0 0 1 RC
1 LJ
0.667 LW
N
1002.149 507.072 M
1002.417 507.26 L
1002.092 507.22 L
S
GR
GS
[0.75 0 0 0.75 0 0.25] CT
0 0 1 RC
1 LJ
0.667 LW
N
997.61 505.418 M
1002.417 507.26 L
S
GR
GS
[0.75 0 0 0.75 0 0.25] CT
0 0 1 RC
1 LJ
6.667 LW
N
980.591 507.437 M
981.628 511.606 L
983.669 515.386 L
986.586 518.54 L
990.196 520.87 L
994.272 522.228 L
998.557 522.53 L
1002.783 521.757 L
1006.684 519.957 L
1010.015 517.244 L
1012.566 513.787 L
1014.178 509.805 L
1014.748 505.547 L
1014.242 501.281 L
1012.691 497.275 L
1010.192 493.78 L
1006.902 491.017 L
1003.029 489.158 L
998.815 488.321 L
994.526 488.559 L
990.43 489.855 L
986.786 492.13 L
983.821 495.239 L
981.723 498.988 L
980.623 503.141 L
980.591 507.437 L
S
GR
GS
[0.75 0 0 0.75 715.84932 411.67178] CT
0 0 1 RC
10.0 ML
0.667 LW
N
0 -4 M
0 4 L
-4 0 M
4 0 L
-2.828 -2.828 M
2.828 2.828 L
-2.828 2.828 M
2.828 -2.828 L
S
GR
GS
[0.75 0 0 0.75 0 0.25] CT
0 0 1 RC
1 LJ
0.667 LW
N
959.005 550.217 M
959.273 550.404 L
958.948 550.365 L
S
GR
GS
[0.75 0 0 0.75 0 0.25] CT
0 0 1 RC
1 LJ
0.667 LW
N
954.466 548.562 M
959.273 550.404 L
S
GR
GS
[0.75 0 0 0.75 0 0.25] CT
0 0 1 RC
1 LJ
6.667 LW
N
937.417 550.316 M
938.389 554.501 L
940.371 558.312 L
943.238 561.511 L
946.811 563.897 L
950.865 565.318 L
955.145 565.687 L
959.383 564.98 L
963.311 563.242 L
966.684 560.581 L
969.289 557.165 L
970.963 553.208 L
971.6 548.959 L
971.16 544.686 L
969.672 540.656 L
967.228 537.123 L
963.982 534.308 L
960.138 532.39 L
955.938 531.487 L
951.645 531.658 L
947.53 532.89 L
943.85 535.107 L
940.838 538.17 L
938.681 541.886 L
937.517 546.021 L
937.417 550.316 L
S
GR
GS
[0.75 0 0 0.75 710.61182 416.90897] CT
0 0 1 RC
10.0 ML
0.667 LW
N
0 -4 M
0 4 L
-4 0 M
4 0 L
-2.828 -2.828 M
2.828 2.828 L
-2.828 2.828 M
2.828 -2.828 L
S
GR
GS
[0.75 0 0 0.75 0 0.25] CT
0 0 1 RC
1 LJ
0.667 LW
N
952.021 557.2 M
952.289 557.387 L
951.965 557.348 L
S
GR
GS
[0.75 0 0 0.75 0 0.25] CT
0 0 1 RC
1 LJ
0.667 LW
N
947.482 555.545 M
952.289 557.387 L
S
GR
GS
[0.75 0 0 0.75 0 0.25] CT
0 0 1 RC
1 LJ
6.667 LW
N
930.46 557.536 M
931.49 561.707 L
933.524 565.49 L
936.436 568.649 L
940.042 570.985 L
944.115 572.35 L
948.4 572.659 L
952.627 571.893 L
956.531 570.1 L
959.867 567.393 L
962.424 563.941 L
964.042 559.961 L
964.62 555.704 L
964.121 551.437 L
962.577 547.428 L
960.084 543.929 L
956.799 541.16 L
952.929 539.295 L
948.717 538.451 L
944.427 538.681 L
940.329 539.971 L
936.681 542.239 L
933.711 545.344 L
931.606 549.089 L
930.5 553.24 L
930.46 557.536 L
S
GR
GS
[0.75 0 0 0.75 0 0.25] CT
1 GC
N
/f-79800792{1498 235 M
1498 86 L
1279 86 L
1279 235 L
cp}def
f-79800792
f
GR
GS
[0.75 0 0 0.75 994.5 79.75] CT
/Helvetica-Bold 30 F
GS
[1 0 0 1 0 0] CT
0 10 moveto 
1 -1 scale
(LandMark) t 
GR
GR
GS
[0.75 0 0 0.75 977.25 79.75] CT
1 0 0 RC
N
/f-1214359511{0 -19.995 M
-17.316 9.998 L
17.316 9.998 L
cp}def
f-1214359511
f
GR
GS
[0.75 0 0 0.75 977.25 79.75] CT
0 0 1 RC
10.0 ML
0.667 LW
N
0 -19.995 M
-17.316 9.998 L
17.316 9.998 L
cp
S
GR
GS
[0.75 0 0 0.75 994.5 122.5] CT
/Helvetica-Bold 30 F
GS
[1 0 0 1 0 0] CT
0 0 moveto 
1 -1 scale
(b) t 
GR
GR
GS
[0.75 0 0 0.75 1011 111.25] CT
/Helvetica-Bold 24 F
GS
[1 0 0 1 0 0] CT
0 0 moveto 
1 -1 scale
(-) t 
GR
GR
GS
[0.75 0 0 0.75 1018.5 122.5] CT
/Helvetica-Bold 30 F
GS
[1 0 0 1 0 0] CT
0 0 moveto 
1 -1 scale
([X) t 
GR
GR
GS
[0.75 0 0 0.75 1046.25 133.75] CT
/Helvetica-Bold 24 F
GS
[1 0 0 1 0 0] CT
0 0 moveto 
1 -1 scale
(k) t 
GR
GR
GS
[0.75 0 0 0.75 1058.25 122.5] CT
/Helvetica-Bold 30 F
GS
[1 0 0 1 0 0] CT
0 0 moveto 
1 -1 scale
(]) t 
GR
GR
GS
[0.75 0 0 0.75 0 0.25] CT
0 1 1 RC
1 LJ
6.667 LW
N
1283 154 M
1323 154 L
S
GR
GS
[0.75 0 0 0.75 994.5 160] CT
/Helvetica-Bold 30 F
GS
[1 0 0 1 0 0] CT
0 0 moveto 
1 -1 scale
(b[X) t 
GR
GR
GS
[0.75 0 0 0.75 1038.75 171.25] CT
/Helvetica-Bold 24 F
GS
[1 0 0 1 0 0] CT
0 0 moveto 
1 -1 scale
(k) t 
GR
GR
GS
[0.75 0 0 0.75 1050.75 160] CT
/Helvetica-Bold 30 F
GS
[1 0 0 1 0 0] CT
0 0 moveto 
1 -1 scale
(]) t 
GR
GR
GS
[0.75 0 0 0.75 0 0.25] CT
0 0 1 RC
1 LJ
6.667 LW
N
1283 208.5 M
1323 208.5 L
S
GR
GS
[0.75 0 0 0.75 0 0.25] CT
0.149 GC
10.0 ML
0.667 LW
N
1279 235 M
1279 86 L
1498 86 L
1498 235 L
cp
S
GR
%%Trailer
%%Pages: 1
%%EOF
