%!PS-Adobe-3.0 EPSF-3.0
%%Creator: (MATLAB, The Mathworks, Inc. Version 9.8.0.1380330 \(R2020a\) Update 2. Operating System: Linux)
%%Title: (/home/ohads/ANPL/papers/research/2021 RAL/Figures/TestCase_2/fig_files/Robots_estimation_k_9.epsc)
%%CreationDate: 2021-02-21T16:13:02
%%Pages: (atend)
%%BoundingBox:   290    18  1145   692
%%LanguageLevel: 3
%%EndComments
%%BeginProlog
%%BeginResource: procset (Apache XML Graphics Std ProcSet) 1.2 0
%%Version: 1.2 0
%%Copyright: (Copyright 2001-2003,2010 The Apache Software Foundation. License terms: http://www.apache.org/licenses/LICENSE-2.0)
/bd{bind def}bind def
/ld{load def}bd
/GR/grestore ld
/GS/gsave ld
/RM/rmoveto ld
/C/curveto ld
/t/show ld
/L/lineto ld
/ML/setmiterlimit ld
/CT/concat ld
/f/fill ld
/N/newpath ld
/S/stroke ld
/CC/setcmykcolor ld
/A/ashow ld
/cp/closepath ld
/RC/setrgbcolor ld
/LJ/setlinejoin ld
/GC/setgray ld
/LW/setlinewidth ld
/M/moveto ld
/re {4 2 roll M
1 index 0 rlineto
0 exch rlineto
neg 0 rlineto
cp } bd
/_ctm matrix def
/_tm matrix def
/BT { _ctm currentmatrix pop matrix _tm copy pop 0 0 moveto } bd
/ET { _ctm setmatrix } bd
/iTm { _ctm setmatrix _tm concat } bd
/Tm { _tm astore pop iTm 0 0 moveto } bd
/ux 0.0 def
/uy 0.0 def
/F {
  /Tp exch def
  /Tf exch def
  Tf findfont Tp scalefont setfont
  /cf Tf def  /cs Tp def
} bd
/ULS {currentpoint /uy exch def /ux exch def} bd
/ULE {
  /Tcx currentpoint pop def
  gsave
  newpath
  cf findfont cs scalefont dup
  /FontMatrix get 0 get /Ts exch def /FontInfo get dup
  /UnderlinePosition get Ts mul /To exch def
  /UnderlineThickness get Ts mul /Tt exch def
  ux uy To add moveto  Tcx uy To add lineto
  Tt setlinewidth stroke
  grestore
} bd
/OLE {
  /Tcx currentpoint pop def
  gsave
  newpath
  cf findfont cs scalefont dup
  /FontMatrix get 0 get /Ts exch def /FontInfo get dup
  /UnderlinePosition get Ts mul /To exch def
  /UnderlineThickness get Ts mul /Tt exch def
  ux uy To add cs add moveto Tcx uy To add cs add lineto
  Tt setlinewidth stroke
  grestore
} bd
/SOE {
  /Tcx currentpoint pop def
  gsave
  newpath
  cf findfont cs scalefont dup
  /FontMatrix get 0 get /Ts exch def /FontInfo get dup
  /UnderlinePosition get Ts mul /To exch def
  /UnderlineThickness get Ts mul /Tt exch def
  ux uy To add cs 10 mul 26 idiv add moveto Tcx uy To add cs 10 mul 26 idiv add lineto
  Tt setlinewidth stroke
  grestore
} bd
/QT {
/Y22 exch store
/X22 exch store
/Y21 exch store
/X21 exch store
currentpoint
/Y21 load 2 mul add 3 div exch
/X21 load 2 mul add 3 div exch
/X21 load 2 mul /X22 load add 3 div
/Y21 load 2 mul /Y22 load add 3 div
/X22 load /Y22 load curveto
} bd
/SSPD {
dup length /d exch dict def
{
/v exch def
/k exch def
currentpagedevice k known {
/cpdv currentpagedevice k get def
v cpdv ne {
/upd false def
/nullv v type /nulltype eq def
/nullcpdv cpdv type /nulltype eq def
nullv nullcpdv or
{
/upd true def
} {
/sametype v type cpdv type eq def
sametype {
v type /arraytype eq {
/vlen v length def
/cpdvlen cpdv length def
vlen cpdvlen eq {
0 1 vlen 1 sub {
/i exch def
/obj v i get def
/cpdobj cpdv i get def
obj cpdobj ne {
/upd true def
exit
} if
} for
} {
/upd true def
} ifelse
} {
v type /dicttype eq {
v {
/dv exch def
/dk exch def
/cpddv cpdv dk get def
dv cpddv ne {
/upd true def
exit
} if
} forall
} {
/upd true def
} ifelse
} ifelse
} if
} ifelse
upd true eq {
d k v put
} if
} if
} if
} forall
d length 0 gt {
d setpagedevice
} if
} bd
/RE { % /NewFontName [NewEncodingArray] /FontName RE -
  findfont dup length dict begin
  {
    1 index /FID ne
    {def} {pop pop} ifelse
  } forall
  /Encoding exch def
  /FontName 1 index def
  currentdict definefont pop
  end
} bind def
%%EndResource
%%BeginResource: procset (Apache XML Graphics EPS ProcSet) 1.0 0
%%Version: 1.0 0
%%Copyright: (Copyright 2002-2003 The Apache Software Foundation. License terms: http://www.apache.org/licenses/LICENSE-2.0)
/BeginEPSF { %def
/b4_Inc_state save def         % Save state for cleanup
/dict_count countdictstack def % Count objects on dict stack
/op_count count 1 sub def      % Count objects on operand stack
userdict begin                 % Push userdict on dict stack
/showpage { } def              % Redefine showpage, { } = null proc
0 setgray 0 setlinecap         % Prepare graphics state
1 setlinewidth 0 setlinejoin
10 setmiterlimit [ ] 0 setdash newpath
/languagelevel where           % If level not equal to 1 then
{pop languagelevel             % set strokeadjust and
1 ne                           % overprint to their defaults.
{false setstrokeadjust false setoverprint
} if
} if
} bd
/EndEPSF { %def
count op_count sub {pop} repeat            % Clean up stacks
countdictstack dict_count sub {end} repeat
b4_Inc_state restore
} bd
%%EndResource
%FOPBeginFontDict
%%IncludeResource: font Courier-Oblique
%%IncludeResource: font Courier-BoldOblique
%%IncludeResource: font Courier-Bold
%%IncludeResource: font ZapfDingbats
%%IncludeResource: font Symbol
%%IncludeResource: font Helvetica
%%IncludeResource: font Helvetica-Oblique
%%IncludeResource: font Helvetica-Bold
%%IncludeResource: font Helvetica-BoldOblique
%%IncludeResource: font Times-Roman
%%IncludeResource: font Times-Italic
%%IncludeResource: font Times-Bold
%%IncludeResource: font Times-BoldItalic
%%IncludeResource: font Courier
%FOPEndFontDict
%%BeginResource: encoding WinAnsiEncoding
/WinAnsiEncoding [
/.notdef /.notdef /.notdef /.notdef /.notdef
/.notdef /.notdef /.notdef /.notdef /.notdef
/.notdef /.notdef /.notdef /.notdef /.notdef
/.notdef /.notdef /.notdef /.notdef /.notdef
/.notdef /.notdef /.notdef /.notdef /.notdef
/.notdef /.notdef /.notdef /.notdef /.notdef
/.notdef /.notdef /space /exclam /quotedbl
/numbersign /dollar /percent /ampersand /quotesingle
/parenleft /parenright /asterisk /plus /comma
/hyphen /period /slash /zero /one
/two /three /four /five /six
/seven /eight /nine /colon /semicolon
/less /equal /greater /question /at
/A /B /C /D /E
/F /G /H /I /J
/K /L /M /N /O
/P /Q /R /S /T
/U /V /W /X /Y
/Z /bracketleft /backslash /bracketright /asciicircum
/underscore /quoteleft /a /b /c
/d /e /f /g /h
/i /j /k /l /m
/n /o /p /q /r
/s /t /u /v /w
/x /y /z /braceleft /bar
/braceright /asciitilde /bullet /Euro /bullet
/quotesinglbase /florin /quotedblbase /ellipsis /dagger
/daggerdbl /circumflex /perthousand /Scaron /guilsinglleft
/OE /bullet /Zcaron /bullet /bullet
/quoteleft /quoteright /quotedblleft /quotedblright /bullet
/endash /emdash /asciitilde /trademark /scaron
/guilsinglright /oe /bullet /zcaron /Ydieresis
/space /exclamdown /cent /sterling /currency
/yen /brokenbar /section /dieresis /copyright
/ordfeminine /guillemotleft /logicalnot /sfthyphen /registered
/macron /degree /plusminus /twosuperior /threesuperior
/acute /mu /paragraph /middot /cedilla
/onesuperior /ordmasculine /guillemotright /onequarter /onehalf
/threequarters /questiondown /Agrave /Aacute /Acircumflex
/Atilde /Adieresis /Aring /AE /Ccedilla
/Egrave /Eacute /Ecircumflex /Edieresis /Igrave
/Iacute /Icircumflex /Idieresis /Eth /Ntilde
/Ograve /Oacute /Ocircumflex /Otilde /Odieresis
/multiply /Oslash /Ugrave /Uacute /Ucircumflex
/Udieresis /Yacute /Thorn /germandbls /agrave
/aacute /acircumflex /atilde /adieresis /aring
/ae /ccedilla /egrave /eacute /ecircumflex
/edieresis /igrave /iacute /icircumflex /idieresis
/eth /ntilde /ograve /oacute /ocircumflex
/otilde /odieresis /divide /oslash /ugrave
/uacute /ucircumflex /udieresis /yacute /thorn
/ydieresis
] def
%%EndResource
%FOPBeginFontReencode
/Courier-Oblique findfont
dup length dict begin
  {1 index /FID ne {def} {pop pop} ifelse} forall
  /Encoding WinAnsiEncoding def
  currentdict
end
/Courier-Oblique exch definefont pop
/Courier-BoldOblique findfont
dup length dict begin
  {1 index /FID ne {def} {pop pop} ifelse} forall
  /Encoding WinAnsiEncoding def
  currentdict
end
/Courier-BoldOblique exch definefont pop
/Courier-Bold findfont
dup length dict begin
  {1 index /FID ne {def} {pop pop} ifelse} forall
  /Encoding WinAnsiEncoding def
  currentdict
end
/Courier-Bold exch definefont pop
/Helvetica findfont
dup length dict begin
  {1 index /FID ne {def} {pop pop} ifelse} forall
  /Encoding WinAnsiEncoding def
  currentdict
end
/Helvetica exch definefont pop
/Helvetica-Oblique findfont
dup length dict begin
  {1 index /FID ne {def} {pop pop} ifelse} forall
  /Encoding WinAnsiEncoding def
  currentdict
end
/Helvetica-Oblique exch definefont pop
/Helvetica-Bold findfont
dup length dict begin
  {1 index /FID ne {def} {pop pop} ifelse} forall
  /Encoding WinAnsiEncoding def
  currentdict
end
/Helvetica-Bold exch definefont pop
/Helvetica-BoldOblique findfont
dup length dict begin
  {1 index /FID ne {def} {pop pop} ifelse} forall
  /Encoding WinAnsiEncoding def
  currentdict
end
/Helvetica-BoldOblique exch definefont pop
/Times-Roman findfont
dup length dict begin
  {1 index /FID ne {def} {pop pop} ifelse} forall
  /Encoding WinAnsiEncoding def
  currentdict
end
/Times-Roman exch definefont pop
/Times-Italic findfont
dup length dict begin
  {1 index /FID ne {def} {pop pop} ifelse} forall
  /Encoding WinAnsiEncoding def
  currentdict
end
/Times-Italic exch definefont pop
/Times-Bold findfont
dup length dict begin
  {1 index /FID ne {def} {pop pop} ifelse} forall
  /Encoding WinAnsiEncoding def
  currentdict
end
/Times-Bold exch definefont pop
/Times-BoldItalic findfont
dup length dict begin
  {1 index /FID ne {def} {pop pop} ifelse} forall
  /Encoding WinAnsiEncoding def
  currentdict
end
/Times-BoldItalic exch definefont pop
/Courier findfont
dup length dict begin
  {1 index /FID ne {def} {pop pop} ifelse} forall
  /Encoding WinAnsiEncoding def
  currentdict
end
/Courier exch definefont pop
%FOPEndFontReencode
%%EndProlog
%%Page: 1 1
%%PageBoundingBox: 0 0 1440 748
%%BeginPageSetup
[1 0 0 -1 0 748] CT
%%EndPageSetup
GS
[0.75 0 0 0.75 0 0.25] CT
N
0 0 M
1920 0 L
1920 997 L
0 997 L
0 0 L
cp
clip
1 GC
N
0 0 1920 997 re
f
GR
GS
[0.75 0 0 0.75 0 0.25] CT
1 GC
N
0 0 1920 997 re
f
GR
GS
[0.75 0 0 0.75 0 0.25] CT
1 GC
N
479.235 887 M
1508.765 887 L
1508.765 75 L
479.235 75 L
cp
f
GR
GS
[0.75 0 0 0.75 0 0.25] CT
0.149 GC
2 setlinecap
1 LJ
0.667 LW
N
479.235 887 M
1508.765 887 L
S
GR
GS
[0.75 0 0 0.75 0 0.25] CT
0.149 GC
2 setlinecap
1 LJ
0.667 LW
N
479.235 887 M
479.235 876.705 L
S
GR
GS
[0.75 0 0 0.75 0 0.25] CT
0.149 GC
2 setlinecap
1 LJ
0.667 LW
N
736.618 887 M
736.618 876.705 L
S
GR
GS
[0.75 0 0 0.75 0 0.25] CT
0.149 GC
2 setlinecap
1 LJ
0.667 LW
N
994 887 M
994 876.705 L
S
GR
GS
[0.75 0 0 0.75 0 0.25] CT
0.149 GC
2 setlinecap
1 LJ
0.667 LW
N
1251.382 887 M
1251.382 876.705 L
S
GR
GS
[0.75 0 0 0.75 0 0.25] CT
0.149 GC
2 setlinecap
1 LJ
0.667 LW
N
1508.765 887 M
1508.765 876.705 L
S
GR
GS
[0.75 0 0 0.75 359.42638 672.49998] CT
0.149 GC
/Helvetica 33.333 F
GS
[1 0 0 1 0 0] CT
-17 31 moveto 
1 -1 scale
(-5) t 
GR
GR
GS
[0.75 0 0 0.75 552.46321 672.49998] CT
0.149 GC
/Helvetica 33.333 F
GS
[1 0 0 1 0 0] CT
-11 31 moveto 
1 -1 scale
(0) t 
GR
GR
GS
[0.75 0 0 0.75 745.5 672.49998] CT
0.149 GC
/Helvetica 33.333 F
GS
[1 0 0 1 0 0] CT
-11 31 moveto 
1 -1 scale
(5) t 
GR
GR
GS
[0.75 0 0 0.75 938.53683 672.49998] CT
0.149 GC
/Helvetica 33.333 F
GS
[1 0 0 1 0 0] CT
-21.5 31 moveto 
1 -1 scale
(10) t 
GR
GR
GS
[0.75 0 0 0.75 1131.57358 672.49998] CT
0.149 GC
/Helvetica 33.333 F
GS
[1 0 0 1 0 0] CT
-21.5 31 moveto 
1 -1 scale
(15) t 
GR
GR
GS
[0.75 0 0 0.75 745.50037 702.75002] CT
0.149 GC
/Helvetica 36.667 F
GS
[1 0 0 1 0 0] CT
-22.5 35 moveto 
1 -1 scale
(Xs) t 
GR
GR
GS
[0.75 0 0 0.75 0 0.25] CT
0.149 GC
2 setlinecap
1 LJ
0.667 LW
N
479.235 887 M
479.235 75 L
S
GR
GS
[0.75 0 0 0.75 0 0.25] CT
0.149 GC
2 setlinecap
1 LJ
0.667 LW
N
479.235 789.859 M
489.53 789.859 L
S
GR
GS
[0.75 0 0 0.75 0 0.25] CT
0.149 GC
2 setlinecap
1 LJ
0.667 LW
N
479.235 686.906 M
489.53 686.906 L
S
GR
GS
[0.75 0 0 0.75 0 0.25] CT
0.149 GC
2 setlinecap
1 LJ
0.667 LW
N
479.235 583.953 M
489.53 583.953 L
S
GR
GS
[0.75 0 0 0.75 0 0.25] CT
0.149 GC
2 setlinecap
1 LJ
0.667 LW
N
479.235 481 M
489.53 481 L
S
GR
GS
[0.75 0 0 0.75 0 0.25] CT
0.149 GC
2 setlinecap
1 LJ
0.667 LW
N
479.235 378.047 M
489.53 378.047 L
S
GR
GS
[0.75 0 0 0.75 0 0.25] CT
0.149 GC
2 setlinecap
1 LJ
0.667 LW
N
479.235 275.094 M
489.53 275.094 L
S
GR
GS
[0.75 0 0 0.75 0 0.25] CT
0.149 GC
2 setlinecap
1 LJ
0.667 LW
N
479.235 172.141 M
489.53 172.141 L
S
GR
GS
[0.75 0 0 0.75 352.42639 592.64417] CT
0.149 GC
/Helvetica 33.333 F
GS
[1 0 0 1 0 0] CT
-22 11.5 moveto 
1 -1 scale
(0) t 
GR
GR
GS
[0.75 0 0 0.75 352.42639 515.42946] CT
0.149 GC
/Helvetica 33.333 F
GS
[1 0 0 1 0 0] CT
-22 11.5 moveto 
1 -1 scale
(2) t 
GR
GR
GS
[0.75 0 0 0.75 352.42639 438.21471] CT
0.149 GC
/Helvetica 33.333 F
GS
[1 0 0 1 0 0] CT
-22 11.5 moveto 
1 -1 scale
(4) t 
GR
GR
GS
[0.75 0 0 0.75 352.42639 361] CT
0.149 GC
/Helvetica 33.333 F
GS
[1 0 0 1 0 0] CT
-22 11.5 moveto 
1 -1 scale
(6) t 
GR
GR
GS
[0.75 0 0 0.75 352.42639 283.78527] CT
0.149 GC
/Helvetica 33.333 F
GS
[1 0 0 1 0 0] CT
-22 11.5 moveto 
1 -1 scale
(8) t 
GR
GR
GS
[0.75 0 0 0.75 352.42639 206.57054] CT
0.149 GC
/Helvetica 33.333 F
GS
[1 0 0 1 0 0] CT
-43 11.5 moveto 
1 -1 scale
(10) t 
GR
GR
GS
[0.75 0 0 0.75 352.42639 129.35582] CT
0.149 GC
/Helvetica 33.333 F
GS
[1 0 0 1 0 0] CT
-43 11.5 moveto 
1 -1 scale
(12) t 
GR
GR
GS
[0 -0.75 0.75 0 317.17639 360.99973] CT
0.149 GC
/Helvetica 36.667 F
GS
[1 0 0 1 0 0] CT
-21 -9 moveto 
1 -1 scale
(Ys) t 
GR
GR
GS
[0.75 0 0 0.75 899.92941 361] CT
1 0 0 RC
N
0 -26.66 M
-23.088 13.33 L
23.088 13.33 L
cp
f
GR
GS
[0.75 0 0 0.75 899.92941 361] CT
0 0 1 RC
10.0 ML
0.667 LW
N
0 -26.66 M
-23.088 13.33 L
23.088 13.33 L
cp
S
GR
GS
[0.75 0 0 0.75 938.53683 322.39265] CT
1 0 0 RC
N
/f-1996900118{0 -26.66 M
-23.088 13.33 L
23.088 13.33 L
cp}def
f-1996900118
f
GR
GS
[0.75 0 0 0.75 938.53683 322.39265] CT
0 0 1 RC
10.0 ML
0.667 LW
N
0 -26.66 M
-23.088 13.33 L
23.088 13.33 L
cp
S
GR
GS
[0.75 0 0 0.75 745.5 206.57054] CT
1 0 0 RC
N
f-1996900118
f
GR
GS
[0.75 0 0 0.75 745.5 206.57054] CT
0 0 1 RC
10.0 ML
0.667 LW
N
0 -26.66 M
-23.088 13.33 L
23.088 13.33 L
cp
S
GR
GS
[0.75 0 0 0.75 938.53683 515.42946] CT
1 0 0 RC
N
f-1996900118
f
GR
GS
[0.75 0 0 0.75 938.53683 515.42946] CT
0 0 1 RC
10.0 ML
0.667 LW
N
0 -26.66 M
-23.088 13.33 L
23.088 13.33 L
cp
S
GR
GS
[0.75 0 0 0.75 591.07054 245.17792] CT
1 0 0 RC
N
f-1996900118
f
GR
GS
[0.75 0 0 0.75 591.07054 245.17792] CT
0 0 1 RC
10.0 ML
0.667 LW
N
0 -26.66 M
-23.088 13.33 L
23.088 13.33 L
cp
S
GR
GS
[0.75 0 0 0.75 668.28529 361] CT
1 0 0 RC
N
f-1996900118
f
GR
GS
[0.75 0 0 0.75 668.28529 361] CT
0 0 1 RC
10.0 ML
0.667 LW
N
0 -26.66 M
-23.088 13.33 L
23.088 13.33 L
cp
S
GR
GS
[0.75 0 0 0.75 591.07054 361] CT
1 0 0 RC
N
f-1996900118
f
GR
GS
[0.75 0 0 0.75 591.07054 361] CT
0 0 1 RC
10.0 ML
0.667 LW
N
0 -26.66 M
-23.088 13.33 L
23.088 13.33 L
cp
S
GR
GS
[0.75 0 0 0.75 861.32208 399.60738] CT
1 0 0 RC
N
f-1996900118
f
GR
GS
[0.75 0 0 0.75 861.32208 399.60738] CT
0 0 1 RC
10.0 ML
0.667 LW
N
0 -26.66 M
-23.088 13.33 L
23.088 13.33 L
cp
S
GR
GS
[0.75 0 0 0.75 831.9678 398.87285] CT
0 1 1 RC
10.0 ML
0.667 LW
N
0 -4 M
0 4 L
-4 0 M
4 0 L
-2.828 -2.828 M
2.828 2.828 L
-2.828 2.828 M
2.828 -2.828 L
S
GR
GS
[0.75 0 0 0.75 0 0.25] CT
0 1 1 RC
1 LJ
0.667 LW
N
1113.918 530.148 M
1114.256 530.14 L
1113.961 530.306 L
S
GR
GS
[0.75 0 0 0.75 0 0.25] CT
0 1 1 RC
1 LJ
0.667 LW
N
1109.29 531.497 M
1114.256 530.14 L
S
GR
GS
[0.75 0 0 0.75 0 0.25] CT
0 1 1 RC
1 LJ
6.667 LW
N
1072.258 552.553 M
1068.185 542.682 L
1066.695 532.108 L
1067.881 521.496 L
1071.669 511.512 L
1077.821 502.784 L
1085.951 495.86 L
1095.546 491.176 L
1106.006 489.024 L
1116.672 489.542 L
1126.873 492.695 L
1135.971 498.287 L
1143.391 505.966 L
1148.669 515.248 L
1151.473 525.552 L
1151.626 536.229 L
1149.12 546.609 L
1144.11 556.039 L
1136.913 563.928 L
1127.98 569.778 L
1117.872 573.223 L
1107.226 574.047 L
1096.709 572.197 L
1086.983 567.789 L
1078.658 561.101 L
1072.258 552.553 L
S
GR
GS
[0.75 0 0 0.75 793.38712 437.45349] CT
0 1 1 RC
10.0 ML
0.667 LW
N
0 -4 M
0 4 L
-4 0 M
4 0 L
-2.828 -2.828 M
2.828 2.828 L
-2.828 2.828 M
2.828 -2.828 L
S
GR
GS
[0.75 0 0 0.75 0 0.25] CT
0 1 1 RC
1 LJ
0.667 LW
N
1062.477 581.589 M
1062.815 581.581 L
1062.521 581.747 L
S
GR
GS
[0.75 0 0 0.75 0 0.25] CT
0 1 1 RC
1 LJ
0.667 LW
N
1057.849 582.938 M
1062.815 581.581 L
S
GR
GS
[0.75 0 0 0.75 0 0.25] CT
0 1 1 RC
1 LJ
6.667 LW
N
1020.817 603.992 M
1027.216 612.541 L
1035.54 619.229 L
1045.266 623.637 L
1055.783 625.487 L
1066.43 624.665 L
1076.537 621.22 L
1085.47 615.37 L
1092.668 607.482 L
1097.678 598.052 L
1100.185 587.672 L
1100.033 576.995 L
1097.229 566.691 L
1091.952 557.408 L
1084.531 549.729 L
1075.434 544.137 L
1065.233 540.983 L
1054.567 540.465 L
1044.107 542.616 L
1034.511 547.3 L
1026.382 554.224 L
1020.229 562.951 L
1016.441 572.935 L
1015.254 583.547 L
1016.744 594.121 L
1020.817 603.992 L
S
GR
GS
[0.75 0 0 0.75 831.95929 398.87303] CT
0 1 1 RC
10.0 ML
0.667 LW
N
0 -4 M
0 4 L
-4 0 M
4 0 L
-2.828 -2.828 M
2.828 2.828 L
-2.828 2.828 M
2.828 -2.828 L
S
GR
GS
[0.75 0 0 0.75 0 0.25] CT
0 1 1 RC
1 LJ
0.667 LW
N
1113.907 530.148 M
1114.245 530.141 L
1113.95 530.306 L
S
GR
GS
[0.75 0 0 0.75 0 0.25] CT
0 1 1 RC
1 LJ
0.667 LW
N
1109.279 531.497 M
1114.245 530.141 L
S
GR
GS
[0.75 0 0 0.75 0 0.25] CT
0 1 1 RC
1 LJ
6.667 LW
N
1072.242 552.545 M
1078.64 561.095 L
1086.963 567.784 L
1096.689 572.194 L
1107.205 574.047 L
1117.852 573.226 L
1127.96 569.783 L
1136.894 563.934 L
1144.093 556.048 L
1149.105 546.618 L
1151.614 536.239 L
1151.463 525.562 L
1148.662 515.258 L
1143.386 505.974 L
1135.967 498.293 L
1126.871 492.7 L
1116.67 489.544 L
1106.004 489.024 L
1095.544 491.173 L
1085.947 495.855 L
1077.816 502.777 L
1071.663 511.504 L
1067.872 521.487 L
1066.684 532.099 L
1068.172 542.673 L
1072.242 552.545 L
S
GR
GS
[0.75 0 0 0.75 831.91443 398.87285] CT
0 1 1 RC
10.0 ML
0.667 LW
N
0 -4 M
0 4 L
-4 0 M
4 0 L
-2.828 -2.828 M
2.828 2.828 L
-2.828 2.828 M
2.828 -2.828 L
S
GR
GS
[0.75 0 0 0.75 0 0.25] CT
0 1 1 RC
1 LJ
0.667 LW
N
1113.847 530.148 M
1114.185 530.14 L
1113.89 530.306 L
S
GR
GS
[0.75 0 0 0.75 0 0.25] CT
0 1 1 RC
1 LJ
0.667 LW
N
1109.219 531.497 M
1114.185 530.14 L
S
GR
GS
[0.75 0 0 0.75 0 0.25] CT
0 1 1 RC
1 LJ
6.667 LW
N
1072.185 552.549 M
1068.113 542.677 L
1066.624 532.103 L
1067.811 521.491 L
1071.601 511.508 L
1077.754 502.78 L
1085.884 495.857 L
1095.48 491.174 L
1105.94 489.024 L
1116.605 489.543 L
1126.807 492.698 L
1135.904 498.29 L
1143.323 505.97 L
1148.6 515.253 L
1151.403 525.557 L
1151.555 536.234 L
1149.047 546.614 L
1144.036 556.044 L
1136.838 563.931 L
1127.904 569.78 L
1117.796 573.224 L
1107.15 574.046 L
1096.633 572.195 L
1086.907 567.786 L
1078.583 561.097 L
1072.185 552.549 L
S
GR
GS
[0.75 0 0 0.75 864.27274 366.51363] CT
0 1 1 RC
10.0 ML
0.667 LW
N
0 -4 M
0 4 L
-4 0 M
4 0 L
-2.828 -2.828 M
2.828 2.828 L
-2.828 2.828 M
2.828 -2.828 L
S
GR
GS
[0.75 0 0 0.75 0 0.25] CT
0 1 1 RC
1 LJ
0.667 LW
N
1156.991 487.002 M
1157.329 486.995 L
1157.035 487.16 L
S
GR
GS
[0.75 0 0 0.75 0 0.25] CT
0 1 1 RC
1 LJ
0.667 LW
N
1152.364 488.352 M
1157.329 486.995 L
S
GR
GS
[0.75 0 0 0.75 0 0.25] CT
0 1 1 RC
1 LJ
6.667 LW
N
1115.613 509.895 M
1111.41 500.079 L
1109.78 489.526 L
1110.826 478.899 L
1114.482 468.866 L
1120.518 460.057 L
1128.555 453.026 L
1138.088 448.215 L
1148.518 445.926 L
1159.19 446.302 L
1169.432 449.321 L
1178.603 454.792 L
1186.124 462.372 L
1191.525 471.584 L
1194.464 481.849 L
1194.758 492.524 L
1192.389 502.936 L
1187.505 512.432 L
1180.412 520.414 L
1171.557 526.382 L
1161.496 529.961 L
1150.862 530.925 L
1140.321 529.214 L
1130.538 524.935 L
1122.125 518.358 L
1115.613 509.895 L
S
GR
GS
[0.75 0 0 0.75 793.47125 437.31644] CT
0 1 1 RC
10.0 ML
0.667 LW
N
0 -4 M
0 4 L
-4 0 M
4 0 L
-2.828 -2.828 M
2.828 2.828 L
-2.828 2.828 M
2.828 -2.828 L
S
GR
GS
[0.75 0 0 0.75 0 0.25] CT
0 1 1 RC
1 LJ
0.667 LW
N
1062.59 581.406 M
1062.927 581.399 L
1062.633 581.564 L
S
GR
GS
[0.75 0 0 0.75 0 0.25] CT
0 1 1 RC
1 LJ
0.667 LW
N
1057.962 582.755 M
1062.927 581.399 L
S
GR
GS
[0.75 0 0 0.75 0 0.25] CT
0 1 1 RC
1 LJ
6.667 LW
N
1020.896 603.753 M
1027.283 612.311 L
1035.597 619.012 L
1045.316 623.435 L
1055.83 625.302 L
1066.478 624.495 L
1076.591 621.066 L
1085.533 615.229 L
1092.743 607.352 L
1097.767 597.93 L
1100.29 587.554 L
1100.154 576.877 L
1097.366 566.569 L
1092.103 557.278 L
1084.694 549.588 L
1075.606 543.981 L
1065.409 540.812 L
1054.744 540.277 L
1044.281 542.412 L
1034.678 547.082 L
1026.538 553.993 L
1020.372 562.711 L
1016.568 572.689 L
1015.365 583.299 L
1016.839 593.876 L
1020.896 603.753 L
S
GR
GS
[0.75 0 0 0.75 825.69186 405.0945] CT
0 1 1 RC
10.0 ML
0.667 LW
N
0 -4 M
0 4 L
-4 0 M
4 0 L
-2.828 -2.828 M
2.828 2.828 L
-2.828 2.828 M
2.828 -2.828 L
S
GR
GS
[0.75 0 0 0.75 0 0.25] CT
0 1 1 RC
1 LJ
0.667 LW
N
1105.55 538.443 M
1105.888 538.436 L
1105.594 538.601 L
S
GR
GS
[0.75 0 0 0.75 0 0.25] CT
0 1 1 RC
1 LJ
0.667 LW
N
1100.922 539.793 M
1105.888 538.436 L
S
GR
GS
[0.75 0 0 0.75 0 0.25] CT
0 1 1 RC
1 LJ
6.667 LW
N
1064.17 561.333 M
1059.968 551.517 L
1058.339 540.964 L
1059.385 530.337 L
1063.042 520.304 L
1069.079 511.496 L
1077.116 504.466 L
1086.65 499.655 L
1097.08 497.367 L
1107.752 497.744 L
1117.994 500.763 L
1127.164 506.235 L
1134.685 513.815 L
1140.085 523.028 L
1143.024 533.294 L
1143.317 543.968 L
1140.947 554.38 L
1136.062 563.875 L
1128.969 571.857 L
1120.113 577.825 L
1110.052 581.403 L
1099.417 582.366 L
1088.877 580.654 L
1079.094 576.375 L
1070.682 569.797 L
1064.17 561.333 L
S
GR
GS
[0.75 0 0 0.75 793.33374 437.45349] CT
0 1 1 RC
10.0 ML
0.667 LW
N
0 -4 M
0 4 L
-4 0 M
4 0 L
-2.828 -2.828 M
2.828 2.828 L
-2.828 2.828 M
2.828 -2.828 L
S
GR
GS
[0.75 0 0 0.75 0 0.25] CT
0 1 1 RC
1 LJ
0.667 LW
N
1062.406 581.589 M
1062.744 581.581 L
1062.449 581.747 L
S
GR
GS
[0.75 0 0 0.75 0 0.25] CT
0 1 1 RC
1 LJ
0.667 LW
N
1057.778 582.938 M
1062.744 581.581 L
S
GR
GS
[0.75 0 0 0.75 0 0.25] CT
0 1 1 RC
1 LJ
6.667 LW
N
1020.743 603.988 M
1027.141 612.537 L
1035.465 619.226 L
1045.19 623.635 L
1055.707 625.487 L
1066.353 624.666 L
1076.461 621.222 L
1085.395 615.373 L
1092.594 607.486 L
1097.605 598.057 L
1100.114 587.677 L
1099.962 577 L
1097.16 566.696 L
1091.884 557.412 L
1084.464 549.733 L
1075.368 544.139 L
1065.167 540.984 L
1054.501 540.465 L
1044.041 542.614 L
1034.445 547.297 L
1026.314 554.22 L
1020.161 562.947 L
1016.371 572.93 L
1015.183 583.542 L
1016.671 594.116 L
1020.743 603.988 L
S
GR
GS
[0.75 0 0 0.75 830.9295 399.85722] CT
0 1 1 RC
10.0 ML
0.667 LW
N
0 -4 M
0 4 L
-4 0 M
4 0 L
-2.828 -2.828 M
2.828 2.828 L
-2.828 2.828 M
2.828 -2.828 L
S
GR
GS
[0.75 0 0 0.75 0 0.25] CT
0 1 1 RC
1 LJ
0.667 LW
N
1112.534 531.46 M
1112.872 531.453 L
1112.577 531.618 L
S
GR
GS
[0.75 0 0 0.75 0 0.25] CT
0 1 1 RC
1 LJ
0.667 LW
N
1107.906 532.81 M
1112.872 531.453 L
S
GR
GS
[0.75 0 0 0.75 0 0.25] CT
0 1 1 RC
1 LJ
6.667 LW
N
1070.848 553.82 M
1066.787 543.944 L
1065.31 533.368 L
1066.509 522.757 L
1070.31 512.778 L
1076.473 504.058 L
1084.61 497.144 L
1094.212 492.471 L
1104.674 490.333 L
1115.339 490.864 L
1125.537 494.03 L
1134.628 499.633 L
1142.039 507.321 L
1147.305 516.61 L
1150.096 526.917 L
1150.236 537.594 L
1147.716 547.971 L
1142.695 557.395 L
1135.488 565.275 L
1126.548 571.114 L
1116.436 574.547 L
1105.789 575.357 L
1095.274 573.493 L
1085.553 569.074 L
1077.237 562.376 L
1070.848 553.82 L
S
GR
GS
[0.75 0 0 0.75 820.45477 410.33223] CT
0 1 1 RC
10.0 ML
0.667 LW
N
0 -4 M
0 4 L
-4 0 M
4 0 L
-2.828 -2.828 M
2.828 2.828 L
-2.828 2.828 M
2.828 -2.828 L
S
GR
GS
[0.75 0 0 0.75 0 0.25] CT
0 1 1 RC
1 LJ
0.667 LW
N
1098.568 545.427 M
1098.905 545.42 L
1098.611 545.585 L
S
GR
GS
[0.75 0 0 0.75 0 0.25] CT
0 1 1 RC
1 LJ
0.667 LW
N
1093.94 546.776 M
1098.905 545.42 L
S
GR
GS
[0.75 0 0 0.75 0 0.25] CT
0 1 1 RC
1 LJ
6.667 LW
N
1057.197 568.333 M
1052.99 558.518 L
1051.357 547.966 L
1052.399 537.338 L
1056.051 527.304 L
1062.084 518.493 L
1070.118 511.46 L
1079.65 506.645 L
1090.079 504.352 L
1100.751 504.725 L
1110.995 507.74 L
1120.167 513.207 L
1127.691 520.784 L
1133.095 529.995 L
1136.038 540.259 L
1136.336 550.933 L
1133.97 561.346 L
1129.089 570.844 L
1122 578.829 L
1113.147 584.8 L
1103.087 588.382 L
1092.453 589.35 L
1081.912 587.643 L
1072.127 583.368 L
1063.712 576.793 L
1057.197 568.333 L
S
GR
GS
[0.75 0 0 0.75 788.09628 442.69077] CT
0 1 1 RC
10.0 ML
0.667 LW
N
0 -4 M
0 4 L
-4 0 M
4 0 L
-2.828 -2.828 M
2.828 2.828 L
-2.828 2.828 M
2.828 -2.828 L
S
GR
GS
[0.75 0 0 0.75 0 0.25] CT
0 1 1 RC
1 LJ
0.667 LW
N
1055.423 588.572 M
1055.761 588.564 L
1055.466 588.73 L
S
GR
GS
[0.75 0 0 0.75 0 0.25] CT
0 1 1 RC
1 LJ
0.667 LW
N
1050.795 589.921 M
1055.761 588.564 L
S
GR
GS
[0.75 0 0 0.75 0 0.25] CT
0 1 1 RC
1 LJ
6.667 LW
N
1013.951 611.304 M
1020.426 619.795 L
1028.81 626.409 L
1038.575 630.73 L
1049.107 632.487 L
1059.746 631.57 L
1069.823 628.035 L
1078.703 622.106 L
1085.831 614.154 L
1090.756 604.68 L
1093.171 594.278 L
1092.924 583.603 L
1090.029 573.324 L
1084.669 564.089 L
1077.18 556.476 L
1068.034 550.965 L
1057.804 547.902 L
1047.134 547.479 L
1036.694 549.723 L
1027.141 554.492 L
1019.073 561.488 L
1012.998 570.27 L
1009.299 580.287 L
1008.207 590.909 L
1009.791 601.47 L
1013.951 611.304 L
S
GR
GS
[0.75 0 0 0.75 855.6188 433.72752] CT
0 0 1 RC
10.0 ML
0.667 LW
N
0 -4 M
0 4 L
-4 0 M
4 0 L
-2.828 -2.828 M
2.828 2.828 L
-2.828 2.828 M
2.828 -2.828 L
S
GR
GS
[0.75 0 0 0.75 0 0.25] CT
0 0 1 RC
1 LJ
0.667 LW
N
1145.453 576.621 M
1145.791 576.614 L
1145.496 576.779 L
S
GR
GS
[0.75 0 0 0.75 0 0.25] CT
0 0 1 RC
1 LJ
0.667 LW
N
1140.825 577.97 M
1145.791 576.614 L
S
GR
GS
[0.75 0 0 0.75 0 0.25] CT
0 0 1 RC
1 LJ
6.667 LW
N
1155.463 586.884 M
1157.22 582.964 L
1157.947 578.73 L
1157.598 574.448 L
1156.195 570.387 L
1153.826 566.803 L
1150.641 563.921 L
1146.838 561.921 L
1142.658 560.93 L
1138.363 561.009 L
1134.222 562.154 L
1130.497 564.293 L
1127.42 567.292 L
1125.185 570.961 L
1123.934 575.071 L
1123.743 579.362 L
1124.626 583.567 L
1126.527 587.419 L
1129.326 590.678 L
1132.848 593.139 L
1136.871 594.646 L
1141.142 595.106 L
1145.394 594.489 L
1149.358 592.833 L
1152.786 590.244 L
1155.463 586.884 L
S
GR
GS
[0.75 0 0 0.75 817.01605 472.33037] CT
0 0 1 RC
10.0 ML
0.667 LW
N
0 -4 M
0 4 L
-4 0 M
4 0 L
-2.828 -2.828 M
2.828 2.828 L
-2.828 2.828 M
2.828 -2.828 L
S
GR
GS
[0.75 0 0 0.75 0 0.25] CT
0 0 1 RC
1 LJ
0.667 LW
N
1093.983 628.091 M
1094.32 628.084 L
1094.026 628.25 L
S
GR
GS
[0.75 0 0 0.75 0 0.25] CT
0 0 1 RC
1 LJ
0.667 LW
N
1089.355 629.44 M
1094.32 628.084 L
S
GR
GS
[0.75 0 0 0.75 0 0.25] CT
0 0 1 RC
1 LJ
6.667 LW
N
1103.993 638.354 M
1105.75 634.434 L
1106.476 630.2 L
1106.127 625.918 L
1104.724 621.857 L
1102.356 618.273 L
1099.17 615.391 L
1095.368 613.391 L
1091.187 612.4 L
1086.892 612.48 L
1082.751 613.625 L
1079.026 615.764 L
1075.949 618.762 L
1073.715 622.432 L
1072.463 626.541 L
1072.273 630.833 L
1073.156 635.038 L
1075.057 638.89 L
1077.856 642.149 L
1081.378 644.61 L
1085.401 646.117 L
1089.672 646.576 L
1093.924 645.959 L
1097.888 644.304 L
1101.316 641.715 L
1103.993 638.354 L
S
GR
GS
[0.75 0 0 0.75 855.61761 433.72766] CT
0 0 1 RC
10.0 ML
0.667 LW
N
0 -4 M
0 4 L
-4 0 M
4 0 L
-2.828 -2.828 M
2.828 2.828 L
-2.828 2.828 M
2.828 -2.828 L
S
GR
GS
[0.75 0 0 0.75 0 0.25] CT
0 0 1 RC
1 LJ
0.667 LW
N
1145.451 576.621 M
1145.789 576.614 L
1145.495 576.779 L
S
GR
GS
[0.75 0 0 0.75 0 0.25] CT
0 0 1 RC
1 LJ
0.667 LW
N
1140.823 577.97 M
1145.789 576.614 L
S
GR
GS
[0.75 0 0 0.75 0 0.25] CT
0 0 1 RC
1 LJ
6.667 LW
N
1155.461 586.885 M
1157.218 582.965 L
1157.945 578.731 L
1157.596 574.449 L
1156.194 570.388 L
1153.825 566.804 L
1150.64 563.921 L
1146.838 561.922 L
1142.658 560.93 L
1138.362 561.009 L
1134.222 562.154 L
1130.496 564.293 L
1127.419 567.291 L
1125.184 570.96 L
1123.932 575.07 L
1123.741 579.362 L
1124.624 583.566 L
1126.525 587.419 L
1129.324 590.678 L
1132.845 593.139 L
1136.868 594.646 L
1141.139 595.106 L
1145.391 594.489 L
1149.355 592.834 L
1152.784 590.245 L
1155.461 586.885 L
S
GR
GS
[0.75 0 0 0.75 855.60983 433.72752] CT
0 0 1 RC
10.0 ML
0.667 LW
N
0 -4 M
0 4 L
-4 0 M
4 0 L
-2.828 -2.828 M
2.828 2.828 L
-2.828 2.828 M
2.828 -2.828 L
S
GR
GS
[0.75 0 0 0.75 0 0.25] CT
0 0 1 RC
1 LJ
0.667 LW
N
1145.441 576.621 M
1145.779 576.614 L
1145.484 576.779 L
S
GR
GS
[0.75 0 0 0.75 0 0.25] CT
0 0 1 RC
1 LJ
0.667 LW
N
1140.813 577.97 M
1145.779 576.614 L
S
GR
GS
[0.75 0 0 0.75 0 0.25] CT
0 0 1 RC
1 LJ
6.667 LW
N
1131.898 592.608 M
1128.538 589.931 L
1125.949 586.502 L
1124.294 582.538 L
1123.677 578.286 L
1124.137 574.015 L
1125.645 569.992 L
1128.105 566.47 L
1131.364 563.671 L
1135.217 561.771 L
1139.421 560.888 L
1143.713 561.079 L
1147.823 562.331 L
1151.492 564.565 L
1154.49 567.642 L
1156.629 571.368 L
1157.774 575.508 L
1157.853 579.804 L
1156.862 583.984 L
1154.862 587.786 L
1151.979 590.972 L
1148.395 593.34 L
1144.335 594.743 L
1140.053 595.092 L
1135.819 594.365 L
1131.898 592.608 L
S
GR
GS
[0.75 0 0 0.75 893.20532 396.13107] CT
0 0 1 RC
10.0 ML
0.667 LW
N
0 -4 M
0 4 L
-4 0 M
4 0 L
-2.828 -2.828 M
2.828 2.828 L
-2.828 2.828 M
2.828 -2.828 L
S
GR
GS
[0.75 0 0 0.75 0 0.25] CT
0 0 1 RC
1 LJ
0.667 LW
N
1195.568 526.492 M
1195.906 526.485 L
1195.612 526.65 L
S
GR
GS
[0.75 0 0 0.75 0 0.25] CT
0 0 1 RC
1 LJ
0.667 LW
N
1190.94 527.841 M
1195.906 526.485 L
S
GR
GS
[0.75 0 0 0.75 0 0.25] CT
0 0 1 RC
1 LJ
6.667 LW
N
1205.564 536.78 M
1207.327 532.862 L
1208.061 528.629 L
1207.719 524.347 L
1206.323 520.284 L
1203.96 516.696 L
1200.779 513.808 L
1196.98 511.802 L
1192.802 510.804 L
1188.506 510.877 L
1184.364 512.015 L
1180.634 514.148 L
1177.553 517.141 L
1175.312 520.807 L
1174.054 524.914 L
1173.856 529.206 L
1174.732 533.411 L
1176.627 537.267 L
1179.42 540.531 L
1182.938 542.997 L
1186.959 544.511 L
1191.229 544.978 L
1195.482 544.367 L
1199.449 542.719 L
1202.881 540.135 L
1205.564 536.78 L
S
GR
GS
[0.75 0 0 0.75 817.0296 472.30826] CT
0 0 1 RC
10.0 ML
0.667 LW
N
0 -4 M
0 4 L
-4 0 M
4 0 L
-2.828 -2.828 M
2.828 2.828 L
-2.828 2.828 M
2.828 -2.828 L
S
GR
GS
[0.75 0 0 0.75 0 0.25] CT
0 0 1 RC
1 LJ
0.667 LW
N
1094.001 628.062 M
1094.339 628.055 L
1094.044 628.22 L
S
GR
GS
[0.75 0 0 0.75 0 0.25] CT
0 0 1 RC
1 LJ
0.667 LW
N
1089.373 629.411 M
1094.339 628.055 L
S
GR
GS
[0.75 0 0 0.75 0 0.25] CT
0 0 1 RC
1 LJ
6.667 LW
N
1080.464 644.052 M
1077.103 641.376 L
1074.512 637.949 L
1072.856 633.985 L
1072.237 629.734 L
1072.695 625.462 L
1074.201 621.439 L
1076.661 617.916 L
1079.918 615.116 L
1083.771 613.214 L
1087.975 612.33 L
1092.266 612.518 L
1096.377 613.769 L
1100.047 616.002 L
1103.046 619.078 L
1105.186 622.803 L
1106.333 626.943 L
1106.414 631.238 L
1105.424 635.419 L
1103.426 639.222 L
1100.544 642.408 L
1096.961 644.778 L
1092.901 646.183 L
1088.619 646.533 L
1084.385 645.808 L
1080.464 644.052 L
S
GR
GS
[0.75 0 0 0.75 854.6022 434.73415] CT
0 0 1 RC
10.0 ML
0.667 LW
N
0 -4 M
0 4 L
-4 0 M
4 0 L
-2.828 -2.828 M
2.828 2.828 L
-2.828 2.828 M
2.828 -2.828 L
S
GR
GS
[0.75 0 0 0.75 0 0.25] CT
0 0 1 RC
1 LJ
0.667 LW
N
1144.098 577.963 M
1144.435 577.956 L
1144.141 578.121 L
S
GR
GS
[0.75 0 0 0.75 0 0.25] CT
0 0 1 RC
1 LJ
0.667 LW
N
1139.47 579.312 M
1144.435 577.956 L
S
GR
GS
[0.75 0 0 0.75 0 0.25] CT
0 0 1 RC
1 LJ
6.667 LW
N
1154.093 588.25 M
1155.856 584.333 L
1156.59 580.1 L
1156.248 575.817 L
1154.852 571.754 L
1152.489 568.166 L
1149.308 565.279 L
1145.509 563.273 L
1141.331 562.275 L
1137.035 562.347 L
1132.893 563.486 L
1129.163 565.619 L
1126.082 568.612 L
1123.841 572.277 L
1122.583 576.385 L
1122.385 580.677 L
1123.261 584.882 L
1125.156 588.738 L
1127.95 592.002 L
1131.468 594.468 L
1135.488 595.982 L
1139.759 596.448 L
1144.011 595.838 L
1147.978 594.19 L
1151.411 591.606 L
1154.093 588.25 L
S
GR
GS
[0.75 0 0 0.75 886.96262 402.37772] CT
0 0 1 RC
10.0 ML
0.667 LW
N
0 -4 M
0 4 L
-4 0 M
4 0 L
-2.828 -2.828 M
2.828 2.828 L
-2.828 2.828 M
2.828 -2.828 L
S
GR
GS
[0.75 0 0 0.75 0 0.25] CT
0 0 1 RC
1 LJ
0.667 LW
N
1187.245 534.821 M
1187.583 534.814 L
1187.288 534.979 L
S
GR
GS
[0.75 0 0 0.75 0 0.25] CT
0 0 1 RC
1 LJ
0.667 LW
N
1182.617 536.17 M
1187.583 534.814 L
S
GR
GS
[0.75 0 0 0.75 0 0.25] CT
0 0 1 RC
1 LJ
6.667 LW
N
1173.481 550.671 M
1170.162 547.943 L
1167.625 544.476 L
1166.031 540.487 L
1165.478 536.226 L
1166.003 531.962 L
1167.571 527.963 L
1170.085 524.479 L
1173.386 521.73 L
1177.268 519.888 L
1181.485 519.069 L
1185.773 519.325 L
1189.863 520.639 L
1193.498 522.929 L
1196.449 526.051 L
1198.531 529.809 L
1199.613 533.967 L
1199.627 538.263 L
1198.572 542.427 L
1196.515 546.199 L
1193.584 549.34 L
1189.965 551.654 L
1185.883 552.995 L
1181.597 553.278 L
1177.374 552.487 L
1173.481 550.671 L
S
GR
GS
[0.75 0 0 0.75 822.24518 467.09296] CT
0 0 1 RC
10.0 ML
0.667 LW
N
0 -4 M
0 4 L
-4 0 M
4 0 L
-2.828 -2.828 M
2.828 2.828 L
-2.828 2.828 M
2.828 -2.828 L
S
GR
GS
[0.75 0 0 0.75 0 0.25] CT
0 0 1 RC
1 LJ
0.667 LW
N
1100.955 621.108 M
1101.293 621.101 L
1100.998 621.266 L
S
GR
GS
[0.75 0 0 0.75 0 0.25] CT
0 0 1 RC
1 LJ
0.667 LW
N
1096.327 622.457 M
1101.293 621.101 L
S
GR
GS
[0.75 0 0 0.75 0 0.25] CT
0 0 1 RC
1 LJ
6.667 LW
N
1110.958 631.383 M
1112.718 627.464 L
1113.448 623.23 L
1113.102 618.948 L
1111.703 614.887 L
1109.337 611.301 L
1106.154 608.416 L
1102.353 606.413 L
1098.174 605.419 L
1093.878 605.495 L
1089.737 606.636 L
1086.009 608.772 L
1082.93 611.768 L
1080.693 615.436 L
1079.438 619.544 L
1079.244 623.836 L
1080.124 628.041 L
1082.021 631.895 L
1084.818 635.156 L
1088.338 637.62 L
1092.359 639.13 L
1096.63 639.593 L
1100.882 638.979 L
1104.848 637.327 L
1108.278 634.741 L
1110.958 631.383 L
S
GR
GS
[0.75 0 0 0.75 849.36566 439.97261] CT
0 0 1 RC
10.0 ML
0.667 LW
N
0 -4 M
0 4 L
-4 0 M
4 0 L
-2.828 -2.828 M
2.828 2.828 L
-2.828 2.828 M
2.828 -2.828 L
S
GR
GS
[0.75 0 0 0.75 0 0.25] CT
0 0 1 RC
1 LJ
0.667 LW
N
1137.115 584.948 M
1137.453 584.94 L
1137.159 585.106 L
S
GR
GS
[0.75 0 0 0.75 0 0.25] CT
0 0 1 RC
1 LJ
0.667 LW
N
1132.488 586.297 M
1137.453 584.94 L
S
GR
GS
[0.75 0 0 0.75 0 0.25] CT
0 0 1 RC
1 LJ
6.667 LW
N
1123.399 600.827 M
1120.071 598.11 L
1117.523 594.651 L
1115.916 590.667 L
1115.349 586.409 L
1115.86 582.143 L
1117.415 578.139 L
1119.918 574.647 L
1123.21 571.887 L
1127.085 570.032 L
1131.3 569.2 L
1135.589 569.441 L
1139.683 570.742 L
1143.325 573.02 L
1146.287 576.133 L
1148.381 579.884 L
1149.476 584.038 L
1149.505 588.334 L
1148.463 592.502 L
1146.418 596.28 L
1143.498 599.431 L
1139.886 601.756 L
1135.809 603.11 L
1131.523 603.408 L
1127.298 602.631 L
1123.399 600.827 L
S
GR
GS
[0.75 0 0 0.75 817.00699 472.33037] CT
0 0 1 RC
10.0 ML
0.667 LW
N
0 -4 M
0 4 L
-4 0 M
4 0 L
-2.828 -2.828 M
2.828 2.828 L
-2.828 2.828 M
2.828 -2.828 L
S
GR
GS
[0.75 0 0 0.75 0 0.25] CT
0 0 1 RC
1 LJ
0.667 LW
N
1093.971 628.091 M
1094.308 628.084 L
1094.014 628.25 L
S
GR
GS
[0.75 0 0 0.75 0 0.25] CT
0 0 1 RC
1 LJ
0.667 LW
N
1089.343 629.44 M
1094.308 628.084 L
S
GR
GS
[0.75 0 0 0.75 0 0.25] CT
0 0 1 RC
1 LJ
6.667 LW
N
1080.428 644.078 M
1077.068 641.402 L
1074.479 637.973 L
1072.824 634.009 L
1072.207 629.757 L
1072.667 625.486 L
1074.174 621.463 L
1076.634 617.941 L
1079.893 615.142 L
1083.746 613.241 L
1087.95 612.359 L
1092.242 612.549 L
1096.352 613.801 L
1100.021 616.035 L
1103.02 619.112 L
1105.158 622.838 L
1106.303 626.979 L
1106.383 631.274 L
1105.392 635.454 L
1103.392 639.256 L
1100.509 642.442 L
1096.925 644.81 L
1092.865 646.213 L
1088.583 646.562 L
1084.349 645.835 L
1080.428 644.078 L
S
GR
GS
[0.75 0 0 0.75 855.45016 433.88646] CT
0 0 1 RC
10.0 ML
0.667 LW
N
0 -4 M
0 4 L
-4 0 M
4 0 L
-2.828 -2.828 M
2.828 2.828 L
-2.828 2.828 M
2.828 -2.828 L
S
GR
GS
[0.75 0 0 0.75 0 0.25] CT
0 0 1 RC
1 LJ
0.667 LW
N
1145.228 576.833 M
1145.566 576.826 L
1145.271 576.991 L
S
GR
GS
[0.75 0 0 0.75 0 0.25] CT
0 0 1 RC
1 LJ
0.667 LW
N
1140.6 578.182 M
1145.566 576.826 L
S
GR
GS
[0.75 0 0 0.75 0 0.25] CT
0 0 1 RC
1 LJ
6.667 LW
N
1131.693 592.824 M
1128.331 590.149 L
1125.741 586.722 L
1124.084 582.758 L
1123.465 578.507 L
1123.922 574.235 L
1125.428 570.212 L
1127.886 566.689 L
1131.144 563.888 L
1134.996 561.986 L
1139.2 561.101 L
1143.492 561.289 L
1147.602 562.539 L
1151.272 564.772 L
1154.272 567.847 L
1156.413 571.572 L
1157.56 575.712 L
1157.641 580.007 L
1156.652 584.188 L
1154.654 587.991 L
1151.773 591.178 L
1148.19 593.548 L
1144.13 594.953 L
1139.849 595.304 L
1135.614 594.579 L
1131.693 592.824 L
S
GR
GS
[0.75 0 0 0.75 853.75443 435.58229] CT
0 0 1 RC
10.0 ML
0.667 LW
N
0 -4 M
0 4 L
-4 0 M
4 0 L
-2.828 -2.828 M
2.828 2.828 L
-2.828 2.828 M
2.828 -2.828 L
S
GR
GS
[0.75 0 0 0.75 0 0.25] CT
0 0 1 RC
1 LJ
0.667 LW
N
1142.967 579.094 M
1143.305 579.087 L
1143.01 579.252 L
S
GR
GS
[0.75 0 0 0.75 0 0.25] CT
0 0 1 RC
1 LJ
0.667 LW
N
1138.339 580.443 M
1143.305 579.087 L
S
GR
GS
[0.75 0 0 0.75 0 0.25] CT
0 0 1 RC
1 LJ
6.667 LW
N
1129.487 595.119 M
1126.116 592.456 L
1123.512 589.039 L
1121.84 585.081 L
1121.205 580.833 L
1121.646 576.559 L
1123.137 572.53 L
1125.582 568.998 L
1128.829 566.185 L
1132.674 564.268 L
1136.875 563.367 L
1141.167 563.539 L
1145.282 564.774 L
1148.961 566.993 L
1151.972 570.057 L
1154.127 573.773 L
1155.29 577.909 L
1155.387 582.204 L
1154.414 586.388 L
1152.43 590.199 L
1149.561 593.397 L
1145.987 595.781 L
1141.932 597.201 L
1137.652 597.568 L
1133.415 596.859 L
1129.487 595.119 L
S
GR
GS
[0.75 0 0 0.75 816.15903 473.17801] CT
0 0 1 RC
10.0 ML
0.667 LW
N
0 -4 M
0 4 L
-4 0 M
4 0 L
-2.828 -2.828 M
2.828 2.828 L
-2.828 2.828 M
2.828 -2.828 L
S
GR
GS
[0.75 0 0 0.75 0 0.25] CT
0 0 1 RC
1 LJ
0.667 LW
N
1092.84 629.222 M
1093.178 629.214 L
1092.883 629.38 L
S
GR
GS
[0.75 0 0 0.75 0 0.25] CT
0 0 1 RC
1 LJ
0.667 LW
N
1088.212 630.571 M
1093.178 629.214 L
S
GR
GS
[0.75 0 0 0.75 0 0.25] CT
0 0 1 RC
1 LJ
6.667 LW
N
1079.252 645.18 M
1075.9 642.493 L
1073.322 639.057 L
1071.679 635.087 L
1071.075 630.834 L
1071.548 626.564 L
1073.068 622.545 L
1075.54 619.031 L
1078.808 616.243 L
1082.667 614.354 L
1086.874 613.484 L
1091.165 613.688 L
1095.271 614.953 L
1098.933 617.199 L
1101.921 620.285 L
1104.048 624.018 L
1105.181 628.162 L
1105.246 632.458 L
1104.242 636.635 L
1102.23 640.431 L
1099.338 643.607 L
1095.746 645.964 L
1091.681 647.354 L
1087.398 647.69 L
1083.167 646.95 L
1079.252 645.18 L
S
GR
GS
[0.75 0 0 0.75 0 0.25] CT
1 GC
N
/f-79800792{1498 235 M
1498 86 L
1279 86 L
1279 235 L
cp}def
f-79800792
f
GR
GS
[0.75 0 0 0.75 994.5 79.75] CT
/Helvetica-Bold 30 F
GS
[1 0 0 1 0 0] CT
0 10 moveto 
1 -1 scale
(LandMark) t 
GR
GR
GS
[0.75 0 0 0.75 977.25 79.75] CT
1 0 0 RC
N
/f-1214359511{0 -19.995 M
-17.316 9.998 L
17.316 9.998 L
cp}def
f-1214359511
f
GR
GS
[0.75 0 0 0.75 977.25 79.75] CT
0 0 1 RC
10.0 ML
0.667 LW
N
0 -19.995 M
-17.316 9.998 L
17.316 9.998 L
cp
S
GR
GS
[0.75 0 0 0.75 994.5 122.5] CT
/Helvetica-Bold 30 F
GS
[1 0 0 1 0 0] CT
0 0 moveto 
1 -1 scale
(b) t 
GR
GR
GS
[0.75 0 0 0.75 1011 111.25] CT
/Helvetica-Bold 24 F
GS
[1 0 0 1 0 0] CT
0 0 moveto 
1 -1 scale
(-) t 
GR
GR
GS
[0.75 0 0 0.75 1018.5 122.5] CT
/Helvetica-Bold 30 F
GS
[1 0 0 1 0 0] CT
0 0 moveto 
1 -1 scale
([X) t 
GR
GR
GS
[0.75 0 0 0.75 1046.25 133.75] CT
/Helvetica-Bold 24 F
GS
[1 0 0 1 0 0] CT
0 0 moveto 
1 -1 scale
(k) t 
GR
GR
GS
[0.75 0 0 0.75 1058.25 122.5] CT
/Helvetica-Bold 30 F
GS
[1 0 0 1 0 0] CT
0 0 moveto 
1 -1 scale
(]) t 
GR
GR
GS
[0.75 0 0 0.75 0 0.25] CT
0 1 1 RC
1 LJ
6.667 LW
N
1283 154 M
1323 154 L
S
GR
GS
[0.75 0 0 0.75 994.5 160] CT
/Helvetica-Bold 30 F
GS
[1 0 0 1 0 0] CT
0 0 moveto 
1 -1 scale
(b[X) t 
GR
GR
GS
[0.75 0 0 0.75 1038.75 171.25] CT
/Helvetica-Bold 24 F
GS
[1 0 0 1 0 0] CT
0 0 moveto 
1 -1 scale
(k) t 
GR
GR
GS
[0.75 0 0 0.75 1050.75 160] CT
/Helvetica-Bold 30 F
GS
[1 0 0 1 0 0] CT
0 0 moveto 
1 -1 scale
(]) t 
GR
GR
GS
[0.75 0 0 0.75 0 0.25] CT
0 0 1 RC
1 LJ
6.667 LW
N
1283 208.5 M
1323 208.5 L
S
GR
GS
[0.75 0 0 0.75 0 0.25] CT
0.149 GC
10.0 ML
0.667 LW
N
1279 235 M
1279 86 L
1498 86 L
1498 235 L
cp
S
GR
%%Trailer
%%Pages: 1
%%EOF
