\relax 
\providecommand\hyper@newdestlabel[2]{}
\@nameuse{bbl@beforestart}
\providecommand\HyperFirstAtBeginDocument{\AtBeginDocument}
\HyperFirstAtBeginDocument{\ifx\hyper@anchor\@undefined
\global\let\oldcontentsline\contentsline
\gdef\contentsline#1#2#3#4{\oldcontentsline{#1}{#2}{#3}}
\global\let\oldnewlabel\newlabel
\gdef\newlabel#1#2{\newlabelxx{#1}#2}
\gdef\newlabelxx#1#2#3#4#5#6{\oldnewlabel{#1}{{#2}{#3}}}
\AtEndDocument{\ifx\hyper@anchor\@undefined
\let\contentsline\oldcontentsline
\let\newlabel\oldnewlabel
\fi}
\fi}
\global\let\hyper@last\relax 
\gdef\HyperFirstAtBeginDocument#1{#1}
\providecommand\HyField@AuxAddToFields[1]{}
\providecommand\HyField@AuxAddToCoFields[2]{}
\citation{Tchuiev19iros}
\citation{Pathak18ijrr,Tchuiev19iros}
\babel@aux{english}{}
\@writefile{toc}{\contentsline {section}{\numberline {I}Introduction}{1}{section.1}\protected@file@percent }
\newlabel{sec:introduction}{{I}{1}{Introduction}{section.1}{}}
\@writefile{toc}{\contentsline {section}{\numberline {II}Notations and Problem Formulation}{1}{section.2}\protected@file@percent }
\newlabel{sec:preliminaries}{{II}{1}{Notations and Problem Formulation}{section.2}{}}
\@writefile{toc}{\contentsline {subsection}{\numberline {II-A}Notations}{1}{subsection.2.1}\protected@file@percent }
\newlabel{GMM_passive_case}{{2}{1}{Notations}{equation.2.2}{}}
\newlabel{eq:GMM_weight_value_pre}{{3}{1}{Notations}{equation.2.3}{}}
\@writefile{toc}{\contentsline {subsection}{\numberline {II-B}Problem Formulation}{1}{subsection.2.2}\protected@file@percent }
\@writefile{lof}{\contentsline {figure}{\numberline {1}{\ignorespaces Diagram illustrating considered problem. In this work we aim to calculate the probability of externally-defined hypothesis from some past time $k-p$ given the information that has been obtained until current time $k$. In other words, we would like to calculate $w^{i}_{k-p\mid k}=\ensuremath  {{\mathbb  {P}({\gamma _{k-p}=i\mid H_{k}})}}$. The diagram illustrates, for simplicity, a branching factor of two, i.e.~each hypothesis branches at the next time into two child hypotheses (e.g.~due to obtained measurement with an ambiguous data association). For instance, we might be interested in calculating the weight $w_{k-p|k}^{i=1}$, which corresponds to probability of the hypothesis indicated by the {\color  {blue} \textbf  {blue}} node, given data until time $k$. \relax }}{2}{figure.caption.1}\protected@file@percent }
\providecommand*\caption@xref[2]{\@setref\relax\@undefined{#1}}
\newlabel{fig:Diagram}{{1}{2}{Diagram illustrating considered problem. In this work we aim to calculate the probability of externally-defined hypothesis from some past time $k-p$ given the information that has been obtained until current time $k$. In other words, we would like to calculate $w^{i}_{k-p\mid k}=\prob {\gamma _{k-p}=i\mid H_{k}}$. The diagram illustrates, for simplicity, a branching factor of two, i.e.~each hypothesis branches at the next time into two child hypotheses (e.g.~due to obtained measurement with an ambiguous data association). For instance, we might be interested in calculating the weight $w_{k-p|k}^{i=1}$, which corresponds to probability of the hypothesis indicated by the {\color {blue} \textbf {blue}} node, given data until time $k$. \relax }{figure.caption.1}{}}
\newlabel{eq:problem_formulation}{{4}{2}{Problem Formulation}{equation.2.4}{}}
\@writefile{toc}{\contentsline {section}{\numberline {III}Approach}{2}{section.3}\protected@file@percent }
\newlabel{sec:approach}{{III}{2}{Approach}{section.3}{}}
\@writefile{toc}{\contentsline {subsection}{\numberline {III-A}Derivation of a General Formulation for $w^{i}_{m\mid k}$}{2}{subsection.3.1}\protected@file@percent }
\newlabel{Problem_formulation_general_case}{{III-A}{2}{Derivation of a General Formulation for $w^{i}_{m\mid k}$}{subsection.3.1}{}}
\newlabel{Update_factor_1}{{6}{2}{Derivation of a General Formulation for $w^{i}_{m\mid k}$}{equation.3.6}{}}
\newlabel{eq:numerator-general}{{7}{2}{Derivation of a General Formulation for $w^{i}_{m\mid k}$}{equation.3.7}{}}
\newlabel{eq:NormalizatonOfWeights}{{8}{2}{Derivation of a General Formulation for $w^{i}_{m\mid k}$}{equation.3.8}{}}
\@writefile{toc}{\contentsline {subsection}{\numberline {III-B}Single Step Update, $p=1$}{2}{subsection.3.2}\protected@file@percent }
\newlabel{seq:Single_step_update}{{III-B}{2}{Single Step Update, $p=1$}{subsection.3.2}{}}
\newlabel{eq:single_step_marginalization}{{10}{2}{Single Step Update, $p=1$}{equation.3.10}{}}
\newlabel{eq:single_step_marginalization_1}{{11}{3}{Single Step Update, $p=1$}{equation.3.11}{}}
\newlabel{eq:SingleStep}{{12}{3}{Single Step Update, $p=1$}{equation.3.12}{}}
\@writefile{toc}{\contentsline {subsection}{\numberline {III-C}Multiple Steps Incremental Calculation of $w^{i}_{m\mid m+p}$ }{3}{subsection.3.3}\protected@file@percent }
\newlabel{subsec:Incremental}{{III-C}{3}{Multiple Steps Incremental Calculation of $w^{i}_{m\mid m+p}$}{subsection.3.3}{}}
\newlabel{sec:Calculation_of_w_m_pluse_1}{{III-C.1}{3}{$j=p-1$}{subsubsection.3.3.1}{}}
\@writefile{toc}{\contentsline {subsubsection}{\numberline {III-C.1}$j=p-1$}{3}{subsubsection.3.3.1}\protected@file@percent }
\newlabel{eq:first_step_iter_calculation_3}{{13}{3}{$j=p-1$}{equation.3.13}{}}
\newlabel{eq:first_step_iter_calculation_4}{{14}{3}{$j=p-1$}{equation.3.14}{}}
\newlabel{eq:first_step_iter_calculation_5}{{15}{3}{$j=p-1$}{equation.3.15}{}}
\@writefile{toc}{\contentsline {subsubsection}{\numberline {III-C.2}$j=p-2$}{3}{subsubsection.3.3.2}\protected@file@percent }
\newlabel{eq:second_iter_calculation}{{16}{3}{$j=p-2$}{equation.3.16}{}}
\newlabel{eq:zeta_k_minus_p_plus_1}{{17}{3}{$j=p-2$}{equation.3.17}{}}
\newlabel{eq:F_k_minus_p_plus_1}{{18}{3}{$j=p-2$}{equation.3.18}{}}
\newlabel{eq:second_iter}{{19}{3}{$j=p-2$}{equation.3.19}{}}
\@writefile{toc}{\contentsline {subsubsection}{\numberline {III-C.3}Calculating $\ensuremath  {{\mathbb  {P}({z_{m+j}\mid \gamma _{m}=i,H^{-}_{m+j}})}}$}{3}{subsubsection.3.3.3}\protected@file@percent }
\newlabel{eq:General_iter_calculation}{{20}{3}{Calculating $\prob {z_{m+j}\mid \gamma _{m}=i,H^{-}_{m+j}}$}{equation.3.20}{}}
\newlabel{eq:zeta_k_minus_p_pluse_l}{{21}{3}{Calculating $\prob {z_{m+j}\mid \gamma _{m}=i,H^{-}_{m+j}}$}{equation.3.21}{}}
\newlabel{eq:General_iter_calculation_2}{{21}{3}{Calculating $\prob {z_{m+j}\mid \gamma _{m}=i,H^{-}_{m+j}}$}{equation.3.21}{}}
\@writefile{toc}{\contentsline {subsubsection}{\numberline {III-C.4}Final calculation of $\Psi _{m\mid k}$}{4}{subsubsection.3.3.4}\protected@file@percent }
\newlabel{eq:final_result_1}{{22}{4}{Final calculation of $\Psi _{m\mid k}$}{equation.3.22}{}}
\@writefile{toc}{\contentsline {subsection}{\numberline {III-D}Algorithm}{4}{subsection.3.4}\protected@file@percent }
\@writefile{loa}{\contentsline {algorithm}{\numberline {1}{\ignorespaces $w^{i}_{m\mid k}$ calculation\relax }}{4}{algorithm.caption.2}\protected@file@percent }
\newlabel{Alg_1}{{1}{4}{$w^{i}_{m\mid k}$ calculation\relax }{algorithm.caption.2}{}}
\@writefile{loa}{\contentsline {algorithm}{\numberline {2}{\ignorespaces $\tilde  {w}^{i}_{m\mid k}$ calculation\relax }}{4}{algorithm.caption.3}\protected@file@percent }
\newlabel{Alg_2}{{2}{4}{$\tilde {w}^{i}_{m\mid k}$ calculation\relax }{algorithm.caption.3}{}}
\@writefile{toc}{\contentsline {subsection}{\numberline {III-E}Computational Complexity Aspects}{4}{subsection.3.5}\protected@file@percent }
\@writefile{toc}{\contentsline {section}{\numberline {IV}Experiments}{5}{section.4}\protected@file@percent }
\newlabel{sec:experiments}{{IV}{5}{Experiments}{section.4}{}}
\@writefile{toc}{\contentsline {section}{\numberline {V}Conclusions}{5}{section.5}\protected@file@percent }
\newlabel{sec:conclusions}{{V}{5}{Conclusions}{section.5}{}}
\newlabel{sec:appendix}{{V}{5}{Appendix}{section*.4}{}}
\newlabel{thm:GeneralCase}{{1}{5}{Appendix}{theorem.1}{}}
\newlabel{eq:j_p_l_1}{{28}{5}{Appendix}{equation.5.28}{}}
\@writefile{toc}{\contentsline {subsection}{\numberline {V-A}Base Case: $j=p-2$}{5}{subsection.5.1}\protected@file@percent }
\newlabel{section:calculation_j_p_minus_2}{{V-A}{5}{Base Case: $j=p-2$}{subsection.5.1}{}}
\newlabel{eq:second_step_iter_calc_1}{{30}{5}{Base Case: $j=p-2$}{equation.5.30}{}}
\newlabel{eq:star_element_calc_1}{{31}{5}{Base Case: $j=p-2$}{equation.5.31}{}}
\newlabel{eq:star_element_calc_5}{{32}{5}{Base Case: $j=p-2$}{equation.5.32}{}}
\newlabel{eq:star_element_calc_5_1}{{33}{5}{Base Case: $j=p-2$}{equation.5.33}{}}
\newlabel{eq:second_step_iter_calc_eta_calc_1}{{34}{5}{Base Case: $j=p-2$}{equation.5.34}{}}
\newlabel{eq:second_step_iter_calc_3}{{36}{5}{Base Case: $j=p-2$}{equation.5.36}{}}
\newlabel{eq:second_step_iter_calc_4}{{37}{5}{Base Case: $j=p-2$}{equation.5.37}{}}
\bibstyle{IEEEtran}
\bibdata{/Users/ohads/personal/MSc/references/refs}
\bibcite{Pathak18ijrr}{1}
\newlabel{eq:second_step_iter_calc_5}{{38}{6}{Base Case: $j=p-2$}{equation.5.38}{}}
\newlabel{eq:second_step_iter_calc_6}{{39}{6}{Base Case: $j=p-2$}{equation.5.39}{}}
\@writefile{toc}{\contentsline {subsection}{\numberline {V-B}Induction assumption for $j-1$}{6}{subsection.5.2}\protected@file@percent }
\newlabel{Induction_assumption}{{V-B}{6}{Induction assumption for $j-1$}{subsection.5.2}{}}
\newlabel{eq:inducation_step_iter_calc_1}{{40}{6}{Induction assumption for $j-1$}{equation.5.40}{}}
\@writefile{toc}{\contentsline {subsection}{\numberline {V-C}inductive step for $j$}{6}{subsection.5.3}\protected@file@percent }
\newlabel{Appendix:Induction_step_for_j}{{V-C}{6}{inductive step for $j$}{subsection.5.3}{}}
\newlabel{eq:Inducation_assumption}{{41}{6}{inductive step for $j$}{equation.5.41}{}}
\newlabel{eq:inducation_step_iter_calc_2}{{42}{6}{Proof of the required induction step}{equation.5.42}{}}
\newlabel{eq:inducation_step_iter_calc_6}{{43}{6}{Proof of the required induction step}{equation.5.43}{}}
\newlabel{eq:inducation_step_iter_calc_11}{{44}{6}{Proof of the required induction step}{equation.5.44}{}}
\newlabel{eq:inducation_step_iter_calc_7}{{45}{6}{Proof of the required induction step}{equation.5.45}{}}
\newlabel{eq:iter_calc_eta_section_1}{{46}{6}{Proof of the required induction step}{equation.5.46}{}}
\newlabel{eq:inducation_step_iter_calc_8}{{49}{6}{Proof of the required induction step}{equation.5.49}{}}
\bibcite{Tchuiev19iros}{2}
\@writefile{toc}{\contentsline {section}{References}{7}{section*.6}\protected@file@percent }
