\BOOKMARK [1][-]{section.1}{\376\377\000I\000n\000t\000r\000o\000d\000u\000c\000t\000i\000o\000n}{}% 1
\BOOKMARK [1][-]{section.2}{\376\377\000N\000o\000t\000a\000t\000i\000o\000n\000s\000\040\000a\000n\000d\000\040\000P\000r\000o\000b\000l\000e\000m\000\040\000F\000o\000r\000m\000u\000l\000a\000t\000i\000o\000n}{}% 2
\BOOKMARK [2][-]{subsection.2.1}{\376\377\000N\000o\000t\000a\000t\000i\000o\000n\000s}{section.2}% 3
\BOOKMARK [2][-]{subsection.2.2}{\376\377\000P\000r\000o\000b\000l\000e\000m\000\040\000F\000o\000r\000m\000u\000l\000a\000t\000i\000o\000n}{section.2}% 4
\BOOKMARK [1][-]{section.3}{\376\377\000A\000p\000p\000r\000o\000a\000c\000h}{}% 5
\BOOKMARK [2][-]{subsection.3.1}{\376\377\000D\000e\000r\000i\000v\000a\000t\000i\000o\000n\000\040\000o\000f\000\040\000a\000\040\000G\000e\000n\000e\000r\000a\000l\000\040\000F\000o\000r\000m\000u\000l\000a\000t\000i\000o\000n\000\040\000f\000o\000r\000\040\000w\000i\000m\000k}{section.3}% 6
\BOOKMARK [2][-]{subsection.3.2}{\376\377\000S\000i\000n\000g\000l\000e\000\040\000S\000t\000e\000p\000\040\000U\000p\000d\000a\000t\000e\000,\000\040\000p\000=\0001}{section.3}% 7
\BOOKMARK [2][-]{subsection.3.3}{\376\377\000M\000u\000l\000t\000i\000p\000l\000e\000\040\000S\000t\000e\000p\000s\000\040\000I\000n\000c\000r\000e\000m\000e\000n\000t\000a\000l\000\040\000C\000a\000l\000c\000u\000l\000a\000t\000i\000o\000n\000\040\000o\000f\000\040\000w\000i\000m\000m\000+\000p\000\040}{section.3}% 8
\BOOKMARK [3][-]{subsubsection.3.3.1}{\376\377\000j\000=\000p\000-\0001}{subsection.3.3}% 9
\BOOKMARK [3][-]{subsubsection.3.3.2}{\376\377\000j\000=\000p\000-\0002}{subsection.3.3}% 10
\BOOKMARK [3][-]{subsubsection.3.3.3}{\376\377\000C\000a\000l\000c\000u\000l\000a\000t\000i\000n\000g\000\040\000P\000\050\000z\000m\000+\000j\000m\000=\000i\000,\000H\000-\000m\000+\000j\000\051}{subsection.3.3}% 11
\BOOKMARK [3][-]{subsubsection.3.3.4}{\376\377\000F\000i\000n\000a\000l\000\040\000c\000a\000l\000c\000u\000l\000a\000t\000i\000o\000n\000\040\000o\000f\000\040\000m\000k}{subsection.3.3}% 12
\BOOKMARK [2][-]{subsection.3.4}{\376\377\000A\000l\000g\000o\000r\000i\000t\000h\000m}{section.3}% 13
\BOOKMARK [2][-]{subsection.3.5}{\376\377\000C\000o\000m\000p\000u\000t\000a\000t\000i\000o\000n\000a\000l\000\040\000C\000o\000m\000p\000l\000e\000x\000i\000t\000y\000\040\000A\000s\000p\000e\000c\000t\000s}{section.3}% 14
\BOOKMARK [1][-]{section.4}{\376\377\000E\000x\000p\000e\000r\000i\000m\000e\000n\000t\000s}{}% 15
\BOOKMARK [1][-]{section.5}{\376\377\000C\000o\000n\000c\000l\000u\000s\000i\000o\000n\000s}{}% 16
\BOOKMARK [2][-]{subsection.5.1}{\376\377\000B\000a\000s\000e\000\040\000C\000a\000s\000e\000:\000\040\000j\000=\000p\000-\0002}{section.5}% 17
\BOOKMARK [2][-]{subsection.5.2}{\376\377\000I\000n\000d\000u\000c\000t\000i\000o\000n\000\040\000a\000s\000s\000u\000m\000p\000t\000i\000o\000n\000\040\000f\000o\000r\000\040\000j\000-\0001}{section.5}% 18
\BOOKMARK [2][-]{subsection.5.3}{\376\377\000i\000n\000d\000u\000c\000t\000i\000v\000e\000\040\000s\000t\000e\000p\000\040\000f\000o\000r\000\040\000j}{section.5}% 19
\BOOKMARK [1][-]{section*.6}{\376\377\000R\000e\000f\000e\000r\000e\000n\000c\000e\000s}{}% 20
