%!PS-Adobe-3.0 EPSF-3.0
%%Creator: (MATLAB, The Mathworks, Inc. Version 9.10.0.1649659 \(R2021a\) Update 1. Operating System: Windows 10)
%%Title: (C:/Users/ohads/ANPL/papers/research/2022 ICRA/Figures/TestCase_2/fig_files/CurrentBeliefWeightDistribution.eps)
%%CreationDate: 2021-08-04T10:57:24
%%Pages: (atend)
%%BoundingBox:   101     0  1323   682
%%LanguageLevel: 3
%%EndComments
%%BeginProlog
%%BeginResource: procset (Apache XML Graphics Std ProcSet) 1.2 0
%%Version: 1.2 0
%%Copyright: (Copyright 2001-2003,2010 The Apache Software Foundation. License terms: http://www.apache.org/licenses/LICENSE-2.0)
/bd{bind def}bind def
/ld{load def}bd
/GR/grestore ld
/GS/gsave ld
/RM/rmoveto ld
/C/curveto ld
/t/show ld
/L/lineto ld
/ML/setmiterlimit ld
/CT/concat ld
/f/fill ld
/N/newpath ld
/S/stroke ld
/CC/setcmykcolor ld
/A/ashow ld
/cp/closepath ld
/RC/setrgbcolor ld
/LJ/setlinejoin ld
/GC/setgray ld
/LW/setlinewidth ld
/M/moveto ld
/re {4 2 roll M
1 index 0 rlineto
0 exch rlineto
neg 0 rlineto
cp } bd
/_ctm matrix def
/_tm matrix def
/BT { _ctm currentmatrix pop matrix _tm copy pop 0 0 moveto } bd
/ET { _ctm setmatrix } bd
/iTm { _ctm setmatrix _tm concat } bd
/Tm { _tm astore pop iTm 0 0 moveto } bd
/ux 0.0 def
/uy 0.0 def
/F {
  /Tp exch def
  /Tf exch def
  Tf findfont Tp scalefont setfont
  /cf Tf def  /cs Tp def
} bd
/ULS {currentpoint /uy exch def /ux exch def} bd
/ULE {
  /Tcx currentpoint pop def
  gsave
  newpath
  cf findfont cs scalefont dup
  /FontMatrix get 0 get /Ts exch def /FontInfo get dup
  /UnderlinePosition get Ts mul /To exch def
  /UnderlineThickness get Ts mul /Tt exch def
  ux uy To add moveto  Tcx uy To add lineto
  Tt setlinewidth stroke
  grestore
} bd
/OLE {
  /Tcx currentpoint pop def
  gsave
  newpath
  cf findfont cs scalefont dup
  /FontMatrix get 0 get /Ts exch def /FontInfo get dup
  /UnderlinePosition get Ts mul /To exch def
  /UnderlineThickness get Ts mul /Tt exch def
  ux uy To add cs add moveto Tcx uy To add cs add lineto
  Tt setlinewidth stroke
  grestore
} bd
/SOE {
  /Tcx currentpoint pop def
  gsave
  newpath
  cf findfont cs scalefont dup
  /FontMatrix get 0 get /Ts exch def /FontInfo get dup
  /UnderlinePosition get Ts mul /To exch def
  /UnderlineThickness get Ts mul /Tt exch def
  ux uy To add cs 10 mul 26 idiv add moveto Tcx uy To add cs 10 mul 26 idiv add lineto
  Tt setlinewidth stroke
  grestore
} bd
/QT {
/Y22 exch store
/X22 exch store
/Y21 exch store
/X21 exch store
currentpoint
/Y21 load 2 mul add 3 div exch
/X21 load 2 mul add 3 div exch
/X21 load 2 mul /X22 load add 3 div
/Y21 load 2 mul /Y22 load add 3 div
/X22 load /Y22 load curveto
} bd
/SSPD {
dup length /d exch dict def
{
/v exch def
/k exch def
currentpagedevice k known {
/cpdv currentpagedevice k get def
v cpdv ne {
/upd false def
/nullv v type /nulltype eq def
/nullcpdv cpdv type /nulltype eq def
nullv nullcpdv or
{
/upd true def
} {
/sametype v type cpdv type eq def
sametype {
v type /arraytype eq {
/vlen v length def
/cpdvlen cpdv length def
vlen cpdvlen eq {
0 1 vlen 1 sub {
/i exch def
/obj v i get def
/cpdobj cpdv i get def
obj cpdobj ne {
/upd true def
exit
} if
} for
} {
/upd true def
} ifelse
} {
v type /dicttype eq {
v {
/dv exch def
/dk exch def
/cpddv cpdv dk get def
dv cpddv ne {
/upd true def
exit
} if
} forall
} {
/upd true def
} ifelse
} ifelse
} if
} ifelse
upd true eq {
d k v put
} if
} if
} if
} forall
d length 0 gt {
d setpagedevice
} if
} bd
/RE { % /NewFontName [NewEncodingArray] /FontName RE -
  findfont dup length dict begin
  {
    1 index /FID ne
    {def} {pop pop} ifelse
  } forall
  /Encoding exch def
  /FontName 1 index def
  currentdict definefont pop
  end
} bind def
%%EndResource
%%BeginResource: procset (Apache XML Graphics EPS ProcSet) 1.0 0
%%Version: 1.0 0
%%Copyright: (Copyright 2002-2003 The Apache Software Foundation. License terms: http://www.apache.org/licenses/LICENSE-2.0)
/BeginEPSF { %def
/b4_Inc_state save def         % Save state for cleanup
/dict_count countdictstack def % Count objects on dict stack
/op_count count 1 sub def      % Count objects on operand stack
userdict begin                 % Push userdict on dict stack
/showpage { } def              % Redefine showpage, { } = null proc
0 setgray 0 setlinecap         % Prepare graphics state
1 setlinewidth 0 setlinejoin
10 setmiterlimit [ ] 0 setdash newpath
/languagelevel where           % If level not equal to 1 then
{pop languagelevel             % set strokeadjust and
1 ne                           % overprint to their defaults.
{false setstrokeadjust false setoverprint
} if
} if
} bd
/EndEPSF { %def
count op_count sub {pop} repeat            % Clean up stacks
countdictstack dict_count sub {end} repeat
b4_Inc_state restore
} bd
%%EndResource
%FOPBeginFontDict
%%IncludeResource: font Courier-Oblique
%%IncludeResource: font Courier-BoldOblique
%%IncludeResource: font Courier-Bold
%%IncludeResource: font ZapfDingbats
%%IncludeResource: font Symbol
%%IncludeResource: font Helvetica
%%IncludeResource: font Helvetica-Oblique
%%IncludeResource: font Helvetica-Bold
%%IncludeResource: font Helvetica-BoldOblique
%%IncludeResource: font Times-Roman
%%IncludeResource: font Times-Italic
%%IncludeResource: font Times-Bold
%%IncludeResource: font Times-BoldItalic
%%IncludeResource: font Courier
%FOPEndFontDict
%%BeginResource: encoding WinAnsiEncoding
/WinAnsiEncoding [
/.notdef /.notdef /.notdef /.notdef /.notdef
/.notdef /.notdef /.notdef /.notdef /.notdef
/.notdef /.notdef /.notdef /.notdef /.notdef
/.notdef /.notdef /.notdef /.notdef /.notdef
/.notdef /.notdef /.notdef /.notdef /.notdef
/.notdef /.notdef /.notdef /.notdef /.notdef
/.notdef /.notdef /space /exclam /quotedbl
/numbersign /dollar /percent /ampersand /quotesingle
/parenleft /parenright /asterisk /plus /comma
/hyphen /period /slash /zero /one
/two /three /four /five /six
/seven /eight /nine /colon /semicolon
/less /equal /greater /question /at
/A /B /C /D /E
/F /G /H /I /J
/K /L /M /N /O
/P /Q /R /S /T
/U /V /W /X /Y
/Z /bracketleft /backslash /bracketright /asciicircum
/underscore /quoteleft /a /b /c
/d /e /f /g /h
/i /j /k /l /m
/n /o /p /q /r
/s /t /u /v /w
/x /y /z /braceleft /bar
/braceright /asciitilde /bullet /Euro /bullet
/quotesinglbase /florin /quotedblbase /ellipsis /dagger
/daggerdbl /circumflex /perthousand /Scaron /guilsinglleft
/OE /bullet /Zcaron /bullet /bullet
/quoteleft /quoteright /quotedblleft /quotedblright /bullet
/endash /emdash /asciitilde /trademark /scaron
/guilsinglright /oe /bullet /zcaron /Ydieresis
/space /exclamdown /cent /sterling /currency
/yen /brokenbar /section /dieresis /copyright
/ordfeminine /guillemotleft /logicalnot /sfthyphen /registered
/macron /degree /plusminus /twosuperior /threesuperior
/acute /mu /paragraph /middot /cedilla
/onesuperior /ordmasculine /guillemotright /onequarter /onehalf
/threequarters /questiondown /Agrave /Aacute /Acircumflex
/Atilde /Adieresis /Aring /AE /Ccedilla
/Egrave /Eacute /Ecircumflex /Edieresis /Igrave
/Iacute /Icircumflex /Idieresis /Eth /Ntilde
/Ograve /Oacute /Ocircumflex /Otilde /Odieresis
/multiply /Oslash /Ugrave /Uacute /Ucircumflex
/Udieresis /Yacute /Thorn /germandbls /agrave
/aacute /acircumflex /atilde /adieresis /aring
/ae /ccedilla /egrave /eacute /ecircumflex
/edieresis /igrave /iacute /icircumflex /idieresis
/eth /ntilde /ograve /oacute /ocircumflex
/otilde /odieresis /divide /oslash /ugrave
/uacute /ucircumflex /udieresis /yacute /thorn
/ydieresis
] def
%%EndResource
%FOPBeginFontReencode
/Courier-Oblique findfont
dup length dict begin
  {1 index /FID ne {def} {pop pop} ifelse} forall
  /Encoding WinAnsiEncoding def
  currentdict
end
/Courier-Oblique exch definefont pop
/Courier-BoldOblique findfont
dup length dict begin
  {1 index /FID ne {def} {pop pop} ifelse} forall
  /Encoding WinAnsiEncoding def
  currentdict
end
/Courier-BoldOblique exch definefont pop
/Courier-Bold findfont
dup length dict begin
  {1 index /FID ne {def} {pop pop} ifelse} forall
  /Encoding WinAnsiEncoding def
  currentdict
end
/Courier-Bold exch definefont pop
/Helvetica findfont
dup length dict begin
  {1 index /FID ne {def} {pop pop} ifelse} forall
  /Encoding WinAnsiEncoding def
  currentdict
end
/Helvetica exch definefont pop
/Helvetica-Oblique findfont
dup length dict begin
  {1 index /FID ne {def} {pop pop} ifelse} forall
  /Encoding WinAnsiEncoding def
  currentdict
end
/Helvetica-Oblique exch definefont pop
/Helvetica-Bold findfont
dup length dict begin
  {1 index /FID ne {def} {pop pop} ifelse} forall
  /Encoding WinAnsiEncoding def
  currentdict
end
/Helvetica-Bold exch definefont pop
/Helvetica-BoldOblique findfont
dup length dict begin
  {1 index /FID ne {def} {pop pop} ifelse} forall
  /Encoding WinAnsiEncoding def
  currentdict
end
/Helvetica-BoldOblique exch definefont pop
/Times-Roman findfont
dup length dict begin
  {1 index /FID ne {def} {pop pop} ifelse} forall
  /Encoding WinAnsiEncoding def
  currentdict
end
/Times-Roman exch definefont pop
/Times-Italic findfont
dup length dict begin
  {1 index /FID ne {def} {pop pop} ifelse} forall
  /Encoding WinAnsiEncoding def
  currentdict
end
/Times-Italic exch definefont pop
/Times-Bold findfont
dup length dict begin
  {1 index /FID ne {def} {pop pop} ifelse} forall
  /Encoding WinAnsiEncoding def
  currentdict
end
/Times-Bold exch definefont pop
/Times-BoldItalic findfont
dup length dict begin
  {1 index /FID ne {def} {pop pop} ifelse} forall
  /Encoding WinAnsiEncoding def
  currentdict
end
/Times-BoldItalic exch definefont pop
/Courier findfont
dup length dict begin
  {1 index /FID ne {def} {pop pop} ifelse} forall
  /Encoding WinAnsiEncoding def
  currentdict
end
/Courier exch definefont pop
%FOPEndFontReencode
%%EndProlog
%%Page: 1 1
%%PageBoundingBox: 0 0 1440 722
%%BeginPageSetup
[1 0 0 -1 0 722] CT
%%EndPageSetup
GS
[0.75 0 0 0.75 0 -0.25] CT
1 GC
N
0 0 1920 963 re
f
GR
GS
[0.75 0 0 0.75 0 -0.25] CT
1 GC
N
0 0 1920 963 re
f
GR
GS
[0.75 0 0 0.75 0 -0.25] CT
1 GC
N
250 857 M
1738 857 L
1738 72 L
250 72 L
cp
f
GR
GS
[0.75 0 0 0.75 0 -0.25] CT
0.149 GC
2 setlinecap
1 LJ
0.667 LW
N
250 857 M
1738 857 L
S
GR
GS
[0.75 0 0 0.75 0 -0.25] CT
0.149 GC
2 setlinecap
1 LJ
0.667 LW
N
276.571 857 M
276.571 842.12 L
S
GR
GS
[0.75 0 0 0.75 0 -0.25] CT
0.149 GC
2 setlinecap
1 LJ
0.667 LW
N
329.714 857 M
329.714 842.12 L
S
GR
GS
[0.75 0 0 0.75 0 -0.25] CT
0.149 GC
2 setlinecap
1 LJ
0.667 LW
N
382.857 857 M
382.857 842.12 L
S
GR
GS
[0.75 0 0 0.75 0 -0.25] CT
0.149 GC
2 setlinecap
1 LJ
0.667 LW
N
436 857 M
436 842.12 L
S
GR
GS
[0.75 0 0 0.75 0 -0.25] CT
0.149 GC
2 setlinecap
1 LJ
0.667 LW
N
489.143 857 M
489.143 842.12 L
S
GR
GS
[0.75 0 0 0.75 0 -0.25] CT
0.149 GC
2 setlinecap
1 LJ
0.667 LW
N
542.286 857 M
542.286 842.12 L
S
GR
GS
[0.75 0 0 0.75 0 -0.25] CT
0.149 GC
2 setlinecap
1 LJ
0.667 LW
N
595.429 857 M
595.429 842.12 L
S
GR
GS
[0.75 0 0 0.75 0 -0.25] CT
0.149 GC
2 setlinecap
1 LJ
0.667 LW
N
648.571 857 M
648.571 842.12 L
S
GR
GS
[0.75 0 0 0.75 0 -0.25] CT
0.149 GC
2 setlinecap
1 LJ
0.667 LW
N
701.714 857 M
701.714 842.12 L
S
GR
GS
[0.75 0 0 0.75 0 -0.25] CT
0.149 GC
2 setlinecap
1 LJ
0.667 LW
N
754.857 857 M
754.857 842.12 L
S
GR
GS
[0.75 0 0 0.75 0 -0.25] CT
0.149 GC
2 setlinecap
1 LJ
0.667 LW
N
808 857 M
808 842.12 L
S
GR
GS
[0.75 0 0 0.75 0 -0.25] CT
0.149 GC
2 setlinecap
1 LJ
0.667 LW
N
861.143 857 M
861.143 842.12 L
S
GR
GS
[0.75 0 0 0.75 0 -0.25] CT
0.149 GC
2 setlinecap
1 LJ
0.667 LW
N
914.286 857 M
914.286 842.12 L
S
GR
GS
[0.75 0 0 0.75 0 -0.25] CT
0.149 GC
2 setlinecap
1 LJ
0.667 LW
N
967.429 857 M
967.429 842.12 L
S
GR
GS
[0.75 0 0 0.75 0 -0.25] CT
0.149 GC
2 setlinecap
1 LJ
0.667 LW
N
1020.571 857 M
1020.571 842.12 L
S
GR
GS
[0.75 0 0 0.75 0 -0.25] CT
0.149 GC
2 setlinecap
1 LJ
0.667 LW
N
1073.714 857 M
1073.714 842.12 L
S
GR
GS
[0.75 0 0 0.75 0 -0.25] CT
0.149 GC
2 setlinecap
1 LJ
0.667 LW
N
1126.857 857 M
1126.857 842.12 L
S
GR
GS
[0.75 0 0 0.75 0 -0.25] CT
0.149 GC
2 setlinecap
1 LJ
0.667 LW
N
1180 857 M
1180 842.12 L
S
GR
GS
[0.75 0 0 0.75 0 -0.25] CT
0.149 GC
2 setlinecap
1 LJ
0.667 LW
N
1233.143 857 M
1233.143 842.12 L
S
GR
GS
[0.75 0 0 0.75 0 -0.25] CT
0.149 GC
2 setlinecap
1 LJ
0.667 LW
N
1286.286 857 M
1286.286 842.12 L
S
GR
GS
[0.75 0 0 0.75 0 -0.25] CT
0.149 GC
2 setlinecap
1 LJ
0.667 LW
N
1339.429 857 M
1339.429 842.12 L
S
GR
GS
[0.75 0 0 0.75 0 -0.25] CT
0.149 GC
2 setlinecap
1 LJ
0.667 LW
N
1392.571 857 M
1392.571 842.12 L
S
GR
GS
[0.75 0 0 0.75 0 -0.25] CT
0.149 GC
2 setlinecap
1 LJ
0.667 LW
N
1445.714 857 M
1445.714 842.12 L
S
GR
GS
[0.75 0 0 0.75 0 -0.25] CT
0.149 GC
2 setlinecap
1 LJ
0.667 LW
N
1498.857 857 M
1498.857 842.12 L
S
GR
GS
[0.75 0 0 0.75 0 -0.25] CT
0.149 GC
2 setlinecap
1 LJ
0.667 LW
N
1552 857 M
1552 842.12 L
S
GR
GS
[0.75 0 0 0.75 0 -0.25] CT
0.149 GC
2 setlinecap
1 LJ
0.667 LW
N
1605.143 857 M
1605.143 842.12 L
S
GR
GS
[0.75 0 0 0.75 0 -0.25] CT
0.149 GC
2 setlinecap
1 LJ
0.667 LW
N
1658.286 857 M
1658.286 842.12 L
S
GR
GS
[0.75 0 0 0.75 0 -0.25] CT
0.149 GC
2 setlinecap
1 LJ
0.667 LW
N
1711.429 857 M
1711.429 842.12 L
S
GR
GS
[0 -0.75 0.75 0 220.5 722] CT
0.149 GC
/Helvetica 53.333 F
GS
[1 0 0 1 0 0] CT
0 0 moveto 
1 -1 scale
(w) t 
GR
GR
GS
[0 -0.75 0.75 0 201 692.75] CT
0.149 GC
/Helvetica 42.667 F
GS
[1 0 0 1 0 0] CT
0 0 moveto 
1 -1 scale
(1) t 
GR
GR
GS
[0 -0.75 0.75 0 240 692.75] CT
0.149 GC
/Helvetica 42.667 F
GS
[1 0 0 1 0 0] CT
0 0 moveto 
1 -1 scale
(k|k) t 
GR
GR
GS
[0 -0.75 0.75 0 260.25 722] CT
0.149 GC
/Helvetica 53.333 F
GS
[1 0 0 1 0 0] CT
0 0 moveto 
1 -1 scale
(w) t 
GR
GR
GS
[0 -0.75 0.75 0 240.75 692.75] CT
0.149 GC
/Helvetica 42.667 F
GS
[1 0 0 1 0 0] CT
0 0 moveto 
1 -1 scale
(2) t 
GR
GR
GS
[0 -0.75 0.75 0 279.75 692.75] CT
0.149 GC
/Helvetica 42.667 F
GS
[1 0 0 1 0 0] CT
0 0 moveto 
1 -1 scale
(k|k) t 
GR
GR
GS
[0 -0.75 0.75 0 300 722] CT
0.149 GC
/Helvetica 53.333 F
GS
[1 0 0 1 0 0] CT
0 0 moveto 
1 -1 scale
(w) t 
GR
GR
GS
[0 -0.75 0.75 0 280.5 692.75] CT
0.149 GC
/Helvetica 42.667 F
GS
[1 0 0 1 0 0] CT
0 0 moveto 
1 -1 scale
(3) t 
GR
GR
GS
[0 -0.75 0.75 0 319.5 692.75] CT
0.149 GC
/Helvetica 42.667 F
GS
[1 0 0 1 0 0] CT
0 0 moveto 
1 -1 scale
(k|k) t 
GR
GR
GS
[0 -0.75 0.75 0 339.75 722] CT
0.149 GC
/Helvetica 53.333 F
GS
[1 0 0 1 0 0] CT
0 0 moveto 
1 -1 scale
(w) t 
GR
GR
GS
[0 -0.75 0.75 0 320.25 692.75] CT
0.149 GC
/Helvetica 42.667 F
GS
[1 0 0 1 0 0] CT
0 0 moveto 
1 -1 scale
(4) t 
GR
GR
GS
[0 -0.75 0.75 0 359.25 692.75] CT
0.149 GC
/Helvetica 42.667 F
GS
[1 0 0 1 0 0] CT
0 0 moveto 
1 -1 scale
(k|k) t 
GR
GR
GS
[0 -0.75 0.75 0 379.5 722] CT
0.149 GC
/Helvetica 53.333 F
GS
[1 0 0 1 0 0] CT
0 0 moveto 
1 -1 scale
(w) t 
GR
GR
GS
[0 -0.75 0.75 0 360 692.75] CT
0.149 GC
/Helvetica 42.667 F
GS
[1 0 0 1 0 0] CT
0 0 moveto 
1 -1 scale
(5) t 
GR
GR
GS
[0 -0.75 0.75 0 399 692.75] CT
0.149 GC
/Helvetica 42.667 F
GS
[1 0 0 1 0 0] CT
0 0 moveto 
1 -1 scale
(k|k) t 
GR
GR
GS
[0 -0.75 0.75 0 419.25 722] CT
0.149 GC
/Helvetica 53.333 F
GS
[1 0 0 1 0 0] CT
0 0 moveto 
1 -1 scale
(w) t 
GR
GR
GS
[0 -0.75 0.75 0 399.75 692.75] CT
0.149 GC
/Helvetica 42.667 F
GS
[1 0 0 1 0 0] CT
0 0 moveto 
1 -1 scale
(6) t 
GR
GR
GS
[0 -0.75 0.75 0 438.75 692.75] CT
0.149 GC
/Helvetica 42.667 F
GS
[1 0 0 1 0 0] CT
0 0 moveto 
1 -1 scale
(k|k) t 
GR
GR
GS
[0 -0.75 0.75 0 459 722] CT
0.149 GC
/Helvetica 53.333 F
GS
[1 0 0 1 0 0] CT
0 0 moveto 
1 -1 scale
(w) t 
GR
GR
GS
[0 -0.75 0.75 0 439.5 692.75] CT
0.149 GC
/Helvetica 42.667 F
GS
[1 0 0 1 0 0] CT
0 0 moveto 
1 -1 scale
(7) t 
GR
GR
GS
[0 -0.75 0.75 0 478.5 692.75] CT
0.149 GC
/Helvetica 42.667 F
GS
[1 0 0 1 0 0] CT
0 0 moveto 
1 -1 scale
(k|k) t 
GR
GR
GS
[0 -0.75 0.75 0 499.5 722] CT
0.149 GC
/Helvetica 53.333 F
GS
[1 0 0 1 0 0] CT
0 0 moveto 
1 -1 scale
(w) t 
GR
GR
GS
[0 -0.75 0.75 0 480 692.75] CT
0.149 GC
/Helvetica 42.667 F
GS
[1 0 0 1 0 0] CT
0 0 moveto 
1 -1 scale
(8) t 
GR
GR
GS
[0 -0.75 0.75 0 519 692.75] CT
0.149 GC
/Helvetica 42.667 F
GS
[1 0 0 1 0 0] CT
0 0 moveto 
1 -1 scale
(k|k) t 
GR
GR
GS
[0 -0.75 0.75 0 539.25 722] CT
0.149 GC
/Helvetica 53.333 F
GS
[1 0 0 1 0 0] CT
0 0 moveto 
1 -1 scale
(w) t 
GR
GR
GS
[0 -0.75 0.75 0 519.75 692.75] CT
0.149 GC
/Helvetica 42.667 F
GS
[1 0 0 1 0 0] CT
0 0 moveto 
1 -1 scale
(9) t 
GR
GR
GS
[0 -0.75 0.75 0 558.75 692.75] CT
0.149 GC
/Helvetica 42.667 F
GS
[1 0 0 1 0 0] CT
0 0 moveto 
1 -1 scale
(k|k) t 
GR
GR
GS
[0 -0.75 0.75 0 579 722] CT
0.149 GC
/Helvetica 53.333 F
GS
[1 0 0 1 0 0] CT
0 0 moveto 
1 -1 scale
(w) t 
GR
GR
GS
[0 -0.75 0.75 0 559.5 692.75] CT
0.149 GC
/Helvetica 42.667 F
GS
[1 0 0 1 0 0] CT
0 0 moveto 
1 -1 scale
(10) t 
GR
GR
GS
[0 -0.75 0.75 0 598.5 692.75] CT
0.149 GC
/Helvetica 42.667 F
GS
[1 0 0 1 0 0] CT
0 0 moveto 
1 -1 scale
(k|k) t 
GR
GR
GS
[0 -0.75 0.75 0 618.75 722] CT
0.149 GC
/Helvetica 53.333 F
GS
[1 0 0 1 0 0] CT
0 0 moveto 
1 -1 scale
(w) t 
GR
GR
GS
[0 -0.75 0.75 0 599.25 692.75] CT
0.149 GC
/Helvetica 42.667 F
GS
[1 0 0 1 0 0] CT
0 0 moveto 
1 -1 scale
(11) t 
GR
GR
GS
[0 -0.75 0.75 0 638.25 692.75] CT
0.149 GC
/Helvetica 42.667 F
GS
[1 0 0 1 0 0] CT
0 0 moveto 
1 -1 scale
(k|k) t 
GR
GR
GS
[0 -0.75 0.75 0 658.5 722] CT
0.149 GC
/Helvetica 53.333 F
GS
[1 0 0 1 0 0] CT
0 0 moveto 
1 -1 scale
(w) t 
GR
GR
GS
[0 -0.75 0.75 0 639 692.75] CT
0.149 GC
/Helvetica 42.667 F
GS
[1 0 0 1 0 0] CT
0 0 moveto 
1 -1 scale
(12) t 
GR
GR
GS
[0 -0.75 0.75 0 678 692.75] CT
0.149 GC
/Helvetica 42.667 F
GS
[1 0 0 1 0 0] CT
0 0 moveto 
1 -1 scale
(k|k) t 
GR
GR
GS
[0 -0.75 0.75 0 698.25 722] CT
0.149 GC
/Helvetica 53.333 F
GS
[1 0 0 1 0 0] CT
0 0 moveto 
1 -1 scale
(w) t 
GR
GR
GS
[0 -0.75 0.75 0 678.75 692.75] CT
0.149 GC
/Helvetica 42.667 F
GS
[1 0 0 1 0 0] CT
0 0 moveto 
1 -1 scale
(13) t 
GR
GR
GS
[0 -0.75 0.75 0 717.75 692.75] CT
0.149 GC
/Helvetica 42.667 F
GS
[1 0 0 1 0 0] CT
0 0 moveto 
1 -1 scale
(k|k) t 
GR
GR
GS
[0 -0.75 0.75 0 738 722] CT
0.149 GC
/Helvetica 53.333 F
GS
[1 0 0 1 0 0] CT
0 0 moveto 
1 -1 scale
(w) t 
GR
GR
GS
[0 -0.75 0.75 0 718.5 692.75] CT
0.149 GC
/Helvetica 42.667 F
GS
[1 0 0 1 0 0] CT
0 0 moveto 
1 -1 scale
(14) t 
GR
GR
GS
[0 -0.75 0.75 0 757.5 692.75] CT
0.149 GC
/Helvetica 42.667 F
GS
[1 0 0 1 0 0] CT
0 0 moveto 
1 -1 scale
(k|k) t 
GR
GR
GS
[0 -0.75 0.75 0 778.5 722] CT
0.149 GC
/Helvetica 53.333 F
GS
[1 0 0 1 0 0] CT
0 0 moveto 
1 -1 scale
(w) t 
GR
GR
GS
[0 -0.75 0.75 0 759 692.75] CT
0.149 GC
/Helvetica 42.667 F
GS
[1 0 0 1 0 0] CT
0 0 moveto 
1 -1 scale
(15) t 
GR
GR
GS
[0 -0.75 0.75 0 798 692.75] CT
0.149 GC
/Helvetica 42.667 F
GS
[1 0 0 1 0 0] CT
0 0 moveto 
1 -1 scale
(k|k) t 
GR
GR
GS
[0 -0.75 0.75 0 818.25 722] CT
0.149 GC
/Helvetica 53.333 F
GS
[1 0 0 1 0 0] CT
0 0 moveto 
1 -1 scale
(w) t 
GR
GR
GS
[0 -0.75 0.75 0 798.75 692.75] CT
0.149 GC
/Helvetica 42.667 F
GS
[1 0 0 1 0 0] CT
0 0 moveto 
1 -1 scale
(16) t 
GR
GR
GS
[0 -0.75 0.75 0 837.75 692.75] CT
0.149 GC
/Helvetica 42.667 F
GS
[1 0 0 1 0 0] CT
0 0 moveto 
1 -1 scale
(k|k) t 
GR
GR
GS
[0 -0.75 0.75 0 858 722] CT
0.149 GC
/Helvetica 53.333 F
GS
[1 0 0 1 0 0] CT
0 0 moveto 
1 -1 scale
(w) t 
GR
GR
GS
[0 -0.75 0.75 0 838.5 692.75] CT
0.149 GC
/Helvetica 42.667 F
GS
[1 0 0 1 0 0] CT
0 0 moveto 
1 -1 scale
(17) t 
GR
GR
GS
[0 -0.75 0.75 0 877.5 692.75] CT
0.149 GC
/Helvetica 42.667 F
GS
[1 0 0 1 0 0] CT
0 0 moveto 
1 -1 scale
(k|k) t 
GR
GR
GS
[0 -0.75 0.75 0 897.75 722] CT
0.149 GC
/Helvetica 53.333 F
GS
[1 0 0 1 0 0] CT
0 0 moveto 
1 -1 scale
(w) t 
GR
GR
GS
[0 -0.75 0.75 0 878.25 692.75] CT
0.149 GC
/Helvetica 42.667 F
GS
[1 0 0 1 0 0] CT
0 0 moveto 
1 -1 scale
(18) t 
GR
GR
GS
[0 -0.75 0.75 0 917.25 692.75] CT
0.149 GC
/Helvetica 42.667 F
GS
[1 0 0 1 0 0] CT
0 0 moveto 
1 -1 scale
(k|k) t 
GR
GR
GS
[0 -0.75 0.75 0 937.5 722] CT
0.149 GC
/Helvetica 53.333 F
GS
[1 0 0 1 0 0] CT
0 0 moveto 
1 -1 scale
(w) t 
GR
GR
GS
[0 -0.75 0.75 0 918 692.75] CT
0.149 GC
/Helvetica 42.667 F
GS
[1 0 0 1 0 0] CT
0 0 moveto 
1 -1 scale
(19) t 
GR
GR
GS
[0 -0.75 0.75 0 957 692.75] CT
0.149 GC
/Helvetica 42.667 F
GS
[1 0 0 1 0 0] CT
0 0 moveto 
1 -1 scale
(k|k) t 
GR
GR
GS
[0 -0.75 0.75 0 977.25 722] CT
0.149 GC
/Helvetica 53.333 F
GS
[1 0 0 1 0 0] CT
0 0 moveto 
1 -1 scale
(w) t 
GR
GR
GS
[0 -0.75 0.75 0 957.75 692.75] CT
0.149 GC
/Helvetica 42.667 F
GS
[1 0 0 1 0 0] CT
0 0 moveto 
1 -1 scale
(20) t 
GR
GR
GS
[0 -0.75 0.75 0 996.75 692.75] CT
0.149 GC
/Helvetica 42.667 F
GS
[1 0 0 1 0 0] CT
0 0 moveto 
1 -1 scale
(k|k) t 
GR
GR
GS
[0 -0.75 0.75 0 1017 722] CT
0.149 GC
/Helvetica 53.333 F
GS
[1 0 0 1 0 0] CT
0 0 moveto 
1 -1 scale
(w) t 
GR
GR
GS
[0 -0.75 0.75 0 997.5 692.75] CT
0.149 GC
/Helvetica 42.667 F
GS
[1 0 0 1 0 0] CT
0 0 moveto 
1 -1 scale
(21) t 
GR
GR
GS
[0 -0.75 0.75 0 1036.5 692.75] CT
0.149 GC
/Helvetica 42.667 F
GS
[1 0 0 1 0 0] CT
0 0 moveto 
1 -1 scale
(k|k) t 
GR
GR
GS
[0 -0.75 0.75 0 1057.5 722] CT
0.149 GC
/Helvetica 53.333 F
GS
[1 0 0 1 0 0] CT
0 0 moveto 
1 -1 scale
(w) t 
GR
GR
GS
[0 -0.75 0.75 0 1038 692.75] CT
0.149 GC
/Helvetica 42.667 F
GS
[1 0 0 1 0 0] CT
0 0 moveto 
1 -1 scale
(22) t 
GR
GR
GS
[0 -0.75 0.75 0 1077 692.75] CT
0.149 GC
/Helvetica 42.667 F
GS
[1 0 0 1 0 0] CT
0 0 moveto 
1 -1 scale
(k|k) t 
GR
GR
GS
[0 -0.75 0.75 0 1097.25 722] CT
0.149 GC
/Helvetica 53.333 F
GS
[1 0 0 1 0 0] CT
0 0 moveto 
1 -1 scale
(w) t 
GR
GR
GS
[0 -0.75 0.75 0 1077.75 692.75] CT
0.149 GC
/Helvetica 42.667 F
GS
[1 0 0 1 0 0] CT
0 0 moveto 
1 -1 scale
(23) t 
GR
GR
GS
[0 -0.75 0.75 0 1116.75 692.75] CT
0.149 GC
/Helvetica 42.667 F
GS
[1 0 0 1 0 0] CT
0 0 moveto 
1 -1 scale
(k|k) t 
GR
GR
GS
[0 -0.75 0.75 0 1137 722] CT
0.149 GC
/Helvetica 53.333 F
GS
[1 0 0 1 0 0] CT
0 0 moveto 
1 -1 scale
(w) t 
GR
GR
GS
[0 -0.75 0.75 0 1117.5 692.75] CT
0.149 GC
/Helvetica 42.667 F
GS
[1 0 0 1 0 0] CT
0 0 moveto 
1 -1 scale
(24) t 
GR
GR
GS
[0 -0.75 0.75 0 1156.5 692.75] CT
0.149 GC
/Helvetica 42.667 F
GS
[1 0 0 1 0 0] CT
0 0 moveto 
1 -1 scale
(k|k) t 
GR
GR
GS
[0 -0.75 0.75 0 1176.75 722] CT
0.149 GC
/Helvetica 53.333 F
GS
[1 0 0 1 0 0] CT
0 0 moveto 
1 -1 scale
(w) t 
GR
GR
GS
[0 -0.75 0.75 0 1157.25 692.75] CT
0.149 GC
/Helvetica 42.667 F
GS
[1 0 0 1 0 0] CT
0 0 moveto 
1 -1 scale
(25) t 
GR
GR
GS
[0 -0.75 0.75 0 1196.25 692.75] CT
0.149 GC
/Helvetica 42.667 F
GS
[1 0 0 1 0 0] CT
0 0 moveto 
1 -1 scale
(k|k) t 
GR
GR
GS
[0 -0.75 0.75 0 1216.5 722] CT
0.149 GC
/Helvetica 53.333 F
GS
[1 0 0 1 0 0] CT
0 0 moveto 
1 -1 scale
(w) t 
GR
GR
GS
[0 -0.75 0.75 0 1197 692.75] CT
0.149 GC
/Helvetica 42.667 F
GS
[1 0 0 1 0 0] CT
0 0 moveto 
1 -1 scale
(26) t 
GR
GR
GS
[0 -0.75 0.75 0 1236 692.75] CT
0.149 GC
/Helvetica 42.667 F
GS
[1 0 0 1 0 0] CT
0 0 moveto 
1 -1 scale
(k|k) t 
GR
GR
GS
[0 -0.75 0.75 0 1256.25 722] CT
0.149 GC
/Helvetica 53.333 F
GS
[1 0 0 1 0 0] CT
0 0 moveto 
1 -1 scale
(w) t 
GR
GR
GS
[0 -0.75 0.75 0 1236.75 692.75] CT
0.149 GC
/Helvetica 42.667 F
GS
[1 0 0 1 0 0] CT
0 0 moveto 
1 -1 scale
(27) t 
GR
GR
GS
[0 -0.75 0.75 0 1275.75 692.75] CT
0.149 GC
/Helvetica 42.667 F
GS
[1 0 0 1 0 0] CT
0 0 moveto 
1 -1 scale
(k|k) t 
GR
GR
GS
[0 -0.75 0.75 0 1296 722] CT
0.149 GC
/Helvetica 53.333 F
GS
[1 0 0 1 0 0] CT
0 0 moveto 
1 -1 scale
(w) t 
GR
GR
GS
[0 -0.75 0.75 0 1276.5 692.75] CT
0.149 GC
/Helvetica 42.667 F
GS
[1 0 0 1 0 0] CT
0 0 moveto 
1 -1 scale
(28) t 
GR
GR
GS
[0 -0.75 0.75 0 1315.5 692.75] CT
0.149 GC
/Helvetica 42.667 F
GS
[1 0 0 1 0 0] CT
0 0 moveto 
1 -1 scale
(k|k) t 
GR
GR
GS
[0.75 0 0 0.75 0 -0.25] CT
0.149 GC
2 setlinecap
1 LJ
0.667 LW
N
250 857 M
250 72 L
S
GR
GS
[0.75 0 0 0.75 0 -0.25] CT
0.149 GC
2 setlinecap
1 LJ
0.667 LW
N
250 857 M
264.88 857 L
S
GR
GS
[0.75 0 0 0.75 0 -0.25] CT
0.149 GC
2 setlinecap
1 LJ
0.667 LW
N
250 700 M
264.88 700 L
S
GR
GS
[0.75 0 0 0.75 0 -0.25] CT
0.149 GC
2 setlinecap
1 LJ
0.667 LW
N
250 543 M
264.88 543 L
S
GR
GS
[0.75 0 0 0.75 0 -0.25] CT
0.149 GC
2 setlinecap
1 LJ
0.667 LW
N
250 386 M
264.88 386 L
S
GR
GS
[0.75 0 0 0.75 0 -0.25] CT
0.149 GC
2 setlinecap
1 LJ
0.667 LW
N
250 229 M
264.88 229 L
S
GR
GS
[0.75 0 0 0.75 0 -0.25] CT
0.149 GC
2 setlinecap
1 LJ
0.667 LW
N
250 72 M
264.88 72 L
S
GR
GS
[0.75 0 0 0.75 177.5 642.5] CT
0.149 GC
/Helvetica 53.333 F
GS
[1 0 0 1 0 0] CT
-30 21 moveto 
1 -1 scale
(0) t 
GR
GR
GS
[0.75 0 0 0.75 177.5 524.75] CT
0.149 GC
/Helvetica 53.333 F
GS
[1 0 0 1 0 0] CT
-104 21 moveto 
1 -1 scale
(0.05) t 
GR
GR
GS
[0.75 0 0 0.75 177.5 407] CT
0.149 GC
/Helvetica 53.333 F
GS
[1 0 0 1 0 0] CT
-75 21 moveto 
1 -1 scale
(0.1) t 
GR
GR
GS
[0.75 0 0 0.75 177.5 289.24998] CT
0.149 GC
/Helvetica 53.333 F
GS
[1 0 0 1 0 0] CT
-104 21 moveto 
1 -1 scale
(0.15) t 
GR
GR
GS
[0.75 0 0 0.75 177.5 171.49999] CT
0.149 GC
/Helvetica 53.333 F
GS
[1 0 0 1 0 0] CT
-75 21 moveto 
1 -1 scale
(0.2) t 
GR
GR
GS
[0.75 0 0 0.75 177.5 53.75] CT
0.149 GC
/Helvetica 53.333 F
GS
[1 0 0 1 0 0] CT
-104 21 moveto 
1 -1 scale
(0.25) t 
GR
GR
GS
[0.75 0 0 0.75 0 -0.25] CT
0.149 GC
1 LJ
0.667 LW
N
250 857 M
1738 857 L
S
GR
GS
[0.75 0 0 0.75 0 -0.25] CT
0 0.447 0.741 RC
N
297.829 857 M
297.829 730.14 L
255.314 730.14 L
255.314 857 L
cp
350.971 857 M
350.971 683.335 L
308.457 683.335 L
308.457 857 L
cp
404.114 857 M
404.114 770.771 L
361.6 770.771 L
361.6 857 L
cp
457.257 857 M
457.257 130.437 L
414.743 130.437 L
414.743 857 L
cp
510.4 857 M
510.4 769.304 L
467.886 769.304 L
467.886 857 L
cp
563.543 857 M
563.543 826.197 L
521.029 826.197 L
521.029 857 L
cp
616.686 857 M
616.686 838.242 L
574.171 838.242 L
574.171 857 L
cp
669.829 857 M
669.829 840.52 L
627.314 840.52 L
627.314 857 L
cp
722.971 857 M
722.971 818.598 L
680.457 818.598 L
680.457 857 L
cp
776.114 857 M
776.114 783.867 L
733.6 783.867 L
733.6 857 L
cp
829.257 857 M
829.257 724.625 L
786.743 724.625 L
786.743 857 L
cp
882.4 857 M
882.4 743.424 L
839.886 743.424 L
839.886 857 L
cp
935.543 857 M
935.543 453.193 L
893.029 453.193 L
893.029 857 L
cp
988.686 857 M
988.686 793.126 L
946.171 793.126 L
946.171 857 L
cp
1041.828 857 M
1041.828 836.497 L
999.314 836.497 L
999.314 857 L
cp
1094.971 857 M
1094.971 821.844 L
1052.457 821.844 L
1052.457 857 L
cp
1148.114 857 M
1148.114 790.323 L
1105.6 790.323 L
1105.6 857 L
cp
1201.257 857 M
1201.257 802.011 L
1158.743 802.011 L
1158.743 857 L
cp
1254.4 857 M
1254.4 484.168 L
1211.886 484.168 L
1211.886 857 L
cp
1307.543 857 M
1307.543 766.279 L
1265.029 766.279 L
1265.029 857 L
cp
1360.686 857 M
1360.686 833.382 L
1318.172 833.382 L
1318.172 857 L
cp
1413.828 857 M
1413.828 803.04 L
1371.314 803.04 L
1371.314 857 L
cp
1466.971 857 M
1466.971 839.017 L
1424.457 839.017 L
1424.457 857 L
cp
1520.114 857 M
1520.114 818.471 L
1477.6 818.471 L
1477.6 857 L
cp
1573.257 857 M
1573.257 818.007 L
1530.743 818.007 L
1530.743 857 L
cp
1626.4 857 M
1626.4 839.727 L
1583.886 839.727 L
1583.886 857 L
cp
1679.543 857 M
1679.543 820.388 L
1637.029 820.388 L
1637.029 857 L
cp
1732.686 857 M
1732.686 677.069 L
1690.172 677.069 L
1690.172 857 L
cp
f
GR
GS
[0.75 0 0 0.75 0 -0.25] CT
10.0 ML
0.667 LW
N
255.314 857 M
255.314 730.14 L
297.829 730.14 L
297.829 857 L
cp
S
GR
GS
[0.75 0 0 0.75 0 -0.25] CT
10.0 ML
0.667 LW
N
308.457 857 M
308.457 683.335 L
350.971 683.335 L
350.971 857 L
cp
S
GR
GS
[0.75 0 0 0.75 0 -0.25] CT
10.0 ML
0.667 LW
N
361.6 857 M
361.6 770.771 L
404.114 770.771 L
404.114 857 L
cp
S
GR
GS
[0.75 0 0 0.75 0 -0.25] CT
10.0 ML
0.667 LW
N
414.743 857 M
414.743 130.437 L
457.257 130.437 L
457.257 857 L
cp
S
GR
GS
[0.75 0 0 0.75 0 -0.25] CT
10.0 ML
0.667 LW
N
467.886 857 M
467.886 769.304 L
510.4 769.304 L
510.4 857 L
cp
S
GR
GS
[0.75 0 0 0.75 0 -0.25] CT
10.0 ML
0.667 LW
N
521.029 857 M
521.029 826.197 L
563.543 826.197 L
563.543 857 L
cp
S
GR
GS
[0.75 0 0 0.75 0 -0.25] CT
10.0 ML
0.667 LW
N
574.171 857 M
574.171 838.242 L
616.686 838.242 L
616.686 857 L
cp
S
GR
GS
[0.75 0 0 0.75 0 -0.25] CT
10.0 ML
0.667 LW
N
627.314 857 M
627.314 840.52 L
669.829 840.52 L
669.829 857 L
cp
S
GR
GS
[0.75 0 0 0.75 0 -0.25] CT
10.0 ML
0.667 LW
N
680.457 857 M
680.457 818.598 L
722.971 818.598 L
722.971 857 L
cp
S
GR
GS
[0.75 0 0 0.75 0 -0.25] CT
10.0 ML
0.667 LW
N
733.6 857 M
733.6 783.867 L
776.114 783.867 L
776.114 857 L
cp
S
GR
GS
[0.75 0 0 0.75 0 -0.25] CT
10.0 ML
0.667 LW
N
786.743 857 M
786.743 724.625 L
829.257 724.625 L
829.257 857 L
cp
S
GR
GS
[0.75 0 0 0.75 0 -0.25] CT
10.0 ML
0.667 LW
N
839.886 857 M
839.886 743.424 L
882.4 743.424 L
882.4 857 L
cp
S
GR
GS
[0.75 0 0 0.75 0 -0.25] CT
10.0 ML
0.667 LW
N
893.029 857 M
893.029 453.193 L
935.543 453.193 L
935.543 857 L
cp
S
GR
GS
[0.75 0 0 0.75 0 -0.25] CT
10.0 ML
0.667 LW
N
946.171 857 M
946.171 793.126 L
988.686 793.126 L
988.686 857 L
cp
S
GR
GS
[0.75 0 0 0.75 0 -0.25] CT
10.0 ML
0.667 LW
N
999.314 857 M
999.314 836.497 L
1041.828 836.497 L
1041.828 857 L
cp
S
GR
GS
[0.75 0 0 0.75 0 -0.25] CT
10.0 ML
0.667 LW
N
1052.457 857 M
1052.457 821.844 L
1094.971 821.844 L
1094.971 857 L
cp
S
GR
GS
[0.75 0 0 0.75 0 -0.25] CT
10.0 ML
0.667 LW
N
1105.6 857 M
1105.6 790.323 L
1148.114 790.323 L
1148.114 857 L
cp
S
GR
GS
[0.75 0 0 0.75 0 -0.25] CT
10.0 ML
0.667 LW
N
1158.743 857 M
1158.743 802.011 L
1201.257 802.011 L
1201.257 857 L
cp
S
GR
GS
[0.75 0 0 0.75 0 -0.25] CT
10.0 ML
0.667 LW
N
1211.886 857 M
1211.886 484.168 L
1254.4 484.168 L
1254.4 857 L
cp
S
GR
GS
[0.75 0 0 0.75 0 -0.25] CT
10.0 ML
0.667 LW
N
1265.029 857 M
1265.029 766.279 L
1307.543 766.279 L
1307.543 857 L
cp
S
GR
GS
[0.75 0 0 0.75 0 -0.25] CT
10.0 ML
0.667 LW
N
1318.172 857 M
1318.172 833.382 L
1360.686 833.382 L
1360.686 857 L
cp
S
GR
GS
[0.75 0 0 0.75 0 -0.25] CT
10.0 ML
0.667 LW
N
1371.314 857 M
1371.314 803.04 L
1413.828 803.04 L
1413.828 857 L
cp
S
GR
GS
[0.75 0 0 0.75 0 -0.25] CT
10.0 ML
0.667 LW
N
1424.457 857 M
1424.457 839.017 L
1466.971 839.017 L
1466.971 857 L
cp
S
GR
GS
[0.75 0 0 0.75 0 -0.25] CT
10.0 ML
0.667 LW
N
1477.6 857 M
1477.6 818.471 L
1520.114 818.471 L
1520.114 857 L
cp
S
GR
GS
[0.75 0 0 0.75 0 -0.25] CT
10.0 ML
0.667 LW
N
1530.743 857 M
1530.743 818.007 L
1573.257 818.007 L
1573.257 857 L
cp
S
GR
GS
[0.75 0 0 0.75 0 -0.25] CT
10.0 ML
0.667 LW
N
1583.886 857 M
1583.886 839.727 L
1626.4 839.727 L
1626.4 857 L
cp
S
GR
GS
[0.75 0 0 0.75 0 -0.25] CT
10.0 ML
0.667 LW
N
1637.029 857 M
1637.029 820.388 L
1679.543 820.388 L
1679.543 857 L
cp
S
GR
GS
[0.75 0 0 0.75 0 -0.25] CT
10.0 ML
0.667 LW
N
1690.172 857 M
1690.172 677.069 L
1732.686 677.069 L
1732.686 857 L
cp
S
GR
%%Trailer
%%Pages: 1
%%EOF
