%!PS-Adobe-3.0 EPSF-3.0
%%Creator: (MATLAB, The Mathworks, Inc. Version 9.10.0.1649659 \(R2021a\) Update 1. Operating System: Windows 10)
%%Title: (C:/Users/ohads/ANPL/papers/research/2022 ICRA/Figures/TestCase_2/fig_files/RealTrejactory.eps)
%%CreationDate: 2021-08-04T10:57:34
%%Pages: (atend)
%%BoundingBox:    31     8   421   300
%%LanguageLevel: 3
%%EndComments
%%BeginProlog
%%BeginResource: procset (Apache XML Graphics Std ProcSet) 1.2 0
%%Version: 1.2 0
%%Copyright: (Copyright 2001-2003,2010 The Apache Software Foundation. License terms: http://www.apache.org/licenses/LICENSE-2.0)
/bd{bind def}bind def
/ld{load def}bd
/GR/grestore ld
/GS/gsave ld
/RM/rmoveto ld
/C/curveto ld
/t/show ld
/L/lineto ld
/ML/setmiterlimit ld
/CT/concat ld
/f/fill ld
/N/newpath ld
/S/stroke ld
/CC/setcmykcolor ld
/A/ashow ld
/cp/closepath ld
/RC/setrgbcolor ld
/LJ/setlinejoin ld
/GC/setgray ld
/LW/setlinewidth ld
/M/moveto ld
/re {4 2 roll M
1 index 0 rlineto
0 exch rlineto
neg 0 rlineto
cp } bd
/_ctm matrix def
/_tm matrix def
/BT { _ctm currentmatrix pop matrix _tm copy pop 0 0 moveto } bd
/ET { _ctm setmatrix } bd
/iTm { _ctm setmatrix _tm concat } bd
/Tm { _tm astore pop iTm 0 0 moveto } bd
/ux 0.0 def
/uy 0.0 def
/F {
  /Tp exch def
  /Tf exch def
  Tf findfont Tp scalefont setfont
  /cf Tf def  /cs Tp def
} bd
/ULS {currentpoint /uy exch def /ux exch def} bd
/ULE {
  /Tcx currentpoint pop def
  gsave
  newpath
  cf findfont cs scalefont dup
  /FontMatrix get 0 get /Ts exch def /FontInfo get dup
  /UnderlinePosition get Ts mul /To exch def
  /UnderlineThickness get Ts mul /Tt exch def
  ux uy To add moveto  Tcx uy To add lineto
  Tt setlinewidth stroke
  grestore
} bd
/OLE {
  /Tcx currentpoint pop def
  gsave
  newpath
  cf findfont cs scalefont dup
  /FontMatrix get 0 get /Ts exch def /FontInfo get dup
  /UnderlinePosition get Ts mul /To exch def
  /UnderlineThickness get Ts mul /Tt exch def
  ux uy To add cs add moveto Tcx uy To add cs add lineto
  Tt setlinewidth stroke
  grestore
} bd
/SOE {
  /Tcx currentpoint pop def
  gsave
  newpath
  cf findfont cs scalefont dup
  /FontMatrix get 0 get /Ts exch def /FontInfo get dup
  /UnderlinePosition get Ts mul /To exch def
  /UnderlineThickness get Ts mul /Tt exch def
  ux uy To add cs 10 mul 26 idiv add moveto Tcx uy To add cs 10 mul 26 idiv add lineto
  Tt setlinewidth stroke
  grestore
} bd
/QT {
/Y22 exch store
/X22 exch store
/Y21 exch store
/X21 exch store
currentpoint
/Y21 load 2 mul add 3 div exch
/X21 load 2 mul add 3 div exch
/X21 load 2 mul /X22 load add 3 div
/Y21 load 2 mul /Y22 load add 3 div
/X22 load /Y22 load curveto
} bd
/SSPD {
dup length /d exch dict def
{
/v exch def
/k exch def
currentpagedevice k known {
/cpdv currentpagedevice k get def
v cpdv ne {
/upd false def
/nullv v type /nulltype eq def
/nullcpdv cpdv type /nulltype eq def
nullv nullcpdv or
{
/upd true def
} {
/sametype v type cpdv type eq def
sametype {
v type /arraytype eq {
/vlen v length def
/cpdvlen cpdv length def
vlen cpdvlen eq {
0 1 vlen 1 sub {
/i exch def
/obj v i get def
/cpdobj cpdv i get def
obj cpdobj ne {
/upd true def
exit
} if
} for
} {
/upd true def
} ifelse
} {
v type /dicttype eq {
v {
/dv exch def
/dk exch def
/cpddv cpdv dk get def
dv cpddv ne {
/upd true def
exit
} if
} forall
} {
/upd true def
} ifelse
} ifelse
} if
} ifelse
upd true eq {
d k v put
} if
} if
} if
} forall
d length 0 gt {
d setpagedevice
} if
} bd
/RE { % /NewFontName [NewEncodingArray] /FontName RE -
  findfont dup length dict begin
  {
    1 index /FID ne
    {def} {pop pop} ifelse
  } forall
  /Encoding exch def
  /FontName 1 index def
  currentdict definefont pop
  end
} bind def
%%EndResource
%%BeginResource: procset (Apache XML Graphics EPS ProcSet) 1.0 0
%%Version: 1.0 0
%%Copyright: (Copyright 2002-2003 The Apache Software Foundation. License terms: http://www.apache.org/licenses/LICENSE-2.0)
/BeginEPSF { %def
/b4_Inc_state save def         % Save state for cleanup
/dict_count countdictstack def % Count objects on dict stack
/op_count count 1 sub def      % Count objects on operand stack
userdict begin                 % Push userdict on dict stack
/showpage { } def              % Redefine showpage, { } = null proc
0 setgray 0 setlinecap         % Prepare graphics state
1 setlinewidth 0 setlinejoin
10 setmiterlimit [ ] 0 setdash newpath
/languagelevel where           % If level not equal to 1 then
{pop languagelevel             % set strokeadjust and
1 ne                           % overprint to their defaults.
{false setstrokeadjust false setoverprint
} if
} if
} bd
/EndEPSF { %def
count op_count sub {pop} repeat            % Clean up stacks
countdictstack dict_count sub {end} repeat
b4_Inc_state restore
} bd
%%EndResource
%FOPBeginFontDict
%%IncludeResource: font Courier-Oblique
%%IncludeResource: font Courier-BoldOblique
%%IncludeResource: font Courier-Bold
%%IncludeResource: font ZapfDingbats
%%IncludeResource: font Symbol
%%IncludeResource: font Helvetica
%%IncludeResource: font Helvetica-Oblique
%%IncludeResource: font Helvetica-Bold
%%IncludeResource: font Helvetica-BoldOblique
%%IncludeResource: font Times-Roman
%%IncludeResource: font Times-Italic
%%IncludeResource: font Times-Bold
%%IncludeResource: font Times-BoldItalic
%%IncludeResource: font Courier
%FOPEndFontDict
%%BeginResource: encoding WinAnsiEncoding
/WinAnsiEncoding [
/.notdef /.notdef /.notdef /.notdef /.notdef
/.notdef /.notdef /.notdef /.notdef /.notdef
/.notdef /.notdef /.notdef /.notdef /.notdef
/.notdef /.notdef /.notdef /.notdef /.notdef
/.notdef /.notdef /.notdef /.notdef /.notdef
/.notdef /.notdef /.notdef /.notdef /.notdef
/.notdef /.notdef /space /exclam /quotedbl
/numbersign /dollar /percent /ampersand /quotesingle
/parenleft /parenright /asterisk /plus /comma
/hyphen /period /slash /zero /one
/two /three /four /five /six
/seven /eight /nine /colon /semicolon
/less /equal /greater /question /at
/A /B /C /D /E
/F /G /H /I /J
/K /L /M /N /O
/P /Q /R /S /T
/U /V /W /X /Y
/Z /bracketleft /backslash /bracketright /asciicircum
/underscore /quoteleft /a /b /c
/d /e /f /g /h
/i /j /k /l /m
/n /o /p /q /r
/s /t /u /v /w
/x /y /z /braceleft /bar
/braceright /asciitilde /bullet /Euro /bullet
/quotesinglbase /florin /quotedblbase /ellipsis /dagger
/daggerdbl /circumflex /perthousand /Scaron /guilsinglleft
/OE /bullet /Zcaron /bullet /bullet
/quoteleft /quoteright /quotedblleft /quotedblright /bullet
/endash /emdash /asciitilde /trademark /scaron
/guilsinglright /oe /bullet /zcaron /Ydieresis
/space /exclamdown /cent /sterling /currency
/yen /brokenbar /section /dieresis /copyright
/ordfeminine /guillemotleft /logicalnot /sfthyphen /registered
/macron /degree /plusminus /twosuperior /threesuperior
/acute /mu /paragraph /middot /cedilla
/onesuperior /ordmasculine /guillemotright /onequarter /onehalf
/threequarters /questiondown /Agrave /Aacute /Acircumflex
/Atilde /Adieresis /Aring /AE /Ccedilla
/Egrave /Eacute /Ecircumflex /Edieresis /Igrave
/Iacute /Icircumflex /Idieresis /Eth /Ntilde
/Ograve /Oacute /Ocircumflex /Otilde /Odieresis
/multiply /Oslash /Ugrave /Uacute /Ucircumflex
/Udieresis /Yacute /Thorn /germandbls /agrave
/aacute /acircumflex /atilde /adieresis /aring
/ae /ccedilla /egrave /eacute /ecircumflex
/edieresis /igrave /iacute /icircumflex /idieresis
/eth /ntilde /ograve /oacute /ocircumflex
/otilde /odieresis /divide /oslash /ugrave
/uacute /ucircumflex /udieresis /yacute /thorn
/ydieresis
] def
%%EndResource
%FOPBeginFontReencode
/Courier-Oblique findfont
dup length dict begin
  {1 index /FID ne {def} {pop pop} ifelse} forall
  /Encoding WinAnsiEncoding def
  currentdict
end
/Courier-Oblique exch definefont pop
/Courier-BoldOblique findfont
dup length dict begin
  {1 index /FID ne {def} {pop pop} ifelse} forall
  /Encoding WinAnsiEncoding def
  currentdict
end
/Courier-BoldOblique exch definefont pop
/Courier-Bold findfont
dup length dict begin
  {1 index /FID ne {def} {pop pop} ifelse} forall
  /Encoding WinAnsiEncoding def
  currentdict
end
/Courier-Bold exch definefont pop
/Helvetica findfont
dup length dict begin
  {1 index /FID ne {def} {pop pop} ifelse} forall
  /Encoding WinAnsiEncoding def
  currentdict
end
/Helvetica exch definefont pop
/Helvetica-Oblique findfont
dup length dict begin
  {1 index /FID ne {def} {pop pop} ifelse} forall
  /Encoding WinAnsiEncoding def
  currentdict
end
/Helvetica-Oblique exch definefont pop
/Helvetica-Bold findfont
dup length dict begin
  {1 index /FID ne {def} {pop pop} ifelse} forall
  /Encoding WinAnsiEncoding def
  currentdict
end
/Helvetica-Bold exch definefont pop
/Helvetica-BoldOblique findfont
dup length dict begin
  {1 index /FID ne {def} {pop pop} ifelse} forall
  /Encoding WinAnsiEncoding def
  currentdict
end
/Helvetica-BoldOblique exch definefont pop
/Times-Roman findfont
dup length dict begin
  {1 index /FID ne {def} {pop pop} ifelse} forall
  /Encoding WinAnsiEncoding def
  currentdict
end
/Times-Roman exch definefont pop
/Times-Italic findfont
dup length dict begin
  {1 index /FID ne {def} {pop pop} ifelse} forall
  /Encoding WinAnsiEncoding def
  currentdict
end
/Times-Italic exch definefont pop
/Times-Bold findfont
dup length dict begin
  {1 index /FID ne {def} {pop pop} ifelse} forall
  /Encoding WinAnsiEncoding def
  currentdict
end
/Times-Bold exch definefont pop
/Times-BoldItalic findfont
dup length dict begin
  {1 index /FID ne {def} {pop pop} ifelse} forall
  /Encoding WinAnsiEncoding def
  currentdict
end
/Times-BoldItalic exch definefont pop
/Courier findfont
dup length dict begin
  {1 index /FID ne {def} {pop pop} ifelse} forall
  /Encoding WinAnsiEncoding def
  currentdict
end
/Courier exch definefont pop
%FOPEndFontReencode
%%EndProlog
%%Page: 1 1
%%PageBoundingBox: 0 0 420 315
%%BeginPageSetup
[1 0 0 -1 0 315] CT
%%EndPageSetup
GS
[0.75 0 0 0.75 0 0] CT
1 GC
N
0 0 560 420 re
f
GR
GS
[0.75 0 0 0.75 0 0] CT
1 GC
N
0 0 560 420 re
f
GR
GS
[0.75 0 0 0.75 0 0] CT
1 GC
N
213.89 267 M
442.11 267 L
442.11 87 L
213.89 87 L
cp
f
GR
GS
[0.75 0 0 0.75 0 0] CT
0.149 GC
2 setlinecap
1 LJ
0.667 LW
N
213.89 267 M
442.11 267 L
S
GR
GS
[0.75 0 0 0.75 0 0] CT
0.149 GC
2 setlinecap
1 LJ
0.667 LW
N
213.89 267 M
213.89 264.718 L
S
GR
GS
[0.75 0 0 0.75 0 0] CT
0.149 GC
2 setlinecap
1 LJ
0.667 LW
N
270.945 267 M
270.945 264.718 L
S
GR
GS
[0.75 0 0 0.75 0 0] CT
0.149 GC
2 setlinecap
1 LJ
0.667 LW
N
328 267 M
328 264.718 L
S
GR
GS
[0.75 0 0 0.75 0 0] CT
0.149 GC
2 setlinecap
1 LJ
0.667 LW
N
385.055 267 M
385.055 264.718 L
S
GR
GS
[0.75 0 0 0.75 0 0] CT
0.149 GC
2 setlinecap
1 LJ
0.667 LW
N
442.11 267 M
442.11 264.718 L
S
GR
GS
[0.75 0 0 0.75 203.2086 210.25001] CT
0.149 GC
/Helvetica 53.333 F
GS
[1 0 0 1 0 0] CT
-15 54 moveto 
1 -1 scale
(0) t 
GR
GR
GS
[0.75 0 0 0.75 288.7914 210.25001] CT
0.149 GC
/Helvetica 53.333 F
GS
[1 0 0 1 0 0] CT
-30 54 moveto 
1 -1 scale
(10) t 
GR
GR
GS
[0.75 0 0 0.75 246.00009 261.49999] CT
0.149 GC
/Helvetica 58.667 F
GS
[1 0 0 1 0 0] CT
-34.5 59 moveto 
1 -1 scale
(Xs) t 
GR
GR
GS
[0.75 0 0 0.75 0 0] CT
0.149 GC
2 setlinecap
1 LJ
0.667 LW
N
213.89 267 M
213.89 87 L
S
GR
GS
[0.75 0 0 0.75 0 0] CT
0.149 GC
2 setlinecap
1 LJ
0.667 LW
N
213.89 236.306 M
216.172 236.306 L
S
GR
GS
[0.75 0 0 0.75 0 0] CT
0.149 GC
2 setlinecap
1 LJ
0.667 LW
N
213.89 179.251 M
216.172 179.251 L
S
GR
GS
[0.75 0 0 0.75 0 0] CT
0.149 GC
2 setlinecap
1 LJ
0.667 LW
N
213.89 122.195 M
216.172 122.195 L
S
GR
GS
[0.75 0 0 0.75 150.41717 177.22942] CT
0.149 GC
/Helvetica 53.333 F
GS
[1 0 0 1 0 0] CT
-30 21 moveto 
1 -1 scale
(5) t 
GR
GR
GS
[0.75 0 0 0.75 150.41717 134.438] CT
0.149 GC
/Helvetica 53.333 F
GS
[1 0 0 1 0 0] CT
-60 21 moveto 
1 -1 scale
(10) t 
GR
GR
GS
[0.75 0 0 0.75 150.41717 91.64659] CT
0.149 GC
/Helvetica 53.333 F
GS
[1 0 0 1 0 0] CT
-60 21 moveto 
1 -1 scale
(15) t 
GR
GR
GS
[0 -0.75 0.75 0 101.46626 132.74993] CT
0.149 GC
/Helvetica 58.667 F
GS
[1 0 0 1 0 0] CT
-34.5 -13 moveto 
1 -1 scale
(Ys) t 
GR
GR
GS
[0.75 0 0 0.75 246.00023 57.09067] CT
/Helvetica-Bold 58.667 F
GS
[1 0 0 1 0 0] CT
-290 -13 moveto 
1 -1 scale
(Robots Ground truth) t 
GR
GR
GS
[0.75 0 0 0.75 237.44172 160.11285] CT
1 0 0 RC
N
0 -8.887 M
-7.696 4.443 L
7.696 4.443 L
cp
f
GR
GS
[0.75 0 0 0.75 237.44172 160.11285] CT
0 0 1 RC
10.0 ML
0.667 LW
N
0 -8.887 M
-7.696 4.443 L
7.696 4.443 L
cp
S
GR
GS
[0.75 0 0 0.75 237.44172 161.8245] CT
/Helvetica 53.333 F
GS
[1 0 0 1 0 0] CT
0 21 moveto 
1 -1 scale
(1.1) t 
GR
GR
GS
[0.75 0 0 0.75 228.88344 151.55457] CT
1 0 0 RC
N
/f-420559501{0 -8.887 M
-7.696 4.443 L
7.696 4.443 L
cp}def
f-420559501
f
GR
GS
[0.75 0 0 0.75 228.88344 151.55457] CT
0 0 1 RC
10.0 ML
0.667 LW
N
0 -8.887 M
-7.696 4.443 L
7.696 4.443 L
cp
S
GR
GS
[0.75 0 0 0.75 228.88344 153.26622] CT
/Helvetica 53.333 F
GS
[1 0 0 1 0 0] CT
0 21 moveto 
1 -1 scale
(1.2) t 
GR
GR
GS
[0.75 0 0 0.75 263.11656 160.11285] CT
1 0 0 RC
N
f-420559501
f
GR
GS
[0.75 0 0 0.75 263.11656 160.11285] CT
0 0 1 RC
10.0 ML
0.667 LW
N
0 -8.887 M
-7.696 4.443 L
7.696 4.443 L
cp
S
GR
GS
[0.75 0 0 0.75 263.11656 161.8245] CT
/Helvetica 53.333 F
GS
[1 0 0 1 0 0] CT
0 21 moveto 
1 -1 scale
(1.3) t 
GR
GR
GS
[0.75 0 0 0.75 246 194.34597] CT
1 0 0 RC
N
f-420559501
f
GR
GS
[0.75 0 0 0.75 246 194.34597] CT
0 0 1 RC
10.0 ML
0.667 LW
N
0 -8.887 M
-7.696 4.443 L
7.696 4.443 L
cp
S
GR
GS
[0.75 0 0 0.75 246 196.05764] CT
/Helvetica 53.333 F
GS
[1 0 0 1 0 0] CT
0 21 moveto 
1 -1 scale
(1.4) t 
GR
GR
GS
[0.75 0 0 0.75 246 142.99628] CT
1 0 0 RC
N
f-420559501
f
GR
GS
[0.75 0 0 0.75 246 142.99628] CT
0 0 1 RC
10.0 ML
0.667 LW
N
0 -8.887 M
-7.696 4.443 L
7.696 4.443 L
cp
S
GR
GS
[0.75 0 0 0.75 246 144.70794] CT
/Helvetica 53.333 F
GS
[1 0 0 1 0 0] CT
0 21 moveto 
1 -1 scale
(1.5) t 
GR
GR
GS
[0.75 0 0 0.75 237.44172 177.22942] CT
1 0 0 RC
N
f-420559501
f
GR
GS
[0.75 0 0 0.75 237.44172 177.22942] CT
0 0 1 RC
10.0 ML
0.667 LW
N
0 -8.887 M
-7.696 4.443 L
7.696 4.443 L
cp
S
GR
GS
[0.75 0 0 0.75 237.44172 178.94107] CT
/Helvetica 53.333 F
GS
[1 0 0 1 0 0] CT
0 21 moveto 
1 -1 scale
(1.6) t 
GR
GR
GS
[0.75 0 0 0.75 271.67484 194.34597] CT
1 0 0 RC
N
f-420559501
f
GR
GS
[0.75 0 0 0.75 271.67484 194.34597] CT
0 0 1 RC
10.0 ML
0.667 LW
N
0 -8.887 M
-7.696 4.443 L
7.696 4.443 L
cp
S
GR
GS
[0.75 0 0 0.75 271.67484 196.05764] CT
/Helvetica 53.333 F
GS
[1 0 0 1 0 0] CT
0 21 moveto 
1 -1 scale
(1.7) t 
GR
GR
GS
[0.75 0 0 0.75 254.55828 151.55457] CT
1 0 0 RC
N
f-420559501
f
GR
GS
[0.75 0 0 0.75 254.55828 151.55457] CT
0 0 1 RC
10.0 ML
0.667 LW
N
0 -8.887 M
-7.696 4.443 L
7.696 4.443 L
cp
S
GR
GS
[0.75 0 0 0.75 254.55828 153.26622] CT
/Helvetica 53.333 F
GS
[1 0 0 1 0 0] CT
0 21 moveto 
1 -1 scale
(1.8) t 
GR
GR
GS
[0.75 0 0 0.75 0 0] CT
1 0 0 RC
[10 6] 0 setdash
2 LJ
0.667 LW
N
279.503 242.011 M
302.173 249.066 L
326.362 253.845 L
329.987 226.326 L
347.345 212.846 L
364.302 205.168 L
367.566 175.813 L
357.968 155.154 L
347.299 138.682 L
352.223 114.022 L
345.004 94.872 L
S
GR
GS
[0.75 0 0 0.75 209.62731 181.50856] CT
0 1 1 RC
N
/f1021916533{0 -7.109 M
-6.157 3.555 L
6.157 3.555 L
cp}def
f1021916533
f
GR
GS
[0.75 0 0 0.75 209.62731 181.50856] CT
0 1 0 RC
10.0 ML
0.667 LW
N
0 -7.109 M
-6.157 3.555 L
6.157 3.555 L
cp
S
GR
GS
[0.75 0 0 0.75 226.62948 186.79966] CT
0 1 1 RC
N
f1021916533
f
GR
GS
[0.75 0 0 0.75 226.62948 186.79966] CT
0 1 0 RC
10.0 ML
0.667 LW
N
0 -7.109 M
-6.157 3.555 L
6.157 3.555 L
cp
S
GR
GS
[0.75 0 0 0.75 244.77127 190.38377] CT
0 1 1 RC
N
f1021916533
f
GR
GS
[0.75 0 0 0.75 244.77127 190.38377] CT
0 1 0 RC
10.0 ML
0.667 LW
N
0 -7.109 M
-6.157 3.555 L
6.157 3.555 L
cp
S
GR
GS
[0.75 0 0 0.75 247.49059 169.74483] CT
0 1 1 RC
N
f1021916533
f
GR
GS
[0.75 0 0 0.75 247.49059 169.74483] CT
0 1 0 RC
10.0 ML
0.667 LW
N
0 -7.109 M
-6.157 3.555 L
6.157 3.555 L
cp
S
GR
GS
[0.75 0 0 0.75 260.50905 159.63429] CT
0 1 1 RC
N
f1021916533
f
GR
GS
[0.75 0 0 0.75 260.50905 159.63429] CT
0 1 0 RC
10.0 ML
0.667 LW
N
0 -7.109 M
-6.157 3.555 L
6.157 3.555 L
cp
S
GR
GS
[0.75 0 0 0.75 273.22646 153.87606] CT
0 1 1 RC
N
f1021916533
f
GR
GS
[0.75 0 0 0.75 273.22646 153.87606] CT
0 1 0 RC
10.0 ML
0.667 LW
N
0 -7.109 M
-6.157 3.555 L
6.157 3.555 L
cp
S
GR
GS
[0.75 0 0 0.75 275.6746 131.8598] CT
0 1 1 RC
N
f1021916533
f
GR
GS
[0.75 0 0 0.75 275.6746 131.8598] CT
0 1 0 RC
10.0 ML
0.667 LW
N
0 -7.109 M
-6.157 3.555 L
6.157 3.555 L
cp
S
GR
GS
[0.75 0 0 0.75 268.47601 116.36579] CT
0 1 1 RC
N
f1021916533
f
GR
GS
[0.75 0 0 0.75 268.47601 116.36579] CT
0 1 0 RC
10.0 ML
0.667 LW
N
0 -7.109 M
-6.157 3.555 L
6.157 3.555 L
cp
S
GR
GS
[0.75 0 0 0.75 260.4743 104.01126] CT
0 1 1 RC
N
f1021916533
f
GR
GS
[0.75 0 0 0.75 260.4743 104.01126] CT
0 1 0 RC
10.0 ML
0.667 LW
N
0 -7.109 M
-6.157 3.555 L
6.157 3.555 L
cp
S
GR
GS
[0.75 0 0 0.75 264.16756 85.51683] CT
0 1 1 RC
N
f1021916533
f
GR
GS
[0.75 0 0 0.75 264.16756 85.51683] CT
0 1 0 RC
10.0 ML
0.667 LW
N
0 -7.109 M
-6.157 3.555 L
6.157 3.555 L
cp
S
GR
GS
[0.75 0 0 0.75 258.75318 71.15402] CT
0 1 1 RC
N
f1021916533
f
GR
GS
[0.75 0 0 0.75 258.75318 71.15402] CT
0 1 0 RC
10.0 ML
0.667 LW
N
0 -7.109 M
-6.157 3.555 L
6.157 3.555 L
cp
S
GR
GS
[0.75 0 0 0.75 209.62731 183.22021] CT
/Helvetica 53.333 F
GS
[1 0 0 1 0 0] CT
0 21 moveto 
1 -1 scale
(start) t 
GR
GR
%%Trailer
%%Pages: 1
%%EOF
