%!PS-Adobe-3.0 EPSF-3.0
%%Creator: (MATLAB, The Mathworks, Inc. Version 9.10.0.1649659 \(R2021a\) Update 1. Operating System: Windows 10)
%%Title: (C:/Users/ohads/ANPL/papers/research/2022 ICRA/Figures/TestCase_2/fig_files/Robots_estimation_k_7.eps)
%%CreationDate: 2021-08-04T10:58:23
%%Pages: (atend)
%%BoundingBox:    36     9   381   293
%%LanguageLevel: 3
%%EndComments
%%BeginProlog
%%BeginResource: procset (Apache XML Graphics Std ProcSet) 1.2 0
%%Version: 1.2 0
%%Copyright: (Copyright 2001-2003,2010 The Apache Software Foundation. License terms: http://www.apache.org/licenses/LICENSE-2.0)
/bd{bind def}bind def
/ld{load def}bd
/GR/grestore ld
/GS/gsave ld
/RM/rmoveto ld
/C/curveto ld
/t/show ld
/L/lineto ld
/ML/setmiterlimit ld
/CT/concat ld
/f/fill ld
/N/newpath ld
/S/stroke ld
/CC/setcmykcolor ld
/A/ashow ld
/cp/closepath ld
/RC/setrgbcolor ld
/LJ/setlinejoin ld
/GC/setgray ld
/LW/setlinewidth ld
/M/moveto ld
/re {4 2 roll M
1 index 0 rlineto
0 exch rlineto
neg 0 rlineto
cp } bd
/_ctm matrix def
/_tm matrix def
/BT { _ctm currentmatrix pop matrix _tm copy pop 0 0 moveto } bd
/ET { _ctm setmatrix } bd
/iTm { _ctm setmatrix _tm concat } bd
/Tm { _tm astore pop iTm 0 0 moveto } bd
/ux 0.0 def
/uy 0.0 def
/F {
  /Tp exch def
  /Tf exch def
  Tf findfont Tp scalefont setfont
  /cf Tf def  /cs Tp def
} bd
/ULS {currentpoint /uy exch def /ux exch def} bd
/ULE {
  /Tcx currentpoint pop def
  gsave
  newpath
  cf findfont cs scalefont dup
  /FontMatrix get 0 get /Ts exch def /FontInfo get dup
  /UnderlinePosition get Ts mul /To exch def
  /UnderlineThickness get Ts mul /Tt exch def
  ux uy To add moveto  Tcx uy To add lineto
  Tt setlinewidth stroke
  grestore
} bd
/OLE {
  /Tcx currentpoint pop def
  gsave
  newpath
  cf findfont cs scalefont dup
  /FontMatrix get 0 get /Ts exch def /FontInfo get dup
  /UnderlinePosition get Ts mul /To exch def
  /UnderlineThickness get Ts mul /Tt exch def
  ux uy To add cs add moveto Tcx uy To add cs add lineto
  Tt setlinewidth stroke
  grestore
} bd
/SOE {
  /Tcx currentpoint pop def
  gsave
  newpath
  cf findfont cs scalefont dup
  /FontMatrix get 0 get /Ts exch def /FontInfo get dup
  /UnderlinePosition get Ts mul /To exch def
  /UnderlineThickness get Ts mul /Tt exch def
  ux uy To add cs 10 mul 26 idiv add moveto Tcx uy To add cs 10 mul 26 idiv add lineto
  Tt setlinewidth stroke
  grestore
} bd
/QT {
/Y22 exch store
/X22 exch store
/Y21 exch store
/X21 exch store
currentpoint
/Y21 load 2 mul add 3 div exch
/X21 load 2 mul add 3 div exch
/X21 load 2 mul /X22 load add 3 div
/Y21 load 2 mul /Y22 load add 3 div
/X22 load /Y22 load curveto
} bd
/SSPD {
dup length /d exch dict def
{
/v exch def
/k exch def
currentpagedevice k known {
/cpdv currentpagedevice k get def
v cpdv ne {
/upd false def
/nullv v type /nulltype eq def
/nullcpdv cpdv type /nulltype eq def
nullv nullcpdv or
{
/upd true def
} {
/sametype v type cpdv type eq def
sametype {
v type /arraytype eq {
/vlen v length def
/cpdvlen cpdv length def
vlen cpdvlen eq {
0 1 vlen 1 sub {
/i exch def
/obj v i get def
/cpdobj cpdv i get def
obj cpdobj ne {
/upd true def
exit
} if
} for
} {
/upd true def
} ifelse
} {
v type /dicttype eq {
v {
/dv exch def
/dk exch def
/cpddv cpdv dk get def
dv cpddv ne {
/upd true def
exit
} if
} forall
} {
/upd true def
} ifelse
} ifelse
} if
} ifelse
upd true eq {
d k v put
} if
} if
} if
} forall
d length 0 gt {
d setpagedevice
} if
} bd
/RE { % /NewFontName [NewEncodingArray] /FontName RE -
  findfont dup length dict begin
  {
    1 index /FID ne
    {def} {pop pop} ifelse
  } forall
  /Encoding exch def
  /FontName 1 index def
  currentdict definefont pop
  end
} bind def
%%EndResource
%%BeginResource: procset (Apache XML Graphics EPS ProcSet) 1.0 0
%%Version: 1.0 0
%%Copyright: (Copyright 2002-2003 The Apache Software Foundation. License terms: http://www.apache.org/licenses/LICENSE-2.0)
/BeginEPSF { %def
/b4_Inc_state save def         % Save state for cleanup
/dict_count countdictstack def % Count objects on dict stack
/op_count count 1 sub def      % Count objects on operand stack
userdict begin                 % Push userdict on dict stack
/showpage { } def              % Redefine showpage, { } = null proc
0 setgray 0 setlinecap         % Prepare graphics state
1 setlinewidth 0 setlinejoin
10 setmiterlimit [ ] 0 setdash newpath
/languagelevel where           % If level not equal to 1 then
{pop languagelevel             % set strokeadjust and
1 ne                           % overprint to their defaults.
{false setstrokeadjust false setoverprint
} if
} if
} bd
/EndEPSF { %def
count op_count sub {pop} repeat            % Clean up stacks
countdictstack dict_count sub {end} repeat
b4_Inc_state restore
} bd
%%EndResource
%FOPBeginFontDict
%%IncludeResource: font Courier-Oblique
%%IncludeResource: font Courier-BoldOblique
%%IncludeResource: font Courier-Bold
%%IncludeResource: font ZapfDingbats
%%IncludeResource: font Symbol
%%IncludeResource: font Helvetica
%%IncludeResource: font Helvetica-Oblique
%%IncludeResource: font Helvetica-Bold
%%IncludeResource: font Helvetica-BoldOblique
%%IncludeResource: font Times-Roman
%%IncludeResource: font Times-Italic
%%IncludeResource: font Times-Bold
%%IncludeResource: font Times-BoldItalic
%%IncludeResource: font Courier
%FOPEndFontDict
%%BeginResource: encoding WinAnsiEncoding
/WinAnsiEncoding [
/.notdef /.notdef /.notdef /.notdef /.notdef
/.notdef /.notdef /.notdef /.notdef /.notdef
/.notdef /.notdef /.notdef /.notdef /.notdef
/.notdef /.notdef /.notdef /.notdef /.notdef
/.notdef /.notdef /.notdef /.notdef /.notdef
/.notdef /.notdef /.notdef /.notdef /.notdef
/.notdef /.notdef /space /exclam /quotedbl
/numbersign /dollar /percent /ampersand /quotesingle
/parenleft /parenright /asterisk /plus /comma
/hyphen /period /slash /zero /one
/two /three /four /five /six
/seven /eight /nine /colon /semicolon
/less /equal /greater /question /at
/A /B /C /D /E
/F /G /H /I /J
/K /L /M /N /O
/P /Q /R /S /T
/U /V /W /X /Y
/Z /bracketleft /backslash /bracketright /asciicircum
/underscore /quoteleft /a /b /c
/d /e /f /g /h
/i /j /k /l /m
/n /o /p /q /r
/s /t /u /v /w
/x /y /z /braceleft /bar
/braceright /asciitilde /bullet /Euro /bullet
/quotesinglbase /florin /quotedblbase /ellipsis /dagger
/daggerdbl /circumflex /perthousand /Scaron /guilsinglleft
/OE /bullet /Zcaron /bullet /bullet
/quoteleft /quoteright /quotedblleft /quotedblright /bullet
/endash /emdash /asciitilde /trademark /scaron
/guilsinglright /oe /bullet /zcaron /Ydieresis
/space /exclamdown /cent /sterling /currency
/yen /brokenbar /section /dieresis /copyright
/ordfeminine /guillemotleft /logicalnot /sfthyphen /registered
/macron /degree /plusminus /twosuperior /threesuperior
/acute /mu /paragraph /middot /cedilla
/onesuperior /ordmasculine /guillemotright /onequarter /onehalf
/threequarters /questiondown /Agrave /Aacute /Acircumflex
/Atilde /Adieresis /Aring /AE /Ccedilla
/Egrave /Eacute /Ecircumflex /Edieresis /Igrave
/Iacute /Icircumflex /Idieresis /Eth /Ntilde
/Ograve /Oacute /Ocircumflex /Otilde /Odieresis
/multiply /Oslash /Ugrave /Uacute /Ucircumflex
/Udieresis /Yacute /Thorn /germandbls /agrave
/aacute /acircumflex /atilde /adieresis /aring
/ae /ccedilla /egrave /eacute /ecircumflex
/edieresis /igrave /iacute /icircumflex /idieresis
/eth /ntilde /ograve /oacute /ocircumflex
/otilde /odieresis /divide /oslash /ugrave
/uacute /ucircumflex /udieresis /yacute /thorn
/ydieresis
] def
%%EndResource
%FOPBeginFontReencode
/Courier-Oblique findfont
dup length dict begin
  {1 index /FID ne {def} {pop pop} ifelse} forall
  /Encoding WinAnsiEncoding def
  currentdict
end
/Courier-Oblique exch definefont pop
/Courier-BoldOblique findfont
dup length dict begin
  {1 index /FID ne {def} {pop pop} ifelse} forall
  /Encoding WinAnsiEncoding def
  currentdict
end
/Courier-BoldOblique exch definefont pop
/Courier-Bold findfont
dup length dict begin
  {1 index /FID ne {def} {pop pop} ifelse} forall
  /Encoding WinAnsiEncoding def
  currentdict
end
/Courier-Bold exch definefont pop
/Helvetica findfont
dup length dict begin
  {1 index /FID ne {def} {pop pop} ifelse} forall
  /Encoding WinAnsiEncoding def
  currentdict
end
/Helvetica exch definefont pop
/Helvetica-Oblique findfont
dup length dict begin
  {1 index /FID ne {def} {pop pop} ifelse} forall
  /Encoding WinAnsiEncoding def
  currentdict
end
/Helvetica-Oblique exch definefont pop
/Helvetica-Bold findfont
dup length dict begin
  {1 index /FID ne {def} {pop pop} ifelse} forall
  /Encoding WinAnsiEncoding def
  currentdict
end
/Helvetica-Bold exch definefont pop
/Helvetica-BoldOblique findfont
dup length dict begin
  {1 index /FID ne {def} {pop pop} ifelse} forall
  /Encoding WinAnsiEncoding def
  currentdict
end
/Helvetica-BoldOblique exch definefont pop
/Times-Roman findfont
dup length dict begin
  {1 index /FID ne {def} {pop pop} ifelse} forall
  /Encoding WinAnsiEncoding def
  currentdict
end
/Times-Roman exch definefont pop
/Times-Italic findfont
dup length dict begin
  {1 index /FID ne {def} {pop pop} ifelse} forall
  /Encoding WinAnsiEncoding def
  currentdict
end
/Times-Italic exch definefont pop
/Times-Bold findfont
dup length dict begin
  {1 index /FID ne {def} {pop pop} ifelse} forall
  /Encoding WinAnsiEncoding def
  currentdict
end
/Times-Bold exch definefont pop
/Times-BoldItalic findfont
dup length dict begin
  {1 index /FID ne {def} {pop pop} ifelse} forall
  /Encoding WinAnsiEncoding def
  currentdict
end
/Times-BoldItalic exch definefont pop
/Courier findfont
dup length dict begin
  {1 index /FID ne {def} {pop pop} ifelse} forall
  /Encoding WinAnsiEncoding def
  currentdict
end
/Courier exch definefont pop
%FOPEndFontReencode
%%EndProlog
%%Page: 1 1
%%PageBoundingBox: 0 0 428 315
%%BeginPageSetup
[1 0 0 -1 0 315] CT
%%EndPageSetup
GS
[0.75 0 0 0.75 0 0] CT
1 GC
N
0 0 570 420 re
f
GR
GS
[0.75 0 0 0.75 0 0] CT
1 GC
N
0 0 570 420 re
f
GR
GS
[0.75 0 0 0.75 0 0] CT
1 GC
N
181.389 267 M
480.611 267 L
480.611 31 L
181.389 31 L
cp
f
GR
GS
[0.75 0 0 0.75 0 0] CT
0.149 GC
2 setlinecap
1 LJ
0.667 LW
N
181.389 267 M
480.611 267 L
S
GR
GS
[0.75 0 0 0.75 0 0] CT
0.149 GC
2 setlinecap
1 LJ
0.667 LW
N
181.389 267 M
181.389 264.008 L
S
GR
GS
[0.75 0 0 0.75 0 0] CT
0.149 GC
2 setlinecap
1 LJ
0.667 LW
N
256.194 267 M
256.194 264.008 L
S
GR
GS
[0.75 0 0 0.75 0 0] CT
0.149 GC
2 setlinecap
1 LJ
0.667 LW
N
331 267 M
331 264.008 L
S
GR
GS
[0.75 0 0 0.75 0 0] CT
0.149 GC
2 setlinecap
1 LJ
0.667 LW
N
405.806 267 M
405.806 264.008 L
S
GR
GS
[0.75 0 0 0.75 0 0] CT
0.149 GC
2 setlinecap
1 LJ
0.667 LW
N
480.611 267 M
480.611 264.008 L
S
GR
GS
[0.75 0 0 0.75 136.04141 210.25001] CT
0.149 GC
/Helvetica 53.333 F
GS
[1 0 0 1 0 0] CT
-24 54 moveto 
1 -1 scale
(-5) t 
GR
GR
GS
[0.75 0 0 0.75 192.14571 210.25001] CT
0.149 GC
/Helvetica 53.333 F
GS
[1 0 0 1 0 0] CT
-15 54 moveto 
1 -1 scale
(0) t 
GR
GR
GS
[0.75 0 0 0.75 248.25 210.25001] CT
0.149 GC
/Helvetica 53.333 F
GS
[1 0 0 1 0 0] CT
-15 54 moveto 
1 -1 scale
(5) t 
GR
GR
GS
[0.75 0 0 0.75 304.35429 210.25001] CT
0.149 GC
/Helvetica 53.333 F
GS
[1 0 0 1 0 0] CT
-30 54 moveto 
1 -1 scale
(10) t 
GR
GR
GS
[0.75 0 0 0.75 360.45859 210.25001] CT
0.149 GC
/Helvetica 53.333 F
GS
[1 0 0 1 0 0] CT
-30 54 moveto 
1 -1 scale
(15) t 
GR
GR
GS
[0.75 0 0 0.75 248.25011 260.74999] CT
0.149 GC
/Helvetica 58.667 F
GS
[1 0 0 1 0 0] CT
-34.5 59 moveto 
1 -1 scale
(Xs) t 
GR
GR
GS
[0.75 0 0 0.75 0 0] CT
0.149 GC
2 setlinecap
1 LJ
0.667 LW
N
181.389 267 M
181.389 31 L
S
GR
GS
[0.75 0 0 0.75 0 0] CT
0.149 GC
2 setlinecap
1 LJ
0.667 LW
N
181.389 200.523 M
184.381 200.523 L
S
GR
GS
[0.75 0 0 0.75 0 0] CT
0.149 GC
2 setlinecap
1 LJ
0.667 LW
N
181.389 125.717 M
184.381 125.717 L
S
GR
GS
[0.75 0 0 0.75 0 0] CT
0.149 GC
2 setlinecap
1 LJ
0.667 LW
N
181.389 50.911 M
184.381 50.911 L
S
GR
GS
[0.75 0 0 0.75 126.04142 150.39211] CT
0.149 GC
/Helvetica 53.333 F
GS
[1 0 0 1 0 0] CT
-30 21 moveto 
1 -1 scale
(5) t 
GR
GR
GS
[0.75 0 0 0.75 126.04142 94.28782] CT
0.149 GC
/Helvetica 53.333 F
GS
[1 0 0 1 0 0] CT
-60 21 moveto 
1 -1 scale
(10) t 
GR
GR
GS
[0.75 0 0 0.75 126.04142 38.18352] CT
0.149 GC
/Helvetica 53.333 F
GS
[1 0 0 1 0 0] CT
-60 21 moveto 
1 -1 scale
(15) t 
GR
GR
GS
[0 -0.75 0.75 0 78.04142 111.74992] CT
0.149 GC
/Helvetica 58.667 F
GS
[1 0 0 1 0 0] CT
-34.5 -13 moveto 
1 -1 scale
(Ys) t 
GR
GR
GS
[0.75 0 0 0.75 237.02914 127.95039] CT
1 0 0 RC
N
0 -26.66 M
-23.088 13.33 L
23.088 13.33 L
cp
f
GR
GS
[0.75 0 0 0.75 237.02914 127.95039] CT
0 0 1 RC
10.0 ML
0.667 LW
N
0 -26.66 M
-23.088 13.33 L
23.088 13.33 L
cp
S
GR
GS
[0.75 0 0 0.75 225.80827 116.72953] CT
1 0 0 RC
N
/f-1996900118{0 -26.66 M
-23.088 13.33 L
23.088 13.33 L
cp}def
f-1996900118
f
GR
GS
[0.75 0 0 0.75 225.80827 116.72953] CT
0 0 1 RC
10.0 ML
0.667 LW
N
0 -26.66 M
-23.088 13.33 L
23.088 13.33 L
cp
S
GR
GS
[0.75 0 0 0.75 270.69173 127.95039] CT
1 0 0 RC
N
f-1996900118
f
GR
GS
[0.75 0 0 0.75 270.69173 127.95039] CT
0 0 1 RC
10.0 ML
0.667 LW
N
0 -26.66 M
-23.088 13.33 L
23.088 13.33 L
cp
S
GR
GS
[0.75 0 0 0.75 248.25 172.83382] CT
1 0 0 RC
N
f-1996900118
f
GR
GS
[0.75 0 0 0.75 248.25 172.83382] CT
0 0 1 RC
10.0 ML
0.667 LW
N
0 -26.66 M
-23.088 13.33 L
23.088 13.33 L
cp
S
GR
GS
[0.75 0 0 0.75 248.25 105.50868] CT
1 0 0 RC
N
f-1996900118
f
GR
GS
[0.75 0 0 0.75 248.25 105.50868] CT
0 0 1 RC
10.0 ML
0.667 LW
N
0 -26.66 M
-23.088 13.33 L
23.088 13.33 L
cp
S
GR
GS
[0.75 0 0 0.75 237.02914 150.39211] CT
1 0 0 RC
N
f-1996900118
f
GR
GS
[0.75 0 0 0.75 237.02914 150.39211] CT
0 0 1 RC
10.0 ML
0.667 LW
N
0 -26.66 M
-23.088 13.33 L
23.088 13.33 L
cp
S
GR
GS
[0.75 0 0 0.75 281.91257 172.83382] CT
1 0 0 RC
N
f-1996900118
f
GR
GS
[0.75 0 0 0.75 281.91257 172.83382] CT
0 0 1 RC
10.0 ML
0.667 LW
N
0 -26.66 M
-23.088 13.33 L
23.088 13.33 L
cp
S
GR
GS
[0.75 0 0 0.75 259.47086 116.72953] CT
1 0 0 RC
N
f-1996900118
f
GR
GS
[0.75 0 0 0.75 259.47086 116.72953] CT
0 0 1 RC
10.0 ML
0.667 LW
N
0 -26.66 M
-23.088 13.33 L
23.088 13.33 L
cp
S
GR
GS
[0.75 0 0 0.75 277.71856 70.59313] CT
1 0 0 RC
10.0 ML
0.667 LW
N
0 -5 M
0 5 L
-5 0 M
5 0 L
S
GR
GS
[0.75 0 0 0.75 269.84592 80.02939] CT
0 1 1 RC
10.0 ML
0.667 LW
N
0 -4 M
0 4 L
-4 0 M
4 0 L
-2.828 -2.828 M
2.828 2.828 L
-2.828 2.828 M
2.828 -2.828 L
S
GR
GS
[0.75 0 0 0.75 0 0] CT
0 1 1 RC
1 LJ
0.667 LW
N
359.311 105.389 M
359.302 105.293 L
359.355 105.373 L
S
GR
GS
[0.75 0 0 0.75 0 0] CT
0 1 1 RC
1 LJ
0.667 LW
N
359.795 106.706 M
359.302 105.293 L
S
GR
GS
[0.75 0 0 0.75 0 0] CT
0 1 1 RC
1 LJ
0.667 LW
N
359.44 119.082 M
356.374 118.605 L
353.522 117.381 L
351.064 115.485 L
349.155 113.038 L
347.915 110.193 L
347.421 107.13 L
347.704 104.039 L
348.747 101.116 L
350.484 98.544 L
352.807 96.485 L
355.568 95.068 L
358.595 94.383 L
361.697 94.472 L
364.68 95.329 L
367.356 96.902 L
369.556 99.09 L
371.144 101.757 L
372.018 104.735 L
372.124 107.836 L
371.456 110.867 L
370.054 113.636 L
368.008 115.97 L
365.446 117.722 L
362.529 118.781 L
359.44 119.082 L
S
GR
GS
[0.75 0 0 0.75 259.20797 71.1032] CT
0 1 1 RC
10.0 ML
0.667 LW
N
0 -4 M
0 4 L
-4 0 M
4 0 L
-2.828 -2.828 M
2.828 2.828 L
-2.828 2.828 M
2.828 -2.828 L
S
GR
GS
[0.75 0 0 0.75 0 0] CT
0 1 1 RC
1 LJ
0.667 LW
N
345.127 93.487 M
345.118 93.391 L
345.171 93.472 L
S
GR
GS
[0.75 0 0 0.75 0 0] CT
0 1 1 RC
1 LJ
0.667 LW
N
345.611 94.804 M
345.118 93.391 L
S
GR
GS
[0.75 0 0 0.75 0 0] CT
0 1 1 RC
1 LJ
0.667 LW
N
345.352 107.183 M
342.282 106.73 L
339.421 105.527 L
336.949 103.651 L
335.021 101.219 L
333.758 98.384 L
333.24 95.324 L
333.5 92.231 L
334.52 89.3 L
336.238 86.715 L
338.544 84.638 L
341.294 83.2 L
344.315 82.491 L
347.418 82.556 L
350.408 83.39 L
353.096 84.942 L
355.313 87.113 L
356.921 89.768 L
357.818 92.739 L
357.948 95.839 L
357.303 98.875 L
355.924 101.655 L
353.896 104.005 L
351.348 105.776 L
348.439 106.858 L
345.352 107.183 L
S
GR
GS
[0.75 0 0 0.75 269.84624 83.07388] CT
0 1 1 RC
10.0 ML
0.667 LW
N
0 -4 M
0 4 L
-4 0 M
4 0 L
-2.828 -2.828 M
2.828 2.828 L
-2.828 2.828 M
2.828 -2.828 L
S
GR
GS
[0.75 0 0 0.75 0 0] CT
0 1 1 RC
1 LJ
0.667 LW
N
359.311 109.448 M
359.303 109.352 L
359.355 109.433 L
S
GR
GS
[0.75 0 0 0.75 0 0] CT
0 1 1 RC
1 LJ
0.667 LW
N
359.795 110.765 M
359.303 109.352 L
S
GR
GS
[0.75 0 0 0.75 0 0] CT
0 1 1 RC
1 LJ
0.667 LW
N
359.799 123.146 M
356.72 122.758 L
353.834 121.617 L
351.322 119.793 L
349.343 117.403 L
348.021 114.595 L
347.438 111.546 L
347.632 108.449 L
348.591 105.497 L
350.253 102.876 L
352.514 100.751 L
355.234 99.255 L
358.239 98.482 L
361.343 98.481 L
364.349 99.252 L
367.069 100.746 L
369.332 102.87 L
370.996 105.49 L
371.956 108.441 L
372.152 111.539 L
371.571 114.588 L
370.251 117.396 L
368.273 119.788 L
365.763 121.613 L
362.878 122.756 L
359.799 123.146 L
S
GR
GS
[0.75 0 0 0.75 269.6006 79.78369] CT
0 1 1 RC
10.0 ML
0.667 LW
N
0 -4 M
0 4 L
-4 0 M
4 0 L
-2.828 -2.828 M
2.828 2.828 L
-2.828 2.828 M
2.828 -2.828 L
S
GR
GS
[0.75 0 0 0.75 0 0] CT
0 1 1 RC
1 LJ
0.667 LW
N
358.984 105.061 M
358.975 104.965 L
359.028 105.046 L
S
GR
GS
[0.75 0 0 0.75 0 0] CT
0 1 1 RC
1 LJ
0.667 LW
N
359.467 106.378 M
358.975 104.965 L
S
GR
GS
[0.75 0 0 0.75 0 0] CT
0 1 1 RC
1 LJ
0.667 LW
N
359.497 118.759 M
356.417 118.378 L
353.529 117.242 L
351.013 115.424 L
349.03 113.037 L
347.701 110.232 L
347.113 107.185 L
347.3 104.087 L
348.252 101.133 L
349.909 98.509 L
352.166 96.379 L
354.882 94.877 L
357.886 94.098 L
360.99 94.091 L
363.998 94.856 L
366.721 96.344 L
368.988 98.463 L
370.658 101.08 L
371.624 104.029 L
371.826 107.126 L
371.252 110.176 L
369.937 112.987 L
367.964 115.384 L
365.458 117.214 L
362.575 118.363 L
359.497 118.759 L
S
GR
GS
[0.75 0 0 0.75 268.60629 80.50158] CT
0 1 1 RC
10.0 ML
0.667 LW
N
0 -4 M
0 4 L
-4 0 M
4 0 L
-2.828 -2.828 M
2.828 2.828 L
-2.828 2.828 M
2.828 -2.828 L
S
GR
GS
[0.75 0 0 0.75 0 0] CT
0 1 1 RC
1 LJ
0.667 LW
N
357.658 106.018 M
357.65 105.923 L
357.702 106.003 L
S
GR
GS
[0.75 0 0 0.75 0 0] CT
0 1 1 RC
1 LJ
0.667 LW
N
358.142 107.335 M
357.65 105.923 L
S
GR
GS
[0.75 0 0 0.75 0 0] CT
0 1 1 RC
1 LJ
0.667 LW
N
370.52 107.049 M
370.06 103.98 L
368.851 101.122 L
366.969 98.654 L
364.533 96.731 L
361.695 95.475 L
358.634 94.964 L
355.541 95.23 L
352.613 96.257 L
350.031 97.98 L
347.96 100.291 L
346.528 103.045 L
345.826 106.068 L
345.897 109.171 L
346.738 112.158 L
348.296 114.842 L
350.472 117.055 L
353.13 118.657 L
356.103 119.548 L
359.204 119.671 L
362.239 119.019 L
365.016 117.633 L
367.361 115.6 L
369.126 113.048 L
370.202 110.137 L
370.52 107.049 L
S
GR
GS
[0.75 0 0 0.75 269.56062 79.74369] CT
0 1 1 RC
10.0 ML
0.667 LW
N
0 -4 M
0 4 L
-4 0 M
4 0 L
-2.828 -2.828 M
2.828 2.828 L
-2.828 2.828 M
2.828 -2.828 L
S
GR
GS
[0.75 0 0 0.75 0 0] CT
0 1 1 RC
1 LJ
0.667 LW
N
358.931 105.008 M
358.922 104.912 L
358.975 104.992 L
S
GR
GS
[0.75 0 0 0.75 0 0] CT
0 1 1 RC
1 LJ
0.667 LW
N
359.414 106.325 M
358.922 104.912 L
S
GR
GS
[0.75 0 0 0.75 0 0] CT
0 1 1 RC
1 LJ
0.667 LW
N
359.453 118.706 M
356.373 118.327 L
353.484 117.194 L
350.967 115.377 L
348.982 112.992 L
347.651 110.188 L
347.06 107.142 L
347.245 104.044 L
348.195 101.089 L
349.849 98.463 L
352.105 96.332 L
354.82 94.828 L
357.823 94.046 L
360.927 94.037 L
363.935 94.799 L
366.66 96.285 L
368.929 98.403 L
370.6 101.018 L
371.569 103.966 L
371.773 107.063 L
371.201 110.113 L
369.889 112.926 L
367.918 115.323 L
365.413 117.156 L
362.531 118.307 L
359.453 118.706 L
S
GR
GS
[0.75 0 0 0.75 259.16203 71.0569] CT
0 1 1 RC
10.0 ML
0.667 LW
N
0 -4 M
0 4 L
-4 0 M
4 0 L
-2.828 -2.828 M
2.828 2.828 L
-2.828 2.828 M
2.828 -2.828 L
S
GR
GS
[0.75 0 0 0.75 0 0] CT
0 1 1 RC
1 LJ
0.667 LW
N
345.066 93.425 M
345.057 93.33 L
345.11 93.41 L
S
GR
GS
[0.75 0 0 0.75 0 0] CT
0 1 1 RC
1 LJ
0.667 LW
N
345.549 94.743 M
345.057 93.33 L
S
GR
GS
[0.75 0 0 0.75 0 0] CT
0 1 1 RC
1 LJ
0.667 LW
N
357.931 94.724 M
357.537 91.646 L
356.39 88.762 L
354.562 86.254 L
352.168 84.279 L
349.358 82.962 L
346.308 82.385 L
343.211 82.584 L
340.261 83.548 L
337.643 85.214 L
335.522 87.48 L
334.031 90.202 L
333.264 93.209 L
333.268 96.313 L
334.044 99.317 L
335.544 102.035 L
337.672 104.294 L
340.294 105.953 L
343.247 106.908 L
346.345 107.098 L
349.393 106.512 L
352.199 105.186 L
354.587 103.205 L
356.408 100.691 L
357.546 97.804 L
357.931 94.724 L
S
GR
GS
[0.75 0 0 0.75 268.03864 78.22111] CT
0 1 1 RC
10.0 ML
0.667 LW
N
0 -4 M
0 4 L
-4 0 M
4 0 L
-2.828 -2.828 M
2.828 2.828 L
-2.828 2.828 M
2.828 -2.828 L
S
GR
GS
[0.75 0 0 0.75 0 0] CT
0 1 1 RC
1 LJ
0.667 LW
N
356.901 102.978 M
356.893 102.882 L
356.945 102.962 L
S
GR
GS
[0.75 0 0 0.75 0 0] CT
0 1 1 RC
1 LJ
0.667 LW
N
357.385 104.295 M
356.893 102.882 L
S
GR
GS
[0.75 0 0 0.75 0 0] CT
0 1 1 RC
1 LJ
0.667 LW
N
357.827 116.668 M
354.736 116.389 L
351.811 115.351 L
349.237 113.617 L
347.175 111.298 L
345.754 108.539 L
345.064 105.513 L
345.148 102.411 L
346.001 99.427 L
347.569 96.748 L
349.754 94.544 L
352.419 92.953 L
355.395 92.075 L
358.497 91.964 L
361.529 92.628 L
364.3 94.025 L
366.637 96.067 L
368.392 98.626 L
369.456 101.542 L
369.762 104.631 L
369.289 107.698 L
368.069 110.551 L
366.177 113.012 L
363.733 114.925 L
360.89 116.169 L
357.827 116.668 L
S
GR
GS
[0.75 0 0 0.75 266.79753 78.69314] CT
0 1 1 RC
10.0 ML
0.667 LW
N
0 -4 M
0 4 L
-4 0 M
4 0 L
-2.828 -2.828 M
2.828 2.828 L
-2.828 2.828 M
2.828 -2.828 L
S
GR
GS
[0.75 0 0 0.75 0 0] CT
0 1 1 RC
1 LJ
0.667 LW
N
355.246 103.607 M
355.238 103.511 L
355.291 103.592 L
S
GR
GS
[0.75 0 0 0.75 0 0] CT
0 1 1 RC
1 LJ
0.667 LW
N
355.73 104.924 M
355.238 103.511 L
S
GR
GS
[0.75 0 0 0.75 0 0] CT
0 1 1 RC
1 LJ
0.667 LW
N
368.101 104.424 M
367.588 101.363 L
366.33 98.526 L
364.406 96.091 L
361.936 94.211 L
359.077 93.004 L
356.007 92.546 L
352.92 92.866 L
350.01 93.944 L
347.459 95.711 L
345.428 98.057 L
344.044 100.835 L
343.394 103.87 L
343.519 106.971 L
344.412 109.943 L
346.016 112.601 L
348.23 114.775 L
350.915 116.331 L
353.903 117.17 L
357.006 117.239 L
360.029 116.535 L
362.781 115.101 L
365.091 113.028 L
366.812 110.446 L
367.837 107.516 L
368.101 104.424 L
S
GR
GS
[0.75 0 0 0.75 247.98788 59.88348] CT
0 1 1 RC
10.0 ML
0.667 LW
N
0 -4 M
0 4 L
-4 0 M
4 0 L
-2.828 -2.828 M
2.828 2.828 L
-2.828 2.828 M
2.828 -2.828 L
S
GR
GS
[0.75 0 0 0.75 0 0] CT
0 1 1 RC
1 LJ
0.667 LW
N
330.167 78.528 M
330.158 78.432 L
330.211 78.512 L
S
GR
GS
[0.75 0 0 0.75 0 0] CT
0 1 1 RC
1 LJ
0.667 LW
N
330.651 79.845 M
330.158 78.432 L
S
GR
GS
[0.75 0 0 0.75 0 0] CT
0 1 1 RC
1 LJ
0.667 LW
N
330.6 92.226 M
327.523 91.824 L
324.642 90.67 L
322.138 88.836 L
320.17 86.436 L
318.86 83.623 L
318.291 80.572 L
318.498 77.475 L
319.469 74.528 L
321.143 71.914 L
323.414 69.799 L
326.139 68.315 L
329.149 67.555 L
332.252 67.567 L
335.255 68.352 L
337.969 69.858 L
340.222 71.991 L
341.875 74.619 L
342.822 77.574 L
343.004 80.672 L
342.41 83.718 L
341.077 86.521 L
339.089 88.904 L
336.571 90.718 L
333.681 91.849 L
330.6 92.226 L
S
GR
GS
[0.75 0 0 0.75 258.63176 68.81551] CT
0 1 1 RC
10.0 ML
0.667 LW
N
0 -4 M
0 4 L
-4 0 M
4 0 L
-2.828 -2.828 M
2.828 2.828 L
-2.828 2.828 M
2.828 -2.828 L
S
GR
GS
[0.75 0 0 0.75 0 0] CT
0 1 1 RC
1 LJ
0.667 LW
N
344.359 90.437 M
344.35 90.341 L
344.403 90.422 L
S
GR
GS
[0.75 0 0 0.75 0 0] CT
0 1 1 RC
1 LJ
0.667 LW
N
344.842 91.754 M
344.35 90.341 L
S
GR
GS
[0.75 0 0 0.75 0 0] CT
0 1 1 RC
1 LJ
0.667 LW
N
357.223 91.857 M
356.86 88.775 L
355.741 85.88 L
353.938 83.354 L
351.563 81.356 L
348.766 80.011 L
345.722 79.404 L
342.623 79.573 L
339.664 80.508 L
337.03 82.149 L
334.887 84.394 L
333.369 87.101 L
332.572 90.1 L
332.546 93.204 L
333.293 96.216 L
334.766 98.948 L
336.871 101.228 L
339.478 102.913 L
342.421 103.896 L
345.517 104.117 L
348.57 103.561 L
351.389 102.263 L
353.797 100.304 L
355.642 97.809 L
356.809 94.933 L
357.223 91.857 L
S
GR
GS
[0.75 0 0 0.75 269.55352 79.73635] CT
0 1 1 RC
10.0 ML
0.667 LW
N
0 -4 M
0 4 L
-4 0 M
4 0 L
-2.828 -2.828 M
2.828 2.828 L
-2.828 2.828 M
2.828 -2.828 L
S
GR
GS
[0.75 0 0 0.75 0 0] CT
0 1 1 RC
1 LJ
0.667 LW
N
358.921 104.998 M
358.913 104.902 L
358.965 104.983 L
S
GR
GS
[0.75 0 0 0.75 0 0] CT
0 1 1 RC
1 LJ
0.667 LW
N
359.405 106.315 M
358.913 104.902 L
S
GR
GS
[0.75 0 0 0.75 0 0] CT
0 1 1 RC
1 LJ
0.667 LW
N
359.385 118.696 M
356.307 118.302 L
353.423 117.155 L
350.915 115.327 L
348.94 112.933 L
347.623 110.122 L
347.047 107.073 L
347.246 103.976 L
348.21 101.026 L
349.877 98.408 L
352.143 96.287 L
354.865 94.796 L
357.872 94.029 L
360.976 94.034 L
363.981 94.811 L
366.698 96.31 L
368.957 98.438 L
370.616 101.061 L
371.57 104.014 L
371.76 107.112 L
371.174 110.16 L
369.848 112.966 L
367.866 115.354 L
365.352 117.174 L
362.465 118.312 L
359.385 118.696 L
S
GR
GS
[0.75 0 0 0.75 258.62576 68.80881] CT
0 1 1 RC
10.0 ML
0.667 LW
N
0 -4 M
0 4 L
-4 0 M
4 0 L
-2.828 -2.828 M
2.828 2.828 L
-2.828 2.828 M
2.828 -2.828 L
S
GR
GS
[0.75 0 0 0.75 0 0] CT
0 1 1 RC
1 LJ
0.667 LW
N
344.351 90.428 M
344.342 90.332 L
344.395 90.413 L
S
GR
GS
[0.75 0 0 0.75 0 0] CT
0 1 1 RC
1 LJ
0.667 LW
N
344.834 91.745 M
344.342 90.332 L
S
GR
GS
[0.75 0 0 0.75 0 0] CT
0 1 1 RC
1 LJ
0.667 LW
N
344.48 104.121 M
341.413 103.644 L
338.562 102.42 L
336.104 100.524 L
334.195 98.077 L
332.954 95.233 L
332.46 92.169 L
332.744 89.078 L
333.787 86.155 L
335.524 83.583 L
337.846 81.524 L
340.608 80.108 L
343.635 79.422 L
346.737 79.511 L
349.72 80.368 L
352.395 81.941 L
354.596 84.129 L
356.183 86.796 L
357.058 89.774 L
357.164 92.876 L
356.495 95.906 L
355.094 98.676 L
353.048 101.009 L
350.486 102.761 L
347.569 103.82 L
344.48 104.121 L
S
GR
GS
[0.75 0 0 0.75 270.14019 79.4426] CT
0 1 1 RC
10.0 ML
0.667 LW
N
0 -4 M
0 4 L
-4 0 M
4 0 L
-2.828 -2.828 M
2.828 2.828 L
-2.828 2.828 M
2.828 -2.828 L
S
GR
GS
[0.75 0 0 0.75 0 0] CT
0 1 1 RC
1 LJ
0.667 LW
N
359.703 104.606 M
359.695 104.511 L
359.747 104.591 L
S
GR
GS
[0.75 0 0 0.75 0 0] CT
0 1 1 RC
1 LJ
0.667 LW
N
360.187 105.923 M
359.695 104.511 L
S
GR
GS
[0.75 0 0 0.75 0 0] CT
0 1 1 RC
1 LJ
0.667 LW
N
372.567 106.085 M
372.218 103.001 L
371.113 100.1 L
369.322 97.566 L
366.957 95.557 L
364.166 94.199 L
361.125 93.578 L
358.025 93.732 L
355.062 94.653 L
352.42 96.282 L
350.266 98.516 L
348.735 101.216 L
347.925 104.212 L
347.884 107.315 L
348.617 110.331 L
350.076 113.07 L
352.171 115.36 L
354.77 117.057 L
357.709 118.054 L
360.803 118.289 L
363.859 117.747 L
366.684 116.463 L
369.101 114.516 L
370.958 112.029 L
372.138 109.158 L
372.567 106.085 L
S
GR
GS
[0.75 0 0 0.75 277.71856 70.59313] CT
1 0 0 RC
10.0 ML
0.667 LW
N
0 -5 M
0 5 L
-5 0 M
5 0 L
S
GR
GS
[0.75 0 0 0.75 265.57883 91.90631] CT
0 0 1 RC
10.0 ML
0.667 LW
N
0 -4 M
0 4 L
-4 0 M
4 0 L
-2.828 -2.828 M
2.828 2.828 L
-2.828 2.828 M
2.828 -2.828 L
S
GR
GS
[0.75 0 0 0.75 0 0] CT
0 0 1 RC
1 LJ
0.667 LW
N
353.622 121.225 M
353.613 121.129 L
353.666 121.209 L
S
GR
GS
[0.75 0 0 0.75 0 0] CT
0 0 1 RC
1 LJ
0.667 LW
N
354.105 122.542 M
353.613 121.129 L
S
GR
GS
[0.75 0 0 0.75 0 0] CT
0 0 1 RC
1 LJ
0.667 LW
N
351.239 126.616 M
350.316 125.775 L
349.631 124.731 L
349.227 123.55 L
349.13 122.305 L
349.345 121.075 L
349.859 119.937 L
350.64 118.963 L
351.639 118.214 L
352.793 117.737 L
354.029 117.561 L
355.27 117.699 L
356.438 118.141 L
357.459 118.859 L
358.27 119.809 L
358.818 120.93 L
359.071 122.153 L
359.012 123.4 L
358.644 124.594 L
357.991 125.658 L
357.094 126.526 L
356.009 127.145 L
354.805 127.474 L
353.556 127.493 L
352.342 127.201 L
351.239 126.616 L
S
GR
GS
[0.75 0 0 0.75 256.17412 82.50158] CT
0 0 1 RC
10.0 ML
0.667 LW
N
0 -4 M
0 4 L
-4 0 M
4 0 L
-2.828 -2.828 M
2.828 2.828 L
-2.828 2.828 M
2.828 -2.828 L
S
GR
GS
[0.75 0 0 0.75 0 0] CT
0 0 1 RC
1 LJ
0.667 LW
N
341.082 108.685 M
341.073 108.589 L
341.126 108.67 L
S
GR
GS
[0.75 0 0 0.75 0 0] CT
0 0 1 RC
1 LJ
0.667 LW
N
341.565 110.002 M
341.073 108.589 L
S
GR
GS
[0.75 0 0 0.75 0 0] CT
0 0 1 RC
1 LJ
0.667 LW
N
338.534 113.954 M
337.646 113.076 L
337.005 112.005 L
336.65 110.808 L
336.604 109.56 L
336.87 108.34 L
337.431 107.224 L
338.252 106.283 L
339.28 105.576 L
340.453 105.147 L
341.695 105.023 L
342.93 105.211 L
344.078 105.701 L
345.069 106.461 L
345.839 107.444 L
346.341 108.587 L
346.543 109.819 L
346.432 111.063 L
346.016 112.24 L
345.319 113.276 L
344.387 114.107 L
343.278 114.68 L
342.061 114.959 L
340.813 114.926 L
339.612 114.584 L
338.534 113.954 L
S
GR
GS
[0.75 0 0 0.75 274.98351 73.09705] CT
0 1 0 RC
10.0 ML
0.667 LW
N
0 -4 M
0 4 L
-4 0 M
4 0 L
-2.828 -2.828 M
2.828 2.828 L
-2.828 2.828 M
2.828 -2.828 L
S
GR
GS
[0.75 0 0 0.75 0 0] CT
0 1 0 RC
1 LJ
0.667 LW
N
366.161 96.146 M
366.152 96.05 L
366.205 96.13 L
S
GR
GS
[0.75 0 0 0.75 0 0] CT
0 1 0 RC
1 LJ
0.667 LW
N
366.645 97.463 M
366.152 96.05 L
S
GR
GS
[0.75 0 0 0.75 0 0] CT
0 1 0 RC
1 LJ
0.667 LW
N
370.677 100.388 M
371.277 99.293 L
371.587 98.084 L
371.586 96.835 L
371.275 95.626 L
370.672 94.532 L
369.817 93.623 L
368.762 92.954 L
367.575 92.569 L
366.328 92.492 L
365.102 92.726 L
363.973 93.259 L
363.011 94.055 L
362.278 95.066 L
361.819 96.227 L
361.664 97.466 L
361.821 98.705 L
362.281 99.865 L
363.016 100.875 L
363.979 101.67 L
365.109 102.201 L
366.335 102.434 L
367.581 102.355 L
368.769 101.968 L
369.822 101.299 L
370.677 100.388 L
S
GR
GS
[0.75 0 0 0.75 284.38831 82.50159] CT
0 0 1 RC
10.0 ML
0.667 LW
N
0 -4 M
0 4 L
-4 0 M
4 0 L
-2.828 -2.828 M
2.828 2.828 L
-2.828 2.828 M
2.828 -2.828 L
S
GR
GS
[0.75 0 0 0.75 0 0] CT
0 0 1 RC
1 LJ
0.667 LW
N
378.701 108.685 M
378.692 108.589 L
378.745 108.67 L
S
GR
GS
[0.75 0 0 0.75 0 0] CT
0 0 1 RC
1 LJ
0.667 LW
N
379.184 110.002 M
378.692 108.589 L
S
GR
GS
[0.75 0 0 0.75 0 0] CT
0 0 1 RC
1 LJ
0.667 LW
N
376.365 114.108 M
375.432 113.278 L
374.735 112.242 L
374.318 111.065 L
374.207 109.822 L
374.408 108.589 L
374.909 107.446 L
375.679 106.463 L
376.67 105.702 L
377.818 105.212 L
379.052 105.023 L
380.295 105.146 L
381.467 105.575 L
382.497 106.282 L
383.318 107.222 L
383.879 108.338 L
384.146 109.557 L
384.1 110.805 L
383.746 112.002 L
383.105 113.074 L
382.218 113.953 L
381.141 114.583 L
379.94 114.926 L
378.692 114.959 L
377.474 114.681 L
376.365 114.108 L
S
GR
GS
[0.75 0 0 0.75 254.65199 80.97957] CT
0 0 1 RC
10.0 ML
0.667 LW
N
0 -4 M
0 4 L
-4 0 M
4 0 L
-2.828 -2.828 M
2.828 2.828 L
-2.828 2.828 M
2.828 -2.828 L
S
GR
GS
[0.75 0 0 0.75 0 0] CT
0 0 1 RC
1 LJ
0.667 LW
N
339.052 106.656 M
339.044 106.56 L
339.096 106.64 L
S
GR
GS
[0.75 0 0 0.75 0 0] CT
0 0 1 RC
1 LJ
0.667 LW
N
339.536 107.973 M
339.044 106.56 L
S
GR
GS
[0.75 0 0 0.75 0 0] CT
0 0 1 RC
1 LJ
0.667 LW
N
343.553 110.918 M
344.159 109.826 L
344.475 108.618 L
344.48 107.37 L
344.175 106.159 L
343.578 105.062 L
342.728 104.148 L
341.676 103.475 L
340.49 103.084 L
339.245 103 L
338.017 103.229 L
336.885 103.756 L
335.92 104.547 L
335.181 105.554 L
334.717 106.713 L
334.555 107.951 L
334.706 109.191 L
335.161 110.354 L
335.89 111.367 L
336.849 112.167 L
337.976 112.703 L
339.202 112.943 L
340.448 112.87 L
341.637 112.489 L
342.694 111.824 L
343.553 110.918 L
S
GR
GS
[0.75 0 0 0.75 265.57885 91.98617] CT
0 0 1 RC
10.0 ML
0.667 LW
N
0 -4 M
0 4 L
-4 0 M
4 0 L
-2.828 -2.828 M
2.828 2.828 L
-2.828 2.828 M
2.828 -2.828 L
S
GR
GS
[0.75 0 0 0.75 0 0] CT
0 0 1 RC
1 LJ
0.667 LW
N
353.622 121.331 M
353.613 121.235 L
353.666 121.316 L
S
GR
GS
[0.75 0 0 0.75 0 0] CT
0 0 1 RC
1 LJ
0.667 LW
N
354.105 122.648 M
353.613 121.235 L
S
GR
GS
[0.75 0 0 0.75 0 0] CT
0 0 1 RC
1 LJ
0.667 LW
N
358.185 125.505 M
358.768 124.401 L
359.057 123.186 L
359.035 121.938 L
358.704 120.734 L
358.083 119.651 L
357.213 118.755 L
356.147 118.105 L
354.953 117.74 L
353.706 117.683 L
352.484 117.938 L
351.363 118.49 L
350.415 119.302 L
349.699 120.325 L
349.26 121.494 L
349.125 122.735 L
349.303 123.971 L
349.783 125.124 L
350.534 126.121 L
351.51 126.9 L
352.649 127.412 L
353.879 127.624 L
355.124 127.524 L
356.304 127.118 L
357.347 126.43 L
358.185 125.505 L
S
GR
GS
[0.75 0 0 0.75 274.98351 73.17675] CT
0 0 1 RC
10.0 ML
0.667 LW
N
0 -4 M
0 4 L
-4 0 M
4 0 L
-2.828 -2.828 M
2.828 2.828 L
-2.828 2.828 M
2.828 -2.828 L
S
GR
GS
[0.75 0 0 0.75 0 0] CT
0 0 1 RC
1 LJ
0.667 LW
N
366.161 96.252 M
366.152 96.156 L
366.205 96.237 L
S
GR
GS
[0.75 0 0 0.75 0 0] CT
0 0 1 RC
1 LJ
0.667 LW
N
366.645 97.569 M
366.152 96.156 L
S
GR
GS
[0.75 0 0 0.75 0 0] CT
0 0 1 RC
1 LJ
0.667 LW
N
363.709 101.593 M
362.801 100.737 L
362.134 99.681 L
361.75 98.493 L
361.674 97.247 L
361.91 96.021 L
362.444 94.892 L
363.242 93.931 L
364.253 93.199 L
365.415 92.742 L
366.654 92.588 L
367.893 92.747 L
369.053 93.209 L
370.061 93.944 L
370.855 94.908 L
371.385 96.039 L
371.617 97.266 L
371.536 98.512 L
371.148 99.698 L
370.477 100.751 L
369.565 101.604 L
368.47 102.204 L
367.26 102.512 L
366.011 102.51 L
364.802 102.197 L
363.709 101.593 L
S
GR
GS
[0.75 0 0 0.75 274.97722 73.09072] CT
0 0 1 RC
10.0 ML
0.667 LW
N
0 -4 M
0 4 L
-4 0 M
4 0 L
-2.828 -2.828 M
2.828 2.828 L
-2.828 2.828 M
2.828 -2.828 L
S
GR
GS
[0.75 0 0 0.75 0 0] CT
0 0 1 RC
1 LJ
0.667 LW
N
366.153 96.137 M
366.144 96.041 L
366.197 96.122 L
S
GR
GS
[0.75 0 0 0.75 0 0] CT
0 0 1 RC
1 LJ
0.667 LW
N
366.636 97.454 M
366.144 96.041 L
S
GR
GS
[0.75 0 0 0.75 0 0] CT
0 0 1 RC
1 LJ
0.667 LW
N
370.663 100.386 M
371.266 99.292 L
371.578 98.083 L
371.579 96.835 L
371.269 95.625 L
370.669 94.53 L
369.815 93.619 L
368.762 92.949 L
367.574 92.562 L
366.328 92.483 L
365.102 92.715 L
363.971 93.246 L
363.009 94.041 L
362.274 95.05 L
361.813 96.211 L
361.655 97.449 L
361.81 98.688 L
362.269 99.85 L
363.002 100.861 L
363.963 101.657 L
365.092 102.19 L
366.319 102.425 L
367.565 102.348 L
368.753 101.963 L
369.808 101.295 L
370.663 100.386 L
S
GR
GS
[0.75 0 0 0.75 265.57764 91.90525] CT
0 0 1 RC
10.0 ML
0.667 LW
N
0 -4 M
0 4 L
-4 0 M
4 0 L
-2.828 -2.828 M
2.828 2.828 L
-2.828 2.828 M
2.828 -2.828 L
S
GR
GS
[0.75 0 0 0.75 0 0] CT
0 0 1 RC
1 LJ
0.667 LW
N
353.62 121.223 M
353.611 121.128 L
353.664 121.208 L
S
GR
GS
[0.75 0 0 0.75 0 0] CT
0 0 1 RC
1 LJ
0.667 LW
N
354.104 122.54 M
353.611 121.128 L
S
GR
GS
[0.75 0 0 0.75 0 0] CT
0 0 1 RC
1 LJ
0.667 LW
N
351.244 126.619 M
350.32 125.78 L
349.633 124.737 L
349.227 123.556 L
349.128 122.312 L
349.341 121.082 L
349.853 119.943 L
350.633 118.968 L
351.63 118.217 L
352.783 117.737 L
354.019 117.56 L
355.26 117.695 L
356.429 118.135 L
357.451 118.852 L
358.263 119.8 L
358.814 120.921 L
359.069 122.143 L
359.012 123.391 L
358.646 124.585 L
357.995 125.65 L
357.099 126.52 L
356.015 127.14 L
354.811 127.471 L
353.563 127.492 L
352.349 127.202 L
351.244 126.619 L
S
GR
GS
[0.75 0 0 0.75 256.17304 82.50072] CT
0 0 1 RC
10.0 ML
0.667 LW
N
0 -4 M
0 4 L
-4 0 M
4 0 L
-2.828 -2.828 M
2.828 2.828 L
-2.828 2.828 M
2.828 -2.828 L
S
GR
GS
[0.75 0 0 0.75 0 0] CT
0 0 1 RC
1 LJ
0.667 LW
N
341.081 108.684 M
341.072 108.588 L
341.125 108.669 L
S
GR
GS
[0.75 0 0 0.75 0 0] CT
0 0 1 RC
1 LJ
0.667 LW
N
341.564 110.001 M
341.072 108.588 L
S
GR
GS
[0.75 0 0 0.75 0 0] CT
0 0 1 RC
1 LJ
0.667 LW
N
345.577 112.951 M
346.185 111.861 L
346.502 110.653 L
346.509 109.404 L
346.206 108.193 L
345.61 107.096 L
344.761 106.181 L
343.71 105.506 L
342.525 105.113 L
341.279 105.028 L
340.051 105.255 L
338.919 105.78 L
337.952 106.571 L
337.213 107.577 L
336.746 108.735 L
336.583 109.973 L
336.733 111.213 L
337.186 112.376 L
337.914 113.39 L
338.872 114.192 L
339.998 114.73 L
341.224 114.97 L
342.47 114.899 L
343.66 114.52 L
344.718 113.857 L
345.577 112.951 L
S
GR
GS
[0.75 0 0 0.75 274.98241 73.09588] CT
0 0 1 RC
10.0 ML
0.667 LW
N
0 -4 M
0 4 L
-4 0 M
4 0 L
-2.828 -2.828 M
2.828 2.828 L
-2.828 2.828 M
2.828 -2.828 L
S
GR
GS
[0.75 0 0 0.75 0 0] CT
0 0 1 RC
1 LJ
0.667 LW
N
366.16 96.144 M
366.151 96.048 L
366.204 96.129 L
S
GR
GS
[0.75 0 0 0.75 0 0] CT
0 0 1 RC
1 LJ
0.667 LW
N
366.643 97.461 M
366.151 96.048 L
S
GR
GS
[0.75 0 0 0.75 0 0] CT
0 0 1 RC
1 LJ
0.667 LW
N
363.711 101.488 M
362.802 100.632 L
362.134 99.577 L
361.749 98.389 L
361.672 97.143 L
361.908 95.916 L
362.441 94.787 L
363.238 93.826 L
364.249 93.093 L
365.41 92.635 L
366.649 92.48 L
367.888 92.638 L
369.048 93.099 L
370.057 93.834 L
370.852 94.797 L
371.382 95.927 L
371.615 97.154 L
371.535 98.4 L
371.148 99.587 L
370.478 100.641 L
369.566 101.494 L
368.472 102.095 L
367.262 102.404 L
366.013 102.402 L
364.804 102.09 L
363.711 101.488 L
S
GR
GS
[0.75 0 0 0.75 284.38708 82.50057] CT
0 0 1 RC
10.0 ML
0.667 LW
N
0 -4 M
0 4 L
-4 0 M
4 0 L
-2.828 -2.828 M
2.828 2.828 L
-2.828 2.828 M
2.828 -2.828 L
S
GR
GS
[0.75 0 0 0.75 0 0] CT
0 0 1 RC
1 LJ
0.667 LW
N
378.699 108.684 M
378.691 108.588 L
378.743 108.668 L
S
GR
GS
[0.75 0 0 0.75 0 0] CT
0 0 1 RC
1 LJ
0.667 LW
N
379.183 110.001 M
378.691 108.588 L
S
GR
GS
[0.75 0 0 0.75 0 0] CT
0 0 1 RC
1 LJ
0.667 LW
N
383.289 112.821 M
383.861 111.711 L
384.139 110.494 L
384.106 109.246 L
383.764 108.045 L
383.134 106.967 L
382.255 106.08 L
381.184 105.439 L
379.986 105.085 L
378.739 105.039 L
377.519 105.306 L
376.403 105.867 L
375.463 106.688 L
374.756 107.717 L
374.327 108.89 L
374.203 110.132 L
374.393 111.367 L
374.883 112.515 L
375.643 113.505 L
376.626 114.276 L
377.769 114.777 L
379.002 114.979 L
380.245 114.867 L
381.422 114.45 L
382.458 113.754 L
383.289 112.821 L
S
GR
GS
[0.75 0 0 0.75 265.57187 91.89924] CT
0 0 1 RC
10.0 ML
0.667 LW
N
0 -4 M
0 4 L
-4 0 M
4 0 L
-2.828 -2.828 M
2.828 2.828 L
-2.828 2.828 M
2.828 -2.828 L
S
GR
GS
[0.75 0 0 0.75 0 0] CT
0 0 1 RC
1 LJ
0.667 LW
N
353.612 121.215 M
353.604 121.12 L
353.656 121.2 L
S
GR
GS
[0.75 0 0 0.75 0 0] CT
0 0 1 RC
1 LJ
0.667 LW
N
354.096 122.532 M
353.604 121.12 L
S
GR
GS
[0.75 0 0 0.75 0 0] CT
0 0 1 RC
1 LJ
0.667 LW
N
351.237 126.611 M
350.312 125.772 L
349.625 124.729 L
349.219 123.549 L
349.12 122.304 L
349.333 121.074 L
349.845 119.935 L
350.625 118.96 L
351.622 118.209 L
352.775 117.729 L
354.011 117.552 L
355.253 117.687 L
356.421 118.127 L
357.444 118.844 L
358.256 119.792 L
358.806 120.913 L
359.061 122.135 L
359.004 123.383 L
358.638 124.576 L
357.987 125.642 L
357.092 126.512 L
356.008 127.132 L
354.804 127.463 L
353.555 127.484 L
352.341 127.194 L
351.237 126.611 L
S
GR
GS
[0.75 0 0 0.75 256.16606 82.49359] CT
0 0 1 RC
10.0 ML
0.667 LW
N
0 -4 M
0 4 L
-4 0 M
4 0 L
-2.828 -2.828 M
2.828 2.828 L
-2.828 2.828 M
2.828 -2.828 L
S
GR
GS
[0.75 0 0 0.75 0 0] CT
0 0 1 RC
1 LJ
0.667 LW
N
341.071 108.674 M
341.063 108.579 L
341.115 108.659 L
S
GR
GS
[0.75 0 0 0.75 0 0] CT
0 0 1 RC
1 LJ
0.667 LW
N
341.555 109.991 M
341.063 108.579 L
S
GR
GS
[0.75 0 0 0.75 0 0] CT
0 0 1 RC
1 LJ
0.667 LW
N
345.568 112.942 M
346.176 111.851 L
346.493 110.643 L
346.5 109.395 L
346.196 108.184 L
345.601 107.086 L
344.751 106.171 L
343.701 105.496 L
342.515 105.104 L
341.27 105.018 L
340.042 105.246 L
338.909 105.771 L
337.943 106.561 L
337.203 107.567 L
336.737 108.726 L
336.574 109.964 L
336.723 111.203 L
337.176 112.367 L
337.905 113.381 L
338.862 114.182 L
339.989 114.72 L
341.214 114.961 L
342.461 114.889 L
343.65 114.51 L
344.708 113.847 L
345.568 112.942 L
S
GR
GS
[0.75 0 0 0.75 274.9761 73.08964] CT
0 0 1 RC
10.0 ML
0.667 LW
N
0 -4 M
0 4 L
-4 0 M
4 0 L
-2.828 -2.828 M
2.828 2.828 L
-2.828 2.828 M
2.828 -2.828 L
S
GR
GS
[0.75 0 0 0.75 0 0] CT
0 0 1 RC
1 LJ
0.667 LW
N
366.151 96.136 M
366.143 96.04 L
366.195 96.12 L
S
GR
GS
[0.75 0 0 0.75 0 0] CT
0 0 1 RC
1 LJ
0.667 LW
N
366.635 97.453 M
366.143 96.04 L
S
GR
GS
[0.75 0 0 0.75 0 0] CT
0 0 1 RC
1 LJ
0.667 LW
N
363.703 101.48 M
362.794 100.624 L
362.126 99.569 L
361.741 98.382 L
361.664 97.135 L
361.899 95.909 L
362.432 94.78 L
363.228 93.818 L
364.239 93.086 L
365.401 92.627 L
366.64 92.472 L
367.878 92.629 L
369.039 93.09 L
370.048 93.825 L
370.843 94.788 L
371.374 95.918 L
371.606 97.145 L
371.527 98.391 L
371.14 99.578 L
370.47 100.632 L
369.559 101.485 L
368.464 102.086 L
367.254 102.395 L
366.006 102.394 L
364.797 102.082 L
363.703 101.48 L
S
GR
GS
[0.75 0 0 0.75 284.38094 82.49415] CT
0 0 1 RC
10.0 ML
0.667 LW
N
0 -4 M
0 4 L
-4 0 M
4 0 L
-2.828 -2.828 M
2.828 2.828 L
-2.828 2.828 M
2.828 -2.828 L
S
GR
GS
[0.75 0 0 0.75 0 0] CT
0 0 1 RC
1 LJ
0.667 LW
N
378.691 108.675 M
378.682 108.579 L
378.735 108.66 L
S
GR
GS
[0.75 0 0 0.75 0 0] CT
0 0 1 RC
1 LJ
0.667 LW
N
379.175 109.992 M
378.682 108.579 L
S
GR
GS
[0.75 0 0 0.75 0 0] CT
0 0 1 RC
1 LJ
0.667 LW
N
383.281 112.812 M
383.853 111.702 L
384.131 110.485 L
384.098 109.236 L
383.755 108.036 L
383.125 106.958 L
382.246 106.071 L
381.175 105.43 L
379.977 105.076 L
378.729 105.031 L
377.51 105.298 L
376.394 105.859 L
375.454 106.68 L
374.747 107.71 L
374.319 108.882 L
374.195 110.125 L
374.385 111.359 L
374.875 112.507 L
375.636 113.498 L
376.619 114.268 L
377.762 114.769 L
378.994 114.97 L
380.238 114.859 L
381.415 114.441 L
382.451 113.744 L
383.281 112.812 L
S
GR
GS
[0.75 0 0 0.75 254.64395 80.97162] CT
0 0 1 RC
10.0 ML
0.667 LW
N
0 -4 M
0 4 L
-4 0 M
4 0 L
-2.828 -2.828 M
2.828 2.828 L
-2.828 2.828 M
2.828 -2.828 L
S
GR
GS
[0.75 0 0 0.75 0 0] CT
0 0 1 RC
1 LJ
0.667 LW
N
339.042 106.645 M
339.033 106.549 L
339.086 106.63 L
S
GR
GS
[0.75 0 0 0.75 0 0] CT
0 0 1 RC
1 LJ
0.667 LW
N
339.525 107.962 M
339.033 106.549 L
S
GR
GS
[0.75 0 0 0.75 0 0] CT
0 0 1 RC
1 LJ
0.667 LW
N
343.579 110.857 M
344.172 109.758 L
344.472 108.546 L
344.462 107.297 L
344.141 106.09 L
343.531 105.001 L
342.669 104.098 L
341.609 103.438 L
340.418 103.062 L
339.171 102.994 L
337.947 103.238 L
336.822 103.779 L
335.866 104.582 L
335.141 105.599 L
334.691 106.763 L
334.544 108.003 L
334.711 109.241 L
335.18 110.398 L
335.922 111.402 L
336.891 112.19 L
338.025 112.712 L
339.254 112.936 L
340.499 112.847 L
341.683 112.452 L
342.732 111.774 L
343.579 110.857 L
S
GR
GS
[0.75 0 0 0.75 274.93629 73.04967] CT
0 0 1 RC
10.0 ML
0.667 LW
N
0 -4 M
0 4 L
-4 0 M
4 0 L
-2.828 -2.828 M
2.828 2.828 L
-2.828 2.828 M
2.828 -2.828 L
S
GR
GS
[0.75 0 0 0.75 0 0] CT
0 0 1 RC
1 LJ
0.667 LW
N
366.098 96.082 M
366.09 95.987 L
366.142 96.067 L
S
GR
GS
[0.75 0 0 0.75 0 0] CT
0 0 1 RC
1 LJ
0.667 LW
N
366.582 97.4 M
366.09 95.987 L
S
GR
GS
[0.75 0 0 0.75 0 0] CT
0 0 1 RC
1 LJ
0.667 LW
N
370.612 100.326 M
371.214 99.232 L
371.524 98.023 L
371.523 96.774 L
371.213 95.565 L
370.611 94.471 L
369.756 93.561 L
368.701 92.892 L
367.514 92.506 L
366.268 92.428 L
365.041 92.663 L
363.912 93.195 L
362.95 93.991 L
362.216 95.001 L
361.757 96.162 L
361.601 97.401 L
361.757 98.64 L
362.217 99.8 L
362.952 100.81 L
363.914 101.606 L
365.044 102.137 L
366.27 102.371 L
367.516 102.292 L
368.704 101.906 L
369.758 101.237 L
370.612 100.326 L
S
GR
GS
[0.75 0 0 0.75 274.68958 72.80309] CT
0 0 1 RC
10.0 ML
0.667 LW
N
0 -4 M
0 4 L
-4 0 M
4 0 L
-2.828 -2.828 M
2.828 2.828 L
-2.828 2.828 M
2.828 -2.828 L
S
GR
GS
[0.75 0 0 0.75 0 0] CT
0 0 1 RC
1 LJ
0.667 LW
N
365.769 95.754 M
365.761 95.658 L
365.813 95.738 L
S
GR
GS
[0.75 0 0 0.75 0 0] CT
0 0 1 RC
1 LJ
0.667 LW
N
366.253 97.071 M
365.761 95.658 L
S
GR
GS
[0.75 0 0 0.75 0 0] CT
0 0 1 RC
1 LJ
0.667 LW
N
370.301 99.974 M
370.895 98.876 L
371.198 97.665 L
371.191 96.416 L
370.873 95.209 L
370.265 94.118 L
369.404 93.213 L
368.346 92.551 L
367.156 92.172 L
365.909 92.101 L
364.684 92.343 L
363.558 92.882 L
362.601 93.683 L
361.873 94.698 L
361.421 95.862 L
361.272 97.101 L
361.436 98.339 L
361.903 99.497 L
362.643 100.503 L
363.61 101.293 L
364.743 101.817 L
365.971 102.044 L
367.216 101.958 L
368.401 101.565 L
369.451 100.889 L
370.301 99.974 L
S
GR
GS
[0.75 0 0 0.75 254.35796 80.6855] CT
0 0 1 RC
10.0 ML
0.667 LW
N
0 -4 M
0 4 L
-4 0 M
4 0 L
-2.828 -2.828 M
2.828 2.828 L
-2.828 2.828 M
2.828 -2.828 L
S
GR
GS
[0.75 0 0 0.75 0 0] CT
0 0 1 RC
1 LJ
0.667 LW
N
338.66 106.264 M
338.652 106.168 L
338.704 106.248 L
S
GR
GS
[0.75 0 0 0.75 0 0] CT
0 0 1 RC
1 LJ
0.667 LW
N
339.144 107.581 M
338.652 106.168 L
S
GR
GS
[0.75 0 0 0.75 0 0] CT
0 0 1 RC
1 LJ
0.667 LW
N
343.222 110.441 M
343.805 109.337 L
344.096 108.122 L
344.075 106.874 L
343.744 105.67 L
343.124 104.586 L
342.255 103.69 L
341.189 103.039 L
339.996 102.673 L
338.748 102.615 L
337.526 102.87 L
336.405 103.42 L
335.456 104.232 L
334.74 105.254 L
334.299 106.423 L
334.164 107.664 L
334.341 108.9 L
334.82 110.053 L
335.57 111.051 L
336.545 111.83 L
337.684 112.343 L
338.914 112.557 L
340.159 112.457 L
341.34 112.052 L
342.383 111.365 L
343.222 110.441 L
S
GR
GS
[0.75 0 0 0.75 273.16752 71.28094] CT
0 0 1 RC
10.0 ML
0.667 LW
N
0 -4 M
0 4 L
-4 0 M
4 0 L
-2.828 -2.828 M
2.828 2.828 L
-2.828 2.828 M
2.828 -2.828 L
S
GR
GS
[0.75 0 0 0.75 0 0] CT
0 0 1 RC
1 LJ
0.667 LW
N
363.74 93.724 M
363.731 93.628 L
363.784 93.709 L
S
GR
GS
[0.75 0 0 0.75 0 0] CT
0 0 1 RC
1 LJ
0.667 LW
N
364.223 95.041 M
363.731 93.628 L
S
GR
GS
[0.75 0 0 0.75 0 0] CT
0 0 1 RC
1 LJ
0.667 LW
N
361.403 99.147 M
360.471 98.317 L
359.774 97.281 L
359.357 96.104 L
359.246 94.86 L
359.447 93.628 L
359.948 92.484 L
360.719 91.502 L
361.709 90.741 L
362.857 90.251 L
364.092 90.062 L
365.334 90.186 L
366.507 90.614 L
367.536 91.321 L
368.357 92.262 L
368.918 93.377 L
369.185 94.597 L
369.139 95.845 L
368.785 97.042 L
368.144 98.114 L
367.257 98.992 L
366.179 99.622 L
364.978 99.965 L
363.73 99.998 L
362.513 99.72 L
361.403 99.147 L
S
GR
GS
[0.75 0 0 0.75 274.97594 73.08932] CT
0 0 1 RC
10.0 ML
0.667 LW
N
0 -4 M
0 4 L
-4 0 M
4 0 L
-2.828 -2.828 M
2.828 2.828 L
-2.828 2.828 M
2.828 -2.828 L
S
GR
GS
[0.75 0 0 0.75 0 0] CT
0 0 1 RC
1 LJ
0.667 LW
N
366.151 96.135 M
366.142 96.04 L
366.195 96.12 L
S
GR
GS
[0.75 0 0 0.75 0 0] CT
0 0 1 RC
1 LJ
0.667 LW
N
366.635 97.452 M
366.142 96.04 L
S
GR
GS
[0.75 0 0 0.75 0 0] CT
0 0 1 RC
1 LJ
0.667 LW
N
370.663 100.382 M
371.265 99.289 L
371.576 98.079 L
371.577 96.831 L
371.267 95.621 L
370.666 94.527 L
369.812 93.616 L
368.758 92.947 L
367.571 92.56 L
366.324 92.481 L
365.098 92.714 L
363.968 93.245 L
363.005 94.041 L
362.271 95.05 L
361.811 96.211 L
361.653 97.45 L
361.809 98.689 L
362.268 99.85 L
363.002 100.86 L
363.963 101.657 L
365.093 102.189 L
366.319 102.424 L
367.565 102.346 L
368.753 101.961 L
369.808 101.292 L
370.663 100.382 L
S
GR
GS
[0.75 0 0 0.75 254.35803 80.68547] CT
0 0 1 RC
10.0 ML
0.667 LW
N
0 -4 M
0 4 L
-4 0 M
4 0 L
-2.828 -2.828 M
2.828 2.828 L
-2.828 2.828 M
2.828 -2.828 L
S
GR
GS
[0.75 0 0 0.75 0 0] CT
0 0 1 RC
1 LJ
0.667 LW
N
338.66 106.264 M
338.652 106.168 L
338.704 106.248 L
S
GR
GS
[0.75 0 0 0.75 0 0] CT
0 0 1 RC
1 LJ
0.667 LW
N
339.144 107.581 M
338.652 106.168 L
S
GR
GS
[0.75 0 0 0.75 0 0] CT
0 0 1 RC
1 LJ
0.667 LW
N
343.218 110.447 M
343.803 109.344 L
344.095 108.13 L
344.076 106.881 L
343.747 105.677 L
343.129 104.592 L
342.26 103.695 L
341.196 103.042 L
340.003 102.674 L
338.756 102.615 L
337.533 102.867 L
336.411 103.416 L
335.461 104.227 L
334.743 105.248 L
334.301 106.416 L
334.163 107.657 L
334.339 108.893 L
334.816 110.047 L
335.565 111.045 L
336.539 111.827 L
337.677 112.341 L
338.907 112.556 L
340.152 112.459 L
341.333 112.055 L
342.377 111.37 L
343.218 110.447 L
S
GR
GS
[0.75 0 0 0.75 265.58714 91.89128] CT
0 0 1 RC
10.0 ML
0.667 LW
N
0 -4 M
0 4 L
-4 0 M
4 0 L
-2.828 -2.828 M
2.828 2.828 L
-2.828 2.828 M
2.828 -2.828 L
S
GR
GS
[0.75 0 0 0.75 0 0] CT
0 0 1 RC
1 LJ
0.667 LW
N
353.633 121.205 M
353.624 121.109 L
353.677 121.189 L
S
GR
GS
[0.75 0 0 0.75 0 0] CT
0 0 1 RC
1 LJ
0.667 LW
N
354.116 122.522 M
353.624 121.109 L
S
GR
GS
[0.75 0 0 0.75 0 0] CT
0 0 1 RC
1 LJ
0.667 LW
N
358.195 125.381 M
358.778 124.277 L
359.068 123.062 L
359.047 121.814 L
358.716 120.61 L
358.096 119.526 L
357.226 118.631 L
356.161 117.979 L
354.967 117.614 L
353.719 117.556 L
352.497 117.811 L
351.376 118.362 L
350.428 119.174 L
349.711 120.196 L
349.271 121.365 L
349.136 122.606 L
349.313 123.842 L
349.792 124.995 L
350.543 125.992 L
351.519 126.772 L
352.657 127.284 L
353.888 127.498 L
355.132 127.398 L
356.313 126.992 L
357.356 126.306 L
358.195 125.381 L
S
GR
GS
[0.75 0 0 0.75 256.18195 82.48626] CT
0 0 1 RC
10.0 ML
0.667 LW
N
0 -4 M
0 4 L
-4 0 M
4 0 L
-2.828 -2.828 M
2.828 2.828 L
-2.828 2.828 M
2.828 -2.828 L
S
GR
GS
[0.75 0 0 0.75 0 0] CT
0 0 1 RC
1 LJ
0.667 LW
N
341.092 108.665 M
341.084 108.569 L
341.136 108.649 L
S
GR
GS
[0.75 0 0 0.75 0 0] CT
0 0 1 RC
1 LJ
0.667 LW
N
341.576 109.982 M
341.084 108.569 L
S
GR
GS
[0.75 0 0 0.75 0 0] CT
0 0 1 RC
1 LJ
0.667 LW
N
338.535 113.927 M
337.65 113.047 L
337.011 111.974 L
336.659 110.776 L
336.615 109.529 L
336.884 108.309 L
337.447 107.195 L
338.27 106.256 L
339.301 105.551 L
340.474 105.124 L
341.717 105.003 L
342.951 105.194 L
344.098 105.686 L
345.087 106.448 L
345.855 107.433 L
346.355 108.577 L
346.554 109.81 L
346.44 111.053 L
346.021 112.229 L
345.323 113.264 L
344.389 114.093 L
343.278 114.663 L
342.06 114.939 L
340.812 114.904 L
339.612 114.559 L
338.535 113.927 L
S
GR
GS
[0.75 0 0 0.75 274.99063 73.08129] CT
0 0 1 RC
10.0 ML
0.667 LW
N
0 -4 M
0 4 L
-4 0 M
4 0 L
-2.828 -2.828 M
2.828 2.828 L
-2.828 2.828 M
2.828 -2.828 L
S
GR
GS
[0.75 0 0 0.75 0 0] CT
0 0 1 RC
1 LJ
0.667 LW
N
366.171 96.125 M
366.162 96.029 L
366.215 96.109 L
S
GR
GS
[0.75 0 0 0.75 0 0] CT
0 0 1 RC
1 LJ
0.667 LW
N
366.654 97.442 M
366.162 96.029 L
S
GR
GS
[0.75 0 0 0.75 0 0] CT
0 0 1 RC
1 LJ
0.667 LW
N
370.711 100.331 M
371.303 99.232 L
371.602 98.019 L
371.59 96.771 L
371.268 95.564 L
370.656 94.476 L
369.793 93.574 L
368.732 92.915 L
367.541 92.54 L
366.295 92.474 L
365.07 92.719 L
363.946 93.261 L
362.991 94.066 L
362.267 95.083 L
361.818 96.249 L
361.673 97.489 L
361.841 98.726 L
362.312 99.882 L
363.055 100.886 L
364.025 101.672 L
365.16 102.193 L
366.388 102.416 L
367.634 102.326 L
368.817 101.929 L
369.865 101.25 L
370.711 100.331 L
S
GR
GS
[0.75 0 0 0.75 0 0] CT
1 GC
N
/f514426320{470 285 M
470 42 L
192 42 L
192 285 L
cp}def
f514426320
f
GR
GS
[0.75 0 0 0.75 179.25 55.49999] CT
/Helvetica-Bold 48 F
GS
[1 0 0 1 0 0] CT
0 19 moveto 
1 -1 scale
(LandMark) t 
GR
GR
GS
[0.75 0 0 0.75 162 55.5] CT
1 0 0 RC
N
f-1996900118
f
GR
GS
[0.75 0 0 0.75 162 55.5] CT
0 0 1 RC
10.0 ML
0.667 LW
N
0 -26.66 M
-23.088 13.33 L
23.088 13.33 L
cp
S
GR
GS
[0.75 0 0 0.75 179.25 126] CT
/Helvetica-Bold 48 F
GS
[1 0 0 1 0 0] CT
0 0 moveto 
1 -1 scale
(b) t 
GR
GR
GS
[0.75 0 0 0.75 201.75 108] CT
/Helvetica-Bold 38.4 F
GS
[1 0 0 1 0 0] CT
0 0 moveto 
1 -1 scale
(-) t 
GR
GR
GS
[0.75 0 0 0.75 211.5 126] CT
/Helvetica-Bold 48 F
GS
[1 0 0 1 0 0] CT
0 0 moveto 
1 -1 scale
([X) t 
GR
GR
GS
[0.75 0 0 0.75 247.5 144] CT
/Helvetica-Bold 38.4 F
GS
[1 0 0 1 0 0] CT
0 0 moveto 
1 -1 scale
(k) t 
GR
GR
GS
[0.75 0 0 0.75 264 126] CT
/Helvetica-Bold 48 F
GS
[1 0 0 1 0 0] CT
0 0 moveto 
1 -1 scale
(]) t 
GR
GR
GS
[0.75 0 0 0.75 0 0] CT
0 1 1 RC
1 LJ
0.667 LW
N
196 152.5 M
236 152.5 L
S
GR
GS
[0.75 0 0 0.75 0 0] CT
0 1 1 RC
1 LJ
0.667 LW
N
224 157.3 M
236 152.5 L
224 147.7 L
S
GR
GS
[0.75 0 0 0.75 179.25 187.5] CT
/Helvetica-Bold 48 F
GS
[1 0 0 1 0 0] CT
0 0 moveto 
1 -1 scale
(b[X) t 
GR
GR
GS
[0.75 0 0 0.75 237.75 205.5] CT
/Helvetica-Bold 38.4 F
GS
[1 0 0 1 0 0] CT
0 0 moveto 
1 -1 scale
(k) t 
GR
GR
GS
[0.75 0 0 0.75 254.25 187.5] CT
/Helvetica-Bold 48 F
GS
[1 0 0 1 0 0] CT
0 0 moveto 
1 -1 scale
(]) t 
GR
GR
GS
[0.75 0 0 0.75 0 0] CT
0 0 1 RC
1 LJ
0.667 LW
N
196 242 M
236 242 L
S
GR
GS
[0.75 0 0 0.75 0 0] CT
0.149 GC
10.0 ML
0.667 LW
N
192 285 M
192 42 L
470 42 L
470 285 L
cp
S
GR
%%Trailer
%%Pages: 1
%%EOF
