%!PS-Adobe-3.0 EPSF-3.0
%%Creator: (MATLAB, The Mathworks, Inc. Version 9.10.0.1649659 \(R2021a\) Update 1. Operating System: Windows 10)
%%Title: (C:/Users/ohads/ANPL/papers/research/2022 ICRA/Figures/TestCase_2/fig_files/Robots_estimation_k_6.eps)
%%CreationDate: 2021-08-04T10:58:18
%%Pages: (atend)
%%BoundingBox:    36     9   381   296
%%LanguageLevel: 3
%%EndComments
%%BeginProlog
%%BeginResource: procset (Apache XML Graphics Std ProcSet) 1.2 0
%%Version: 1.2 0
%%Copyright: (Copyright 2001-2003,2010 The Apache Software Foundation. License terms: http://www.apache.org/licenses/LICENSE-2.0)
/bd{bind def}bind def
/ld{load def}bd
/GR/grestore ld
/GS/gsave ld
/RM/rmoveto ld
/C/curveto ld
/t/show ld
/L/lineto ld
/ML/setmiterlimit ld
/CT/concat ld
/f/fill ld
/N/newpath ld
/S/stroke ld
/CC/setcmykcolor ld
/A/ashow ld
/cp/closepath ld
/RC/setrgbcolor ld
/LJ/setlinejoin ld
/GC/setgray ld
/LW/setlinewidth ld
/M/moveto ld
/re {4 2 roll M
1 index 0 rlineto
0 exch rlineto
neg 0 rlineto
cp } bd
/_ctm matrix def
/_tm matrix def
/BT { _ctm currentmatrix pop matrix _tm copy pop 0 0 moveto } bd
/ET { _ctm setmatrix } bd
/iTm { _ctm setmatrix _tm concat } bd
/Tm { _tm astore pop iTm 0 0 moveto } bd
/ux 0.0 def
/uy 0.0 def
/F {
  /Tp exch def
  /Tf exch def
  Tf findfont Tp scalefont setfont
  /cf Tf def  /cs Tp def
} bd
/ULS {currentpoint /uy exch def /ux exch def} bd
/ULE {
  /Tcx currentpoint pop def
  gsave
  newpath
  cf findfont cs scalefont dup
  /FontMatrix get 0 get /Ts exch def /FontInfo get dup
  /UnderlinePosition get Ts mul /To exch def
  /UnderlineThickness get Ts mul /Tt exch def
  ux uy To add moveto  Tcx uy To add lineto
  Tt setlinewidth stroke
  grestore
} bd
/OLE {
  /Tcx currentpoint pop def
  gsave
  newpath
  cf findfont cs scalefont dup
  /FontMatrix get 0 get /Ts exch def /FontInfo get dup
  /UnderlinePosition get Ts mul /To exch def
  /UnderlineThickness get Ts mul /Tt exch def
  ux uy To add cs add moveto Tcx uy To add cs add lineto
  Tt setlinewidth stroke
  grestore
} bd
/SOE {
  /Tcx currentpoint pop def
  gsave
  newpath
  cf findfont cs scalefont dup
  /FontMatrix get 0 get /Ts exch def /FontInfo get dup
  /UnderlinePosition get Ts mul /To exch def
  /UnderlineThickness get Ts mul /Tt exch def
  ux uy To add cs 10 mul 26 idiv add moveto Tcx uy To add cs 10 mul 26 idiv add lineto
  Tt setlinewidth stroke
  grestore
} bd
/QT {
/Y22 exch store
/X22 exch store
/Y21 exch store
/X21 exch store
currentpoint
/Y21 load 2 mul add 3 div exch
/X21 load 2 mul add 3 div exch
/X21 load 2 mul /X22 load add 3 div
/Y21 load 2 mul /Y22 load add 3 div
/X22 load /Y22 load curveto
} bd
/SSPD {
dup length /d exch dict def
{
/v exch def
/k exch def
currentpagedevice k known {
/cpdv currentpagedevice k get def
v cpdv ne {
/upd false def
/nullv v type /nulltype eq def
/nullcpdv cpdv type /nulltype eq def
nullv nullcpdv or
{
/upd true def
} {
/sametype v type cpdv type eq def
sametype {
v type /arraytype eq {
/vlen v length def
/cpdvlen cpdv length def
vlen cpdvlen eq {
0 1 vlen 1 sub {
/i exch def
/obj v i get def
/cpdobj cpdv i get def
obj cpdobj ne {
/upd true def
exit
} if
} for
} {
/upd true def
} ifelse
} {
v type /dicttype eq {
v {
/dv exch def
/dk exch def
/cpddv cpdv dk get def
dv cpddv ne {
/upd true def
exit
} if
} forall
} {
/upd true def
} ifelse
} ifelse
} if
} ifelse
upd true eq {
d k v put
} if
} if
} if
} forall
d length 0 gt {
d setpagedevice
} if
} bd
/RE { % /NewFontName [NewEncodingArray] /FontName RE -
  findfont dup length dict begin
  {
    1 index /FID ne
    {def} {pop pop} ifelse
  } forall
  /Encoding exch def
  /FontName 1 index def
  currentdict definefont pop
  end
} bind def
%%EndResource
%%BeginResource: procset (Apache XML Graphics EPS ProcSet) 1.0 0
%%Version: 1.0 0
%%Copyright: (Copyright 2002-2003 The Apache Software Foundation. License terms: http://www.apache.org/licenses/LICENSE-2.0)
/BeginEPSF { %def
/b4_Inc_state save def         % Save state for cleanup
/dict_count countdictstack def % Count objects on dict stack
/op_count count 1 sub def      % Count objects on operand stack
userdict begin                 % Push userdict on dict stack
/showpage { } def              % Redefine showpage, { } = null proc
0 setgray 0 setlinecap         % Prepare graphics state
1 setlinewidth 0 setlinejoin
10 setmiterlimit [ ] 0 setdash newpath
/languagelevel where           % If level not equal to 1 then
{pop languagelevel             % set strokeadjust and
1 ne                           % overprint to their defaults.
{false setstrokeadjust false setoverprint
} if
} if
} bd
/EndEPSF { %def
count op_count sub {pop} repeat            % Clean up stacks
countdictstack dict_count sub {end} repeat
b4_Inc_state restore
} bd
%%EndResource
%FOPBeginFontDict
%%IncludeResource: font Courier-Oblique
%%IncludeResource: font Courier-BoldOblique
%%IncludeResource: font Courier-Bold
%%IncludeResource: font ZapfDingbats
%%IncludeResource: font Symbol
%%IncludeResource: font Helvetica
%%IncludeResource: font Helvetica-Oblique
%%IncludeResource: font Helvetica-Bold
%%IncludeResource: font Helvetica-BoldOblique
%%IncludeResource: font Times-Roman
%%IncludeResource: font Times-Italic
%%IncludeResource: font Times-Bold
%%IncludeResource: font Times-BoldItalic
%%IncludeResource: font Courier
%FOPEndFontDict
%%BeginResource: encoding WinAnsiEncoding
/WinAnsiEncoding [
/.notdef /.notdef /.notdef /.notdef /.notdef
/.notdef /.notdef /.notdef /.notdef /.notdef
/.notdef /.notdef /.notdef /.notdef /.notdef
/.notdef /.notdef /.notdef /.notdef /.notdef
/.notdef /.notdef /.notdef /.notdef /.notdef
/.notdef /.notdef /.notdef /.notdef /.notdef
/.notdef /.notdef /space /exclam /quotedbl
/numbersign /dollar /percent /ampersand /quotesingle
/parenleft /parenright /asterisk /plus /comma
/hyphen /period /slash /zero /one
/two /three /four /five /six
/seven /eight /nine /colon /semicolon
/less /equal /greater /question /at
/A /B /C /D /E
/F /G /H /I /J
/K /L /M /N /O
/P /Q /R /S /T
/U /V /W /X /Y
/Z /bracketleft /backslash /bracketright /asciicircum
/underscore /quoteleft /a /b /c
/d /e /f /g /h
/i /j /k /l /m
/n /o /p /q /r
/s /t /u /v /w
/x /y /z /braceleft /bar
/braceright /asciitilde /bullet /Euro /bullet
/quotesinglbase /florin /quotedblbase /ellipsis /dagger
/daggerdbl /circumflex /perthousand /Scaron /guilsinglleft
/OE /bullet /Zcaron /bullet /bullet
/quoteleft /quoteright /quotedblleft /quotedblright /bullet
/endash /emdash /asciitilde /trademark /scaron
/guilsinglright /oe /bullet /zcaron /Ydieresis
/space /exclamdown /cent /sterling /currency
/yen /brokenbar /section /dieresis /copyright
/ordfeminine /guillemotleft /logicalnot /sfthyphen /registered
/macron /degree /plusminus /twosuperior /threesuperior
/acute /mu /paragraph /middot /cedilla
/onesuperior /ordmasculine /guillemotright /onequarter /onehalf
/threequarters /questiondown /Agrave /Aacute /Acircumflex
/Atilde /Adieresis /Aring /AE /Ccedilla
/Egrave /Eacute /Ecircumflex /Edieresis /Igrave
/Iacute /Icircumflex /Idieresis /Eth /Ntilde
/Ograve /Oacute /Ocircumflex /Otilde /Odieresis
/multiply /Oslash /Ugrave /Uacute /Ucircumflex
/Udieresis /Yacute /Thorn /germandbls /agrave
/aacute /acircumflex /atilde /adieresis /aring
/ae /ccedilla /egrave /eacute /ecircumflex
/edieresis /igrave /iacute /icircumflex /idieresis
/eth /ntilde /ograve /oacute /ocircumflex
/otilde /odieresis /divide /oslash /ugrave
/uacute /ucircumflex /udieresis /yacute /thorn
/ydieresis
] def
%%EndResource
%FOPBeginFontReencode
/Courier-Oblique findfont
dup length dict begin
  {1 index /FID ne {def} {pop pop} ifelse} forall
  /Encoding WinAnsiEncoding def
  currentdict
end
/Courier-Oblique exch definefont pop
/Courier-BoldOblique findfont
dup length dict begin
  {1 index /FID ne {def} {pop pop} ifelse} forall
  /Encoding WinAnsiEncoding def
  currentdict
end
/Courier-BoldOblique exch definefont pop
/Courier-Bold findfont
dup length dict begin
  {1 index /FID ne {def} {pop pop} ifelse} forall
  /Encoding WinAnsiEncoding def
  currentdict
end
/Courier-Bold exch definefont pop
/Helvetica findfont
dup length dict begin
  {1 index /FID ne {def} {pop pop} ifelse} forall
  /Encoding WinAnsiEncoding def
  currentdict
end
/Helvetica exch definefont pop
/Helvetica-Oblique findfont
dup length dict begin
  {1 index /FID ne {def} {pop pop} ifelse} forall
  /Encoding WinAnsiEncoding def
  currentdict
end
/Helvetica-Oblique exch definefont pop
/Helvetica-Bold findfont
dup length dict begin
  {1 index /FID ne {def} {pop pop} ifelse} forall
  /Encoding WinAnsiEncoding def
  currentdict
end
/Helvetica-Bold exch definefont pop
/Helvetica-BoldOblique findfont
dup length dict begin
  {1 index /FID ne {def} {pop pop} ifelse} forall
  /Encoding WinAnsiEncoding def
  currentdict
end
/Helvetica-BoldOblique exch definefont pop
/Times-Roman findfont
dup length dict begin
  {1 index /FID ne {def} {pop pop} ifelse} forall
  /Encoding WinAnsiEncoding def
  currentdict
end
/Times-Roman exch definefont pop
/Times-Italic findfont
dup length dict begin
  {1 index /FID ne {def} {pop pop} ifelse} forall
  /Encoding WinAnsiEncoding def
  currentdict
end
/Times-Italic exch definefont pop
/Times-Bold findfont
dup length dict begin
  {1 index /FID ne {def} {pop pop} ifelse} forall
  /Encoding WinAnsiEncoding def
  currentdict
end
/Times-Bold exch definefont pop
/Times-BoldItalic findfont
dup length dict begin
  {1 index /FID ne {def} {pop pop} ifelse} forall
  /Encoding WinAnsiEncoding def
  currentdict
end
/Times-BoldItalic exch definefont pop
/Courier findfont
dup length dict begin
  {1 index /FID ne {def} {pop pop} ifelse} forall
  /Encoding WinAnsiEncoding def
  currentdict
end
/Courier exch definefont pop
%FOPEndFontReencode
%%EndProlog
%%Page: 1 1
%%PageBoundingBox: 0 0 428 315
%%BeginPageSetup
[1 0 0 -1 0 315] CT
%%EndPageSetup
GS
[0.75 0 0 0.75 0 0] CT
1 GC
N
0 0 570 420 re
f
GR
GS
[0.75 0 0 0.75 0 0] CT
1 GC
N
0 0 570 420 re
f
GR
GS
[0.75 0 0 0.75 0 0] CT
1 GC
N
181.389 267 M
480.611 267 L
480.611 31 L
181.389 31 L
cp
f
GR
GS
[0.75 0 0 0.75 0 0] CT
0.149 GC
2 setlinecap
1 LJ
0.667 LW
N
181.389 267 M
480.611 267 L
S
GR
GS
[0.75 0 0 0.75 0 0] CT
0.149 GC
2 setlinecap
1 LJ
0.667 LW
N
181.389 267 M
181.389 264.008 L
S
GR
GS
[0.75 0 0 0.75 0 0] CT
0.149 GC
2 setlinecap
1 LJ
0.667 LW
N
256.194 267 M
256.194 264.008 L
S
GR
GS
[0.75 0 0 0.75 0 0] CT
0.149 GC
2 setlinecap
1 LJ
0.667 LW
N
331 267 M
331 264.008 L
S
GR
GS
[0.75 0 0 0.75 0 0] CT
0.149 GC
2 setlinecap
1 LJ
0.667 LW
N
405.806 267 M
405.806 264.008 L
S
GR
GS
[0.75 0 0 0.75 0 0] CT
0.149 GC
2 setlinecap
1 LJ
0.667 LW
N
480.611 267 M
480.611 264.008 L
S
GR
GS
[0.75 0 0 0.75 136.04141 210.25001] CT
0.149 GC
/Helvetica 53.333 F
GS
[1 0 0 1 0 0] CT
-24 54 moveto 
1 -1 scale
(-5) t 
GR
GR
GS
[0.75 0 0 0.75 192.14571 210.25001] CT
0.149 GC
/Helvetica 53.333 F
GS
[1 0 0 1 0 0] CT
-15 54 moveto 
1 -1 scale
(0) t 
GR
GR
GS
[0.75 0 0 0.75 248.25 210.25001] CT
0.149 GC
/Helvetica 53.333 F
GS
[1 0 0 1 0 0] CT
-15 54 moveto 
1 -1 scale
(5) t 
GR
GR
GS
[0.75 0 0 0.75 304.35429 210.25001] CT
0.149 GC
/Helvetica 53.333 F
GS
[1 0 0 1 0 0] CT
-30 54 moveto 
1 -1 scale
(10) t 
GR
GR
GS
[0.75 0 0 0.75 360.45859 210.25001] CT
0.149 GC
/Helvetica 53.333 F
GS
[1 0 0 1 0 0] CT
-30 54 moveto 
1 -1 scale
(15) t 
GR
GR
GS
[0.75 0 0 0.75 248.25011 260.74999] CT
0.149 GC
/Helvetica 58.667 F
GS
[1 0 0 1 0 0] CT
-34.5 59 moveto 
1 -1 scale
(Xs) t 
GR
GR
GS
[0.75 0 0 0.75 0 0] CT
0.149 GC
2 setlinecap
1 LJ
0.667 LW
N
181.389 267 M
181.389 31 L
S
GR
GS
[0.75 0 0 0.75 0 0] CT
0.149 GC
2 setlinecap
1 LJ
0.667 LW
N
181.389 192.648 M
184.381 192.648 L
S
GR
GS
[0.75 0 0 0.75 0 0] CT
0.149 GC
2 setlinecap
1 LJ
0.667 LW
N
181.389 117.843 M
184.381 117.843 L
S
GR
GS
[0.75 0 0 0.75 0 0] CT
0.149 GC
2 setlinecap
1 LJ
0.667 LW
N
181.389 43.037 M
184.381 43.037 L
S
GR
GS
[0.75 0 0 0.75 126.04142 144.48635] CT
0.149 GC
/Helvetica 53.333 F
GS
[1 0 0 1 0 0] CT
-30 21 moveto 
1 -1 scale
(5) t 
GR
GR
GS
[0.75 0 0 0.75 126.04142 88.38206] CT
0.149 GC
/Helvetica 53.333 F
GS
[1 0 0 1 0 0] CT
-60 21 moveto 
1 -1 scale
(10) t 
GR
GR
GS
[0.75 0 0 0.75 126.04142 32.27776] CT
0.149 GC
/Helvetica 53.333 F
GS
[1 0 0 1 0 0] CT
-60 21 moveto 
1 -1 scale
(15) t 
GR
GR
GS
[0 -0.75 0.75 0 78.04142 111.74991] CT
0.149 GC
/Helvetica 58.667 F
GS
[1 0 0 1 0 0] CT
-34.5 -13 moveto 
1 -1 scale
(Ys) t 
GR
GR
GS
[0.75 0 0 0.75 237.02914 122.04464] CT
1 0 0 RC
N
0 -26.66 M
-23.088 13.33 L
23.088 13.33 L
cp
f
GR
GS
[0.75 0 0 0.75 237.02914 122.04464] CT
0 0 1 RC
10.0 ML
0.667 LW
N
0 -26.66 M
-23.088 13.33 L
23.088 13.33 L
cp
S
GR
GS
[0.75 0 0 0.75 225.80827 110.82377] CT
1 0 0 RC
N
/f-1996900118{0 -26.66 M
-23.088 13.33 L
23.088 13.33 L
cp}def
f-1996900118
f
GR
GS
[0.75 0 0 0.75 225.80827 110.82377] CT
0 0 1 RC
10.0 ML
0.667 LW
N
0 -26.66 M
-23.088 13.33 L
23.088 13.33 L
cp
S
GR
GS
[0.75 0 0 0.75 270.69173 122.04464] CT
1 0 0 RC
N
f-1996900118
f
GR
GS
[0.75 0 0 0.75 270.69173 122.04464] CT
0 0 1 RC
10.0 ML
0.667 LW
N
0 -26.66 M
-23.088 13.33 L
23.088 13.33 L
cp
S
GR
GS
[0.75 0 0 0.75 248.25 166.92807] CT
1 0 0 RC
N
f-1996900118
f
GR
GS
[0.75 0 0 0.75 248.25 166.92807] CT
0 0 1 RC
10.0 ML
0.667 LW
N
0 -26.66 M
-23.088 13.33 L
23.088 13.33 L
cp
S
GR
GS
[0.75 0 0 0.75 248.25 99.60292] CT
1 0 0 RC
N
f-1996900118
f
GR
GS
[0.75 0 0 0.75 248.25 99.60292] CT
0 0 1 RC
10.0 ML
0.667 LW
N
0 -26.66 M
-23.088 13.33 L
23.088 13.33 L
cp
S
GR
GS
[0.75 0 0 0.75 237.02914 144.48635] CT
1 0 0 RC
N
f-1996900118
f
GR
GS
[0.75 0 0 0.75 237.02914 144.48635] CT
0 0 1 RC
10.0 ML
0.667 LW
N
0 -26.66 M
-23.088 13.33 L
23.088 13.33 L
cp
S
GR
GS
[0.75 0 0 0.75 281.91257 166.92807] CT
1 0 0 RC
N
f-1996900118
f
GR
GS
[0.75 0 0 0.75 281.91257 166.92807] CT
0 0 1 RC
10.0 ML
0.667 LW
N
0 -26.66 M
-23.088 13.33 L
23.088 13.33 L
cp
S
GR
GS
[0.75 0 0 0.75 259.47086 110.82377] CT
1 0 0 RC
N
f-1996900118
f
GR
GS
[0.75 0 0 0.75 259.47086 110.82377] CT
0 0 1 RC
10.0 ML
0.667 LW
N
0 -26.66 M
-23.088 13.33 L
23.088 13.33 L
cp
S
GR
GS
[0.75 0 0 0.75 287.15668 85.00175] CT
1 0 0 RC
10.0 ML
0.667 LW
N
0 -5 M
0 5 L
-5 0 M
5 0 L
S
GR
GS
[0.75 0 0 0.75 287.29118 88.24077] CT
0 1 1 RC
10.0 ML
0.667 LW
N
0 -4 M
0 4 L
-4 0 M
4 0 L
-2.828 -2.828 M
2.828 2.828 L
-2.828 2.828 M
2.828 -2.828 L
S
GR
GS
[0.75 0 0 0.75 0 0] CT
0 1 1 RC
1 LJ
0.667 LW
N
381.939 116.776 M
381.892 116.713 L
381.964 116.747 L
S
GR
GS
[0.75 0 0 0.75 0 0] CT
0 1 1 RC
1 LJ
0.667 LW
N
383.055 117.654 M
381.892 116.713 L
S
GR
GS
[0.75 0 0 0.75 0 0] CT
0 1 1 RC
1 LJ
0.667 LW
N
372.692 124.43 M
371.333 121.64 L
370.71 118.6 L
370.863 115.5 L
371.781 112.536 L
373.408 109.893 L
375.642 107.738 L
378.341 106.206 L
381.336 105.393 L
384.439 105.351 L
387.455 106.082 L
390.195 107.54 L
392.486 109.633 L
394.185 112.231 L
395.184 115.169 L
395.421 118.263 L
394.881 121.32 L
393.598 124.146 L
391.653 126.564 L
389.167 128.422 L
386.297 129.604 L
383.224 130.034 L
380.139 129.687 L
377.239 128.584 L
374.703 126.794 L
372.692 124.43 L
S
GR
GS
[0.75 0 0 0.75 306.10137 78.83702] CT
0 1 1 RC
10.0 ML
0.667 LW
N
0 -4 M
0 4 L
-4 0 M
4 0 L
-2.828 -2.828 M
2.828 2.828 L
-2.828 2.828 M
2.828 -2.828 L
S
GR
GS
[0.75 0 0 0.75 0 0] CT
0 1 1 RC
1 LJ
0.667 LW
N
407.02 104.238 M
406.972 104.175 L
407.044 104.208 L
S
GR
GS
[0.75 0 0 0.75 0 0] CT
0 1 1 RC
1 LJ
0.667 LW
N
408.135 105.116 M
406.972 104.175 L
S
GR
GS
[0.75 0 0 0.75 0 0] CT
0 1 1 RC
1 LJ
0.667 LW
N
397.847 112.005 M
396.457 109.23 L
395.801 106.196 L
395.92 103.095 L
396.806 100.121 L
398.405 97.46 L
400.614 95.281 L
403.296 93.72 L
406.282 92.874 L
409.385 92.798 L
412.409 93.496 L
415.165 94.924 L
417.478 96.992 L
419.205 99.571 L
420.236 102.498 L
420.507 105.59 L
420.001 108.652 L
418.749 111.492 L
416.83 113.931 L
414.364 115.816 L
411.508 117.029 L
408.439 117.493 L
405.351 117.18 L
402.439 116.109 L
399.884 114.347 L
397.847 112.005 L
S
GR
GS
[0.75 0 0 0.75 287.29145 91.28534] CT
0 1 1 RC
10.0 ML
0.667 LW
N
0 -4 M
0 4 L
-4 0 M
4 0 L
-2.828 -2.828 M
2.828 2.828 L
-2.828 2.828 M
2.828 -2.828 L
S
GR
GS
[0.75 0 0 0.75 0 0] CT
0 1 1 RC
1 LJ
0.667 LW
N
381.94 120.836 M
381.892 120.773 L
381.964 120.806 L
S
GR
GS
[0.75 0 0 0.75 0 0] CT
0 1 1 RC
1 LJ
0.667 LW
N
383.055 121.714 M
381.892 120.773 L
S
GR
GS
[0.75 0 0 0.75 0 0] CT
0 1 1 RC
1 LJ
0.667 LW
N
372.616 128.371 M
371.289 125.566 L
370.7 122.519 L
370.888 119.421 L
371.841 116.467 L
373.498 113.843 L
375.755 111.714 L
378.472 110.212 L
381.476 109.434 L
384.579 109.427 L
387.587 110.192 L
390.31 111.681 L
392.577 113.8 L
394.246 116.417 L
395.212 119.366 L
395.414 122.463 L
394.839 125.513 L
393.524 128.324 L
391.551 130.72 L
389.044 132.55 L
386.161 133.699 L
383.083 134.095 L
380.003 133.713 L
377.115 132.577 L
374.6 130.758 L
372.616 128.371 L
S
GR
GS
[0.75 0 0 0.75 287.29182 110.09552] CT
0 1 1 RC
10.0 ML
0.667 LW
N
0 -4 M
0 4 L
-4 0 M
4 0 L
-2.828 -2.828 M
2.828 2.828 L
-2.828 2.828 M
2.828 -2.828 L
S
GR
GS
[0.75 0 0 0.75 0 0] CT
0 1 1 RC
1 LJ
0.667 LW
N
381.94 145.916 M
381.893 145.853 L
381.965 145.886 L
S
GR
GS
[0.75 0 0 0.75 0 0] CT
0 1 1 RC
1 LJ
0.667 LW
N
383.056 146.794 M
381.893 145.853 L
S
GR
GS
[0.75 0 0 0.75 0 0] CT
0 1 1 RC
1 LJ
0.667 LW
N
372.71 153.595 M
374.726 155.955 L
377.266 157.738 L
380.17 158.834 L
383.255 159.174 L
386.327 158.735 L
389.194 157.547 L
391.675 155.682 L
393.615 153.259 L
394.891 150.43 L
395.423 147.373 L
395.179 144.279 L
394.172 141.343 L
392.468 138.75 L
390.171 136.662 L
387.428 135.211 L
384.41 134.487 L
381.307 134.537 L
378.314 135.357 L
375.618 136.896 L
373.39 139.056 L
371.77 141.703 L
370.858 144.67 L
370.713 147.77 L
371.344 150.809 L
372.71 153.595 L
S
GR
GS
[0.75 0 0 0.75 287.04552 87.99552] CT
0 1 1 RC
10.0 ML
0.667 LW
N
0 -4 M
0 4 L
-4 0 M
4 0 L
-2.828 -2.828 M
2.828 2.828 L
-2.828 2.828 M
2.828 -2.828 L
S
GR
GS
[0.75 0 0 0.75 0 0] CT
0 1 1 RC
1 LJ
0.667 LW
N
381.612 116.449 M
381.564 116.386 L
381.636 116.42 L
S
GR
GS
[0.75 0 0 0.75 0 0] CT
0 1 1 RC
1 LJ
0.667 LW
N
382.727 117.327 M
381.564 116.386 L
S
GR
GS
[0.75 0 0 0.75 0 0] CT
0 1 1 RC
1 LJ
0.667 LW
N
372.332 124.052 M
370.986 121.256 L
370.378 118.213 L
370.546 115.114 L
371.479 112.154 L
373.119 109.519 L
375.363 107.375 L
378.069 105.856 L
381.068 105.058 L
384.172 105.031 L
387.185 105.776 L
389.917 107.248 L
392.198 109.352 L
393.884 111.958 L
394.869 114.901 L
395.09 117.997 L
394.535 121.05 L
393.239 123.87 L
391.281 126.279 L
388.786 128.125 L
385.911 129.292 L
382.835 129.708 L
379.753 129.346 L
376.858 128.229 L
374.331 126.426 L
372.332 124.052 L
S
GR
GS
[0.75 0 0 0.75 293.25224 111.5991] CT
0 1 1 RC
10.0 ML
0.667 LW
N
0 -4 M
0 4 L
-4 0 M
4 0 L
-2.828 -2.828 M
2.828 2.828 L
-2.828 2.828 M
2.828 -2.828 L
S
GR
GS
[0.75 0 0 0.75 0 0] CT
0 1 1 RC
1 LJ
0.667 LW
N
389.888 147.921 M
389.84 147.858 L
389.912 147.891 L
S
GR
GS
[0.75 0 0 0.75 0 0] CT
0 1 1 RC
1 LJ
0.667 LW
N
391.003 148.799 M
389.84 147.858 L
S
GR
GS
[0.75 0 0 0.75 0 0] CT
0 1 1 RC
1 LJ
0.667 LW
N
380.228 154.898 M
379.05 152.027 L
378.623 148.953 L
378.973 145.869 L
380.08 142.97 L
381.872 140.436 L
384.239 138.429 L
387.03 137.072 L
390.072 136.453 L
393.171 136.609 L
396.135 137.531 L
398.775 139.161 L
400.928 141.397 L
402.457 144.098 L
403.266 147.094 L
403.305 150.197 L
402.571 153.213 L
401.11 155.951 L
399.013 158.24 L
396.414 159.935 L
393.474 160.931 L
390.38 161.164 L
387.324 160.621 L
384.5 159.334 L
382.084 157.386 L
380.228 154.898 L
S
GR
GS
[0.75 0 0 0.75 291.72814 91.26145] CT
0 1 1 RC
10.0 ML
0.667 LW
N
0 -4 M
0 4 L
-4 0 M
4 0 L
-2.828 -2.828 M
2.828 2.828 L
-2.828 2.828 M
2.828 -2.828 L
S
GR
GS
[0.75 0 0 0.75 0 0] CT
0 1 1 RC
1 LJ
0.667 LW
N
387.856 120.804 M
387.808 120.741 L
387.88 120.774 L
S
GR
GS
[0.75 0 0 0.75 0 0] CT
0 1 1 RC
1 LJ
0.667 LW
N
388.971 121.682 M
387.808 120.741 L
S
GR
GS
[0.75 0 0 0.75 0 0] CT
0 1 1 RC
1 LJ
0.667 LW
N
378.072 127.556 M
376.953 124.66 L
376.59 121.578 L
377.005 118.502 L
378.171 115.627 L
380.017 113.131 L
382.424 111.173 L
385.244 109.875 L
388.297 109.319 L
391.393 109.54 L
394.336 110.524 L
396.943 112.209 L
399.048 114.489 L
400.52 117.221 L
401.267 120.233 L
401.241 123.337 L
400.444 126.336 L
398.926 129.043 L
396.783 131.288 L
394.148 132.929 L
391.189 133.863 L
388.09 134.032 L
385.046 133.425 L
382.249 132.08 L
379.875 130.082 L
378.072 127.556 L
S
GR
GS
[0.75 0 0 0.75 287.00553 87.95549] CT
0 1 1 RC
10.0 ML
0.667 LW
N
0 -4 M
0 4 L
-4 0 M
4 0 L
-2.828 -2.828 M
2.828 2.828 L
-2.828 2.828 M
2.828 -2.828 L
S
GR
GS
[0.75 0 0 0.75 0 0] CT
0 1 1 RC
1 LJ
0.667 LW
N
381.559 116.396 M
381.511 116.333 L
381.583 116.366 L
S
GR
GS
[0.75 0 0 0.75 0 0] CT
0 1 1 RC
1 LJ
0.667 LW
N
382.674 117.274 M
381.511 116.333 L
S
GR
GS
[0.75 0 0 0.75 0 0] CT
0 1 1 RC
1 LJ
0.667 LW
N
372.283 124.006 M
370.935 121.211 L
370.325 118.168 L
370.491 115.069 L
371.422 112.108 L
373.06 109.472 L
375.303 107.326 L
378.008 105.806 L
381.007 105.006 L
384.11 104.976 L
387.123 105.72 L
389.857 107.189 L
392.139 109.292 L
393.827 111.897 L
394.814 114.84 L
395.038 117.935 L
394.485 120.989 L
393.19 123.809 L
391.234 126.219 L
388.741 128.067 L
385.866 129.237 L
382.791 129.655 L
379.708 129.295 L
376.812 128.179 L
374.284 126.379 L
372.283 124.006 L
S
GR
GS
[0.75 0 0 0.75 285.48351 86.43298] CT
0 1 1 RC
10.0 ML
0.667 LW
N
0 -4 M
0 4 L
-4 0 M
4 0 L
-2.828 -2.828 M
2.828 2.828 L
-2.828 2.828 M
2.828 -2.828 L
S
GR
GS
[0.75 0 0 0.75 0 0] CT
0 1 1 RC
1 LJ
0.667 LW
N
379.529 114.366 M
379.482 114.303 L
379.553 114.336 L
S
GR
GS
[0.75 0 0 0.75 0 0] CT
0 1 1 RC
1 LJ
0.667 LW
N
380.645 115.244 M
379.482 114.303 L
S
GR
GS
[0.75 0 0 0.75 0 0] CT
0 1 1 RC
1 LJ
0.667 LW
N
370.356 122.131 M
372.392 124.473 L
374.946 126.236 L
377.859 127.308 L
380.947 127.621 L
384.015 127.158 L
386.872 125.945 L
389.338 124.06 L
391.257 121.621 L
392.51 118.782 L
393.017 115.72 L
392.746 112.628 L
391.716 109.701 L
389.989 107.122 L
387.676 105.053 L
384.921 103.625 L
381.897 102.926 L
378.794 103.002 L
375.808 103.847 L
373.125 105.408 L
370.915 107.587 L
369.317 110.247 L
368.43 113.221 L
368.311 116.322 L
368.966 119.356 L
370.356 122.131 L
S
GR
GS
[0.75 0 0 0.75 276.07729 77.02655] CT
0 1 1 RC
10.0 ML
0.667 LW
N
0 -4 M
0 4 L
-4 0 M
4 0 L
-2.828 -2.828 M
2.828 2.828 L
-2.828 2.828 M
2.828 -2.828 L
S
GR
GS
[0.75 0 0 0.75 0 0] CT
0 1 1 RC
1 LJ
0.667 LW
N
366.988 101.824 M
366.94 101.761 L
367.012 101.794 L
S
GR
GS
[0.75 0 0 0.75 0 0] CT
0 1 1 RC
1 LJ
0.667 LW
N
368.103 102.702 M
366.94 101.761 L
S
GR
GS
[0.75 0 0 0.75 0 0] CT
0 1 1 RC
1 LJ
0.667 LW
N
357.71 109.431 M
356.363 106.635 L
355.754 103.592 L
355.921 100.493 L
356.853 97.533 L
358.492 94.897 L
360.735 92.752 L
363.44 91.232 L
366.439 90.433 L
369.543 90.405 L
372.556 91.149 L
375.289 92.62 L
377.571 94.723 L
379.257 97.328 L
380.243 100.271 L
380.466 103.367 L
379.913 106.421 L
378.617 109.241 L
376.66 111.65 L
374.166 113.497 L
371.291 114.666 L
368.216 115.083 L
365.133 114.722 L
362.238 113.606 L
359.71 111.804 L
357.71 109.431 L
S
GR
GS
[0.75 0 0 0.75 286.99848 87.94809] CT
0 1 1 RC
10.0 ML
0.667 LW
N
0 -4 M
0 4 L
-4 0 M
4 0 L
-2.828 -2.828 M
2.828 2.828 L
-2.828 2.828 M
2.828 -2.828 L
S
GR
GS
[0.75 0 0 0.75 0 0] CT
0 1 1 RC
1 LJ
0.667 LW
N
381.549 116.386 M
381.502 116.323 L
381.573 116.356 L
S
GR
GS
[0.75 0 0 0.75 0 0] CT
0 1 1 RC
1 LJ
0.667 LW
N
382.665 117.264 M
381.502 116.323 L
S
GR
GS
[0.75 0 0 0.75 0 0] CT
0 1 1 RC
1 LJ
0.667 LW
N
372.314 124.058 M
374.329 126.419 L
376.868 128.204 L
379.771 129.302 L
382.855 129.644 L
385.928 129.208 L
388.796 128.021 L
391.278 126.158 L
393.219 123.737 L
394.497 120.908 L
395.032 117.851 L
394.789 114.757 L
393.785 111.821 L
392.082 109.226 L
389.787 107.137 L
387.045 105.684 L
384.027 104.958 L
380.924 105.006 L
377.93 105.824 L
375.234 107.361 L
373.004 109.52 L
371.382 112.166 L
370.469 115.132 L
370.321 118.232 L
370.95 121.271 L
372.314 124.058 L
S
GR
GS
[0.75 0 0 0.75 276.07102 77.02019] CT
0 1 1 RC
10.0 ML
0.667 LW
N
0 -4 M
0 4 L
-4 0 M
4 0 L
-2.828 -2.828 M
2.828 2.828 L
-2.828 2.828 M
2.828 -2.828 L
S
GR
GS
[0.75 0 0 0.75 0 0] CT
0 1 1 RC
1 LJ
0.667 LW
N
366.979 101.816 M
366.932 101.752 L
367.003 101.786 L
S
GR
GS
[0.75 0 0 0.75 0 0] CT
0 1 1 RC
1 LJ
0.667 LW
N
368.095 102.694 M
366.932 101.752 L
S
GR
GS
[0.75 0 0 0.75 0 0] CT
0 1 1 RC
1 LJ
0.667 LW
N
357.732 109.469 M
356.373 106.68 L
355.75 103.639 L
355.902 100.539 L
356.821 97.575 L
358.448 94.932 L
360.681 92.777 L
363.381 91.245 L
366.376 90.432 L
369.479 90.39 L
372.495 91.121 L
375.235 92.579 L
377.526 94.672 L
379.225 97.27 L
380.224 100.208 L
380.461 103.303 L
379.921 106.359 L
378.638 109.185 L
376.692 111.603 L
374.207 113.461 L
371.337 114.643 L
368.263 115.074 L
365.179 114.727 L
362.278 113.624 L
359.743 111.834 L
357.732 109.469 L
S
GR
GS
[0.75 0 0 0.75 287.58517 87.65432] CT
0 1 1 RC
10.0 ML
0.667 LW
N
0 -4 M
0 4 L
-4 0 M
4 0 L
-2.828 -2.828 M
2.828 2.828 L
-2.828 2.828 M
2.828 -2.828 L
S
GR
GS
[0.75 0 0 0.75 0 0] CT
0 1 1 RC
1 LJ
0.667 LW
N
382.331 115.994 M
382.284 115.931 L
382.356 115.965 L
S
GR
GS
[0.75 0 0 0.75 0 0] CT
0 1 1 RC
1 LJ
0.667 LW
N
383.447 116.872 M
382.284 115.931 L
S
GR
GS
[0.75 0 0 0.75 0 0] CT
0 1 1 RC
1 LJ
0.667 LW
N
373.094 123.663 M
371.73 120.875 L
371.103 117.835 L
371.252 114.735 L
372.166 111.77 L
373.79 109.124 L
376.02 106.966 L
378.717 105.43 L
381.711 104.614 L
384.814 104.567 L
387.831 105.294 L
390.573 106.748 L
392.867 108.838 L
394.569 111.433 L
395.573 114.37 L
395.814 117.464 L
395.278 120.521 L
393.999 123.349 L
392.057 125.77 L
389.574 127.631 L
386.706 128.817 L
383.633 129.252 L
380.548 128.91 L
377.646 127.81 L
375.108 126.024 L
373.094 123.663 L
S
GR
GS
[0.75 0 0 0.75 296.98931 68.84424] CT
0 1 1 RC
10.0 ML
0.667 LW
N
0 -4 M
0 4 L
-4 0 M
4 0 L
-2.828 -2.828 M
2.828 2.828 L
-2.828 2.828 M
2.828 -2.828 L
S
GR
GS
[0.75 0 0 0.75 0 0] CT
0 1 1 RC
1 LJ
0.667 LW
N
394.87 90.914 M
394.823 90.851 L
394.894 90.885 L
S
GR
GS
[0.75 0 0 0.75 0 0] CT
0 1 1 RC
1 LJ
0.667 LW
N
395.986 91.792 M
394.823 90.851 L
S
GR
GS
[0.75 0 0 0.75 0 0] CT
0 1 1 RC
1 LJ
0.667 LW
N
385.568 98.483 M
384.232 95.682 L
383.633 92.637 L
383.811 89.539 L
384.754 86.582 L
386.403 83.952 L
388.654 81.816 L
391.365 80.306 L
394.367 79.517 L
397.471 79.5 L
400.481 80.256 L
403.209 81.736 L
405.482 83.848 L
407.16 86.46 L
408.135 89.406 L
408.347 92.502 L
407.782 95.554 L
406.476 98.369 L
404.51 100.771 L
402.009 102.609 L
399.13 103.768 L
396.053 104.173 L
392.972 103.801 L
390.08 102.674 L
387.56 100.864 L
385.568 98.483 L
S
GR
GS
[0.75 0 0 0.75 306.39503 78.25027] CT
0 1 1 RC
10.0 ML
0.667 LW
N
0 -4 M
0 4 L
-4 0 M
4 0 L
-2.828 -2.828 M
2.828 2.828 L
-2.828 2.828 M
2.828 -2.828 L
S
GR
GS
[0.75 0 0 0.75 0 0] CT
0 1 1 RC
1 LJ
0.667 LW
N
407.411 103.456 M
407.364 103.393 L
407.435 103.426 L
S
GR
GS
[0.75 0 0 0.75 0 0] CT
0 1 1 RC
1 LJ
0.667 LW
N
408.527 104.334 M
407.364 103.393 L
S
GR
GS
[0.75 0 0 0.75 0 0] CT
0 1 1 RC
1 LJ
0.667 LW
N
398.315 111.335 M
396.895 108.575 L
396.205 105.549 L
396.29 102.447 L
397.144 99.463 L
398.713 96.785 L
400.898 94.582 L
403.563 92.991 L
406.54 92.113 L
409.641 92.003 L
412.673 92.667 L
415.444 94.065 L
417.78 96.108 L
419.535 98.668 L
420.599 101.583 L
420.903 104.672 L
420.43 107.739 L
419.209 110.593 L
417.317 113.053 L
414.873 114.965 L
412.03 116.209 L
408.966 116.707 L
405.875 116.428 L
402.951 115.388 L
400.377 113.654 L
398.315 111.335 L
S
GR
GS
[0.75 0 0 0.75 298.51131 65.79961] CT
0 1 1 RC
10.0 ML
0.667 LW
N
0 -4 M
0 4 L
-4 0 M
4 0 L
-2.828 -2.828 M
2.828 2.828 L
-2.828 2.828 M
2.828 -2.828 L
S
GR
GS
[0.75 0 0 0.75 0 0] CT
0 1 1 RC
1 LJ
0.667 LW
N
396.9 86.855 M
396.852 86.792 L
396.924 86.825 L
S
GR
GS
[0.75 0 0 0.75 0 0] CT
0 1 1 RC
1 LJ
0.667 LW
N
398.015 87.733 M
396.852 86.792 L
S
GR
GS
[0.75 0 0 0.75 0 0] CT
0 1 1 RC
1 LJ
0.667 LW
N
387.653 94.509 M
386.293 91.719 L
385.67 88.678 L
385.823 85.579 L
386.741 82.614 L
388.369 79.971 L
390.602 77.816 L
393.301 76.284 L
396.296 75.472 L
399.399 75.429 L
402.416 76.16 L
405.155 77.618 L
407.447 79.712 L
409.145 82.309 L
410.144 85.247 L
410.381 88.342 L
409.841 91.398 L
408.558 94.224 L
406.613 96.642 L
404.127 98.5 L
401.257 99.682 L
398.184 100.113 L
395.1 99.766 L
392.199 98.663 L
389.663 96.873 L
387.653 94.509 L
S
GR
GS
[0.75 0 0 0.75 307.91716 75.20507] CT
0 1 1 RC
10.0 ML
0.667 LW
N
0 -4 M
0 4 L
-4 0 M
4 0 L
-2.828 -2.828 M
2.828 2.828 L
-2.828 2.828 M
2.828 -2.828 L
S
GR
GS
[0.75 0 0 0.75 0 0] CT
0 1 1 RC
1 LJ
0.667 LW
N
409.441 99.395 M
409.393 99.332 L
409.465 99.366 L
S
GR
GS
[0.75 0 0 0.75 0 0] CT
0 1 1 RC
1 LJ
0.667 LW
N
410.556 100.273 M
409.393 99.332 L
S
GR
GS
[0.75 0 0 0.75 0 0] CT
0 1 1 RC
1 LJ
0.667 LW
N
400.368 107.309 M
398.939 104.554 L
398.239 101.53 L
398.313 98.428 L
399.157 95.441 L
400.717 92.758 L
402.895 90.547 L
405.555 88.947 L
408.529 88.059 L
411.63 87.939 L
414.663 88.593 L
417.439 89.982 L
419.782 92.017 L
421.546 94.571 L
422.619 97.483 L
422.934 100.57 L
422.471 103.639 L
421.26 106.497 L
419.376 108.963 L
416.938 110.883 L
414.099 112.137 L
411.037 112.645 L
407.945 112.376 L
405.017 111.347 L
402.438 109.621 L
400.368 107.309 L
S
GR
GS
[0.75 0 0 0.75 318.84462 86.1325] CT
0 1 1 RC
10.0 ML
0.667 LW
N
0 -4 M
0 4 L
-4 0 M
4 0 L
-2.828 -2.828 M
2.828 2.828 L
-2.828 2.828 M
2.828 -2.828 L
S
GR
GS
[0.75 0 0 0.75 0 0] CT
0 1 1 RC
1 LJ
0.667 LW
N
424.011 113.965 M
423.963 113.902 L
424.035 113.936 L
S
GR
GS
[0.75 0 0 0.75 0 0] CT
0 1 1 RC
1 LJ
0.667 LW
N
425.126 114.843 M
423.963 113.902 L
S
GR
GS
[0.75 0 0 0.75 0 0] CT
0 1 1 RC
1 LJ
0.667 LW
N
415.044 122.03 M
417.149 124.312 L
419.754 125.998 L
422.697 126.984 L
425.792 127.207 L
428.846 126.652 L
431.666 125.356 L
434.075 123.4 L
435.922 120.905 L
437.09 118.03 L
437.507 114.955 L
437.146 111.872 L
436.029 108.977 L
434.228 106.449 L
431.854 104.45 L
429.058 103.103 L
426.015 102.494 L
422.916 102.661 L
419.956 103.594 L
417.32 105.233 L
415.175 107.476 L
413.656 110.182 L
412.857 113.181 L
412.829 116.285 L
413.574 119.297 L
415.044 122.03 L
S
GR
GS
[0.75 0 0 0.75 309.43886 76.72749] CT
0 1 1 RC
10.0 ML
0.667 LW
N
0 -4 M
0 4 L
-4 0 M
4 0 L
-2.828 -2.828 M
2.828 2.828 L
-2.828 2.828 M
2.828 -2.828 L
S
GR
GS
[0.75 0 0 0.75 0 0] CT
0 1 1 RC
1 LJ
0.667 LW
N
411.47 101.425 M
411.422 101.362 L
411.494 101.396 L
S
GR
GS
[0.75 0 0 0.75 0 0] CT
0 1 1 RC
1 LJ
0.667 LW
N
412.585 102.303 M
411.422 101.362 L
S
GR
GS
[0.75 0 0 0.75 0 0] CT
0 1 1 RC
1 LJ
0.667 LW
N
402.235 109.098 M
400.87 106.31 L
400.242 103.271 L
400.389 100.171 L
401.302 97.205 L
402.925 94.559 L
405.154 92.4 L
407.851 90.863 L
410.844 90.045 L
413.948 89.997 L
416.965 90.723 L
419.708 92.176 L
422.002 94.265 L
423.705 96.86 L
424.71 99.796 L
424.952 102.89 L
424.418 105.948 L
423.14 108.776 L
421.199 111.197 L
418.716 113.06 L
415.849 114.247 L
412.776 114.683 L
409.691 114.342 L
406.788 113.244 L
404.25 111.458 L
402.235 109.098 L
S
GR
GS
[0.75 0 0 0.75 320.61195 87.90051] CT
0 1 1 RC
10.0 ML
0.667 LW
N
0 -4 M
0 4 L
-4 0 M
4 0 L
-2.828 -2.828 M
2.828 2.828 L
-2.828 2.828 M
2.828 -2.828 L
S
GR
GS
[0.75 0 0 0.75 0 0] CT
0 1 1 RC
1 LJ
0.667 LW
N
426.367 116.323 M
426.32 116.26 L
426.391 116.293 L
S
GR
GS
[0.75 0 0 0.75 0 0] CT
0 1 1 RC
1 LJ
0.667 LW
N
427.483 117.201 M
426.32 116.26 L
S
GR
GS
[0.75 0 0 0.75 0 0] CT
0 1 1 RC
1 LJ
0.667 LW
N
417.14 124.008 M
419.158 126.366 L
421.699 128.148 L
424.603 129.242 L
427.688 129.58 L
430.76 129.14 L
433.627 127.95 L
436.107 126.084 L
438.045 123.66 L
439.32 120.831 L
439.851 117.773 L
439.604 114.679 L
438.596 111.744 L
436.89 109.151 L
434.593 107.065 L
431.849 105.615 L
428.83 104.893 L
425.727 104.945 L
422.734 105.766 L
420.04 107.306 L
417.813 109.468 L
416.194 112.116 L
415.284 115.083 L
415.14 118.183 L
415.773 121.222 L
417.14 124.008 L
S
GR
GS
[0.75 0 0 0.75 319.08991 86.37818] CT
0 1 1 RC
10.0 ML
0.667 LW
N
0 -4 M
0 4 L
-4 0 M
4 0 L
-2.828 -2.828 M
2.828 2.828 L
-2.828 2.828 M
2.828 -2.828 L
S
GR
GS
[0.75 0 0 0.75 0 0] CT
0 1 1 RC
1 LJ
0.667 LW
N
424.338 114.293 M
424.29 114.23 L
424.362 114.263 L
S
GR
GS
[0.75 0 0 0.75 0 0] CT
0 1 1 RC
1 LJ
0.667 LW
N
425.453 115.171 M
424.29 114.23 L
S
GR
GS
[0.75 0 0 0.75 0 0] CT
0 1 1 RC
1 LJ
0.667 LW
N
415.331 122.301 M
413.876 119.56 L
413.148 116.542 L
413.194 113.439 L
414.01 110.445 L
415.544 107.747 L
417.702 105.516 L
420.346 103.892 L
423.312 102.976 L
426.412 102.827 L
429.451 103.453 L
432.24 104.815 L
434.602 106.829 L
436.389 109.366 L
437.489 112.268 L
437.833 115.352 L
437.399 118.425 L
436.214 121.294 L
434.354 123.778 L
431.933 125.721 L
429.106 127.001 L
426.049 127.538 L
422.955 127.297 L
420.018 126.295 L
417.422 124.594 L
415.331 122.301 L
S
GR
GS
[0.75 0 0 0.75 313.85284 79.77204] CT
0 1 1 RC
10.0 ML
0.667 LW
N
0 -4 M
0 4 L
-4 0 M
4 0 L
-2.828 -2.828 M
2.828 2.828 L
-2.828 2.828 M
2.828 -2.828 L
S
GR
GS
[0.75 0 0 0.75 0 0] CT
0 1 1 RC
1 LJ
0.667 LW
N
417.355 105.485 M
417.308 105.421 L
417.379 105.455 L
S
GR
GS
[0.75 0 0 0.75 0 0] CT
0 1 1 RC
1 LJ
0.667 LW
N
418.47 106.363 M
417.308 105.421 L
S
GR
GS
[0.75 0 0 0.75 0 0] CT
0 1 1 RC
1 LJ
0.667 LW
N
407.628 112.341 M
406.482 109.457 L
406.089 106.378 L
406.474 103.299 L
407.613 100.411 L
409.434 97.898 L
411.823 95.917 L
414.63 94.592 L
417.678 94.007 L
420.775 94.198 L
423.728 95.153 L
426.351 96.813 L
428.478 99.073 L
429.977 101.791 L
430.752 104.796 L
430.756 107.899 L
429.988 110.906 L
428.496 113.628 L
426.374 115.893 L
423.756 117.559 L
420.806 118.522 L
417.708 118.72 L
414.659 118.143 L
411.849 116.825 L
409.456 114.849 L
407.628 112.341 L
S
GR
GS
[0.75 0 0 0.75 287.15668 85.00175] CT
1 0 0 RC
10.0 ML
0.667 LW
N
0 -5 M
0 5 L
-5 0 M
5 0 L
S
GR
GS
[0.75 0 0 0.75 287.29118 88.24077] CT
0 1 0 RC
10.0 ML
0.667 LW
N
0 -4 M
0 4 L
-4 0 M
4 0 L
-2.828 -2.828 M
2.828 2.828 L
-2.828 2.828 M
2.828 -2.828 L
S
GR
GS
[0.75 0 0 0.75 0 0] CT
0 1 0 RC
1 LJ
0.667 LW
N
381.939 116.776 M
381.892 116.713 L
381.964 116.747 L
S
GR
GS
[0.75 0 0 0.75 0 0] CT
0 1 0 RC
1 LJ
0.667 LW
N
383.055 117.654 M
381.892 116.713 L
S
GR
GS
[0.75 0 0 0.75 0 0] CT
0 1 0 RC
1 LJ
0.667 LW
N
387.308 120.246 M
387.819 119.107 L
388.031 117.877 L
387.93 116.632 L
387.523 115.452 L
386.835 114.41 L
385.909 113.572 L
384.804 112.99 L
383.589 112.702 L
382.341 112.725 L
381.137 113.057 L
380.054 113.678 L
379.16 114.55 L
378.51 115.616 L
378.146 116.81 L
378.09 118.057 L
378.346 119.279 L
378.898 120.399 L
379.712 121.347 L
380.735 122.062 L
381.904 122.501 L
383.145 122.635 L
384.381 122.456 L
385.534 121.975 L
386.53 121.223 L
387.308 120.246 L
S
GR
GS
[0.75 0 0 0.75 276.65298 79.31488] CT
0 0 1 RC
10.0 ML
0.667 LW
N
0 -4 M
0 4 L
-4 0 M
4 0 L
-2.828 -2.828 M
2.828 2.828 L
-2.828 2.828 M
2.828 -2.828 L
S
GR
GS
[0.75 0 0 0.75 0 0] CT
0 0 1 RC
1 LJ
0.667 LW
N
367.755 104.875 M
367.708 104.812 L
367.779 104.845 L
S
GR
GS
[0.75 0 0 0.75 0 0] CT
0 0 1 RC
1 LJ
0.667 LW
N
368.871 105.753 M
367.708 104.812 L
S
GR
GS
[0.75 0 0 0.75 0 0] CT
0 0 1 RC
1 LJ
0.667 LW
N
366.288 110.012 M
365.31 109.236 L
364.555 108.241 L
364.072 107.09 L
363.891 105.854 L
364.022 104.613 L
364.458 103.443 L
365.171 102.418 L
366.117 101.603 L
367.236 101.048 L
368.457 100.789 L
369.704 100.842 L
370.9 101.204 L
371.967 101.851 L
372.84 102.744 L
373.464 103.826 L
373.799 105.029 L
373.824 106.277 L
373.538 107.492 L
372.959 108.599 L
372.123 109.526 L
371.083 110.216 L
369.903 110.626 L
368.659 110.73 L
367.428 110.521 L
366.288 110.012 L
S
GR
GS
[0.75 0 0 0.75 287.29145 91.28534] CT
0 0 1 RC
10.0 ML
0.667 LW
N
0 -4 M
0 4 L
-4 0 M
4 0 L
-2.828 -2.828 M
2.828 2.828 L
-2.828 2.828 M
2.828 -2.828 L
S
GR
GS
[0.75 0 0 0.75 0 0] CT
0 0 1 RC
1 LJ
0.667 LW
N
381.94 120.836 M
381.892 120.773 L
381.964 120.806 L
S
GR
GS
[0.75 0 0 0.75 0 0] CT
0 0 1 RC
1 LJ
0.667 LW
N
383.055 121.714 M
381.892 120.773 L
S
GR
GS
[0.75 0 0 0.75 0 0] CT
0 0 1 RC
1 LJ
0.667 LW
N
387.258 124.387 M
387.791 123.258 L
388.026 122.032 L
387.949 120.786 L
387.565 119.598 L
386.897 118.543 L
385.987 117.687 L
384.894 117.084 L
383.685 116.773 L
382.436 116.771 L
381.227 117.08 L
380.132 117.681 L
379.221 118.535 L
378.55 119.588 L
378.163 120.775 L
378.084 122.021 L
378.316 123.248 L
378.847 124.378 L
379.642 125.341 L
380.651 126.076 L
381.811 126.537 L
383.05 126.695 L
384.289 126.54 L
385.45 126.081 L
386.461 125.348 L
387.258 124.387 L
S
GR
GS
[0.75 0 0 0.75 287.04552 87.99552] CT
0 0 1 RC
10.0 ML
0.667 LW
N
0 -4 M
0 4 L
-4 0 M
4 0 L
-2.828 -2.828 M
2.828 2.828 L
-2.828 2.828 M
2.828 -2.828 L
S
GR
GS
[0.75 0 0 0.75 0 0] CT
0 0 1 RC
1 LJ
0.667 LW
N
381.612 116.449 M
381.564 116.386 L
381.636 116.42 L
S
GR
GS
[0.75 0 0 0.75 0 0] CT
0 0 1 RC
1 LJ
0.667 LW
N
382.727 117.327 M
381.564 116.386 L
S
GR
GS
[0.75 0 0 0.75 0 0] CT
0 0 1 RC
1 LJ
0.667 LW
N
380.248 121.648 M
379.252 120.895 L
378.473 119.919 L
377.963 118.779 L
377.751 117.549 L
377.852 116.304 L
378.26 115.124 L
378.948 114.082 L
379.874 113.245 L
380.979 112.663 L
382.194 112.375 L
383.442 112.398 L
384.646 112.73 L
385.729 113.352 L
386.623 114.223 L
387.273 115.289 L
387.637 116.484 L
387.692 117.731 L
387.436 118.953 L
386.883 120.073 L
386.07 121.02 L
385.047 121.736 L
383.877 122.174 L
382.636 122.308 L
381.4 122.128 L
380.248 121.648 L
S
GR
GS
[0.75 0 0 0.75 286.05132 88.71323] CT
0 0 1 RC
10.0 ML
0.667 LW
N
0 -4 M
0 4 L
-4 0 M
4 0 L
-2.828 -2.828 M
2.828 2.828 L
-2.828 2.828 M
2.828 -2.828 L
S
GR
GS
[0.75 0 0 0.75 0 0] CT
0 0 1 RC
1 LJ
0.667 LW
N
380.286 117.406 M
380.239 117.343 L
380.31 117.377 L
S
GR
GS
[0.75 0 0 0.75 0 0] CT
0 0 1 RC
1 LJ
0.667 LW
N
381.402 118.284 M
380.239 117.343 L
S
GR
GS
[0.75 0 0 0.75 0 0] CT
0 0 1 RC
1 LJ
0.667 LW
N
378.979 122.637 M
377.973 121.898 L
377.182 120.931 L
376.656 119.799 L
376.429 118.571 L
376.514 117.325 L
376.906 116.14 L
377.58 115.089 L
378.495 114.239 L
379.592 113.643 L
380.803 113.339 L
382.052 113.346 L
383.26 113.663 L
384.351 114.27 L
385.256 115.129 L
385.92 116.187 L
386.299 117.376 L
386.371 118.623 L
386.131 119.848 L
385.594 120.975 L
384.793 121.933 L
383.779 122.662 L
382.615 123.115 L
381.376 123.265 L
380.138 123.102 L
378.979 122.637 L
S
GR
GS
[0.75 0 0 0.75 287.00553 87.95549] CT
0 0 1 RC
10.0 ML
0.667 LW
N
0 -4 M
0 4 L
-4 0 M
4 0 L
-2.828 -2.828 M
2.828 2.828 L
-2.828 2.828 M
2.828 -2.828 L
S
GR
GS
[0.75 0 0 0.75 0 0] CT
0 0 1 RC
1 LJ
0.667 LW
N
381.559 116.396 M
381.511 116.333 L
381.583 116.366 L
S
GR
GS
[0.75 0 0 0.75 0 0] CT
0 0 1 RC
1 LJ
0.667 LW
N
382.674 117.274 M
381.511 116.333 L
S
GR
GS
[0.75 0 0 0.75 0 0] CT
0 0 1 RC
1 LJ
0.667 LW
N
386.998 119.747 M
387.477 118.594 L
387.654 117.359 L
387.519 116.117 L
387.079 114.949 L
386.362 113.926 L
385.414 113.114 L
384.293 112.563 L
383.071 112.309 L
381.824 112.366 L
380.63 112.732 L
379.565 113.383 L
378.694 114.278 L
378.074 115.362 L
377.743 116.566 L
377.722 117.814 L
378.012 119.029 L
378.595 120.133 L
379.434 121.058 L
380.477 121.744 L
381.658 122.15 L
382.902 122.25 L
384.133 122.037 L
385.271 121.524 L
386.247 120.745 L
386.998 119.747 L
S
GR
GS
[0.75 0 0 0.75 276.60693 79.26874] CT
0 0 1 RC
10.0 ML
0.667 LW
N
0 -4 M
0 4 L
-4 0 M
4 0 L
-2.828 -2.828 M
2.828 2.828 L
-2.828 2.828 M
2.828 -2.828 L
S
GR
GS
[0.75 0 0 0.75 0 0] CT
0 0 1 RC
1 LJ
0.667 LW
N
367.694 104.814 M
367.646 104.75 L
367.718 104.784 L
S
GR
GS
[0.75 0 0 0.75 0 0] CT
0 0 1 RC
1 LJ
0.667 LW
N
368.809 105.692 M
367.646 104.75 L
S
GR
GS
[0.75 0 0 0.75 0 0] CT
0 0 1 RC
1 LJ
0.667 LW
N
366.269 109.976 M
365.283 109.21 L
364.519 108.222 L
364.024 107.076 L
363.83 105.842 L
363.949 104.6 L
364.374 103.425 L
365.077 102.393 L
366.014 101.569 L
367.127 101.003 L
368.346 100.732 L
369.594 100.773 L
370.793 101.122 L
371.867 101.759 L
372.749 102.643 L
373.383 103.719 L
373.73 104.918 L
373.768 106.166 L
373.494 107.384 L
372.926 108.496 L
372.099 109.432 L
371.066 110.132 L
369.89 110.554 L
368.647 110.67 L
367.414 110.473 L
366.269 109.976 L
S
GR
GS
[0.75 0 0 0.75 285.48351 86.43298] CT
0 0 1 RC
10.0 ML
0.667 LW
N
0 -4 M
0 4 L
-4 0 M
4 0 L
-2.828 -2.828 M
2.828 2.828 L
-2.828 2.828 M
2.828 -2.828 L
S
GR
GS
[0.75 0 0 0.75 0 0] CT
0 0 1 RC
1 LJ
0.667 LW
N
379.529 114.366 M
379.482 114.303 L
379.553 114.336 L
S
GR
GS
[0.75 0 0 0.75 0 0] CT
0 0 1 RC
1 LJ
0.667 LW
N
380.645 115.244 M
379.482 114.303 L
S
GR
GS
[0.75 0 0 0.75 0 0] CT
0 0 1 RC
1 LJ
0.667 LW
N
378.406 119.694 M
377.37 118.998 L
376.54 118.065 L
375.967 116.956 L
375.688 115.739 L
375.721 114.49 L
376.063 113.29 L
376.693 112.212 L
377.571 111.324 L
378.643 110.683 L
379.84 110.328 L
381.088 110.283 L
382.308 110.549 L
383.423 111.11 L
384.364 111.93 L
385.071 112.959 L
385.5 114.132 L
385.624 115.374 L
385.435 116.609 L
384.945 117.757 L
384.185 118.748 L
383.203 119.518 L
382.059 120.02 L
380.827 120.222 L
379.583 120.111 L
378.406 119.694 L
S
GR
GS
[0.75 0 0 0.75 284.24265 86.90467] CT
0 0 1 RC
10.0 ML
0.667 LW
N
0 -4 M
0 4 L
-4 0 M
4 0 L
-2.828 -2.828 M
2.828 2.828 L
-2.828 2.828 M
2.828 -2.828 L
S
GR
GS
[0.75 0 0 0.75 0 0] CT
0 0 1 RC
1 LJ
0.667 LW
N
377.875 114.995 M
377.827 114.932 L
377.899 114.965 L
S
GR
GS
[0.75 0 0 0.75 0 0] CT
0 0 1 RC
1 LJ
0.667 LW
N
378.99 115.873 M
377.827 114.932 L
S
GR
GS
[0.75 0 0 0.75 0 0] CT
0 0 1 RC
1 LJ
0.667 LW
N
383.394 118.2 M
383.835 117.032 L
383.971 115.79 L
383.794 114.554 L
383.315 113.401 L
382.564 112.403 L
381.589 111.624 L
380.451 111.111 L
379.221 110.897 L
377.976 110.996 L
376.795 111.402 L
375.752 112.088 L
374.912 113.012 L
374.329 114.116 L
374.039 115.33 L
374.059 116.579 L
374.39 117.783 L
375.009 118.867 L
375.879 119.763 L
376.944 120.414 L
378.138 120.781 L
379.385 120.838 L
380.608 120.584 L
381.728 120.034 L
382.677 119.222 L
383.394 118.2 L
S
GR
GS
[0.75 0 0 0.75 265.43303 68.09502] CT
0 0 1 RC
10.0 ML
0.667 LW
N
0 -4 M
0 4 L
-4 0 M
4 0 L
-2.828 -2.828 M
2.828 2.828 L
-2.828 2.828 M
2.828 -2.828 L
S
GR
GS
[0.75 0 0 0.75 0 0] CT
0 0 1 RC
1 LJ
0.667 LW
N
352.795 89.915 M
352.748 89.852 L
352.819 89.886 L
S
GR
GS
[0.75 0 0 0.75 0 0] CT
0 0 1 RC
1 LJ
0.667 LW
N
353.911 90.793 M
352.748 89.852 L
S
GR
GS
[0.75 0 0 0.75 0 0] CT
0 0 1 RC
1 LJ
0.667 LW
N
358.187 93.348 M
358.688 92.204 L
358.889 90.972 L
358.777 89.728 L
358.359 88.551 L
357.662 87.516 L
356.729 86.686 L
355.619 86.114 L
354.401 85.836 L
353.153 85.87 L
351.953 86.213 L
350.875 86.844 L
349.988 87.723 L
349.348 88.795 L
348.994 89.993 L
348.95 91.24 L
349.217 92.46 L
349.779 93.575 L
350.6 94.515 L
351.63 95.222 L
352.803 95.65 L
354.045 95.773 L
355.279 95.583 L
356.427 95.092 L
357.417 94.331 L
358.187 93.348 L
S
GR
GS
[0.75 0 0 0.75 276.07729 77.02655] CT
0 0 1 RC
10.0 ML
0.667 LW
N
0 -4 M
0 4 L
-4 0 M
4 0 L
-2.828 -2.828 M
2.828 2.828 L
-2.828 2.828 M
2.828 -2.828 L
S
GR
GS
[0.75 0 0 0.75 0 0] CT
0 0 1 RC
1 LJ
0.667 LW
N
366.988 101.824 M
366.94 101.761 L
367.012 101.794 L
S
GR
GS
[0.75 0 0 0.75 0 0] CT
0 0 1 RC
1 LJ
0.667 LW
N
368.103 102.702 M
366.94 101.761 L
S
GR
GS
[0.75 0 0 0.75 0 0] CT
0 0 1 RC
1 LJ
0.667 LW
N
365.57 106.991 M
364.583 106.226 L
363.817 105.24 L
363.32 104.095 L
363.124 102.861 L
363.241 101.618 L
363.664 100.443 L
364.365 99.41 L
365.301 98.584 L
366.413 98.016 L
367.631 97.743 L
368.879 97.782 L
370.079 98.129 L
371.154 98.764 L
372.037 99.647 L
372.673 100.721 L
373.022 101.92 L
373.062 103.168 L
372.791 104.387 L
372.224 105.499 L
371.399 106.437 L
370.367 107.139 L
369.192 107.563 L
367.949 107.681 L
366.716 107.486 L
365.57 106.991 L
S
GR
GS
[0.75 0 0 0.75 286.99848 87.94809] CT
0 0 1 RC
10.0 ML
0.667 LW
N
0 -4 M
0 4 L
-4 0 M
4 0 L
-2.828 -2.828 M
2.828 2.828 L
-2.828 2.828 M
2.828 -2.828 L
S
GR
GS
[0.75 0 0 0.75 0 0] CT
0 0 1 RC
1 LJ
0.667 LW
N
381.549 116.386 M
381.502 116.323 L
381.573 116.356 L
S
GR
GS
[0.75 0 0 0.75 0 0] CT
0 0 1 RC
1 LJ
0.667 LW
N
382.665 117.264 M
381.502 116.323 L
S
GR
GS
[0.75 0 0 0.75 0 0] CT
0 0 1 RC
1 LJ
0.667 LW
N
386.981 119.75 M
387.464 118.598 L
387.645 117.363 L
387.513 116.121 L
387.076 114.952 L
386.363 113.927 L
385.417 113.112 L
384.298 112.558 L
383.076 112.3 L
381.829 112.354 L
380.634 112.716 L
379.566 113.364 L
378.694 114.257 L
378.071 115.339 L
377.736 116.542 L
377.711 117.79 L
377.998 119.005 L
378.577 120.111 L
379.414 121.038 L
380.455 121.728 L
381.634 122.138 L
382.879 122.241 L
384.109 122.031 L
385.25 121.522 L
386.227 120.745 L
386.981 119.75 L
S
GR
GS
[0.75 0 0 0.75 276.07102 77.02019] CT
0 0 1 RC
10.0 ML
0.667 LW
N
0 -4 M
0 4 L
-4 0 M
4 0 L
-2.828 -2.828 M
2.828 2.828 L
-2.828 2.828 M
2.828 -2.828 L
S
GR
GS
[0.75 0 0 0.75 0 0] CT
0 0 1 RC
1 LJ
0.667 LW
N
366.979 101.816 M
366.932 101.752 L
367.003 101.786 L
S
GR
GS
[0.75 0 0 0.75 0 0] CT
0 0 1 RC
1 LJ
0.667 LW
N
368.095 102.694 M
366.932 101.752 L
S
GR
GS
[0.75 0 0 0.75 0 0] CT
0 0 1 RC
1 LJ
0.667 LW
N
372.348 105.286 M
372.859 104.147 L
373.071 102.916 L
372.97 101.671 L
372.563 100.491 L
371.874 99.449 L
370.949 98.611 L
369.844 98.03 L
368.629 97.741 L
367.381 97.764 L
366.177 98.096 L
365.094 98.718 L
364.2 99.589 L
363.55 100.655 L
363.186 101.849 L
363.13 103.097 L
363.386 104.319 L
363.938 105.439 L
364.751 106.386 L
365.775 107.101 L
366.944 107.54 L
368.185 107.674 L
369.421 107.495 L
370.573 107.014 L
371.57 106.262 L
372.348 105.286 L
S
GR
GS
[0.75 0 0 0.75 287.58517 87.65432] CT
0 0 1 RC
10.0 ML
0.667 LW
N
0 -4 M
0 4 L
-4 0 M
4 0 L
-2.828 -2.828 M
2.828 2.828 L
-2.828 2.828 M
2.828 -2.828 L
S
GR
GS
[0.75 0 0 0.75 0 0] CT
0 0 1 RC
1 LJ
0.667 LW
N
382.331 115.994 M
382.284 115.931 L
382.356 115.965 L
S
GR
GS
[0.75 0 0 0.75 0 0] CT
0 0 1 RC
1 LJ
0.667 LW
N
383.447 116.872 M
382.284 115.931 L
S
GR
GS
[0.75 0 0 0.75 0 0] CT
0 0 1 RC
1 LJ
0.667 LW
N
387.742 119.395 M
388.234 118.247 L
388.426 117.014 L
388.305 115.771 L
387.878 114.597 L
387.173 113.567 L
386.234 112.744 L
385.12 112.181 L
383.9 111.912 L
382.653 111.955 L
381.455 112.307 L
380.382 112.946 L
379.502 113.832 L
378.869 114.908 L
378.525 116.108 L
378.489 117.356 L
378.765 118.574 L
379.336 119.685 L
380.164 120.619 L
381.199 121.318 L
382.375 121.737 L
383.619 121.851 L
384.851 121.651 L
385.996 121.152 L
386.98 120.384 L
387.742 119.395 L
S
GR
GS
[0.75 0 0 0.75 0 0] CT
1 GC
N
/f514426320{470 285 M
470 42 L
192 42 L
192 285 L
cp}def
f514426320
f
GR
GS
[0.75 0 0 0.75 179.25 55.49999] CT
/Helvetica-Bold 48 F
GS
[1 0 0 1 0 0] CT
0 19 moveto 
1 -1 scale
(LandMark) t 
GR
GR
GS
[0.75 0 0 0.75 162 55.5] CT
1 0 0 RC
N
f-1996900118
f
GR
GS
[0.75 0 0 0.75 162 55.5] CT
0 0 1 RC
10.0 ML
0.667 LW
N
0 -26.66 M
-23.088 13.33 L
23.088 13.33 L
cp
S
GR
GS
[0.75 0 0 0.75 179.25 126] CT
/Helvetica-Bold 48 F
GS
[1 0 0 1 0 0] CT
0 0 moveto 
1 -1 scale
(b) t 
GR
GR
GS
[0.75 0 0 0.75 201.75 108] CT
/Helvetica-Bold 38.4 F
GS
[1 0 0 1 0 0] CT
0 0 moveto 
1 -1 scale
(-) t 
GR
GR
GS
[0.75 0 0 0.75 211.5 126] CT
/Helvetica-Bold 48 F
GS
[1 0 0 1 0 0] CT
0 0 moveto 
1 -1 scale
([X) t 
GR
GR
GS
[0.75 0 0 0.75 247.5 144] CT
/Helvetica-Bold 38.4 F
GS
[1 0 0 1 0 0] CT
0 0 moveto 
1 -1 scale
(k) t 
GR
GR
GS
[0.75 0 0 0.75 264 126] CT
/Helvetica-Bold 48 F
GS
[1 0 0 1 0 0] CT
0 0 moveto 
1 -1 scale
(]) t 
GR
GR
GS
[0.75 0 0 0.75 0 0] CT
0 1 1 RC
1 LJ
0.667 LW
N
196 152.5 M
236 152.5 L
S
GR
GS
[0.75 0 0 0.75 0 0] CT
0 1 1 RC
1 LJ
0.667 LW
N
224 157.3 M
236 152.5 L
224 147.7 L
S
GR
GS
[0.75 0 0 0.75 179.25 187.5] CT
/Helvetica-Bold 48 F
GS
[1 0 0 1 0 0] CT
0 0 moveto 
1 -1 scale
(b[X) t 
GR
GR
GS
[0.75 0 0 0.75 237.75 205.5] CT
/Helvetica-Bold 38.4 F
GS
[1 0 0 1 0 0] CT
0 0 moveto 
1 -1 scale
(k) t 
GR
GR
GS
[0.75 0 0 0.75 254.25 187.5] CT
/Helvetica-Bold 48 F
GS
[1 0 0 1 0 0] CT
0 0 moveto 
1 -1 scale
(]) t 
GR
GR
GS
[0.75 0 0 0.75 0 0] CT
0 0 1 RC
1 LJ
0.667 LW
N
196 242 M
236 242 L
S
GR
GS
[0.75 0 0 0.75 0 0] CT
0.149 GC
10.0 ML
0.667 LW
N
192 285 M
192 42 L
470 42 L
470 285 L
cp
S
GR
%%Trailer
%%Pages: 1
%%EOF
