%!PS-Adobe-3.0 EPSF-3.0
%%Creator: (MATLAB, The Mathworks, Inc. Version 9.10.0.1649659 \(R2021a\) Update 1. Operating System: Windows 10)
%%Title: (C:/Users/ohads/ANPL/papers/research/2022 ICRA/Figures/TestCase_2/fig_files/Robots_estimation_k_10.eps)
%%CreationDate: 2021-08-04T10:57:49
%%Pages: (atend)
%%BoundingBox:   295     9  1097   669
%%LanguageLevel: 3
%%EndComments
%%BeginProlog
%%BeginResource: procset (Apache XML Graphics Std ProcSet) 1.2 0
%%Version: 1.2 0
%%Copyright: (Copyright 2001-2003,2010 The Apache Software Foundation. License terms: http://www.apache.org/licenses/LICENSE-2.0)
/bd{bind def}bind def
/ld{load def}bd
/GR/grestore ld
/GS/gsave ld
/RM/rmoveto ld
/C/curveto ld
/t/show ld
/L/lineto ld
/ML/setmiterlimit ld
/CT/concat ld
/f/fill ld
/N/newpath ld
/S/stroke ld
/CC/setcmykcolor ld
/A/ashow ld
/cp/closepath ld
/RC/setrgbcolor ld
/LJ/setlinejoin ld
/GC/setgray ld
/LW/setlinewidth ld
/M/moveto ld
/re {4 2 roll M
1 index 0 rlineto
0 exch rlineto
neg 0 rlineto
cp } bd
/_ctm matrix def
/_tm matrix def
/BT { _ctm currentmatrix pop matrix _tm copy pop 0 0 moveto } bd
/ET { _ctm setmatrix } bd
/iTm { _ctm setmatrix _tm concat } bd
/Tm { _tm astore pop iTm 0 0 moveto } bd
/ux 0.0 def
/uy 0.0 def
/F {
  /Tp exch def
  /Tf exch def
  Tf findfont Tp scalefont setfont
  /cf Tf def  /cs Tp def
} bd
/ULS {currentpoint /uy exch def /ux exch def} bd
/ULE {
  /Tcx currentpoint pop def
  gsave
  newpath
  cf findfont cs scalefont dup
  /FontMatrix get 0 get /Ts exch def /FontInfo get dup
  /UnderlinePosition get Ts mul /To exch def
  /UnderlineThickness get Ts mul /Tt exch def
  ux uy To add moveto  Tcx uy To add lineto
  Tt setlinewidth stroke
  grestore
} bd
/OLE {
  /Tcx currentpoint pop def
  gsave
  newpath
  cf findfont cs scalefont dup
  /FontMatrix get 0 get /Ts exch def /FontInfo get dup
  /UnderlinePosition get Ts mul /To exch def
  /UnderlineThickness get Ts mul /Tt exch def
  ux uy To add cs add moveto Tcx uy To add cs add lineto
  Tt setlinewidth stroke
  grestore
} bd
/SOE {
  /Tcx currentpoint pop def
  gsave
  newpath
  cf findfont cs scalefont dup
  /FontMatrix get 0 get /Ts exch def /FontInfo get dup
  /UnderlinePosition get Ts mul /To exch def
  /UnderlineThickness get Ts mul /Tt exch def
  ux uy To add cs 10 mul 26 idiv add moveto Tcx uy To add cs 10 mul 26 idiv add lineto
  Tt setlinewidth stroke
  grestore
} bd
/QT {
/Y22 exch store
/X22 exch store
/Y21 exch store
/X21 exch store
currentpoint
/Y21 load 2 mul add 3 div exch
/X21 load 2 mul add 3 div exch
/X21 load 2 mul /X22 load add 3 div
/Y21 load 2 mul /Y22 load add 3 div
/X22 load /Y22 load curveto
} bd
/SSPD {
dup length /d exch dict def
{
/v exch def
/k exch def
currentpagedevice k known {
/cpdv currentpagedevice k get def
v cpdv ne {
/upd false def
/nullv v type /nulltype eq def
/nullcpdv cpdv type /nulltype eq def
nullv nullcpdv or
{
/upd true def
} {
/sametype v type cpdv type eq def
sametype {
v type /arraytype eq {
/vlen v length def
/cpdvlen cpdv length def
vlen cpdvlen eq {
0 1 vlen 1 sub {
/i exch def
/obj v i get def
/cpdobj cpdv i get def
obj cpdobj ne {
/upd true def
exit
} if
} for
} {
/upd true def
} ifelse
} {
v type /dicttype eq {
v {
/dv exch def
/dk exch def
/cpddv cpdv dk get def
dv cpddv ne {
/upd true def
exit
} if
} forall
} {
/upd true def
} ifelse
} ifelse
} if
} ifelse
upd true eq {
d k v put
} if
} if
} if
} forall
d length 0 gt {
d setpagedevice
} if
} bd
/RE { % /NewFontName [NewEncodingArray] /FontName RE -
  findfont dup length dict begin
  {
    1 index /FID ne
    {def} {pop pop} ifelse
  } forall
  /Encoding exch def
  /FontName 1 index def
  currentdict definefont pop
  end
} bind def
%%EndResource
%%BeginResource: procset (Apache XML Graphics EPS ProcSet) 1.0 0
%%Version: 1.0 0
%%Copyright: (Copyright 2002-2003 The Apache Software Foundation. License terms: http://www.apache.org/licenses/LICENSE-2.0)
/BeginEPSF { %def
/b4_Inc_state save def         % Save state for cleanup
/dict_count countdictstack def % Count objects on dict stack
/op_count count 1 sub def      % Count objects on operand stack
userdict begin                 % Push userdict on dict stack
/showpage { } def              % Redefine showpage, { } = null proc
0 setgray 0 setlinecap         % Prepare graphics state
1 setlinewidth 0 setlinejoin
10 setmiterlimit [ ] 0 setdash newpath
/languagelevel where           % If level not equal to 1 then
{pop languagelevel             % set strokeadjust and
1 ne                           % overprint to their defaults.
{false setstrokeadjust false setoverprint
} if
} if
} bd
/EndEPSF { %def
count op_count sub {pop} repeat            % Clean up stacks
countdictstack dict_count sub {end} repeat
b4_Inc_state restore
} bd
%%EndResource
%FOPBeginFontDict
%%IncludeResource: font Courier-Oblique
%%IncludeResource: font Courier-BoldOblique
%%IncludeResource: font Courier-Bold
%%IncludeResource: font ZapfDingbats
%%IncludeResource: font Symbol
%%IncludeResource: font Helvetica
%%IncludeResource: font Helvetica-Oblique
%%IncludeResource: font Helvetica-Bold
%%IncludeResource: font Helvetica-BoldOblique
%%IncludeResource: font Times-Roman
%%IncludeResource: font Times-Italic
%%IncludeResource: font Times-Bold
%%IncludeResource: font Times-BoldItalic
%%IncludeResource: font Courier
%FOPEndFontDict
%%BeginResource: encoding WinAnsiEncoding
/WinAnsiEncoding [
/.notdef /.notdef /.notdef /.notdef /.notdef
/.notdef /.notdef /.notdef /.notdef /.notdef
/.notdef /.notdef /.notdef /.notdef /.notdef
/.notdef /.notdef /.notdef /.notdef /.notdef
/.notdef /.notdef /.notdef /.notdef /.notdef
/.notdef /.notdef /.notdef /.notdef /.notdef
/.notdef /.notdef /space /exclam /quotedbl
/numbersign /dollar /percent /ampersand /quotesingle
/parenleft /parenright /asterisk /plus /comma
/hyphen /period /slash /zero /one
/two /three /four /five /six
/seven /eight /nine /colon /semicolon
/less /equal /greater /question /at
/A /B /C /D /E
/F /G /H /I /J
/K /L /M /N /O
/P /Q /R /S /T
/U /V /W /X /Y
/Z /bracketleft /backslash /bracketright /asciicircum
/underscore /quoteleft /a /b /c
/d /e /f /g /h
/i /j /k /l /m
/n /o /p /q /r
/s /t /u /v /w
/x /y /z /braceleft /bar
/braceright /asciitilde /bullet /Euro /bullet
/quotesinglbase /florin /quotedblbase /ellipsis /dagger
/daggerdbl /circumflex /perthousand /Scaron /guilsinglleft
/OE /bullet /Zcaron /bullet /bullet
/quoteleft /quoteright /quotedblleft /quotedblright /bullet
/endash /emdash /asciitilde /trademark /scaron
/guilsinglright /oe /bullet /zcaron /Ydieresis
/space /exclamdown /cent /sterling /currency
/yen /brokenbar /section /dieresis /copyright
/ordfeminine /guillemotleft /logicalnot /sfthyphen /registered
/macron /degree /plusminus /twosuperior /threesuperior
/acute /mu /paragraph /middot /cedilla
/onesuperior /ordmasculine /guillemotright /onequarter /onehalf
/threequarters /questiondown /Agrave /Aacute /Acircumflex
/Atilde /Adieresis /Aring /AE /Ccedilla
/Egrave /Eacute /Ecircumflex /Edieresis /Igrave
/Iacute /Icircumflex /Idieresis /Eth /Ntilde
/Ograve /Oacute /Ocircumflex /Otilde /Odieresis
/multiply /Oslash /Ugrave /Uacute /Ucircumflex
/Udieresis /Yacute /Thorn /germandbls /agrave
/aacute /acircumflex /atilde /adieresis /aring
/ae /ccedilla /egrave /eacute /ecircumflex
/edieresis /igrave /iacute /icircumflex /idieresis
/eth /ntilde /ograve /oacute /ocircumflex
/otilde /odieresis /divide /oslash /ugrave
/uacute /ucircumflex /udieresis /yacute /thorn
/ydieresis
] def
%%EndResource
%FOPBeginFontReencode
/Courier-Oblique findfont
dup length dict begin
  {1 index /FID ne {def} {pop pop} ifelse} forall
  /Encoding WinAnsiEncoding def
  currentdict
end
/Courier-Oblique exch definefont pop
/Courier-BoldOblique findfont
dup length dict begin
  {1 index /FID ne {def} {pop pop} ifelse} forall
  /Encoding WinAnsiEncoding def
  currentdict
end
/Courier-BoldOblique exch definefont pop
/Courier-Bold findfont
dup length dict begin
  {1 index /FID ne {def} {pop pop} ifelse} forall
  /Encoding WinAnsiEncoding def
  currentdict
end
/Courier-Bold exch definefont pop
/Helvetica findfont
dup length dict begin
  {1 index /FID ne {def} {pop pop} ifelse} forall
  /Encoding WinAnsiEncoding def
  currentdict
end
/Helvetica exch definefont pop
/Helvetica-Oblique findfont
dup length dict begin
  {1 index /FID ne {def} {pop pop} ifelse} forall
  /Encoding WinAnsiEncoding def
  currentdict
end
/Helvetica-Oblique exch definefont pop
/Helvetica-Bold findfont
dup length dict begin
  {1 index /FID ne {def} {pop pop} ifelse} forall
  /Encoding WinAnsiEncoding def
  currentdict
end
/Helvetica-Bold exch definefont pop
/Helvetica-BoldOblique findfont
dup length dict begin
  {1 index /FID ne {def} {pop pop} ifelse} forall
  /Encoding WinAnsiEncoding def
  currentdict
end
/Helvetica-BoldOblique exch definefont pop
/Times-Roman findfont
dup length dict begin
  {1 index /FID ne {def} {pop pop} ifelse} forall
  /Encoding WinAnsiEncoding def
  currentdict
end
/Times-Roman exch definefont pop
/Times-Italic findfont
dup length dict begin
  {1 index /FID ne {def} {pop pop} ifelse} forall
  /Encoding WinAnsiEncoding def
  currentdict
end
/Times-Italic exch definefont pop
/Times-Bold findfont
dup length dict begin
  {1 index /FID ne {def} {pop pop} ifelse} forall
  /Encoding WinAnsiEncoding def
  currentdict
end
/Times-Bold exch definefont pop
/Times-BoldItalic findfont
dup length dict begin
  {1 index /FID ne {def} {pop pop} ifelse} forall
  /Encoding WinAnsiEncoding def
  currentdict
end
/Times-BoldItalic exch definefont pop
/Courier findfont
dup length dict begin
  {1 index /FID ne {def} {pop pop} ifelse} forall
  /Encoding WinAnsiEncoding def
  currentdict
end
/Courier exch definefont pop
%FOPEndFontReencode
%%EndProlog
%%Page: 1 1
%%PageBoundingBox: 0 0 1440 722
%%BeginPageSetup
[1 0 0 -1 0 722] CT
%%EndPageSetup
GS
[0.75 0 0 0.75 0 -0.25] CT
1 GC
N
0 0 1920 963 re
f
GR
GS
[0.75 0 0 0.75 0 -0.25] CT
1 GC
N
0 0 1920 963 re
f
GR
GS
[0.75 0 0 0.75 0 -0.25] CT
1 GC
N
526.147 810 M
1461.853 810 L
1461.853 72 L
526.147 72 L
cp
f
GR
GS
[0.75 0 0 0.75 0 -0.25] CT
0.149 GC
2 setlinecap
1 LJ
0.667 LW
N
526.147 810 M
1461.853 810 L
S
GR
GS
[0.75 0 0 0.75 0 -0.25] CT
0.149 GC
2 setlinecap
1 LJ
0.667 LW
N
586.535 810 M
586.535 800.643 L
S
GR
GS
[0.75 0 0 0.75 0 -0.25] CT
0.149 GC
2 setlinecap
1 LJ
0.667 LW
N
779.134 810 M
779.134 800.643 L
S
GR
GS
[0.75 0 0 0.75 0 -0.25] CT
0.149 GC
2 setlinecap
1 LJ
0.667 LW
N
971.732 810 M
971.732 800.643 L
S
GR
GS
[0.75 0 0 0.75 0 -0.25] CT
0.149 GC
2 setlinecap
1 LJ
0.667 LW
N
1164.33 810 M
1164.33 800.643 L
S
GR
GS
[0.75 0 0 0.75 0 -0.25] CT
0.149 GC
2 setlinecap
1 LJ
0.667 LW
N
1356.929 810 M
1356.929 800.643 L
S
GR
GS
[0.75 0 0 0.75 439.90141 617.24998] CT
0.149 GC
/Helvetica 53.333 F
GS
[1 0 0 1 0 0] CT
-24 54 moveto 
1 -1 scale
(-5) t 
GR
GR
GS
[0.75 0 0 0.75 584.3502 617.24998] CT
0.149 GC
/Helvetica 53.333 F
GS
[1 0 0 1 0 0] CT
-15 54 moveto 
1 -1 scale
(0) t 
GR
GR
GS
[0.75 0 0 0.75 728.79895 617.24998] CT
0.149 GC
/Helvetica 53.333 F
GS
[1 0 0 1 0 0] CT
-15 54 moveto 
1 -1 scale
(5) t 
GR
GR
GS
[0.75 0 0 0.75 873.24774 617.24998] CT
0.149 GC
/Helvetica 53.333 F
GS
[1 0 0 1 0 0] CT
-30 54 moveto 
1 -1 scale
(10) t 
GR
GR
GS
[0.75 0 0 0.75 1017.69644 617.24998] CT
0.149 GC
/Helvetica 53.333 F
GS
[1 0 0 1 0 0] CT
-30 54 moveto 
1 -1 scale
(15) t 
GR
GR
GS
[0.75 0 0 0.75 745.50032 667.75002] CT
0.149 GC
/Helvetica 58.667 F
GS
[1 0 0 1 0 0] CT
-34.5 59 moveto 
1 -1 scale
(Xs) t 
GR
GR
GS
[0.75 0 0 0.75 0 -0.25] CT
0.149 GC
2 setlinecap
1 LJ
0.667 LW
N
526.147 810 M
526.147 72 L
S
GR
GS
[0.75 0 0 0.75 0 -0.25] CT
0.149 GC
2 setlinecap
1 LJ
0.667 LW
N
526.147 785.361 M
535.504 785.361 L
S
GR
GS
[0.75 0 0 0.75 0 -0.25] CT
0.149 GC
2 setlinecap
1 LJ
0.667 LW
N
526.147 592.763 M
535.504 592.763 L
S
GR
GS
[0.75 0 0 0.75 0 -0.25] CT
0.149 GC
2 setlinecap
1 LJ
0.667 LW
N
526.147 400.165 M
535.504 400.165 L
S
GR
GS
[0.75 0 0 0.75 0 -0.25] CT
0.149 GC
2 setlinecap
1 LJ
0.667 LW
N
526.147 207.566 M
535.504 207.566 L
S
GR
GS
[0.75 0 0 0.75 384.61043 588.77104] CT
0.149 GC
/Helvetica 53.333 F
GS
[1 0 0 1 0 0] CT
-30 21 moveto 
1 -1 scale
(0) t 
GR
GR
GS
[0.75 0 0 0.75 384.61043 444.3223] CT
0.149 GC
/Helvetica 53.333 F
GS
[1 0 0 1 0 0] CT
-30 21 moveto 
1 -1 scale
(5) t 
GR
GR
GS
[0.75 0 0 0.75 384.61043 299.87353] CT
0.149 GC
/Helvetica 53.333 F
GS
[1 0 0 1 0 0] CT
-60 21 moveto 
1 -1 scale
(10) t 
GR
GR
GS
[0.75 0 0 0.75 384.61043 155.42477] CT
0.149 GC
/Helvetica 53.333 F
GS
[1 0 0 1 0 0] CT
-60 21 moveto 
1 -1 scale
(15) t 
GR
GR
GS
[0 -0.75 0.75 0 336.61043 330.49975] CT
0.149 GC
/Helvetica 58.667 F
GS
[1 0 0 1 0 0] CT
-34.5 -13 moveto 
1 -1 scale
(Ys) t 
GR
GR
GS
[0.75 0 0 0.75 699.90921 386.54277] CT
1 0 0 RC
N
0 -26.66 M
-23.088 13.33 L
23.088 13.33 L
cp
f
GR
GS
[0.75 0 0 0.75 699.90921 386.54277] CT
0 0 1 RC
10.0 ML
0.667 LW
N
0 -26.66 M
-23.088 13.33 L
23.088 13.33 L
cp
S
GR
GS
[0.75 0 0 0.75 671.01942 357.65303] CT
1 0 0 RC
N
/f-1996900118{0 -26.66 M
-23.088 13.33 L
23.088 13.33 L
cp}def
f-1996900118
f
GR
GS
[0.75 0 0 0.75 671.01942 357.65303] CT
0 0 1 RC
10.0 ML
0.667 LW
N
0 -26.66 M
-23.088 13.33 L
23.088 13.33 L
cp
S
GR
GS
[0.75 0 0 0.75 786.57843 386.54277] CT
1 0 0 RC
N
f-1996900118
f
GR
GS
[0.75 0 0 0.75 786.57843 386.54277] CT
0 0 1 RC
10.0 ML
0.667 LW
N
0 -26.66 M
-23.088 13.33 L
23.088 13.33 L
cp
S
GR
GS
[0.75 0 0 0.75 728.79895 502.10182] CT
1 0 0 RC
N
f-1996900118
f
GR
GS
[0.75 0 0 0.75 728.79895 502.10182] CT
0 0 1 RC
10.0 ML
0.667 LW
N
0 -26.66 M
-23.088 13.33 L
23.088 13.33 L
cp
S
GR
GS
[0.75 0 0 0.75 728.79895 328.76329] CT
1 0 0 RC
N
f-1996900118
f
GR
GS
[0.75 0 0 0.75 728.79895 328.76329] CT
0 0 1 RC
10.0 ML
0.667 LW
N
0 -26.66 M
-23.088 13.33 L
23.088 13.33 L
cp
S
GR
GS
[0.75 0 0 0.75 699.90921 444.3223] CT
1 0 0 RC
N
f-1996900118
f
GR
GS
[0.75 0 0 0.75 699.90921 444.3223] CT
0 0 1 RC
10.0 ML
0.667 LW
N
0 -26.66 M
-23.088 13.33 L
23.088 13.33 L
cp
S
GR
GS
[0.75 0 0 0.75 815.46817 502.10182] CT
1 0 0 RC
N
f-1996900118
f
GR
GS
[0.75 0 0 0.75 815.46817 502.10182] CT
0 0 1 RC
10.0 ML
0.667 LW
N
0 -26.66 M
-23.088 13.33 L
23.088 13.33 L
cp
S
GR
GS
[0.75 0 0 0.75 757.68869 357.65303] CT
1 0 0 RC
N
f-1996900118
f
GR
GS
[0.75 0 0 0.75 757.68869 357.65303] CT
0 0 1 RC
10.0 ML
0.667 LW
N
0 -26.66 M
-23.088 13.33 L
23.088 13.33 L
cp
S
GR
GS
[0.75 0 0 0.75 689.46515 182.02039] CT
0 1 1 RC
10.0 ML
0.667 LW
N
0 -4 M
0 4 L
-4 0 M
4 0 L
-2.828 -2.828 M
2.828 2.828 L
-2.828 2.828 M
2.828 -2.828 L
S
GR
GS
[0.75 0 0 0.75 0 -0.25] CT
0 1 1 RC
1 LJ
0.667 LW
N
916.016 241.465 M
915.838 241.312 L
916.067 241.363 L
S
GR
GS
[0.75 0 0 0.75 0 -0.25] CT
0 1 1 RC
1 LJ
0.667 LW
N
919.287 243.027 M
915.838 241.312 L
S
GR
GS
[0.75 0 0 0.75 0 -0.25] CT
0 1 1 RC
1 LJ
0.667 LW
N
924.507 285.929 M
913.674 285.88 L
903.193 283.137 L
893.724 277.875 L
885.861 270.423 L
880.098 261.249 L
876.797 250.931 L
876.167 240.116 L
878.245 229.484 L
882.903 219.703 L
889.846 211.387 L
898.64 205.06 L
908.731 201.118 L
919.485 199.809 L
930.227 201.216 L
940.281 205.25 L
949.016 211.658 L
955.883 220.037 L
960.451 229.86 L
962.432 240.511 L
961.702 251.32 L
958.307 261.608 L
952.461 270.728 L
944.53 278.108 L
935.012 283.283 L
924.507 285.929 L
S
GR
GS
[0.75 0 0 0.75 665.25018 157.80681] CT
0 1 1 RC
10.0 ML
0.667 LW
N
0 -4 M
0 4 L
-4 0 M
4 0 L
-2.828 -2.828 M
2.828 2.828 L
-2.828 2.828 M
2.828 -2.828 L
S
GR
GS
[0.75 0 0 0.75 0 -0.25] CT
0 1 1 RC
1 LJ
0.667 LW
N
883.729 209.18 M
883.551 209.028 L
883.78 209.078 L
S
GR
GS
[0.75 0 0 0.75 0 -0.25] CT
0 1 1 RC
1 LJ
0.667 LW
N
887 210.742 M
883.551 209.028 L
S
GR
GS
[0.75 0 0 0.75 0 -0.25] CT
0 1 1 RC
1 LJ
0.667 LW
N
893.272 253.503 M
882.441 253.72 L
871.896 251.236 L
862.3 246.207 L
854.257 238.95 L
848.27 229.921 L
844.717 219.687 L
843.821 208.891 L
845.639 198.211 L
850.055 188.318 L
856.792 179.835 L
865.427 173.293 L
875.419 169.105 L
886.137 167.533 L
896.91 168.675 L
907.061 172.462 L
915.95 178.653 L
923.021 186.861 L
927.829 196.569 L
930.071 207.168 L
929.606 217.991 L
926.465 228.359 L
920.844 237.62 L
913.096 245.193 L
903.709 250.6 L
893.272 253.503 L
S
GR
GS
[0.75 0 0 0.75 661.33228 153.88759] CT
0 1 1 RC
10.0 ML
0.667 LW
N
0 -4 M
0 4 L
-4 0 M
4 0 L
-2.828 -2.828 M
2.828 2.828 L
-2.828 2.828 M
2.828 -2.828 L
S
GR
GS
[0.75 0 0 0.75 0 -0.25] CT
0 1 1 RC
1 LJ
0.667 LW
N
878.506 203.954 M
878.327 203.802 L
878.556 203.852 L
S
GR
GS
[0.75 0 0 0.75 0 -0.25] CT
0 1 1 RC
1 LJ
0.667 LW
N
881.776 205.517 M
878.327 203.802 L
S
GR
GS
[0.75 0 0 0.75 0 -0.25] CT
0 1 1 RC
1 LJ
0.667 LW
N
924.689 200.382 M
922.064 189.872 L
916.907 180.344 L
909.543 172.398 L
900.435 166.533 L
890.154 163.118 L
879.346 162.367 L
868.692 164.327 L
858.859 168.875 L
850.467 175.725 L
844.041 184.448 L
839.987 194.494 L
838.559 205.233 L
839.846 215.989 L
843.768 226.088 L
850.078 234.894 L
858.379 241.854 L
868.151 246.531 L
878.779 248.631 L
889.595 248.022 L
899.92 244.742 L
909.105 238.998 L
916.573 231.149 L
921.854 221.691 L
924.617 211.215 L
924.689 200.382 L
S
GR
GS
[0.75 0 0 0.75 717.59779 125.75488] CT
0 1 1 RC
10.0 ML
0.667 LW
N
0 -4 M
0 4 L
-4 0 M
4 0 L
-2.828 -2.828 M
2.828 2.828 L
-2.828 2.828 M
2.828 -2.828 L
S
GR
GS
[0.75 0 0 0.75 0 -0.25] CT
0 1 1 RC
1 LJ
0.667 LW
N
953.526 166.444 M
953.348 166.292 L
953.577 166.342 L
S
GR
GS
[0.75 0 0 0.75 0 -0.25] CT
0 1 1 RC
1 LJ
0.667 LW
N
956.797 168.007 M
953.348 166.292 L
S
GR
GS
[0.75 0 0 0.75 0 -0.25] CT
0 1 1 RC
1 LJ
0.667 LW
N
962.119 210.896 M
951.285 210.872 L
940.798 208.155 L
931.316 202.914 L
923.436 195.481 L
917.651 186.321 L
914.326 176.01 L
913.67 165.197 L
915.724 154.56 L
920.358 144.768 L
927.282 136.436 L
936.061 130.088 L
946.142 126.122 L
956.893 124.788 L
967.638 126.17 L
977.702 130.18 L
986.452 136.567 L
993.339 144.93 L
997.93 154.743 L
999.936 165.389 L
999.232 176.199 L
995.861 186.495 L
990.036 195.629 L
982.122 203.027 L
972.618 208.225 L
962.119 210.896 L
S
GR
GS
[0.75 0 0 0.75 721.51593 129.67389] CT
0 1 1 RC
10.0 ML
0.667 LW
N
0 -4 M
0 4 L
-4 0 M
4 0 L
-2.828 -2.828 M
2.828 2.828 L
-2.828 2.828 M
2.828 -2.828 L
S
GR
GS
[0.75 0 0 0.75 0 -0.25] CT
0 1 1 RC
1 LJ
0.667 LW
N
958.75 171.669 M
958.572 171.517 L
958.801 171.568 L
S
GR
GS
[0.75 0 0 0.75 0 -0.25] CT
0 1 1 RC
1 LJ
0.667 LW
N
962.021 173.232 M
958.572 171.517 L
S
GR
GS
[0.75 0 0 0.75 0 -0.25] CT
0 1 1 RC
1 LJ
0.667 LW
N
968.569 215.952 M
957.739 216.238 L
947.178 213.822 L
937.55 208.855 L
929.46 201.65 L
923.416 192.66 L
919.797 182.449 L
918.831 171.658 L
920.58 160.967 L
924.932 151.046 L
931.614 142.519 L
940.207 135.922 L
950.171 131.67 L
960.88 130.029 L
971.66 131.102 L
981.834 134.822 L
990.764 140.957 L
997.887 149.118 L
1002.757 158.796 L
1005.068 169.38 L
1004.673 180.206 L
1001.599 190.594 L
996.038 199.891 L
988.339 207.513 L
978.987 212.981 L
968.569 215.952 L
S
GR
GS
[0.75 0 0 0.75 745.73058 153.88762] CT
0 1 1 RC
10.0 ML
0.667 LW
N
0 -4 M
0 4 L
-4 0 M
4 0 L
-2.828 -2.828 M
2.828 2.828 L
-2.828 2.828 M
2.828 -2.828 L
S
GR
GS
[0.75 0 0 0.75 0 -0.25] CT
0 1 1 RC
1 LJ
0.667 LW
N
991.037 203.954 M
990.858 203.802 L
991.087 203.853 L
S
GR
GS
[0.75 0 0 0.75 0 -0.25] CT
0 1 1 RC
1 LJ
0.667 LW
N
994.307 205.517 M
990.858 203.802 L
S
GR
GS
[0.75 0 0 0.75 0 -0.25] CT
0 1 1 RC
1 LJ
0.667 LW
N
1037.188 200.125 M
1034.5 189.631 L
1029.287 180.134 L
1021.875 172.233 L
1012.732 166.422 L
1002.431 163.069 L
991.619 162.382 L
980.976 164.406 L
971.171 169.013 L
962.82 175.913 L
956.447 184.674 L
952.453 194.744 L
951.089 205.491 L
952.44 216.24 L
956.423 226.315 L
962.785 235.083 L
971.128 241.994 L
980.928 246.612 L
991.568 248.648 L
1002.381 247.975 L
1012.686 244.633 L
1021.836 238.833 L
1029.257 230.941 L
1034.482 221.45 L
1037.182 210.959 L
1037.188 200.125 L
S
GR
GS
[0.75 0 0 0.75 665.25027 157.84003] CT
0 0 1 RC
10.0 ML
0.667 LW
N
0 -4 M
0 4 L
-4 0 M
4 0 L
-2.828 -2.828 M
2.828 2.828 L
-2.828 2.828 M
2.828 -2.828 L
S
GR
GS
[0.75 0 0 0.75 0 -0.25] CT
0 1 1 RC
1 LJ
0.667 LW
N
883.73 209.224 M
883.551 209.072 L
883.78 209.122 L
S
GR
GS
[0.75 0 0 0.75 0 -0.25] CT
0 1 1 RC
1 LJ
0.667 LW
N
887 210.787 M
883.551 209.072 L
S
GR
GS
[0.75 0 0 0.75 0 -0.25] CT
0 1 1 RC
1 LJ
0.667 LW
N
893.61 253.497 M
882.78 253.799 L
872.216 251.398 L
862.581 246.445 L
854.48 239.252 L
848.423 230.271 L
844.79 220.065 L
843.808 209.276 L
845.541 198.582 L
849.879 188.655 L
856.549 180.118 L
865.133 173.509 L
875.09 169.242 L
885.796 167.585 L
896.578 168.643 L
906.758 172.349 L
915.696 178.47 L
922.832 186.621 L
927.716 196.291 L
930.041 206.872 L
929.662 217.699 L
926.603 228.092 L
921.055 237.397 L
913.368 245.03 L
904.024 250.511 L
893.61 253.497 L
S
GR
GS
[0.75 0 0 0.75 717.59789 125.7881] CT
0 1 1 RC
10.0 ML
0.667 LW
N
0 -4 M
0 4 L
-4 0 M
4 0 L
-2.828 -2.828 M
2.828 2.828 L
-2.828 2.828 M
2.828 -2.828 L
S
GR
GS
[0.75 0 0 0.75 0 -0.25] CT
0 1 1 RC
1 LJ
0.667 LW
N
953.526 166.488 M
953.348 166.336 L
953.577 166.386 L
S
GR
GS
[0.75 0 0 0.75 0 -0.25] CT
0 1 1 RC
1 LJ
0.667 LW
N
956.797 168.051 M
953.348 166.336 L
S
GR
GS
[0.75 0 0 0.75 0 -0.25] CT
0 1 1 RC
1 LJ
0.667 LW
N
999.681 162.684 M
996.999 152.188 L
991.791 142.688 L
984.384 134.782 L
975.244 128.967 L
964.945 125.607 L
954.134 124.914 L
943.49 126.932 L
933.682 131.533 L
925.327 138.429 L
918.949 147.186 L
914.949 157.254 L
913.579 168.001 L
914.924 178.75 L
918.9 188.827 L
925.258 197.599 L
933.597 204.514 L
943.394 209.138 L
954.033 211.181 L
964.846 210.513 L
975.153 207.177 L
984.307 201.383 L
991.732 193.495 L
996.962 184.007 L
999.669 173.517 L
999.681 162.684 L
S
GR
GS
[0.75 0 0 0.75 717.59583 125.75212] CT
0 1 1 RC
10.0 ML
0.667 LW
N
0 -4 M
0 4 L
-4 0 M
4 0 L
-2.828 -2.828 M
2.828 2.828 L
-2.828 2.828 M
2.828 -2.828 L
S
GR
GS
[0.75 0 0 0.75 0 -0.25] CT
0 1 1 RC
1 LJ
0.667 LW
N
953.524 166.44 M
953.345 166.288 L
953.574 166.339 L
S
GR
GS
[0.75 0 0 0.75 0 -0.25] CT
0 1 1 RC
1 LJ
0.667 LW
N
956.794 168.003 M
953.345 166.288 L
S
GR
GS
[0.75 0 0 0.75 0 -0.25] CT
0 1 1 RC
1 LJ
0.667 LW
N
962.16 210.887 M
951.326 210.874 L
940.837 208.167 L
931.349 202.937 L
923.461 195.512 L
917.667 186.358 L
914.332 176.05 L
913.664 165.238 L
915.707 154.599 L
920.332 144.802 L
927.247 136.463 L
936.019 130.105 L
946.096 126.129 L
956.846 124.784 L
967.592 126.155 L
977.66 130.155 L
986.417 136.533 L
993.313 144.889 L
997.914 154.697 L
999.931 165.341 L
999.238 176.152 L
995.878 186.451 L
990.062 195.591 L
982.156 202.998 L
972.656 208.205 L
962.16 210.887 L
S
GR
GS
[0.75 0 0 0.75 689.4635 182.01994] CT
0 1 1 RC
10.0 ML
0.667 LW
N
0 -4 M
0 4 L
-4 0 M
4 0 L
-2.828 -2.828 M
2.828 2.828 L
-2.828 2.828 M
2.828 -2.828 L
S
GR
GS
[0.75 0 0 0.75 0 -0.25] CT
0 1 1 RC
1 LJ
0.667 LW
N
916.014 241.464 M
915.835 241.312 L
916.065 241.362 L
S
GR
GS
[0.75 0 0 0.75 0 -0.25] CT
0 1 1 RC
1 LJ
0.667 LW
N
919.285 243.027 M
915.835 241.312 L
S
GR
GS
[0.75 0 0 0.75 0 -0.25] CT
0 1 1 RC
1 LJ
0.667 LW
N
925.645 285.774 M
914.814 286.013 L
904.264 283.551 L
894.658 278.542 L
886.6 271.302 L
880.595 262.286 L
877.021 252.059 L
876.102 241.264 L
877.897 230.581 L
882.293 220.679 L
889.012 212.181 L
897.634 205.622 L
907.617 201.413 L
918.332 199.819 L
929.107 200.939 L
939.266 204.704 L
948.168 210.877 L
955.256 219.07 L
960.083 228.769 L
962.348 239.363 L
961.906 250.187 L
958.786 260.562 L
953.184 269.834 L
945.452 277.423 L
936.076 282.85 L
925.645 285.774 L
S
GR
GS
[0.75 0 0 0.75 665.25009 157.80621] CT
0 1 1 RC
10.0 ML
0.667 LW
N
0 -4 M
0 4 L
-4 0 M
4 0 L
-2.828 -2.828 M
2.828 2.828 L
-2.828 2.828 M
2.828 -2.828 L
S
GR
GS
[0.75 0 0 0.75 0 -0.25] CT
0 1 1 RC
1 LJ
0.667 LW
N
883.729 209.179 M
883.551 209.027 L
883.78 209.077 L
S
GR
GS
[0.75 0 0 0.75 0 -0.25] CT
0 1 1 RC
1 LJ
0.667 LW
N
887 210.742 M
883.551 209.027 L
S
GR
GS
[0.75 0 0 0.75 0 -0.25] CT
0 1 1 RC
1 LJ
0.667 LW
N
893.58 253.456 M
882.751 253.751 L
872.188 251.343 L
862.556 246.384 L
854.461 239.185 L
848.409 230.199 L
844.783 219.991 L
843.809 209.201 L
845.549 198.508 L
849.894 188.584 L
856.57 180.052 L
865.158 173.449 L
875.119 169.188 L
885.826 167.539 L
896.607 168.604 L
906.784 172.317 L
915.718 178.444 L
922.848 186.601 L
927.725 196.274 L
930.044 206.857 L
929.657 217.683 L
926.591 228.074 L
921.037 237.375 L
913.344 245.003 L
903.996 250.478 L
893.58 253.456 L
S
GR
GS
[0.75 0 0 0.75 661.33159 153.88735] CT
0 1 1 RC
10.0 ML
0.667 LW
N
0 -4 M
0 4 L
-4 0 M
4 0 L
-2.828 -2.828 M
2.828 2.828 L
-2.828 2.828 M
2.828 -2.828 L
S
GR
GS
[0.75 0 0 0.75 0 -0.25] CT
0 1 1 RC
1 LJ
0.667 LW
N
878.505 203.954 M
878.326 203.802 L
878.555 203.852 L
S
GR
GS
[0.75 0 0 0.75 0 -0.25] CT
0 1 1 RC
1 LJ
0.667 LW
N
881.775 205.516 M
878.326 203.802 L
S
GR
GS
[0.75 0 0 0.75 0 -0.25] CT
0 1 1 RC
1 LJ
0.667 LW
N
924.562 199.42 M
921.702 188.971 L
916.333 179.562 L
908.792 171.783 L
899.554 166.124 L
889.199 162.94 L
878.378 162.432 L
867.77 164.63 L
858.042 169.398 L
849.805 176.435 L
843.577 185.299 L
839.75 195.434 L
838.562 206.202 L
840.091 216.927 L
844.238 226.935 L
850.744 235.598 L
859.2 242.37 L
869.074 246.826 L
879.746 248.687 L
890.546 247.836 L
900.795 244.325 L
909.849 238.376 L
917.138 230.362 L
922.206 220.787 L
924.734 210.252 L
924.562 199.42 L
S
GR
GS
[0.75 0 0 0.75 717.59729 125.75443] CT
0 1 1 RC
10.0 ML
0.667 LW
N
0 -4 M
0 4 L
-4 0 M
4 0 L
-2.828 -2.828 M
2.828 2.828 L
-2.828 2.828 M
2.828 -2.828 L
S
GR
GS
[0.75 0 0 0.75 0 -0.25] CT
0 1 1 RC
1 LJ
0.667 LW
N
953.526 166.443 M
953.347 166.291 L
953.576 166.342 L
S
GR
GS
[0.75 0 0 0.75 0 -0.25] CT
0 1 1 RC
1 LJ
0.667 LW
N
956.796 168.006 M
953.347 166.291 L
S
GR
GS
[0.75 0 0 0.75 0 -0.25] CT
0 1 1 RC
1 LJ
0.667 LW
N
962.162 210.89 M
951.328 210.877 L
940.838 208.17 L
931.351 202.94 L
923.463 195.514 L
917.669 186.36 L
914.334 176.053 L
913.667 165.24 L
915.709 154.601 L
920.334 144.805 L
927.249 136.465 L
936.021 130.108 L
946.099 126.132 L
956.848 124.787 L
967.595 126.158 L
977.662 130.158 L
986.419 136.537 L
993.315 144.892 L
997.916 154.7 L
999.933 165.344 L
999.24 176.155 L
995.88 186.454 L
990.064 195.594 L
982.158 203.001 L
972.658 208.208 L
962.162 210.89 L
S
GR
GS
[0.75 0 0 0.75 721.51547 129.67346] CT
0 1 1 RC
10.0 ML
0.667 LW
N
0 -4 M
0 4 L
-4 0 M
4 0 L
-2.828 -2.828 M
2.828 2.828 L
-2.828 2.828 M
2.828 -2.828 L
S
GR
GS
[0.75 0 0 0.75 0 -0.25] CT
0 1 1 RC
1 LJ
0.667 LW
N
958.75 171.669 M
958.571 171.517 L
958.801 171.567 L
S
GR
GS
[0.75 0 0 0.75 0 -0.25] CT
0 1 1 RC
1 LJ
0.667 LW
N
962.021 173.231 M
958.571 171.517 L
S
GR
GS
[0.75 0 0 0.75 0 -0.25] CT
0 1 1 RC
1 LJ
0.667 LW
N
968.588 215.948 M
957.758 216.239 L
947.196 213.828 L
937.566 208.866 L
929.473 201.665 L
923.424 192.677 L
919.801 182.468 L
918.83 171.678 L
920.573 160.986 L
924.921 151.063 L
931.6 142.533 L
940.19 135.932 L
950.152 131.675 L
960.859 130.028 L
971.64 131.097 L
981.816 134.813 L
990.748 140.943 L
997.876 149.101 L
1002.75 158.776 L
1005.065 169.359 L
1004.676 180.186 L
1001.606 190.575 L
996.049 199.875 L
988.354 207.5 L
979.005 212.973 L
968.588 215.948 L
S
GR
GS
[0.75 0 0 0.75 745.73003 153.88721] CT
0 1 1 RC
10.0 ML
0.667 LW
N
0 -4 M
0 4 L
-4 0 M
4 0 L
-2.828 -2.828 M
2.828 2.828 L
-2.828 2.828 M
2.828 -2.828 L
S
GR
GS
[0.75 0 0 0.75 0 -0.25] CT
0 1 1 RC
1 LJ
0.667 LW
N
991.036 203.954 M
990.857 203.802 L
991.087 203.852 L
S
GR
GS
[0.75 0 0 0.75 0 -0.25] CT
0 1 1 RC
1 LJ
0.667 LW
N
994.307 205.516 M
990.857 203.802 L
S
GR
GS
[0.75 0 0 0.75 0 -0.25] CT
0 1 1 RC
1 LJ
0.667 LW
N
999.744 248.391 M
988.911 248.397 L
978.416 245.708 L
968.921 240.493 L
961.02 233.081 L
955.21 223.937 L
951.858 213.635 L
951.172 202.823 L
953.197 192.181 L
957.805 182.376 L
964.706 174.026 L
973.468 167.654 L
983.538 163.661 L
994.286 162.298 L
1005.034 163.65 L
1015.109 167.634 L
1023.877 173.997 L
1030.786 182.341 L
1035.403 192.141 L
1037.439 202.782 L
1036.764 213.594 L
1033.421 223.899 L
1027.62 233.049 L
1019.727 240.468 L
1010.236 245.692 L
999.744 248.391 L
S
GR
GS
[0.75 0 0 0.75 689.46442 182.01698] CT
0 1 1 RC
10.0 ML
0.667 LW
N
0 -4 M
0 4 L
-4 0 M
4 0 L
-2.828 -2.828 M
2.828 2.828 L
-2.828 2.828 M
2.828 -2.828 L
S
GR
GS
[0.75 0 0 0.75 0 -0.25] CT
0 1 1 RC
1 LJ
0.667 LW
N
916.015 241.46 M
915.837 241.308 L
916.066 241.358 L
S
GR
GS
[0.75 0 0 0.75 0 -0.25] CT
0 1 1 RC
1 LJ
0.667 LW
N
919.286 243.023 M
915.837 241.308 L
S
GR
GS
[0.75 0 0 0.75 0 -0.25] CT
0 1 1 RC
1 LJ
0.667 LW
N
925.646 285.771 M
914.816 286.009 L
904.266 283.547 L
894.66 278.539 L
886.601 271.298 L
880.596 262.282 L
877.022 252.055 L
876.103 241.26 L
877.898 230.577 L
882.294 220.675 L
889.014 212.178 L
897.635 205.618 L
907.618 201.409 L
918.333 199.815 L
929.109 200.935 L
939.267 204.7 L
948.169 210.873 L
955.257 219.066 L
960.085 228.765 L
962.349 239.359 L
961.907 250.183 L
958.787 260.558 L
953.185 269.83 L
945.454 277.419 L
936.078 282.846 L
925.646 285.771 L
S
GR
GS
[0.75 0 0 0.75 665.24387 157.80431] CT
0 1 1 RC
10.0 ML
0.667 LW
N
0 -4 M
0 4 L
-4 0 M
4 0 L
-2.828 -2.828 M
2.828 2.828 L
-2.828 2.828 M
2.828 -2.828 L
S
GR
GS
[0.75 0 0 0.75 0 -0.25] CT
0 1 1 RC
1 LJ
0.667 LW
N
883.721 209.177 M
883.543 209.024 L
883.772 209.075 L
S
GR
GS
[0.75 0 0 0.75 0 -0.25] CT
0 1 1 RC
1 LJ
0.667 LW
N
886.992 210.739 M
883.543 209.024 L
S
GR
GS
[0.75 0 0 0.75 0 -0.25] CT
0 1 1 RC
1 LJ
0.667 LW
N
929.708 204.167 M
926.731 193.751 L
921.258 184.402 L
913.632 176.708 L
904.332 171.152 L
893.942 168.083 L
883.115 167.695 L
872.532 170.011 L
862.858 174.887 L
854.7 182.015 L
848.571 190.948 L
844.856 201.124 L
843.789 211.905 L
845.436 222.613 L
849.695 232.574 L
856.297 241.163 L
864.827 247.841 L
874.75 252.188 L
885.443 253.93 L
896.233 252.958 L
906.442 249.334 L
915.429 243.284 L
922.629 235.19 L
927.59 225.559 L
930 214.997 L
929.708 204.167 L
S
GR
GS
[0.75 0 0 0.75 661.32477 153.88494] CT
0 0 1 RC
10.0 ML
0.667 LW
N
0 -4 M
0 4 L
-4 0 M
4 0 L
-2.828 -2.828 M
2.828 2.828 L
-2.828 2.828 M
2.828 -2.828 L
S
GR
GS
[0.75 0 0 0.75 0 -0.25] CT
0 0 1 RC
1 LJ
0.667 LW
N
878.496 203.951 M
878.317 203.799 L
878.546 203.849 L
S
GR
GS
[0.75 0 0 0.75 0 -0.25] CT
0 0 1 RC
1 LJ
0.667 LW
N
881.766 205.513 M
878.317 203.799 L
S
GR
GS
[0.75 0 0 0.75 0 -0.25] CT
0 1 1 RC
1 LJ
0.667 LW
N
924.553 199.417 M
921.692 188.968 L
916.323 179.559 L
908.783 171.78 L
899.545 166.121 L
889.19 162.937 L
878.369 162.429 L
867.761 164.627 L
858.033 169.395 L
849.796 176.432 L
843.568 185.296 L
839.74 195.431 L
838.553 206.199 L
840.081 216.924 L
844.229 226.932 L
850.735 235.594 L
859.19 242.367 L
869.065 246.823 L
879.737 248.684 L
890.537 247.832 L
900.786 244.322 L
909.84 238.373 L
917.129 230.359 L
922.197 220.784 L
924.725 210.249 L
924.553 199.417 L
S
GR
GS
[0.75 0 0 0.75 717.59537 125.75167] CT
0 1 1 RC
10.0 ML
0.667 LW
N
0 -4 M
0 4 L
-4 0 M
4 0 L
-2.828 -2.828 M
2.828 2.828 L
-2.828 2.828 M
2.828 -2.828 L
S
GR
GS
[0.75 0 0 0.75 0 -0.25] CT
0 1 1 RC
1 LJ
0.667 LW
N
953.523 166.44 M
953.345 166.288 L
953.574 166.338 L
S
GR
GS
[0.75 0 0 0.75 0 -0.25] CT
0 1 1 RC
1 LJ
0.667 LW
N
956.794 168.002 M
953.345 166.288 L
S
GR
GS
[0.75 0 0 0.75 0 -0.25] CT
0 1 1 RC
1 LJ
0.667 LW
N
999.678 162.637 M
996.996 152.14 L
991.789 142.641 L
984.382 134.735 L
975.242 128.919 L
964.943 125.559 L
954.132 124.866 L
943.488 126.883 L
933.68 131.484 L
925.324 138.38 L
918.946 147.136 L
914.946 157.204 L
913.575 167.951 L
914.92 178.7 L
918.896 188.778 L
925.254 197.55 L
933.593 204.465 L
943.39 209.09 L
954.029 211.132 L
964.841 210.465 L
975.149 207.129 L
984.303 201.336 L
991.728 193.447 L
996.958 183.96 L
999.665 173.47 L
999.678 162.637 L
S
GR
GS
[0.75 0 0 0.75 721.51309 129.67081] CT
0 1 1 RC
10.0 ML
0.667 LW
N
0 -4 M
0 4 L
-4 0 M
4 0 L
-2.828 -2.828 M
2.828 2.828 L
-2.828 2.828 M
2.828 -2.828 L
S
GR
GS
[0.75 0 0 0.75 0 -0.25] CT
0 0 1 RC
1 LJ
0.667 LW
N
958.747 171.665 M
958.568 171.513 L
958.797 171.563 L
S
GR
GS
[0.75 0 0 0.75 0 -0.25] CT
0 0 1 RC
1 LJ
0.667 LW
N
962.017 173.228 M
958.568 171.513 L
S
GR
GS
[0.75 0 0 0.75 0 -0.25] CT
0 0 1 RC
1 LJ
10.667 LW
N
1004.734 166.66 M
1001.759 156.243 L
996.286 146.894 L
988.661 139.199 L
979.361 133.642 L
968.972 130.572 L
958.145 130.183 L
947.562 132.498 L
937.887 137.373 L
929.729 144.5 L
923.599 153.433 L
919.883 163.609 L
918.815 174.39 L
920.461 185.097 L
924.718 195.059 L
931.319 203.649 L
939.849 210.328 L
949.772 214.675 L
960.464 216.418 L
971.254 215.448 L
981.464 211.824 L
990.451 205.775 L
997.652 197.682 L
1002.614 188.052 L
1005.025 177.49 L
1004.734 166.66 L
S
GR
GS
[0.75 0 0 0.75 745.7281 153.88448] CT
0 0 1 RC
10.0 ML
0.667 LW
N
0 -4 M
0 4 L
-4 0 M
4 0 L
-2.828 -2.828 M
2.828 2.828 L
-2.828 2.828 M
2.828 -2.828 L
S
GR
GS
[0.75 0 0 0.75 0 -0.25] CT
0 0 1 RC
1 LJ
0.667 LW
N
991.033 203.95 M
990.855 203.798 L
991.084 203.848 L
S
GR
GS
[0.75 0 0 0.75 0 -0.25] CT
0 0 1 RC
1 LJ
0.667 LW
N
994.304 205.513 M
990.855 203.798 L
S
GR
GS
[0.75 0 0 0.75 0 -0.25] CT
0 0 1 RC
1 LJ
10.667 LW
N
1037.179 200.075 M
1034.48 189.583 L
1029.256 180.092 L
1021.836 172.199 L
1012.686 166.398 L
1002.382 163.056 L
991.569 162.381 L
980.929 164.416 L
971.129 169.033 L
962.785 175.943 L
956.421 184.711 L
952.438 194.785 L
951.086 205.534 L
952.449 216.281 L
956.442 226.352 L
962.814 235.113 L
971.164 242.015 L
980.969 246.622 L
991.612 248.647 L
1002.423 247.962 L
1012.725 244.609 L
1021.869 238.799 L
1029.281 230.899 L
1034.495 221.403 L
1037.184 210.908 L
1037.179 200.075 L
S
GR
GS
[0.75 0 0 0.75 717.57889 125.73509] CT
0 1 1 RC
10.0 ML
0.667 LW
N
0 -4 M
0 4 L
-4 0 M
4 0 L
-2.828 -2.828 M
2.828 2.828 L
-2.828 2.828 M
2.828 -2.828 L
S
GR
GS
[0.75 0 0 0.75 0 -0.25] CT
0 1 1 RC
1 LJ
0.667 LW
N
953.501 166.418 M
953.323 166.265 L
953.552 166.316 L
S
GR
GS
[0.75 0 0 0.75 0 -0.25] CT
0 1 1 RC
1 LJ
0.667 LW
N
956.772 167.98 M
953.323 166.265 L
S
GR
GS
[0.75 0 0 0.75 0 -0.25] CT
0 1 1 RC
1 LJ
0.667 LW
N
999.656 162.611 M
996.973 152.115 L
991.765 142.616 L
984.358 134.711 L
975.217 128.896 L
964.918 125.536 L
954.107 124.844 L
943.463 126.862 L
933.655 131.464 L
925.3 138.36 L
918.923 147.117 L
914.923 157.185 L
913.553 167.932 L
914.899 178.681 L
918.876 188.758 L
925.234 197.53 L
933.573 204.445 L
943.37 209.068 L
954.01 211.11 L
964.823 210.442 L
975.13 207.106 L
984.283 201.311 L
991.708 193.422 L
996.938 183.935 L
999.643 173.445 L
999.656 162.611 L
S
GR
GS
[0.75 0 0 0.75 717.47475 125.63243] CT
0 1 1 RC
10.0 ML
0.667 LW
N
0 -4 M
0 4 L
-4 0 M
4 0 L
-2.828 -2.828 M
2.828 2.828 L
-2.828 2.828 M
2.828 -2.828 L
S
GR
GS
[0.75 0 0 0.75 0 -0.25] CT
0 1 1 RC
1 LJ
0.667 LW
N
953.362 166.281 M
953.184 166.129 L
953.413 166.179 L
S
GR
GS
[0.75 0 0 0.75 0 -0.25] CT
0 1 1 RC
1 LJ
0.667 LW
N
956.633 167.843 M
953.184 166.129 L
S
GR
GS
[0.75 0 0 0.75 0 -0.25] CT
0 1 1 RC
1 LJ
0.667 LW
N
999.516 162.47 M
996.833 151.975 L
991.623 142.476 L
984.216 134.571 L
975.075 128.757 L
964.775 125.399 L
953.963 124.707 L
943.32 126.726 L
933.513 131.329 L
925.158 138.226 L
918.782 146.984 L
914.783 157.052 L
913.415 167.799 L
914.761 178.548 L
918.739 188.625 L
925.098 197.396 L
933.438 204.31 L
943.236 208.933 L
953.875 210.974 L
964.688 210.304 L
974.994 206.967 L
984.147 201.172 L
991.571 193.282 L
996.8 183.794 L
999.505 173.304 L
999.516 162.47 L
S
GR
GS
[0.75 0 0 0.75 660.57211 153.13105] CT
0 0 1 RC
10.0 ML
0.667 LW
N
0 -4 M
0 4 L
-4 0 M
4 0 L
-2.828 -2.828 M
2.828 2.828 L
-2.828 2.828 M
2.828 -2.828 L
S
GR
GS
[0.75 0 0 0.75 0 -0.25] CT
0 0 1 RC
1 LJ
0.667 LW
N
877.492 202.946 M
877.314 202.793 L
877.543 202.844 L
S
GR
GS
[0.75 0 0 0.75 0 -0.25] CT
0 0 1 RC
1 LJ
0.667 LW
N
880.763 204.508 M
877.314 202.793 L
S
GR
GS
[0.75 0 0 0.75 0 -0.25] CT
0 0 1 RC
1 LJ
10.667 LW
N
886.834 247.298 M
876.002 247.464 L
865.469 244.93 L
855.897 239.857 L
847.887 232.562 L
841.943 223.505 L
838.439 213.254 L
837.593 202.454 L
839.46 191.783 L
843.923 181.911 L
850.7 173.459 L
859.366 166.958 L
869.376 162.817 L
880.102 161.295 L
890.87 162.488 L
901.002 166.322 L
909.863 172.555 L
916.895 180.796 L
921.657 190.526 L
923.849 201.135 L
923.335 211.957 L
920.145 222.31 L
914.48 231.544 L
906.697 239.08 L
897.285 244.444 L
886.834 247.298 L
S
GR
GS
[0.75 0 0 0.75 717.59518 125.75163] CT
0 1 1 RC
10.0 ML
0.667 LW
N
0 -4 M
0 4 L
-4 0 M
4 0 L
-2.828 -2.828 M
2.828 2.828 L
-2.828 2.828 M
2.828 -2.828 L
S
GR
GS
[0.75 0 0 0.75 0 -0.25] CT
0 1 1 RC
1 LJ
0.667 LW
N
953.523 166.44 M
953.344 166.287 L
953.573 166.338 L
S
GR
GS
[0.75 0 0 0.75 0 -0.25] CT
0 1 1 RC
1 LJ
0.667 LW
N
956.794 168.002 M
953.344 166.287 L
S
GR
GS
[0.75 0 0 0.75 0 -0.25] CT
0 1 1 RC
1 LJ
0.667 LW
N
999.679 162.645 M
996.999 152.148 L
991.793 142.647 L
984.388 134.74 L
975.249 128.922 L
964.951 125.56 L
954.14 124.865 L
943.495 126.88 L
933.687 131.48 L
925.33 138.373 L
918.95 147.129 L
914.948 157.196 L
913.575 167.942 L
914.918 178.692 L
918.892 188.77 L
925.248 197.544 L
933.585 204.461 L
943.381 209.087 L
954.02 211.132 L
964.833 210.466 L
975.141 207.133 L
984.296 201.341 L
991.723 193.454 L
996.955 183.968 L
999.664 173.478 L
999.679 162.645 L
S
GR
GS
[0.75 0 0 0.75 689.47069 182.01362] CT
0 0 1 RC
10.0 ML
0.667 LW
N
0 -4 M
0 4 L
-4 0 M
4 0 L
-2.828 -2.828 M
2.828 2.828 L
-2.828 2.828 M
2.828 -2.828 L
S
GR
GS
[0.75 0 0 0.75 0 -0.25] CT
0 0 1 RC
1 LJ
0.667 LW
N
916.023 241.456 M
915.845 241.303 L
916.074 241.354 L
S
GR
GS
[0.75 0 0 0.75 0 -0.25] CT
0 0 1 RC
1 LJ
0.667 LW
N
919.294 243.018 M
915.845 241.303 L
S
GR
GS
[0.75 0 0 0.75 0 -0.25] CT
0 0 1 RC
1 LJ
10.667 LW
N
962.084 236.947 M
959.23 226.497 L
953.867 217.084 L
946.331 209.301 L
937.097 203.637 L
926.743 200.447 L
915.922 199.931 L
905.313 202.124 L
895.582 206.885 L
887.341 213.918 L
881.108 222.778 L
877.274 232.911 L
876.081 243.678 L
877.603 254.404 L
881.744 264.415 L
888.245 273.081 L
896.696 279.858 L
906.568 284.321 L
917.239 286.188 L
928.04 285.343 L
938.291 281.838 L
947.348 275.894 L
954.643 267.885 L
959.716 258.313 L
962.25 247.78 L
962.084 236.947 L
S
GR
GS
[0.75 0 0 0.75 665.25449 157.80047] CT
0 0 1 RC
10.0 ML
0.667 LW
N
0 -4 M
0 4 L
-4 0 M
4 0 L
-2.828 -2.828 M
2.828 2.828 L
-2.828 2.828 M
2.828 -2.828 L
S
GR
GS
[0.75 0 0 0.75 0 -0.25] CT
0 0 1 RC
1 LJ
0.667 LW
N
883.735 209.172 M
883.557 209.019 L
883.786 209.07 L
S
GR
GS
[0.75 0 0 0.75 0 -0.25] CT
0 0 1 RC
1 LJ
0.667 LW
N
887.006 210.734 M
883.557 209.019 L
S
GR
GS
[0.75 0 0 0.75 0 -0.25] CT
0 0 1 RC
1 LJ
10.667 LW
N
929.728 204.2 M
926.76 193.781 L
921.295 184.427 L
913.676 176.726 L
904.38 171.162 L
893.993 168.084 L
883.167 167.686 L
872.582 169.993 L
862.904 174.86 L
854.739 181.981 L
848.603 190.909 L
844.879 201.082 L
843.802 211.862 L
845.44 222.571 L
849.69 232.536 L
856.284 241.131 L
864.809 247.817 L
874.728 252.172 L
885.419 253.923 L
896.21 252.961 L
906.422 249.345 L
915.414 243.304 L
922.622 235.216 L
927.591 225.589 L
930.01 215.029 L
929.728 204.2 L
S
GR
GS
[0.75 0 0 0.75 717.59724 125.74897] CT
0 0 1 RC
10.0 ML
0.667 LW
N
0 -4 M
0 4 L
-4 0 M
4 0 L
-2.828 -2.828 M
2.828 2.828 L
-2.828 2.828 M
2.828 -2.828 L
S
GR
GS
[0.75 0 0 0.75 0 -0.25] CT
0 0 1 RC
1 LJ
0.667 LW
N
953.526 166.436 M
953.347 166.284 L
953.576 166.334 L
S
GR
GS
[0.75 0 0 0.75 0 -0.25] CT
0 0 1 RC
1 LJ
0.667 LW
N
956.796 167.999 M
953.347 166.284 L
S
GR
GS
[0.75 0 0 0.75 0 -0.25] CT
0 0 1 RC
1 LJ
10.667 LW
N
999.603 162.049 M
996.779 151.59 L
991.442 142.163 L
983.929 134.358 L
974.71 128.668 L
964.366 125.448 L
953.546 124.903 L
942.931 127.065 L
933.187 131.799 L
924.926 138.808 L
918.668 147.651 L
914.805 157.772 L
913.581 168.536 L
915.073 179.266 L
919.186 189.289 L
925.662 197.973 L
934.094 204.774 L
943.953 209.265 L
954.619 211.162 L
965.422 210.348 L
975.683 206.872 L
984.757 200.954 L
992.074 192.965 L
997.175 183.407 L
999.738 172.882 L
999.603 162.049 L
S
GR
GS
[0.75 0 0 0.75 0 -0.25] CT
1 GC
N
/f410681776{1451 229 M
1451 83 L
1173 83 L
1173 229 L
cp}def
f410681776
f
GR
GS
[0.75 0 0 0.75 915 85.91809] CT
/Helvetica-Bold 48 F
GS
[1 0 0 1 0 0] CT
0 19 moveto 
1 -1 scale
(LandMark) t 
GR
GR
GS
[0.75 0 0 0.75 897.75 85.91809] CT
1 0 0 RC
N
f-1996900118
f
GR
GS
[0.75 0 0 0.75 897.75 85.91809] CT
0 0 1 RC
10.0 ML
0.667 LW
N
0 -26.66 M
-23.088 13.33 L
23.088 13.33 L
cp
S
GR
GS
[0.75 0 0 0.75 915 145.25] CT
/Helvetica-Bold 48 F
GS
[1 0 0 1 0 0] CT
0 0 moveto 
1 -1 scale
(b[X) t 
GR
GR
GS
[0.75 0 0 0.75 973.5 163.25] CT
/Helvetica-Bold 38.4 F
GS
[1 0 0 1 0 0] CT
0 0 moveto 
1 -1 scale
(k) t 
GR
GR
GS
[0.75 0 0 0.75 990 145.25] CT
/Helvetica-Bold 48 F
GS
[1 0 0 1 0 0] CT
0 0 moveto 
1 -1 scale
(]) t 
GR
GR
GS
[0.75 0 0 0.75 0 -0.25] CT
0 0 1 RC
1 LJ
10.667 LW
N
1177 186.147 M
1217 186.147 L
S
GR
GS
[0.75 0 0 0.75 0 -0.25] CT
0.149 GC
10.0 ML
0.667 LW
N
1173 229 M
1173 83 L
1451 83 L
1451 229 L
cp
S
GR
%%Trailer
%%Pages: 1
%%EOF
