%!PS-Adobe-3.0 EPSF-3.0
%%Creator: (MATLAB, The Mathworks, Inc. Version 9.10.0.1649659 \(R2021a\) Update 1. Operating System: Windows 10)
%%Title: (C:/Users/ohads/ANPL/papers/research/2022 ICRA/Figures/TestCase_2/fig_files/Robots_estimation_k_9.eps)
%%CreationDate: 2021-08-04T10:58:36
%%Pages: (atend)
%%BoundingBox:    36     9   381   293
%%LanguageLevel: 3
%%EndComments
%%BeginProlog
%%BeginResource: procset (Apache XML Graphics Std ProcSet) 1.2 0
%%Version: 1.2 0
%%Copyright: (Copyright 2001-2003,2010 The Apache Software Foundation. License terms: http://www.apache.org/licenses/LICENSE-2.0)
/bd{bind def}bind def
/ld{load def}bd
/GR/grestore ld
/GS/gsave ld
/RM/rmoveto ld
/C/curveto ld
/t/show ld
/L/lineto ld
/ML/setmiterlimit ld
/CT/concat ld
/f/fill ld
/N/newpath ld
/S/stroke ld
/CC/setcmykcolor ld
/A/ashow ld
/cp/closepath ld
/RC/setrgbcolor ld
/LJ/setlinejoin ld
/GC/setgray ld
/LW/setlinewidth ld
/M/moveto ld
/re {4 2 roll M
1 index 0 rlineto
0 exch rlineto
neg 0 rlineto
cp } bd
/_ctm matrix def
/_tm matrix def
/BT { _ctm currentmatrix pop matrix _tm copy pop 0 0 moveto } bd
/ET { _ctm setmatrix } bd
/iTm { _ctm setmatrix _tm concat } bd
/Tm { _tm astore pop iTm 0 0 moveto } bd
/ux 0.0 def
/uy 0.0 def
/F {
  /Tp exch def
  /Tf exch def
  Tf findfont Tp scalefont setfont
  /cf Tf def  /cs Tp def
} bd
/ULS {currentpoint /uy exch def /ux exch def} bd
/ULE {
  /Tcx currentpoint pop def
  gsave
  newpath
  cf findfont cs scalefont dup
  /FontMatrix get 0 get /Ts exch def /FontInfo get dup
  /UnderlinePosition get Ts mul /To exch def
  /UnderlineThickness get Ts mul /Tt exch def
  ux uy To add moveto  Tcx uy To add lineto
  Tt setlinewidth stroke
  grestore
} bd
/OLE {
  /Tcx currentpoint pop def
  gsave
  newpath
  cf findfont cs scalefont dup
  /FontMatrix get 0 get /Ts exch def /FontInfo get dup
  /UnderlinePosition get Ts mul /To exch def
  /UnderlineThickness get Ts mul /Tt exch def
  ux uy To add cs add moveto Tcx uy To add cs add lineto
  Tt setlinewidth stroke
  grestore
} bd
/SOE {
  /Tcx currentpoint pop def
  gsave
  newpath
  cf findfont cs scalefont dup
  /FontMatrix get 0 get /Ts exch def /FontInfo get dup
  /UnderlinePosition get Ts mul /To exch def
  /UnderlineThickness get Ts mul /Tt exch def
  ux uy To add cs 10 mul 26 idiv add moveto Tcx uy To add cs 10 mul 26 idiv add lineto
  Tt setlinewidth stroke
  grestore
} bd
/QT {
/Y22 exch store
/X22 exch store
/Y21 exch store
/X21 exch store
currentpoint
/Y21 load 2 mul add 3 div exch
/X21 load 2 mul add 3 div exch
/X21 load 2 mul /X22 load add 3 div
/Y21 load 2 mul /Y22 load add 3 div
/X22 load /Y22 load curveto
} bd
/SSPD {
dup length /d exch dict def
{
/v exch def
/k exch def
currentpagedevice k known {
/cpdv currentpagedevice k get def
v cpdv ne {
/upd false def
/nullv v type /nulltype eq def
/nullcpdv cpdv type /nulltype eq def
nullv nullcpdv or
{
/upd true def
} {
/sametype v type cpdv type eq def
sametype {
v type /arraytype eq {
/vlen v length def
/cpdvlen cpdv length def
vlen cpdvlen eq {
0 1 vlen 1 sub {
/i exch def
/obj v i get def
/cpdobj cpdv i get def
obj cpdobj ne {
/upd true def
exit
} if
} for
} {
/upd true def
} ifelse
} {
v type /dicttype eq {
v {
/dv exch def
/dk exch def
/cpddv cpdv dk get def
dv cpddv ne {
/upd true def
exit
} if
} forall
} {
/upd true def
} ifelse
} ifelse
} if
} ifelse
upd true eq {
d k v put
} if
} if
} if
} forall
d length 0 gt {
d setpagedevice
} if
} bd
/RE { % /NewFontName [NewEncodingArray] /FontName RE -
  findfont dup length dict begin
  {
    1 index /FID ne
    {def} {pop pop} ifelse
  } forall
  /Encoding exch def
  /FontName 1 index def
  currentdict definefont pop
  end
} bind def
%%EndResource
%%BeginResource: procset (Apache XML Graphics EPS ProcSet) 1.0 0
%%Version: 1.0 0
%%Copyright: (Copyright 2002-2003 The Apache Software Foundation. License terms: http://www.apache.org/licenses/LICENSE-2.0)
/BeginEPSF { %def
/b4_Inc_state save def         % Save state for cleanup
/dict_count countdictstack def % Count objects on dict stack
/op_count count 1 sub def      % Count objects on operand stack
userdict begin                 % Push userdict on dict stack
/showpage { } def              % Redefine showpage, { } = null proc
0 setgray 0 setlinecap         % Prepare graphics state
1 setlinewidth 0 setlinejoin
10 setmiterlimit [ ] 0 setdash newpath
/languagelevel where           % If level not equal to 1 then
{pop languagelevel             % set strokeadjust and
1 ne                           % overprint to their defaults.
{false setstrokeadjust false setoverprint
} if
} if
} bd
/EndEPSF { %def
count op_count sub {pop} repeat            % Clean up stacks
countdictstack dict_count sub {end} repeat
b4_Inc_state restore
} bd
%%EndResource
%FOPBeginFontDict
%%IncludeResource: font Courier-Oblique
%%IncludeResource: font Courier-BoldOblique
%%IncludeResource: font Courier-Bold
%%IncludeResource: font ZapfDingbats
%%IncludeResource: font Symbol
%%IncludeResource: font Helvetica
%%IncludeResource: font Helvetica-Oblique
%%IncludeResource: font Helvetica-Bold
%%IncludeResource: font Helvetica-BoldOblique
%%IncludeResource: font Times-Roman
%%IncludeResource: font Times-Italic
%%IncludeResource: font Times-Bold
%%IncludeResource: font Times-BoldItalic
%%IncludeResource: font Courier
%FOPEndFontDict
%%BeginResource: encoding WinAnsiEncoding
/WinAnsiEncoding [
/.notdef /.notdef /.notdef /.notdef /.notdef
/.notdef /.notdef /.notdef /.notdef /.notdef
/.notdef /.notdef /.notdef /.notdef /.notdef
/.notdef /.notdef /.notdef /.notdef /.notdef
/.notdef /.notdef /.notdef /.notdef /.notdef
/.notdef /.notdef /.notdef /.notdef /.notdef
/.notdef /.notdef /space /exclam /quotedbl
/numbersign /dollar /percent /ampersand /quotesingle
/parenleft /parenright /asterisk /plus /comma
/hyphen /period /slash /zero /one
/two /three /four /five /six
/seven /eight /nine /colon /semicolon
/less /equal /greater /question /at
/A /B /C /D /E
/F /G /H /I /J
/K /L /M /N /O
/P /Q /R /S /T
/U /V /W /X /Y
/Z /bracketleft /backslash /bracketright /asciicircum
/underscore /quoteleft /a /b /c
/d /e /f /g /h
/i /j /k /l /m
/n /o /p /q /r
/s /t /u /v /w
/x /y /z /braceleft /bar
/braceright /asciitilde /bullet /Euro /bullet
/quotesinglbase /florin /quotedblbase /ellipsis /dagger
/daggerdbl /circumflex /perthousand /Scaron /guilsinglleft
/OE /bullet /Zcaron /bullet /bullet
/quoteleft /quoteright /quotedblleft /quotedblright /bullet
/endash /emdash /asciitilde /trademark /scaron
/guilsinglright /oe /bullet /zcaron /Ydieresis
/space /exclamdown /cent /sterling /currency
/yen /brokenbar /section /dieresis /copyright
/ordfeminine /guillemotleft /logicalnot /sfthyphen /registered
/macron /degree /plusminus /twosuperior /threesuperior
/acute /mu /paragraph /middot /cedilla
/onesuperior /ordmasculine /guillemotright /onequarter /onehalf
/threequarters /questiondown /Agrave /Aacute /Acircumflex
/Atilde /Adieresis /Aring /AE /Ccedilla
/Egrave /Eacute /Ecircumflex /Edieresis /Igrave
/Iacute /Icircumflex /Idieresis /Eth /Ntilde
/Ograve /Oacute /Ocircumflex /Otilde /Odieresis
/multiply /Oslash /Ugrave /Uacute /Ucircumflex
/Udieresis /Yacute /Thorn /germandbls /agrave
/aacute /acircumflex /atilde /adieresis /aring
/ae /ccedilla /egrave /eacute /ecircumflex
/edieresis /igrave /iacute /icircumflex /idieresis
/eth /ntilde /ograve /oacute /ocircumflex
/otilde /odieresis /divide /oslash /ugrave
/uacute /ucircumflex /udieresis /yacute /thorn
/ydieresis
] def
%%EndResource
%FOPBeginFontReencode
/Courier-Oblique findfont
dup length dict begin
  {1 index /FID ne {def} {pop pop} ifelse} forall
  /Encoding WinAnsiEncoding def
  currentdict
end
/Courier-Oblique exch definefont pop
/Courier-BoldOblique findfont
dup length dict begin
  {1 index /FID ne {def} {pop pop} ifelse} forall
  /Encoding WinAnsiEncoding def
  currentdict
end
/Courier-BoldOblique exch definefont pop
/Courier-Bold findfont
dup length dict begin
  {1 index /FID ne {def} {pop pop} ifelse} forall
  /Encoding WinAnsiEncoding def
  currentdict
end
/Courier-Bold exch definefont pop
/Helvetica findfont
dup length dict begin
  {1 index /FID ne {def} {pop pop} ifelse} forall
  /Encoding WinAnsiEncoding def
  currentdict
end
/Helvetica exch definefont pop
/Helvetica-Oblique findfont
dup length dict begin
  {1 index /FID ne {def} {pop pop} ifelse} forall
  /Encoding WinAnsiEncoding def
  currentdict
end
/Helvetica-Oblique exch definefont pop
/Helvetica-Bold findfont
dup length dict begin
  {1 index /FID ne {def} {pop pop} ifelse} forall
  /Encoding WinAnsiEncoding def
  currentdict
end
/Helvetica-Bold exch definefont pop
/Helvetica-BoldOblique findfont
dup length dict begin
  {1 index /FID ne {def} {pop pop} ifelse} forall
  /Encoding WinAnsiEncoding def
  currentdict
end
/Helvetica-BoldOblique exch definefont pop
/Times-Roman findfont
dup length dict begin
  {1 index /FID ne {def} {pop pop} ifelse} forall
  /Encoding WinAnsiEncoding def
  currentdict
end
/Times-Roman exch definefont pop
/Times-Italic findfont
dup length dict begin
  {1 index /FID ne {def} {pop pop} ifelse} forall
  /Encoding WinAnsiEncoding def
  currentdict
end
/Times-Italic exch definefont pop
/Times-Bold findfont
dup length dict begin
  {1 index /FID ne {def} {pop pop} ifelse} forall
  /Encoding WinAnsiEncoding def
  currentdict
end
/Times-Bold exch definefont pop
/Times-BoldItalic findfont
dup length dict begin
  {1 index /FID ne {def} {pop pop} ifelse} forall
  /Encoding WinAnsiEncoding def
  currentdict
end
/Times-BoldItalic exch definefont pop
/Courier findfont
dup length dict begin
  {1 index /FID ne {def} {pop pop} ifelse} forall
  /Encoding WinAnsiEncoding def
  currentdict
end
/Courier exch definefont pop
%FOPEndFontReencode
%%EndProlog
%%Page: 1 1
%%PageBoundingBox: 0 0 428 315
%%BeginPageSetup
[1 0 0 -1 0 315] CT
%%EndPageSetup
GS
[0.75 0 0 0.75 0 0] CT
1 GC
N
0 0 570 420 re
f
GR
GS
[0.75 0 0 0.75 0 0] CT
1 GC
N
0 0 570 420 re
f
GR
GS
[0.75 0 0 0.75 0 0] CT
1 GC
N
181.389 267 M
480.611 267 L
480.611 31 L
181.389 31 L
cp
f
GR
GS
[0.75 0 0 0.75 0 0] CT
0.149 GC
2 setlinecap
1 LJ
0.667 LW
N
181.389 267 M
480.611 267 L
S
GR
GS
[0.75 0 0 0.75 0 0] CT
0.149 GC
2 setlinecap
1 LJ
0.667 LW
N
181.389 267 M
181.389 264.008 L
S
GR
GS
[0.75 0 0 0.75 0 0] CT
0.149 GC
2 setlinecap
1 LJ
0.667 LW
N
256.194 267 M
256.194 264.008 L
S
GR
GS
[0.75 0 0 0.75 0 0] CT
0.149 GC
2 setlinecap
1 LJ
0.667 LW
N
331 267 M
331 264.008 L
S
GR
GS
[0.75 0 0 0.75 0 0] CT
0.149 GC
2 setlinecap
1 LJ
0.667 LW
N
405.806 267 M
405.806 264.008 L
S
GR
GS
[0.75 0 0 0.75 0 0] CT
0.149 GC
2 setlinecap
1 LJ
0.667 LW
N
480.611 267 M
480.611 264.008 L
S
GR
GS
[0.75 0 0 0.75 136.04141 210.25001] CT
0.149 GC
/Helvetica 53.333 F
GS
[1 0 0 1 0 0] CT
-24 54 moveto 
1 -1 scale
(-5) t 
GR
GR
GS
[0.75 0 0 0.75 192.14571 210.25001] CT
0.149 GC
/Helvetica 53.333 F
GS
[1 0 0 1 0 0] CT
-15 54 moveto 
1 -1 scale
(0) t 
GR
GR
GS
[0.75 0 0 0.75 248.25 210.25001] CT
0.149 GC
/Helvetica 53.333 F
GS
[1 0 0 1 0 0] CT
-15 54 moveto 
1 -1 scale
(5) t 
GR
GR
GS
[0.75 0 0 0.75 304.35429 210.25001] CT
0.149 GC
/Helvetica 53.333 F
GS
[1 0 0 1 0 0] CT
-30 54 moveto 
1 -1 scale
(10) t 
GR
GR
GS
[0.75 0 0 0.75 360.45859 210.25001] CT
0.149 GC
/Helvetica 53.333 F
GS
[1 0 0 1 0 0] CT
-30 54 moveto 
1 -1 scale
(15) t 
GR
GR
GS
[0.75 0 0 0.75 248.25011 260.74999] CT
0.149 GC
/Helvetica 58.667 F
GS
[1 0 0 1 0 0] CT
-34.5 59 moveto 
1 -1 scale
(Xs) t 
GR
GR
GS
[0.75 0 0 0.75 0 0] CT
0.149 GC
2 setlinecap
1 LJ
0.667 LW
N
181.389 267 M
181.389 31 L
S
GR
GS
[0.75 0 0 0.75 0 0] CT
0.149 GC
2 setlinecap
1 LJ
0.667 LW
N
181.389 216.087 M
184.381 216.087 L
S
GR
GS
[0.75 0 0 0.75 0 0] CT
0.149 GC
2 setlinecap
1 LJ
0.667 LW
N
181.389 141.281 M
184.381 141.281 L
S
GR
GS
[0.75 0 0 0.75 0 0] CT
0.149 GC
2 setlinecap
1 LJ
0.667 LW
N
181.389 66.476 M
184.381 66.476 L
S
GR
GS
[0.75 0 0 0.75 126.04142 162.0654] CT
0.149 GC
/Helvetica 53.333 F
GS
[1 0 0 1 0 0] CT
-30 21 moveto 
1 -1 scale
(5) t 
GR
GR
GS
[0.75 0 0 0.75 126.04142 105.96111] CT
0.149 GC
/Helvetica 53.333 F
GS
[1 0 0 1 0 0] CT
-60 21 moveto 
1 -1 scale
(10) t 
GR
GR
GS
[0.75 0 0 0.75 126.04142 49.85681] CT
0.149 GC
/Helvetica 53.333 F
GS
[1 0 0 1 0 0] CT
-60 21 moveto 
1 -1 scale
(15) t 
GR
GR
GS
[0 -0.75 0.75 0 78.04142 111.74992] CT
0.149 GC
/Helvetica 58.667 F
GS
[1 0 0 1 0 0] CT
-34.5 -13 moveto 
1 -1 scale
(Ys) t 
GR
GR
GS
[0.75 0 0 0.75 237.02914 139.62368] CT
1 0 0 RC
N
0 -26.66 M
-23.088 13.33 L
23.088 13.33 L
cp
f
GR
GS
[0.75 0 0 0.75 237.02914 139.62368] CT
0 0 1 RC
10.0 ML
0.667 LW
N
0 -26.66 M
-23.088 13.33 L
23.088 13.33 L
cp
S
GR
GS
[0.75 0 0 0.75 225.80827 128.40282] CT
1 0 0 RC
N
/f-1996900118{0 -26.66 M
-23.088 13.33 L
23.088 13.33 L
cp}def
f-1996900118
f
GR
GS
[0.75 0 0 0.75 225.80827 128.40282] CT
0 0 1 RC
10.0 ML
0.667 LW
N
0 -26.66 M
-23.088 13.33 L
23.088 13.33 L
cp
S
GR
GS
[0.75 0 0 0.75 270.69173 139.62368] CT
1 0 0 RC
N
f-1996900118
f
GR
GS
[0.75 0 0 0.75 270.69173 139.62368] CT
0 0 1 RC
10.0 ML
0.667 LW
N
0 -26.66 M
-23.088 13.33 L
23.088 13.33 L
cp
S
GR
GS
[0.75 0 0 0.75 248.25 184.50712] CT
1 0 0 RC
N
f-1996900118
f
GR
GS
[0.75 0 0 0.75 248.25 184.50712] CT
0 0 1 RC
10.0 ML
0.667 LW
N
0 -26.66 M
-23.088 13.33 L
23.088 13.33 L
cp
S
GR
GS
[0.75 0 0 0.75 248.25 117.18196] CT
1 0 0 RC
N
f-1996900118
f
GR
GS
[0.75 0 0 0.75 248.25 117.18196] CT
0 0 1 RC
10.0 ML
0.667 LW
N
0 -26.66 M
-23.088 13.33 L
23.088 13.33 L
cp
S
GR
GS
[0.75 0 0 0.75 237.02914 162.0654] CT
1 0 0 RC
N
f-1996900118
f
GR
GS
[0.75 0 0 0.75 237.02914 162.0654] CT
0 0 1 RC
10.0 ML
0.667 LW
N
0 -26.66 M
-23.088 13.33 L
23.088 13.33 L
cp
S
GR
GS
[0.75 0 0 0.75 281.91257 184.50712] CT
1 0 0 RC
N
f-1996900118
f
GR
GS
[0.75 0 0 0.75 281.91257 184.50712] CT
0 0 1 RC
10.0 ML
0.667 LW
N
0 -26.66 M
-23.088 13.33 L
23.088 13.33 L
cp
S
GR
GS
[0.75 0 0 0.75 259.47086 128.40282] CT
1 0 0 RC
N
f-1996900118
f
GR
GS
[0.75 0 0 0.75 259.47086 128.40282] CT
0 0 1 RC
10.0 ML
0.667 LW
N
0 -26.66 M
-23.088 13.33 L
23.088 13.33 L
cp
S
GR
GS
[0.75 0 0 0.75 272.06969 41.82001] CT
1 0 0 RC
10.0 ML
0.667 LW
N
0 -5 M
0 5 L
-5 0 M
5 0 L
S
GR
GS
[0.75 0 0 0.75 253.06821 70.17657] CT
0 1 1 RC
10.0 ML
0.667 LW
N
0 -4 M
0 4 L
-4 0 M
4 0 L
-2.828 -2.828 M
2.828 2.828 L
-2.828 2.828 M
2.828 -2.828 L
S
GR
GS
[0.75 0 0 0.75 0 0] CT
0 1 1 RC
1 LJ
0.667 LW
N
336.154 92.962 M
336.085 92.903 L
336.174 92.922 L
S
GR
GS
[0.75 0 0 0.75 0 0] CT
0 1 1 RC
1 LJ
0.667 LW
N
337.424 93.569 M
336.085 92.903 L
S
GR
GS
[0.75 0 0 0.75 0 0] CT
0 1 1 RC
1 LJ
0.667 LW
N
349.511 96.253 M
349.799 93.162 L
349.309 90.098 L
348.072 87.251 L
346.167 84.802 L
343.712 82.903 L
340.862 81.674 L
337.796 81.193 L
334.706 81.49 L
331.788 82.545 L
329.223 84.293 L
327.174 86.624 L
325.769 89.391 L
325.096 92.421 L
325.198 95.523 L
326.068 98.502 L
327.652 101.171 L
329.85 103.363 L
332.523 104.939 L
335.505 105.8 L
338.607 105.893 L
341.635 105.212 L
344.398 103.799 L
346.723 101.743 L
348.464 99.174 L
349.511 96.253 L
S
GR
GS
[0.75 0 0 0.75 243.66312 60.77183] CT
0 1 1 RC
10.0 ML
0.667 LW
N
0 -4 M
0 4 L
-4 0 M
4 0 L
-2.828 -2.828 M
2.828 2.828 L
-2.828 2.828 M
2.828 -2.828 L
S
GR
GS
[0.75 0 0 0.75 0 0] CT
0 1 1 RC
1 LJ
0.667 LW
N
323.614 80.422 M
323.544 80.363 L
323.633 80.383 L
S
GR
GS
[0.75 0 0 0.75 0 0] CT
0 1 1 RC
1 LJ
0.667 LW
N
324.884 81.029 M
323.544 80.363 L
S
GR
GS
[0.75 0 0 0.75 0 0] CT
0 1 1 RC
1 LJ
0.667 LW
N
336.962 83.754 M
337.26 80.665 L
336.781 77.599 L
335.554 74.748 L
333.657 72.292 L
331.208 70.385 L
328.362 69.146 L
325.298 68.655 L
322.208 68.941 L
319.285 69.986 L
316.715 71.725 L
314.658 74.049 L
313.243 76.812 L
312.56 79.839 L
312.652 82.941 L
313.511 85.923 L
315.086 88.598 L
317.276 90.797 L
319.944 92.382 L
322.923 93.254 L
326.025 93.358 L
329.055 92.687 L
331.823 91.283 L
334.155 89.236 L
335.905 86.672 L
336.962 83.754 L
S
GR
GS
[0.75 0 0 0.75 242.14133 59.2497] CT
0 1 1 RC
10.0 ML
0.667 LW
N
0 -4 M
0 4 L
-4 0 M
4 0 L
-2.828 -2.828 M
2.828 2.828 L
-2.828 2.828 M
2.828 -2.828 L
S
GR
GS
[0.75 0 0 0.75 0 0] CT
0 1 1 RC
1 LJ
0.667 LW
N
321.585 78.393 M
321.515 78.334 L
321.604 78.353 L
S
GR
GS
[0.75 0 0 0.75 0 0] CT
0 1 1 RC
1 LJ
0.667 LW
N
322.855 79 M
321.515 78.334 L
S
GR
GS
[0.75 0 0 0.75 0 0] CT
0 1 1 RC
1 LJ
0.667 LW
N
334.937 81.706 M
335.23 78.617 L
334.746 75.551 L
333.515 72.702 L
331.614 70.249 L
329.163 68.346 L
326.315 67.112 L
323.25 66.625 L
320.16 66.915 L
317.239 67.965 L
314.672 69.708 L
312.618 72.035 L
311.208 74.8 L
310.529 77.829 L
310.625 80.931 L
311.49 83.911 L
313.068 86.583 L
315.262 88.779 L
317.933 90.36 L
320.912 91.227 L
324.014 91.326 L
327.044 90.651 L
329.81 89.243 L
332.138 87.192 L
333.884 84.626 L
334.937 81.706 L
S
GR
GS
[0.75 0 0 0.75 263.99501 48.32287] CT
0 1 1 RC
10.0 ML
0.667 LW
N
0 -4 M
0 4 L
-4 0 M
4 0 L
-2.828 -2.828 M
2.828 2.828 L
-2.828 2.828 M
2.828 -2.828 L
S
GR
GS
[0.75 0 0 0.75 0 0] CT
0 1 1 RC
1 LJ
0.667 LW
N
350.723 63.824 M
350.654 63.764 L
350.743 63.784 L
S
GR
GS
[0.75 0 0 0.75 0 0] CT
0 1 1 RC
1 LJ
0.667 LW
N
351.993 64.43 M
350.654 63.764 L
S
GR
GS
[0.75 0 0 0.75 0 0] CT
0 1 1 RC
1 LJ
0.667 LW
N
349.332 76.522 M
346.408 75.48 L
343.836 73.744 L
341.776 71.423 L
340.358 68.662 L
339.671 65.636 L
339.758 62.533 L
340.615 59.55 L
342.186 56.874 L
344.373 54.672 L
347.039 53.084 L
350.017 52.208 L
353.118 52.101 L
356.149 52.768 L
358.919 54.168 L
361.254 56.213 L
363.007 58.774 L
364.068 61.69 L
364.37 64.779 L
363.894 67.846 L
362.671 70.698 L
360.777 73.157 L
358.331 75.067 L
355.486 76.309 L
352.422 76.804 L
349.332 76.522 L
S
GR
GS
[0.75 0 0 0.75 265.51687 49.84493] CT
0 1 1 RC
10.0 ML
0.667 LW
N
0 -4 M
0 4 L
-4 0 M
4 0 L
-2.828 -2.828 M
2.828 2.828 L
-2.828 2.828 M
2.828 -2.828 L
S
GR
GS
[0.75 0 0 0.75 0 0] CT
0 1 1 RC
1 LJ
0.667 LW
N
352.752 65.853 M
352.683 65.794 L
352.772 65.813 L
S
GR
GS
[0.75 0 0 0.75 0 0] CT
0 1 1 RC
1 LJ
0.667 LW
N
354.022 66.46 M
352.683 65.794 L
S
GR
GS
[0.75 0 0 0.75 0 0] CT
0 1 1 RC
1 LJ
0.667 LW
N
366.115 69.118 M
366.396 66.027 L
365.9 62.964 L
364.657 60.12 L
362.746 57.674 L
360.287 55.781 L
357.435 54.558 L
354.368 54.084 L
351.279 54.387 L
348.363 55.448 L
345.802 57.202 L
343.758 59.537 L
342.359 62.307 L
341.692 65.338 L
341.801 68.44 L
342.677 71.417 L
344.266 74.083 L
346.469 76.27 L
349.146 77.84 L
352.129 78.695 L
355.231 78.782 L
358.258 78.094 L
361.018 76.675 L
363.339 74.615 L
365.074 72.042 L
366.115 69.118 L
S
GR
GS
[0.75 0 0 0.75 274.92185 59.24971] CT
0 1 1 RC
10.0 ML
0.667 LW
N
0 -4 M
0 4 L
-4 0 M
4 0 L
-2.828 -2.828 M
2.828 2.828 L
-2.828 2.828 M
2.828 -2.828 L
S
GR
GS
[0.75 0 0 0.75 0 0] CT
0 1 1 RC
1 LJ
0.667 LW
N
365.292 78.393 M
365.223 78.334 L
365.312 78.353 L
S
GR
GS
[0.75 0 0 0.75 0 0] CT
0 1 1 RC
1 LJ
0.667 LW
N
366.562 79 M
365.223 78.334 L
S
GR
GS
[0.75 0 0 0.75 0 0] CT
0 1 1 RC
1 LJ
0.667 LW
N
378.661 81.63 M
378.935 78.539 L
378.432 75.477 L
377.183 72.635 L
375.266 70.194 L
372.803 68.306 L
369.948 67.09 L
366.88 66.622 L
363.792 66.932 L
360.878 68.001 L
358.321 69.76 L
356.282 72.1 L
354.889 74.873 L
354.23 77.906 L
354.345 81.007 L
355.228 83.983 L
356.824 86.645 L
359.031 88.826 L
361.711 90.391 L
364.697 91.239 L
367.799 91.319 L
370.824 90.624 L
373.581 89.199 L
375.897 87.133 L
377.627 84.557 L
378.661 81.63 L
S
GR
GS
[0.75 0 0 0.75 243.66314 60.78475] CT
0 1 1 RC
10.0 ML
0.667 LW
N
0 -4 M
0 4 L
-4 0 M
4 0 L
-2.828 -2.828 M
2.828 2.828 L
-2.828 2.828 M
2.828 -2.828 L
S
GR
GS
[0.75 0 0 0.75 0 0] CT
0 1 1 RC
1 LJ
0.667 LW
N
323.614 80.439 M
323.544 80.38 L
323.633 80.4 L
S
GR
GS
[0.75 0 0 0.75 0 0] CT
0 1 1 RC
1 LJ
0.667 LW
N
324.884 81.046 M
323.544 80.38 L
S
GR
GS
[0.75 0 0 0.75 0 0] CT
0 1 1 RC
1 LJ
0.667 LW
N
336.96 83.778 M
337.26 80.689 L
336.783 77.623 L
335.557 74.771 L
333.661 72.314 L
331.214 70.406 L
328.369 69.166 L
325.305 68.672 L
322.214 68.956 L
319.292 70 L
316.72 71.738 L
314.662 74.061 L
313.246 76.822 L
312.561 79.85 L
312.651 82.952 L
313.509 85.934 L
315.082 88.61 L
317.271 90.81 L
319.938 92.397 L
322.916 93.27 L
326.018 93.376 L
329.048 92.706 L
331.817 91.304 L
334.15 89.258 L
335.901 86.696 L
336.96 83.778 L
S
GR
GS
[0.75 0 0 0.75 263.99506 48.33579] CT
0 1 1 RC
10.0 ML
0.667 LW
N
0 -4 M
0 4 L
-4 0 M
4 0 L
-2.828 -2.828 M
2.828 2.828 L
-2.828 2.828 M
2.828 -2.828 L
S
GR
GS
[0.75 0 0 0.75 0 0] CT
0 1 1 RC
1 LJ
0.667 LW
N
350.723 63.841 M
350.654 63.782 L
350.743 63.801 L
S
GR
GS
[0.75 0 0 0.75 0 0] CT
0 1 1 RC
1 LJ
0.667 LW
N
351.993 64.448 M
350.654 63.782 L
S
GR
GS
[0.75 0 0 0.75 0 0] CT
0 1 1 RC
1 LJ
0.667 LW
N
364.085 67.108 M
364.367 64.018 L
363.871 60.954 L
362.629 58.11 L
360.719 55.664 L
358.26 53.77 L
355.408 52.547 L
352.341 52.071 L
349.252 52.374 L
346.336 53.435 L
343.775 55.188 L
341.73 57.523 L
340.33 60.292 L
339.663 63.324 L
339.771 66.425 L
340.647 69.403 L
342.236 72.069 L
344.437 74.256 L
347.114 75.827 L
350.097 76.683 L
353.2 76.77 L
356.226 76.083 L
358.987 74.665 L
361.308 72.605 L
363.044 70.032 L
364.085 67.108 L
S
GR
GS
[0.75 0 0 0.75 263.99421 48.32188] CT
0 1 1 RC
10.0 ML
0.667 LW
N
0 -4 M
0 4 L
-4 0 M
4 0 L
-2.828 -2.828 M
2.828 2.828 L
-2.828 2.828 M
2.828 -2.828 L
S
GR
GS
[0.75 0 0 0.75 0 0] CT
0 1 1 RC
1 LJ
0.667 LW
N
350.722 63.822 M
350.653 63.763 L
350.742 63.783 L
S
GR
GS
[0.75 0 0 0.75 0 0] CT
0 1 1 RC
1 LJ
0.667 LW
N
351.992 64.429 M
350.653 63.763 L
S
GR
GS
[0.75 0 0 0.75 0 0] CT
0 1 1 RC
1 LJ
0.667 LW
N
364.084 67.09 M
364.366 63.999 L
363.87 60.935 L
362.628 58.091 L
360.718 55.645 L
358.259 53.751 L
355.407 52.528 L
352.34 52.053 L
349.251 52.355 L
346.334 53.416 L
343.773 55.169 L
341.729 57.504 L
340.329 60.274 L
339.662 63.305 L
339.77 66.407 L
340.646 69.384 L
342.235 72.05 L
344.437 74.238 L
347.113 75.808 L
350.096 76.664 L
353.199 76.751 L
356.225 76.064 L
358.986 74.646 L
361.307 72.586 L
363.043 70.013 L
364.084 67.09 L
S
GR
GS
[0.75 0 0 0.75 253.06762 70.17629] CT
0 1 1 RC
10.0 ML
0.667 LW
N
0 -4 M
0 4 L
-4 0 M
4 0 L
-2.828 -2.828 M
2.828 2.828 L
-2.828 2.828 M
2.828 -2.828 L
S
GR
GS
[0.75 0 0 0.75 0 0] CT
0 1 1 RC
1 LJ
0.667 LW
N
336.153 92.962 M
336.084 92.902 L
336.173 92.922 L
S
GR
GS
[0.75 0 0 0.75 0 0] CT
0 1 1 RC
1 LJ
0.667 LW
N
337.423 93.568 M
336.084 92.902 L
S
GR
GS
[0.75 0 0 0.75 0 0] CT
0 1 1 RC
1 LJ
0.667 LW
N
349.51 96.252 M
349.798 93.162 L
349.308 90.097 L
348.071 87.251 L
346.166 84.801 L
343.711 82.902 L
340.861 81.674 L
337.795 81.193 L
334.705 81.489 L
331.787 82.545 L
329.222 84.293 L
327.173 86.624 L
325.768 89.391 L
325.096 92.421 L
325.198 95.523 L
326.068 98.502 L
327.651 101.171 L
329.849 103.362 L
332.523 104.938 L
335.504 105.8 L
338.606 105.893 L
341.634 105.212 L
344.397 103.799 L
346.722 101.743 L
348.463 99.174 L
349.51 96.252 L
S
GR
GS
[0.75 0 0 0.75 243.66305 60.77162] CT
0 1 1 RC
10.0 ML
0.667 LW
N
0 -4 M
0 4 L
-4 0 M
4 0 L
-2.828 -2.828 M
2.828 2.828 L
-2.828 2.828 M
2.828 -2.828 L
S
GR
GS
[0.75 0 0 0.75 0 0] CT
0 1 1 RC
1 LJ
0.667 LW
N
323.614 80.422 M
323.544 80.363 L
323.633 80.382 L
S
GR
GS
[0.75 0 0 0.75 0 0] CT
0 1 1 RC
1 LJ
0.667 LW
N
324.884 81.029 M
323.544 80.363 L
S
GR
GS
[0.75 0 0 0.75 0 0] CT
0 1 1 RC
1 LJ
0.667 LW
N
336.966 83.734 M
337.259 80.645 L
336.775 77.579 L
335.543 74.73 L
333.642 72.277 L
331.191 70.374 L
328.343 69.141 L
325.278 68.654 L
322.188 68.945 L
319.267 69.995 L
316.7 71.738 L
314.647 74.066 L
313.236 76.83 L
312.558 79.859 L
312.655 82.961 L
313.519 85.942 L
315.098 88.614 L
317.292 90.809 L
319.963 92.39 L
322.943 93.257 L
326.045 93.355 L
329.074 92.68 L
331.839 91.272 L
334.168 89.22 L
335.914 86.654 L
336.966 83.734 L
S
GR
GS
[0.75 0 0 0.75 242.1411 59.24955] CT
0 1 1 RC
10.0 ML
0.667 LW
N
0 -4 M
0 4 L
-4 0 M
4 0 L
-2.828 -2.828 M
2.828 2.828 L
-2.828 2.828 M
2.828 -2.828 L
S
GR
GS
[0.75 0 0 0.75 0 0] CT
0 1 1 RC
1 LJ
0.667 LW
N
321.584 78.393 M
321.515 78.333 L
321.604 78.353 L
S
GR
GS
[0.75 0 0 0.75 0 0] CT
0 1 1 RC
1 LJ
0.667 LW
N
322.855 78.999 M
321.515 78.333 L
S
GR
GS
[0.75 0 0 0.75 0 0] CT
0 1 1 RC
1 LJ
0.667 LW
N
320.152 91.082 M
317.232 90.03 L
314.666 88.286 L
312.614 85.957 L
311.205 83.192 L
310.528 80.163 L
310.626 77.061 L
311.492 74.081 L
313.073 71.41 L
315.267 69.215 L
317.939 67.636 L
320.919 66.77 L
324.022 66.673 L
327.05 67.351 L
329.815 68.76 L
332.143 70.813 L
333.887 73.38 L
334.938 76.3 L
335.23 79.39 L
334.744 82.455 L
333.511 85.303 L
331.609 87.755 L
329.156 89.657 L
326.308 90.889 L
323.242 91.375 L
320.152 91.082 L
S
GR
GS
[0.75 0 0 0.75 263.99483 48.32269] CT
0 1 1 RC
10.0 ML
0.667 LW
N
0 -4 M
0 4 L
-4 0 M
4 0 L
-2.828 -2.828 M
2.828 2.828 L
-2.828 2.828 M
2.828 -2.828 L
S
GR
GS
[0.75 0 0 0.75 0 0] CT
0 1 1 RC
1 LJ
0.667 LW
N
350.723 63.823 M
350.653 63.764 L
350.742 63.784 L
S
GR
GS
[0.75 0 0 0.75 0 0] CT
0 1 1 RC
1 LJ
0.667 LW
N
351.993 64.43 M
350.653 63.764 L
S
GR
GS
[0.75 0 0 0.75 0 0] CT
0 1 1 RC
1 LJ
0.667 LW
N
364.085 67.091 M
364.367 64 L
363.871 60.936 L
362.629 58.092 L
360.719 55.646 L
358.26 53.752 L
355.408 52.529 L
352.341 52.054 L
349.252 52.356 L
346.335 53.417 L
343.774 55.17 L
341.73 57.505 L
340.33 60.275 L
339.663 63.306 L
339.771 66.408 L
340.647 69.385 L
342.235 72.051 L
344.437 74.239 L
347.114 75.81 L
350.097 76.665 L
353.199 76.753 L
356.226 76.065 L
358.987 74.647 L
361.308 72.587 L
363.044 70.014 L
364.085 67.091 L
S
GR
GS
[0.75 0 0 0.75 265.51671 49.84475] CT
0 1 1 RC
10.0 ML
0.667 LW
N
0 -4 M
0 4 L
-4 0 M
4 0 L
-2.828 -2.828 M
2.828 2.828 L
-2.828 2.828 M
2.828 -2.828 L
S
GR
GS
[0.75 0 0 0.75 0 0] CT
0 1 1 RC
1 LJ
0.667 LW
N
352.752 65.853 M
352.683 65.794 L
352.772 65.813 L
S
GR
GS
[0.75 0 0 0.75 0 0] CT
0 1 1 RC
1 LJ
0.667 LW
N
354.022 66.46 M
352.683 65.794 L
S
GR
GS
[0.75 0 0 0.75 0 0] CT
0 1 1 RC
1 LJ
0.667 LW
N
351.365 78.552 M
348.441 77.512 L
345.868 75.776 L
343.807 73.456 L
342.388 70.696 L
341.7 67.669 L
341.787 64.567 L
342.642 61.584 L
344.212 58.907 L
346.398 56.704 L
349.064 55.115 L
352.041 54.238 L
355.143 54.129 L
358.174 54.795 L
360.944 56.194 L
363.28 58.238 L
365.034 60.799 L
366.095 63.715 L
366.399 66.804 L
365.924 69.871 L
364.702 72.724 L
362.809 75.183 L
360.363 77.094 L
357.52 78.337 L
354.456 78.833 L
351.365 78.552 L
S
GR
GS
[0.75 0 0 0.75 274.92167 59.24954] CT
0 1 1 RC
10.0 ML
0.667 LW
N
0 -4 M
0 4 L
-4 0 M
4 0 L
-2.828 -2.828 M
2.828 2.828 L
-2.828 2.828 M
2.828 -2.828 L
S
GR
GS
[0.75 0 0 0.75 0 0] CT
0 1 1 RC
1 LJ
0.667 LW
N
365.292 78.393 M
365.223 78.333 L
365.312 78.353 L
S
GR
GS
[0.75 0 0 0.75 0 0] CT
0 1 1 RC
1 LJ
0.667 LW
N
366.562 78.999 M
365.223 78.333 L
S
GR
GS
[0.75 0 0 0.75 0 0] CT
0 1 1 RC
1 LJ
0.667 LW
N
363.934 91.098 M
361.007 90.064 L
358.43 88.335 L
356.364 86.02 L
354.938 83.263 L
354.243 80.238 L
354.322 77.136 L
355.17 74.15 L
356.734 71.469 L
358.915 69.262 L
361.577 67.666 L
364.552 66.782 L
367.654 66.666 L
370.686 67.325 L
373.46 68.718 L
375.8 70.756 L
377.56 73.313 L
378.629 76.226 L
378.939 79.314 L
378.472 82.383 L
377.257 85.238 L
375.369 87.702 L
372.928 89.619 L
370.087 90.868 L
367.025 91.372 L
363.934 91.098 L
S
GR
GS
[0.75 0 0 0.75 253.0678 70.1755] CT
0 1 1 RC
10.0 ML
0.667 LW
N
0 -4 M
0 4 L
-4 0 M
4 0 L
-2.828 -2.828 M
2.828 2.828 L
-2.828 2.828 M
2.828 -2.828 L
S
GR
GS
[0.75 0 0 0.75 0 0] CT
0 1 1 RC
1 LJ
0.667 LW
N
336.153 92.96 M
336.084 92.901 L
336.173 92.921 L
S
GR
GS
[0.75 0 0 0.75 0 0] CT
0 1 1 RC
1 LJ
0.667 LW
N
337.424 93.567 M
336.084 92.901 L
S
GR
GS
[0.75 0 0 0.75 0 0] CT
0 1 1 RC
1 LJ
0.667 LW
N
349.511 96.251 M
349.798 93.161 L
349.308 90.096 L
348.072 87.25 L
346.166 84.8 L
343.711 82.901 L
340.861 81.673 L
337.795 81.192 L
334.706 81.488 L
331.787 82.544 L
329.223 84.292 L
327.174 86.623 L
325.768 89.39 L
325.096 92.42 L
325.198 95.522 L
326.068 98.501 L
327.652 101.17 L
329.849 103.361 L
332.523 104.937 L
335.504 105.799 L
338.607 105.892 L
341.634 105.211 L
344.398 103.798 L
346.723 101.742 L
348.464 99.172 L
349.511 96.251 L
S
GR
GS
[0.75 0 0 0.75 243.66085 60.77045] CT
0 1 1 RC
10.0 ML
0.667 LW
N
0 -4 M
0 4 L
-4 0 M
4 0 L
-2.828 -2.828 M
2.828 2.828 L
-2.828 2.828 M
2.828 -2.828 L
S
GR
GS
[0.75 0 0 0.75 0 0] CT
0 1 1 RC
1 LJ
0.667 LW
N
323.611 80.42 M
323.541 80.361 L
323.63 80.381 L
S
GR
GS
[0.75 0 0 0.75 0 0] CT
0 1 1 RC
1 LJ
0.667 LW
N
324.881 81.027 M
323.541 80.361 L
S
GR
GS
[0.75 0 0 0.75 0 0] CT
0 1 1 RC
1 LJ
0.667 LW
N
336.963 83.735 M
337.256 80.645 L
336.773 77.58 L
335.542 74.731 L
333.641 72.277 L
331.189 70.374 L
328.342 69.14 L
325.277 68.652 L
322.187 68.943 L
319.266 69.992 L
316.698 71.736 L
314.645 74.062 L
313.234 76.827 L
312.556 79.855 L
312.651 82.957 L
313.516 85.938 L
315.094 88.61 L
317.287 90.806 L
319.958 92.387 L
322.938 93.255 L
326.04 93.354 L
329.069 92.679 L
331.835 91.271 L
334.164 89.22 L
335.91 86.654 L
336.963 83.735 L
S
GR
GS
[0.75 0 0 0.75 242.13865 59.24821] CT
0 1 1 RC
10.0 ML
0.667 LW
N
0 -4 M
0 4 L
-4 0 M
4 0 L
-2.828 -2.828 M
2.828 2.828 L
-2.828 2.828 M
2.828 -2.828 L
S
GR
GS
[0.75 0 0 0.75 0 0] CT
0 1 1 RC
1 LJ
0.667 LW
N
321.581 78.391 M
321.512 78.332 L
321.601 78.351 L
S
GR
GS
[0.75 0 0 0.75 0 0] CT
0 1 1 RC
1 LJ
0.667 LW
N
322.852 78.998 M
321.512 78.332 L
S
GR
GS
[0.75 0 0 0.75 0 0] CT
0 1 1 RC
1 LJ
0.667 LW
N
334.934 81.7 M
335.227 78.61 L
334.742 75.545 L
333.509 72.696 L
331.607 70.244 L
329.155 68.341 L
326.307 67.108 L
323.242 66.623 L
320.152 66.914 L
317.232 67.965 L
314.665 69.709 L
312.612 72.037 L
311.203 74.802 L
310.525 77.831 L
310.623 80.933 L
311.488 83.913 L
313.067 86.585 L
315.262 88.78 L
317.933 90.36 L
320.913 91.226 L
324.015 91.324 L
327.044 90.647 L
329.809 89.239 L
332.138 87.187 L
333.883 84.62 L
334.934 81.7 L
S
GR
GS
[0.75 0 0 0.75 263.99403 48.32171] CT
0 1 1 RC
10.0 ML
0.667 LW
N
0 -4 M
0 4 L
-4 0 M
4 0 L
-2.828 -2.828 M
2.828 2.828 L
-2.828 2.828 M
2.828 -2.828 L
S
GR
GS
[0.75 0 0 0.75 0 0] CT
0 1 1 RC
1 LJ
0.667 LW
N
350.722 63.822 M
350.652 63.763 L
350.741 63.783 L
S
GR
GS
[0.75 0 0 0.75 0 0] CT
0 1 1 RC
1 LJ
0.667 LW
N
351.992 64.429 M
350.652 63.763 L
S
GR
GS
[0.75 0 0 0.75 0 0] CT
0 1 1 RC
1 LJ
0.667 LW
N
364.084 67.089 M
364.366 63.999 L
363.87 60.935 L
362.628 58.091 L
360.717 55.645 L
358.259 53.751 L
355.406 52.528 L
352.339 52.053 L
349.251 52.355 L
346.334 53.416 L
343.773 55.169 L
341.729 57.504 L
340.329 60.274 L
339.662 63.305 L
339.77 66.407 L
340.646 69.384 L
342.234 72.05 L
344.436 74.237 L
347.113 75.808 L
350.096 76.664 L
353.199 76.751 L
356.225 76.064 L
358.986 74.646 L
361.307 72.586 L
363.043 70.013 L
364.084 67.089 L
S
GR
GS
[0.75 0 0 0.75 265.51577 49.84374] CT
0 1 1 RC
10.0 ML
0.667 LW
N
0 -4 M
0 4 L
-4 0 M
4 0 L
-2.828 -2.828 M
2.828 2.828 L
-2.828 2.828 M
2.828 -2.828 L
S
GR
GS
[0.75 0 0 0.75 0 0] CT
0 1 1 RC
1 LJ
0.667 LW
N
352.751 65.851 M
352.681 65.792 L
352.77 65.812 L
S
GR
GS
[0.75 0 0 0.75 0 0] CT
0 1 1 RC
1 LJ
0.667 LW
N
354.021 66.458 M
352.681 65.792 L
S
GR
GS
[0.75 0 0 0.75 0 0] CT
0 1 1 RC
1 LJ
0.667 LW
N
366.114 69.115 M
366.395 66.025 L
365.898 62.961 L
364.655 60.117 L
362.744 57.672 L
360.285 55.779 L
357.432 54.556 L
354.365 54.082 L
351.276 54.385 L
348.36 55.447 L
345.8 57.201 L
343.756 59.536 L
342.357 62.307 L
341.691 65.338 L
341.799 68.44 L
342.676 71.417 L
344.266 74.082 L
346.468 76.269 L
349.145 77.839 L
352.129 78.694 L
355.231 78.78 L
358.257 78.092 L
361.017 76.673 L
363.338 74.612 L
365.073 72.039 L
366.114 69.115 L
S
GR
GS
[0.75 0 0 0.75 274.92087 59.24855] CT
0 1 1 RC
10.0 ML
0.667 LW
N
0 -4 M
0 4 L
-4 0 M
4 0 L
-2.828 -2.828 M
2.828 2.828 L
-2.828 2.828 M
2.828 -2.828 L
S
GR
GS
[0.75 0 0 0.75 0 0] CT
0 1 1 RC
1 LJ
0.667 LW
N
365.291 78.391 M
365.221 78.332 L
365.31 78.352 L
S
GR
GS
[0.75 0 0 0.75 0 0] CT
0 1 1 RC
1 LJ
0.667 LW
N
366.561 78.998 M
365.221 78.332 L
S
GR
GS
[0.75 0 0 0.75 0 0] CT
0 1 1 RC
1 LJ
0.667 LW
N
363.933 91.097 M
361.006 90.063 L
358.429 88.334 L
356.363 86.019 L
354.937 83.262 L
354.242 80.237 L
354.321 77.134 L
355.169 74.149 L
356.733 71.468 L
358.914 69.261 L
361.576 67.665 L
364.551 66.781 L
367.653 66.665 L
370.685 67.324 L
373.459 68.716 L
375.799 70.755 L
377.559 73.311 L
378.628 76.225 L
378.938 79.313 L
378.471 82.381 L
377.256 85.237 L
375.368 87.7 L
372.927 89.617 L
370.087 90.867 L
367.024 91.371 L
363.933 91.097 L
S
GR
GS
[0.75 0 0 0.75 263.98762 48.31526] CT
0 1 1 RC
10.0 ML
0.667 LW
N
0 -4 M
0 4 L
-4 0 M
4 0 L
-2.828 -2.828 M
2.828 2.828 L
-2.828 2.828 M
2.828 -2.828 L
S
GR
GS
[0.75 0 0 0.75 0 0] CT
0 1 1 RC
1 LJ
0.667 LW
N
350.713 63.814 M
350.644 63.754 L
350.733 63.774 L
S
GR
GS
[0.75 0 0 0.75 0 0] CT
0 1 1 RC
1 LJ
0.667 LW
N
351.983 64.42 M
350.644 63.754 L
S
GR
GS
[0.75 0 0 0.75 0 0] CT
0 1 1 RC
1 LJ
0.667 LW
N
364.076 67.079 M
364.357 63.989 L
363.861 60.925 L
362.619 58.081 L
360.708 55.635 L
358.249 53.742 L
355.397 52.519 L
352.33 52.044 L
349.241 52.347 L
346.324 53.408 L
343.764 55.161 L
341.719 57.497 L
340.32 60.267 L
339.653 63.298 L
339.762 66.399 L
340.638 69.377 L
342.227 72.043 L
344.429 74.23 L
347.106 75.8 L
350.089 76.656 L
353.191 76.742 L
356.218 76.055 L
358.978 74.636 L
361.299 72.576 L
363.035 70.003 L
364.076 67.079 L
S
GR
GS
[0.75 0 0 0.75 263.94724 48.27526] CT
0 1 1 RC
10.0 ML
0.667 LW
N
0 -4 M
0 4 L
-4 0 M
4 0 L
-2.828 -2.828 M
2.828 2.828 L
-2.828 2.828 M
2.828 -2.828 L
S
GR
GS
[0.75 0 0 0.75 0 0] CT
0 1 1 RC
1 LJ
0.667 LW
N
350.659 63.76 M
350.59 63.701 L
350.679 63.721 L
S
GR
GS
[0.75 0 0 0.75 0 0] CT
0 1 1 RC
1 LJ
0.667 LW
N
351.93 64.367 M
350.59 63.701 L
S
GR
GS
[0.75 0 0 0.75 0 0] CT
0 1 1 RC
1 LJ
0.667 LW
N
364.023 67.021 M
364.303 63.93 L
363.806 60.866 L
362.562 58.023 L
360.65 55.578 L
358.191 53.685 L
355.337 52.464 L
352.27 51.991 L
349.182 52.295 L
346.266 53.357 L
343.706 55.112 L
341.662 57.448 L
340.264 60.219 L
339.599 63.25 L
339.709 66.352 L
340.586 69.329 L
342.176 71.994 L
344.379 74.18 L
347.057 75.749 L
350.041 76.603 L
353.143 76.689 L
356.169 76 L
358.929 74.58 L
361.249 72.518 L
362.983 69.945 L
364.023 67.021 L
S
GR
GS
[0.75 0 0 0.75 241.84625 58.95552] CT
0 1 1 RC
10.0 ML
0.667 LW
N
0 -4 M
0 4 L
-4 0 M
4 0 L
-2.828 -2.828 M
2.828 2.828 L
-2.828 2.828 M
2.828 -2.828 L
S
GR
GS
[0.75 0 0 0.75 0 0] CT
0 1 1 RC
1 LJ
0.667 LW
N
321.191 78.001 M
321.122 77.941 L
321.211 77.961 L
S
GR
GS
[0.75 0 0 0.75 0 0] CT
0 1 1 RC
1 LJ
0.667 LW
N
322.462 78.607 M
321.122 77.941 L
S
GR
GS
[0.75 0 0 0.75 0 0] CT
0 1 1 RC
1 LJ
0.667 LW
N
319.779 90.694 M
316.857 89.647 L
314.287 87.907 L
312.232 85.582 L
310.819 82.818 L
310.137 79.791 L
310.23 76.688 L
311.092 73.707 L
312.667 71.033 L
314.859 68.835 L
317.528 67.252 L
320.507 66.381 L
323.609 66.279 L
326.639 66.952 L
329.406 68.357 L
331.737 70.406 L
333.485 72.97 L
334.541 75.889 L
334.837 78.978 L
334.356 82.044 L
333.128 84.894 L
331.229 87.349 L
328.78 89.255 L
325.933 90.492 L
322.869 90.982 L
319.779 90.694 L
S
GR
GS
[0.75 0 0 0.75 263.99396 48.32167] CT
0 1 1 RC
10.0 ML
0.667 LW
N
0 -4 M
0 4 L
-4 0 M
4 0 L
-2.828 -2.828 M
2.828 2.828 L
-2.828 2.828 M
2.828 -2.828 L
S
GR
GS
[0.75 0 0 0.75 0 0] CT
0 1 1 RC
1 LJ
0.667 LW
N
350.722 63.822 M
350.652 63.763 L
350.741 63.782 L
S
GR
GS
[0.75 0 0 0.75 0 0] CT
0 1 1 RC
1 LJ
0.667 LW
N
351.992 64.429 M
350.652 63.763 L
S
GR
GS
[0.75 0 0 0.75 0 0] CT
0 1 1 RC
1 LJ
0.667 LW
N
349.331 76.521 M
346.408 75.479 L
343.835 73.743 L
341.775 71.422 L
340.357 68.662 L
339.67 65.635 L
339.757 62.533 L
340.613 59.55 L
342.184 56.873 L
344.371 54.671 L
347.037 53.082 L
350.014 52.207 L
353.116 52.099 L
356.147 52.766 L
358.917 54.165 L
361.252 56.21 L
363.005 58.771 L
364.066 61.688 L
364.368 64.776 L
363.893 67.843 L
362.67 70.696 L
360.776 73.154 L
358.33 75.065 L
355.486 76.307 L
352.422 76.803 L
349.331 76.521 L
S
GR
GS
[0.75 0 0 0.75 253.07025 70.17416] CT
0 1 1 RC
10.0 ML
0.667 LW
N
0 -4 M
0 4 L
-4 0 M
4 0 L
-2.828 -2.828 M
2.828 2.828 L
-2.828 2.828 M
2.828 -2.828 L
S
GR
GS
[0.75 0 0 0.75 0 0] CT
0 1 1 RC
1 LJ
0.667 LW
N
336.157 92.959 M
336.087 92.9 L
336.176 92.919 L
S
GR
GS
[0.75 0 0 0.75 0 0] CT
0 1 1 RC
1 LJ
0.667 LW
N
337.427 93.566 M
336.087 92.9 L
S
GR
GS
[0.75 0 0 0.75 0 0] CT
0 1 1 RC
1 LJ
0.667 LW
N
349.514 96.249 M
349.802 93.159 L
349.312 90.094 L
348.075 87.247 L
346.169 84.798 L
343.714 82.899 L
340.864 81.671 L
337.798 81.19 L
334.708 81.486 L
331.79 82.542 L
329.226 84.29 L
327.177 86.621 L
325.772 89.389 L
325.099 92.418 L
325.201 95.52 L
326.071 98.499 L
327.655 101.168 L
329.853 103.36 L
332.526 104.936 L
335.508 105.797 L
338.61 105.89 L
341.638 105.209 L
344.401 103.796 L
346.726 101.74 L
348.467 99.17 L
349.514 96.249 L
S
GR
GS
[0.75 0 0 0.75 243.66474 60.76947] CT
0 1 1 RC
10.0 ML
0.667 LW
N
0 -4 M
0 4 L
-4 0 M
4 0 L
-2.828 -2.828 M
2.828 2.828 L
-2.828 2.828 M
2.828 -2.828 L
S
GR
GS
[0.75 0 0 0.75 0 0] CT
0 1 1 RC
1 LJ
0.667 LW
N
323.616 80.419 M
323.547 80.36 L
323.636 80.38 L
S
GR
GS
[0.75 0 0 0.75 0 0] CT
0 1 1 RC
1 LJ
0.667 LW
N
324.886 81.026 M
323.547 80.36 L
S
GR
GS
[0.75 0 0 0.75 0 0] CT
0 1 1 RC
1 LJ
0.667 LW
N
336.963 83.757 M
337.262 80.668 L
336.784 77.601 L
335.559 74.75 L
333.663 72.293 L
331.215 70.385 L
328.37 69.145 L
325.306 68.652 L
322.215 68.936 L
319.293 69.98 L
316.721 71.719 L
314.663 74.041 L
313.247 76.803 L
312.563 79.83 L
312.653 82.933 L
313.511 85.915 L
315.085 88.59 L
317.274 90.79 L
319.941 92.377 L
322.919 93.25 L
326.021 93.355 L
329.052 92.685 L
331.82 91.283 L
334.153 89.237 L
335.904 86.674 L
336.963 83.757 L
S
GR
GS
[0.75 0 0 0.75 263.99499 48.32023] CT
0 1 1 RC
10.0 ML
0.667 LW
N
0 -4 M
0 4 L
-4 0 M
4 0 L
-2.828 -2.828 M
2.828 2.828 L
-2.828 2.828 M
2.828 -2.828 L
S
GR
GS
[0.75 0 0 0.75 0 0] CT
0 1 1 RC
1 LJ
0.667 LW
N
350.723 63.82 M
350.654 63.761 L
350.743 63.781 L
S
GR
GS
[0.75 0 0 0.75 0 0] CT
0 1 1 RC
1 LJ
0.667 LW
N
351.993 64.427 M
350.654 63.761 L
S
GR
GS
[0.75 0 0 0.75 0 0] CT
0 1 1 RC
1 LJ
0.667 LW
N
349.326 76.517 M
346.403 75.474 L
343.831 73.737 L
341.772 71.415 L
340.356 68.653 L
339.67 65.626 L
339.759 62.524 L
340.617 59.541 L
342.189 56.866 L
344.378 54.665 L
347.045 53.078 L
350.023 52.204 L
353.124 52.098 L
356.155 52.766 L
358.924 54.167 L
361.258 56.213 L
363.009 58.775 L
364.069 61.693 L
364.369 64.782 L
363.892 67.848 L
362.668 70.7 L
360.772 73.157 L
358.325 75.066 L
355.481 76.307 L
352.417 76.801 L
349.326 76.517 L
S
GR
GS
[0.75 0 0 0.75 0 0] CT
1 GC
N
/f514426320{470 285 M
470 42 L
192 42 L
192 285 L
cp}def
f514426320
f
GR
GS
[0.75 0 0 0.75 179.25 55.49999] CT
/Helvetica-Bold 48 F
GS
[1 0 0 1 0 0] CT
0 19 moveto 
1 -1 scale
(LandMark) t 
GR
GR
GS
[0.75 0 0 0.75 162 55.5] CT
1 0 0 RC
N
f-1996900118
f
GR
GS
[0.75 0 0 0.75 162 55.5] CT
0 0 1 RC
10.0 ML
0.667 LW
N
0 -26.66 M
-23.088 13.33 L
23.088 13.33 L
cp
S
GR
GS
[0.75 0 0 0.75 179.25 126] CT
/Helvetica-Bold 48 F
GS
[1 0 0 1 0 0] CT
0 0 moveto 
1 -1 scale
(b) t 
GR
GR
GS
[0.75 0 0 0.75 201.75 108] CT
/Helvetica-Bold 38.4 F
GS
[1 0 0 1 0 0] CT
0 0 moveto 
1 -1 scale
(-) t 
GR
GR
GS
[0.75 0 0 0.75 211.5 126] CT
/Helvetica-Bold 48 F
GS
[1 0 0 1 0 0] CT
0 0 moveto 
1 -1 scale
([X) t 
GR
GR
GS
[0.75 0 0 0.75 247.5 144] CT
/Helvetica-Bold 38.4 F
GS
[1 0 0 1 0 0] CT
0 0 moveto 
1 -1 scale
(k) t 
GR
GR
GS
[0.75 0 0 0.75 264 126] CT
/Helvetica-Bold 48 F
GS
[1 0 0 1 0 0] CT
0 0 moveto 
1 -1 scale
(]) t 
GR
GR
GS
[0.75 0 0 0.75 0 0] CT
0 1 1 RC
1 LJ
0.667 LW
N
196 152.5 M
236 152.5 L
S
GR
GS
[0.75 0 0 0.75 0 0] CT
0 1 1 RC
1 LJ
0.667 LW
N
224 157.3 M
236 152.5 L
224 147.7 L
S
GR
GS
[0.75 0 0 0.75 179.25 187.5] CT
/Helvetica-Bold 48 F
GS
[1 0 0 1 0 0] CT
0 0 moveto 
1 -1 scale
(b[X) t 
GR
GR
GS
[0.75 0 0 0.75 237.75 205.5] CT
/Helvetica-Bold 38.4 F
GS
[1 0 0 1 0 0] CT
0 0 moveto 
1 -1 scale
(k) t 
GR
GR
GS
[0.75 0 0 0.75 254.25 187.5] CT
/Helvetica-Bold 48 F
GS
[1 0 0 1 0 0] CT
0 0 moveto 
1 -1 scale
(]) t 
GR
GR
GS
[0.75 0 0 0.75 0 0] CT
0 1 1 RC
1 LJ
0.667 LW
N
196 242 M
236 242 L
S
GR
GS
[0.75 0 0 0.75 0 0] CT
0.149 GC
10.0 ML
0.667 LW
N
192 285 M
192 42 L
470 42 L
470 285 L
cp
S
GR
%%Trailer
%%Pages: 1
%%EOF
