%!PS-Adobe-3.0 EPSF-3.0
%%Creator: (MATLAB, The Mathworks, Inc. Version 9.10.0.1649659 \(R2021a\) Update 1. Operating System: Windows 10)
%%Title: (C:/Users/ohads/ANPL/papers/research/2022 ICRA/Figures/TestCase_2/fig_files/Robots_estimation_k_4.eps)
%%CreationDate: 2021-08-04T10:58:05
%%Pages: (atend)
%%BoundingBox:    36     9   381   293
%%LanguageLevel: 3
%%EndComments
%%BeginProlog
%%BeginResource: procset (Apache XML Graphics Std ProcSet) 1.2 0
%%Version: 1.2 0
%%Copyright: (Copyright 2001-2003,2010 The Apache Software Foundation. License terms: http://www.apache.org/licenses/LICENSE-2.0)
/bd{bind def}bind def
/ld{load def}bd
/GR/grestore ld
/GS/gsave ld
/RM/rmoveto ld
/C/curveto ld
/t/show ld
/L/lineto ld
/ML/setmiterlimit ld
/CT/concat ld
/f/fill ld
/N/newpath ld
/S/stroke ld
/CC/setcmykcolor ld
/A/ashow ld
/cp/closepath ld
/RC/setrgbcolor ld
/LJ/setlinejoin ld
/GC/setgray ld
/LW/setlinewidth ld
/M/moveto ld
/re {4 2 roll M
1 index 0 rlineto
0 exch rlineto
neg 0 rlineto
cp } bd
/_ctm matrix def
/_tm matrix def
/BT { _ctm currentmatrix pop matrix _tm copy pop 0 0 moveto } bd
/ET { _ctm setmatrix } bd
/iTm { _ctm setmatrix _tm concat } bd
/Tm { _tm astore pop iTm 0 0 moveto } bd
/ux 0.0 def
/uy 0.0 def
/F {
  /Tp exch def
  /Tf exch def
  Tf findfont Tp scalefont setfont
  /cf Tf def  /cs Tp def
} bd
/ULS {currentpoint /uy exch def /ux exch def} bd
/ULE {
  /Tcx currentpoint pop def
  gsave
  newpath
  cf findfont cs scalefont dup
  /FontMatrix get 0 get /Ts exch def /FontInfo get dup
  /UnderlinePosition get Ts mul /To exch def
  /UnderlineThickness get Ts mul /Tt exch def
  ux uy To add moveto  Tcx uy To add lineto
  Tt setlinewidth stroke
  grestore
} bd
/OLE {
  /Tcx currentpoint pop def
  gsave
  newpath
  cf findfont cs scalefont dup
  /FontMatrix get 0 get /Ts exch def /FontInfo get dup
  /UnderlinePosition get Ts mul /To exch def
  /UnderlineThickness get Ts mul /Tt exch def
  ux uy To add cs add moveto Tcx uy To add cs add lineto
  Tt setlinewidth stroke
  grestore
} bd
/SOE {
  /Tcx currentpoint pop def
  gsave
  newpath
  cf findfont cs scalefont dup
  /FontMatrix get 0 get /Ts exch def /FontInfo get dup
  /UnderlinePosition get Ts mul /To exch def
  /UnderlineThickness get Ts mul /Tt exch def
  ux uy To add cs 10 mul 26 idiv add moveto Tcx uy To add cs 10 mul 26 idiv add lineto
  Tt setlinewidth stroke
  grestore
} bd
/QT {
/Y22 exch store
/X22 exch store
/Y21 exch store
/X21 exch store
currentpoint
/Y21 load 2 mul add 3 div exch
/X21 load 2 mul add 3 div exch
/X21 load 2 mul /X22 load add 3 div
/Y21 load 2 mul /Y22 load add 3 div
/X22 load /Y22 load curveto
} bd
/SSPD {
dup length /d exch dict def
{
/v exch def
/k exch def
currentpagedevice k known {
/cpdv currentpagedevice k get def
v cpdv ne {
/upd false def
/nullv v type /nulltype eq def
/nullcpdv cpdv type /nulltype eq def
nullv nullcpdv or
{
/upd true def
} {
/sametype v type cpdv type eq def
sametype {
v type /arraytype eq {
/vlen v length def
/cpdvlen cpdv length def
vlen cpdvlen eq {
0 1 vlen 1 sub {
/i exch def
/obj v i get def
/cpdobj cpdv i get def
obj cpdobj ne {
/upd true def
exit
} if
} for
} {
/upd true def
} ifelse
} {
v type /dicttype eq {
v {
/dv exch def
/dk exch def
/cpddv cpdv dk get def
dv cpddv ne {
/upd true def
exit
} if
} forall
} {
/upd true def
} ifelse
} ifelse
} if
} ifelse
upd true eq {
d k v put
} if
} if
} if
} forall
d length 0 gt {
d setpagedevice
} if
} bd
/RE { % /NewFontName [NewEncodingArray] /FontName RE -
  findfont dup length dict begin
  {
    1 index /FID ne
    {def} {pop pop} ifelse
  } forall
  /Encoding exch def
  /FontName 1 index def
  currentdict definefont pop
  end
} bind def
%%EndResource
%%BeginResource: procset (Apache XML Graphics EPS ProcSet) 1.0 0
%%Version: 1.0 0
%%Copyright: (Copyright 2002-2003 The Apache Software Foundation. License terms: http://www.apache.org/licenses/LICENSE-2.0)
/BeginEPSF { %def
/b4_Inc_state save def         % Save state for cleanup
/dict_count countdictstack def % Count objects on dict stack
/op_count count 1 sub def      % Count objects on operand stack
userdict begin                 % Push userdict on dict stack
/showpage { } def              % Redefine showpage, { } = null proc
0 setgray 0 setlinecap         % Prepare graphics state
1 setlinewidth 0 setlinejoin
10 setmiterlimit [ ] 0 setdash newpath
/languagelevel where           % If level not equal to 1 then
{pop languagelevel             % set strokeadjust and
1 ne                           % overprint to their defaults.
{false setstrokeadjust false setoverprint
} if
} if
} bd
/EndEPSF { %def
count op_count sub {pop} repeat            % Clean up stacks
countdictstack dict_count sub {end} repeat
b4_Inc_state restore
} bd
%%EndResource
%FOPBeginFontDict
%%IncludeResource: font Courier-Oblique
%%IncludeResource: font Courier-BoldOblique
%%IncludeResource: font Courier-Bold
%%IncludeResource: font ZapfDingbats
%%IncludeResource: font Symbol
%%IncludeResource: font Helvetica
%%IncludeResource: font Helvetica-Oblique
%%IncludeResource: font Helvetica-Bold
%%IncludeResource: font Helvetica-BoldOblique
%%IncludeResource: font Times-Roman
%%IncludeResource: font Times-Italic
%%IncludeResource: font Times-Bold
%%IncludeResource: font Times-BoldItalic
%%IncludeResource: font Courier
%FOPEndFontDict
%%BeginResource: encoding WinAnsiEncoding
/WinAnsiEncoding [
/.notdef /.notdef /.notdef /.notdef /.notdef
/.notdef /.notdef /.notdef /.notdef /.notdef
/.notdef /.notdef /.notdef /.notdef /.notdef
/.notdef /.notdef /.notdef /.notdef /.notdef
/.notdef /.notdef /.notdef /.notdef /.notdef
/.notdef /.notdef /.notdef /.notdef /.notdef
/.notdef /.notdef /space /exclam /quotedbl
/numbersign /dollar /percent /ampersand /quotesingle
/parenleft /parenright /asterisk /plus /comma
/hyphen /period /slash /zero /one
/two /three /four /five /six
/seven /eight /nine /colon /semicolon
/less /equal /greater /question /at
/A /B /C /D /E
/F /G /H /I /J
/K /L /M /N /O
/P /Q /R /S /T
/U /V /W /X /Y
/Z /bracketleft /backslash /bracketright /asciicircum
/underscore /quoteleft /a /b /c
/d /e /f /g /h
/i /j /k /l /m
/n /o /p /q /r
/s /t /u /v /w
/x /y /z /braceleft /bar
/braceright /asciitilde /bullet /Euro /bullet
/quotesinglbase /florin /quotedblbase /ellipsis /dagger
/daggerdbl /circumflex /perthousand /Scaron /guilsinglleft
/OE /bullet /Zcaron /bullet /bullet
/quoteleft /quoteright /quotedblleft /quotedblright /bullet
/endash /emdash /asciitilde /trademark /scaron
/guilsinglright /oe /bullet /zcaron /Ydieresis
/space /exclamdown /cent /sterling /currency
/yen /brokenbar /section /dieresis /copyright
/ordfeminine /guillemotleft /logicalnot /sfthyphen /registered
/macron /degree /plusminus /twosuperior /threesuperior
/acute /mu /paragraph /middot /cedilla
/onesuperior /ordmasculine /guillemotright /onequarter /onehalf
/threequarters /questiondown /Agrave /Aacute /Acircumflex
/Atilde /Adieresis /Aring /AE /Ccedilla
/Egrave /Eacute /Ecircumflex /Edieresis /Igrave
/Iacute /Icircumflex /Idieresis /Eth /Ntilde
/Ograve /Oacute /Ocircumflex /Otilde /Odieresis
/multiply /Oslash /Ugrave /Uacute /Ucircumflex
/Udieresis /Yacute /Thorn /germandbls /agrave
/aacute /acircumflex /atilde /adieresis /aring
/ae /ccedilla /egrave /eacute /ecircumflex
/edieresis /igrave /iacute /icircumflex /idieresis
/eth /ntilde /ograve /oacute /ocircumflex
/otilde /odieresis /divide /oslash /ugrave
/uacute /ucircumflex /udieresis /yacute /thorn
/ydieresis
] def
%%EndResource
%FOPBeginFontReencode
/Courier-Oblique findfont
dup length dict begin
  {1 index /FID ne {def} {pop pop} ifelse} forall
  /Encoding WinAnsiEncoding def
  currentdict
end
/Courier-Oblique exch definefont pop
/Courier-BoldOblique findfont
dup length dict begin
  {1 index /FID ne {def} {pop pop} ifelse} forall
  /Encoding WinAnsiEncoding def
  currentdict
end
/Courier-BoldOblique exch definefont pop
/Courier-Bold findfont
dup length dict begin
  {1 index /FID ne {def} {pop pop} ifelse} forall
  /Encoding WinAnsiEncoding def
  currentdict
end
/Courier-Bold exch definefont pop
/Helvetica findfont
dup length dict begin
  {1 index /FID ne {def} {pop pop} ifelse} forall
  /Encoding WinAnsiEncoding def
  currentdict
end
/Helvetica exch definefont pop
/Helvetica-Oblique findfont
dup length dict begin
  {1 index /FID ne {def} {pop pop} ifelse} forall
  /Encoding WinAnsiEncoding def
  currentdict
end
/Helvetica-Oblique exch definefont pop
/Helvetica-Bold findfont
dup length dict begin
  {1 index /FID ne {def} {pop pop} ifelse} forall
  /Encoding WinAnsiEncoding def
  currentdict
end
/Helvetica-Bold exch definefont pop
/Helvetica-BoldOblique findfont
dup length dict begin
  {1 index /FID ne {def} {pop pop} ifelse} forall
  /Encoding WinAnsiEncoding def
  currentdict
end
/Helvetica-BoldOblique exch definefont pop
/Times-Roman findfont
dup length dict begin
  {1 index /FID ne {def} {pop pop} ifelse} forall
  /Encoding WinAnsiEncoding def
  currentdict
end
/Times-Roman exch definefont pop
/Times-Italic findfont
dup length dict begin
  {1 index /FID ne {def} {pop pop} ifelse} forall
  /Encoding WinAnsiEncoding def
  currentdict
end
/Times-Italic exch definefont pop
/Times-Bold findfont
dup length dict begin
  {1 index /FID ne {def} {pop pop} ifelse} forall
  /Encoding WinAnsiEncoding def
  currentdict
end
/Times-Bold exch definefont pop
/Times-BoldItalic findfont
dup length dict begin
  {1 index /FID ne {def} {pop pop} ifelse} forall
  /Encoding WinAnsiEncoding def
  currentdict
end
/Times-BoldItalic exch definefont pop
/Courier findfont
dup length dict begin
  {1 index /FID ne {def} {pop pop} ifelse} forall
  /Encoding WinAnsiEncoding def
  currentdict
end
/Courier exch definefont pop
%FOPEndFontReencode
%%EndProlog
%%Page: 1 1
%%PageBoundingBox: 0 0 428 315
%%BeginPageSetup
[1 0 0 -1 0 315] CT
%%EndPageSetup
GS
[0.75 0 0 0.75 0 0] CT
1 GC
N
0 0 570 420 re
f
GR
GS
[0.75 0 0 0.75 0 0] CT
1 GC
N
0 0 570 420 re
f
GR
GS
[0.75 0 0 0.75 0 0] CT
1 GC
N
181.389 267 M
480.611 267 L
480.611 31 L
181.389 31 L
cp
f
GR
GS
[0.75 0 0 0.75 0 0] CT
0.149 GC
2 setlinecap
1 LJ
0.667 LW
N
181.389 267 M
480.611 267 L
S
GR
GS
[0.75 0 0 0.75 0 0] CT
0.149 GC
2 setlinecap
1 LJ
0.667 LW
N
181.389 267 M
181.389 264.008 L
S
GR
GS
[0.75 0 0 0.75 0 0] CT
0.149 GC
2 setlinecap
1 LJ
0.667 LW
N
256.194 267 M
256.194 264.008 L
S
GR
GS
[0.75 0 0 0.75 0 0] CT
0.149 GC
2 setlinecap
1 LJ
0.667 LW
N
331 267 M
331 264.008 L
S
GR
GS
[0.75 0 0 0.75 0 0] CT
0.149 GC
2 setlinecap
1 LJ
0.667 LW
N
405.806 267 M
405.806 264.008 L
S
GR
GS
[0.75 0 0 0.75 0 0] CT
0.149 GC
2 setlinecap
1 LJ
0.667 LW
N
480.611 267 M
480.611 264.008 L
S
GR
GS
[0.75 0 0 0.75 136.04141 210.25001] CT
0.149 GC
/Helvetica 53.333 F
GS
[1 0 0 1 0 0] CT
-24 54 moveto 
1 -1 scale
(-5) t 
GR
GR
GS
[0.75 0 0 0.75 192.14571 210.25001] CT
0.149 GC
/Helvetica 53.333 F
GS
[1 0 0 1 0 0] CT
-15 54 moveto 
1 -1 scale
(0) t 
GR
GR
GS
[0.75 0 0 0.75 248.25 210.25001] CT
0.149 GC
/Helvetica 53.333 F
GS
[1 0 0 1 0 0] CT
-15 54 moveto 
1 -1 scale
(5) t 
GR
GR
GS
[0.75 0 0 0.75 304.35429 210.25001] CT
0.149 GC
/Helvetica 53.333 F
GS
[1 0 0 1 0 0] CT
-30 54 moveto 
1 -1 scale
(10) t 
GR
GR
GS
[0.75 0 0 0.75 360.45859 210.25001] CT
0.149 GC
/Helvetica 53.333 F
GS
[1 0 0 1 0 0] CT
-30 54 moveto 
1 -1 scale
(15) t 
GR
GR
GS
[0.75 0 0 0.75 248.25011 260.74999] CT
0.149 GC
/Helvetica 58.667 F
GS
[1 0 0 1 0 0] CT
-34.5 59 moveto 
1 -1 scale
(Xs) t 
GR
GR
GS
[0.75 0 0 0.75 0 0] CT
0.149 GC
2 setlinecap
1 LJ
0.667 LW
N
181.389 267 M
181.389 31 L
S
GR
GS
[0.75 0 0 0.75 0 0] CT
0.149 GC
2 setlinecap
1 LJ
0.667 LW
N
181.389 242.434 M
184.381 242.434 L
S
GR
GS
[0.75 0 0 0.75 0 0] CT
0.149 GC
2 setlinecap
1 LJ
0.667 LW
N
181.389 167.629 M
184.381 167.629 L
S
GR
GS
[0.75 0 0 0.75 0 0] CT
0.149 GC
2 setlinecap
1 LJ
0.667 LW
N
181.389 92.823 M
184.381 92.823 L
S
GR
GS
[0.75 0 0 0.75 126.04142 181.8258] CT
0.149 GC
/Helvetica 53.333 F
GS
[1 0 0 1 0 0] CT
-30 21 moveto 
1 -1 scale
(0) t 
GR
GR
GS
[0.75 0 0 0.75 126.04142 125.72151] CT
0.149 GC
/Helvetica 53.333 F
GS
[1 0 0 1 0 0] CT
-30 21 moveto 
1 -1 scale
(5) t 
GR
GR
GS
[0.75 0 0 0.75 126.04142 69.61722] CT
0.149 GC
/Helvetica 53.333 F
GS
[1 0 0 1 0 0] CT
-60 21 moveto 
1 -1 scale
(10) t 
GR
GR
GS
[0 -0.75 0.75 0 78.04142 111.74991] CT
0.149 GC
/Helvetica 58.667 F
GS
[1 0 0 1 0 0] CT
-34.5 -13 moveto 
1 -1 scale
(Ys) t 
GR
GR
GS
[0.75 0 0 0.75 237.02914 103.27979] CT
1 0 0 RC
N
0 -26.66 M
-23.088 13.33 L
23.088 13.33 L
cp
f
GR
GS
[0.75 0 0 0.75 237.02914 103.27979] CT
0 0 1 RC
10.0 ML
0.667 LW
N
0 -26.66 M
-23.088 13.33 L
23.088 13.33 L
cp
S
GR
GS
[0.75 0 0 0.75 225.80827 92.05894] CT
1 0 0 RC
N
/f-1996900118{0 -26.66 M
-23.088 13.33 L
23.088 13.33 L
cp}def
f-1996900118
f
GR
GS
[0.75 0 0 0.75 225.80827 92.05894] CT
0 0 1 RC
10.0 ML
0.667 LW
N
0 -26.66 M
-23.088 13.33 L
23.088 13.33 L
cp
S
GR
GS
[0.75 0 0 0.75 270.69173 103.27979] CT
1 0 0 RC
N
f-1996900118
f
GR
GS
[0.75 0 0 0.75 270.69173 103.27979] CT
0 0 1 RC
10.0 ML
0.667 LW
N
0 -26.66 M
-23.088 13.33 L
23.088 13.33 L
cp
S
GR
GS
[0.75 0 0 0.75 248.25 148.16323] CT
1 0 0 RC
N
f-1996900118
f
GR
GS
[0.75 0 0 0.75 248.25 148.16323] CT
0 0 1 RC
10.0 ML
0.667 LW
N
0 -26.66 M
-23.088 13.33 L
23.088 13.33 L
cp
S
GR
GS
[0.75 0 0 0.75 248.25 80.83808] CT
1 0 0 RC
N
f-1996900118
f
GR
GS
[0.75 0 0 0.75 248.25 80.83808] CT
0 0 1 RC
10.0 ML
0.667 LW
N
0 -26.66 M
-23.088 13.33 L
23.088 13.33 L
cp
S
GR
GS
[0.75 0 0 0.75 237.02914 125.72151] CT
1 0 0 RC
N
f-1996900118
f
GR
GS
[0.75 0 0 0.75 237.02914 125.72151] CT
0 0 1 RC
10.0 ML
0.667 LW
N
0 -26.66 M
-23.088 13.33 L
23.088 13.33 L
cp
S
GR
GS
[0.75 0 0 0.75 281.91257 148.16323] CT
1 0 0 RC
N
f-1996900118
f
GR
GS
[0.75 0 0 0.75 281.91257 148.16323] CT
0 0 1 RC
10.0 ML
0.667 LW
N
0 -26.66 M
-23.088 13.33 L
23.088 13.33 L
cp
S
GR
GS
[0.75 0 0 0.75 259.47086 92.05894] CT
1 0 0 RC
N
f-1996900118
f
GR
GS
[0.75 0 0 0.75 259.47086 92.05894] CT
0 0 1 RC
10.0 ML
0.667 LW
N
0 -26.66 M
-23.088 13.33 L
23.088 13.33 L
cp
S
GR
GS
[0.75 0 0 0.75 267.27296 102.65235] CT
1 0 0 RC
10.0 ML
0.667 LW
N
0 -5 M
0 5 L
-5 0 M
5 0 L
S
GR
GS
[0.75 0 0 0.75 269.2703 111.90696] CT
0 1 1 RC
10.0 ML
0.667 LW
N
0 -4 M
0 4 L
-4 0 M
4 0 L
-2.828 -2.828 M
2.828 2.828 L
-2.828 2.828 M
2.828 -2.828 L
S
GR
GS
[0.75 0 0 0.75 0 0] CT
0 1 1 RC
1 LJ
0.667 LW
N
360.204 148.426 M
360.285 148.399 L
360.226 148.461 L
S
GR
GS
[0.75 0 0 0.75 0 0] CT
0 1 1 RC
1 LJ
0.667 LW
N
359.027 149.209 M
360.285 148.399 L
S
GR
GS
[0.75 0 0 0.75 0 0] CT
0 1 1 RC
1 LJ
0.667 LW
N
346.646 149.184 M
347.041 146.106 L
348.189 143.222 L
350.019 140.715 L
352.414 138.742 L
355.225 137.426 L
358.275 136.851 L
361.372 137.052 L
364.322 138.017 L
366.939 139.685 L
369.059 141.952 L
370.548 144.675 L
371.314 147.683 L
371.307 150.786 L
370.53 153.791 L
369.029 156.507 L
366.9 158.765 L
364.276 160.423 L
361.322 161.376 L
358.224 161.565 L
355.177 160.977 L
352.372 159.65 L
349.984 157.666 L
348.165 155.152 L
347.029 152.264 L
346.646 149.184 L
S
GR
GS
[0.75 0 0 0.75 260.75686 98.81649] CT
0 1 1 RC
10.0 ML
0.667 LW
N
0 -4 M
0 4 L
-4 0 M
4 0 L
-2.828 -2.828 M
2.828 2.828 L
-2.828 2.828 M
2.828 -2.828 L
S
GR
GS
[0.75 0 0 0.75 0 0] CT
0 1 1 RC
1 LJ
0.667 LW
N
348.852 130.972 M
348.933 130.945 L
348.875 131.007 L
S
GR
GS
[0.75 0 0 0.75 0 0] CT
0 1 1 RC
1 LJ
0.667 LW
N
347.676 131.755 M
348.933 130.945 L
S
GR
GS
[0.75 0 0 0.75 0 0] CT
0 1 1 RC
1 LJ
0.667 LW
N
335.295 131.746 M
335.686 128.667 L
336.83 125.783 L
338.656 123.273 L
341.049 121.297 L
343.858 119.977 L
346.907 119.398 L
350.005 119.595 L
352.956 120.556 L
355.575 122.221 L
357.698 124.485 L
359.191 127.206 L
359.961 130.213 L
359.958 133.316 L
359.184 136.322 L
357.687 139.04 L
355.561 141.301 L
352.939 142.962 L
349.987 143.919 L
346.889 144.112 L
343.841 143.528 L
341.034 142.204 L
338.644 140.224 L
336.822 137.712 L
335.681 134.826 L
335.295 131.746 L
S
GR
GS
[0.75 0 0 0.75 270.16177 127.03338] CT
0 1 1 RC
10.0 ML
0.667 LW
N
0 -4 M
0 4 L
-4 0 M
4 0 L
-2.828 -2.828 M
2.828 2.828 L
-2.828 2.828 M
2.828 -2.828 L
S
GR
GS
[0.75 0 0 0.75 0 0] CT
0 1 1 RC
1 LJ
0.667 LW
N
361.392 168.595 M
361.473 168.567 L
361.415 168.63 L
S
GR
GS
[0.75 0 0 0.75 0 0] CT
0 1 1 RC
1 LJ
0.667 LW
N
360.216 169.378 M
361.473 168.567 L
S
GR
GS
[0.75 0 0 0.75 0 0] CT
0 1 1 RC
1 LJ
0.667 LW
N
347.834 169.373 M
348.225 166.294 L
349.368 163.409 L
351.194 160.899 L
353.586 158.921 L
356.394 157.601 L
359.443 157.021 L
362.541 157.217 L
365.492 158.177 L
368.112 159.841 L
370.235 162.104 L
371.729 164.825 L
372.5 167.831 L
372.499 170.935 L
371.726 173.94 L
370.229 176.659 L
368.104 178.921 L
365.483 180.583 L
362.531 181.541 L
359.433 181.734 L
356.385 181.152 L
353.577 179.829 L
351.187 177.85 L
349.363 175.338 L
348.222 172.452 L
347.834 169.373 L
S
GR
GS
[0.75 0 0 0.75 268.63696 106.69525] CT
0 1 1 RC
10.0 ML
0.667 LW
N
0 -4 M
0 4 L
-4 0 M
4 0 L
-2.828 -2.828 M
2.828 2.828 L
-2.828 2.828 M
2.828 -2.828 L
S
GR
GS
[0.75 0 0 0.75 0 0] CT
0 1 1 RC
1 LJ
0.667 LW
N
359.359 141.477 M
359.44 141.45 L
359.382 141.512 L
S
GR
GS
[0.75 0 0 0.75 0 0] CT
0 1 1 RC
1 LJ
0.667 LW
N
358.183 142.26 M
359.44 141.45 L
S
GR
GS
[0.75 0 0 0.75 0 0] CT
0 1 1 RC
1 LJ
0.667 LW
N
345.801 142.253 M
346.192 139.174 L
347.336 136.289 L
349.162 133.779 L
351.555 131.803 L
354.363 130.483 L
357.412 129.903 L
360.51 130.1 L
363.461 131.061 L
366.08 132.725 L
368.203 134.989 L
369.697 137.709 L
370.467 140.716 L
370.465 143.819 L
369.692 146.825 L
368.195 149.544 L
366.069 151.805 L
363.448 153.466 L
360.496 154.424 L
357.398 154.617 L
354.35 154.033 L
351.542 152.71 L
349.152 150.731 L
347.329 148.219 L
346.189 145.332 L
345.801 142.253 L
S
GR
GS
[0.75 0 0 0.75 259.84422 102.46495] CT
0 1 1 RC
10.0 ML
0.667 LW
N
0 -4 M
0 4 L
-4 0 M
4 0 L
-2.828 -2.828 M
2.828 2.828 L
-2.828 2.828 M
2.828 -2.828 L
S
GR
GS
[0.75 0 0 0.75 0 0] CT
0 1 1 RC
1 LJ
0.667 LW
N
347.635 135.837 M
347.716 135.809 L
347.658 135.872 L
S
GR
GS
[0.75 0 0 0.75 0 0] CT
0 1 1 RC
1 LJ
0.667 LW
N
346.459 136.62 M
347.716 135.809 L
S
GR
GS
[0.75 0 0 0.75 0 0] CT
0 1 1 RC
1 LJ
0.667 LW
N
334.078 136.6 M
334.462 139.679 L
335.599 142.567 L
337.42 145.081 L
339.808 147.063 L
342.614 148.389 L
345.661 148.975 L
348.759 148.786 L
351.712 147.831 L
354.335 146.173 L
356.464 143.914 L
357.963 141.197 L
358.74 138.192 L
358.745 135.088 L
357.978 132.081 L
356.487 129.359 L
354.367 127.093 L
351.749 125.426 L
348.799 124.462 L
345.702 124.262 L
342.652 124.838 L
339.842 126.155 L
337.447 128.13 L
335.619 130.637 L
334.472 133.521 L
334.078 136.6 L
S
GR
GS
[0.75 0 0 0.75 258.20803 100.74814] CT
0 1 1 RC
10.0 ML
0.667 LW
N
0 -4 M
0 4 L
-4 0 M
4 0 L
-2.828 -2.828 M
2.828 2.828 L
-2.828 2.828 M
2.828 -2.828 L
S
GR
GS
[0.75 0 0 0.75 0 0] CT
0 1 1 RC
1 LJ
0.667 LW
N
345.454 133.548 M
345.535 133.52 L
345.476 133.583 L
S
GR
GS
[0.75 0 0 0.75 0 0] CT
0 1 1 RC
1 LJ
0.667 LW
N
344.277 134.331 M
345.535 133.52 L
S
GR
GS
[0.75 0 0 0.75 0 0] CT
0 1 1 RC
1 LJ
0.667 LW
N
331.896 134.305 M
332.279 137.385 L
333.415 140.273 L
335.234 142.788 L
337.622 144.771 L
340.427 146.098 L
343.474 146.686 L
346.572 146.498 L
349.526 145.545 L
352.15 143.887 L
354.279 141.629 L
355.78 138.912 L
356.558 135.908 L
356.564 132.804 L
355.799 129.797 L
354.309 127.074 L
352.189 124.807 L
349.572 123.139 L
346.622 122.174 L
343.525 121.972 L
340.476 122.548 L
337.665 123.863 L
335.269 125.837 L
333.44 128.344 L
332.291 131.227 L
331.896 134.305 L
S
GR
GS
[0.75 0 0 0.75 280.3325 89.58938] CT
0 1 1 RC
10.0 ML
0.667 LW
N
0 -4 M
0 4 L
-4 0 M
4 0 L
-2.828 -2.828 M
2.828 2.828 L
-2.828 2.828 M
2.828 -2.828 L
S
GR
GS
[0.75 0 0 0.75 0 0] CT
0 1 1 RC
1 LJ
0.667 LW
N
374.953 118.669 M
375.034 118.642 L
374.976 118.704 L
S
GR
GS
[0.75 0 0 0.75 0 0] CT
0 1 1 RC
1 LJ
0.667 LW
N
373.777 119.453 M
375.034 118.642 L
S
GR
GS
[0.75 0 0 0.75 0 0] CT
0 1 1 RC
1 LJ
0.667 LW
N
361.395 119.427 M
361.791 116.349 L
362.939 113.465 L
364.769 110.958 L
367.164 108.985 L
369.975 107.669 L
373.025 107.094 L
376.122 107.295 L
379.071 108.26 L
381.688 109.929 L
383.808 112.196 L
385.298 114.918 L
386.063 117.926 L
386.057 121.03 L
385.279 124.034 L
383.778 126.751 L
381.649 129.009 L
379.025 130.666 L
376.072 131.619 L
372.974 131.808 L
369.926 131.22 L
367.121 129.893 L
364.734 127.91 L
362.915 125.395 L
361.778 122.507 L
361.395 119.427 L
S
GR
GS
[0.75 0 0 0.75 290.76237 95.20632] CT
0 1 1 RC
10.0 ML
0.667 LW
N
0 -4 M
0 4 L
-4 0 M
4 0 L
-2.828 -2.828 M
2.828 2.828 L
-2.828 2.828 M
2.828 -2.828 L
S
GR
GS
[0.75 0 0 0.75 0 0] CT
0 1 1 RC
1 LJ
0.667 LW
N
388.86 126.159 M
388.941 126.131 L
388.882 126.194 L
S
GR
GS
[0.75 0 0 0.75 0 0] CT
0 1 1 RC
1 LJ
0.667 LW
N
387.683 126.942 M
388.941 126.131 L
S
GR
GS
[0.75 0 0 0.75 0 0] CT
0 1 1 RC
1 LJ
0.667 LW
N
375.302 126.935 M
375.689 130.015 L
376.83 132.901 L
378.653 135.413 L
381.043 137.392 L
383.851 138.715 L
386.899 139.298 L
389.997 139.105 L
392.949 138.147 L
395.57 136.486 L
397.696 134.225 L
399.193 131.506 L
399.966 128.5 L
399.968 125.396 L
399.197 122.39 L
397.704 119.669 L
395.58 117.406 L
392.961 115.742 L
390.01 114.781 L
386.912 114.585 L
383.863 115.164 L
381.055 116.484 L
378.662 118.461 L
376.837 120.971 L
375.693 123.856 L
375.302 126.935 L
S
GR
GS
[0.75 0 0 0.75 267.27296 102.65235] CT
1 0 0 RC
10.0 ML
0.667 LW
N
0 -5 M
0 5 L
-5 0 M
5 0 L
S
GR
GS
[0.75 0 0 0.75 270.80099 101.50042] CT
0 1 0 RC
10.0 ML
0.667 LW
N
0 -4 M
0 4 L
-4 0 M
4 0 L
-2.828 -2.828 M
2.828 2.828 L
-2.828 2.828 M
2.828 -2.828 L
S
GR
GS
[0.75 0 0 0.75 0 0] CT
0 1 0 RC
1 LJ
0.667 LW
N
362.244 134.551 M
362.325 134.523 L
362.267 134.586 L
S
GR
GS
[0.75 0 0 0.75 0 0] CT
0 1 0 RC
1 LJ
0.667 LW
N
361.068 135.334 M
362.325 134.523 L
S
GR
GS
[0.75 0 0 0.75 0 0] CT
0 1 0 RC
1 LJ
0.667 LW
N
356.087 135.398 M
356.26 136.634 L
356.734 137.789 L
357.481 138.79 L
358.453 139.573 L
359.589 140.091 L
360.819 140.309 L
362.064 140.215 L
363.246 139.814 L
364.292 139.131 L
365.135 138.21 L
365.722 137.108 L
366.017 135.895 L
366.002 134.646 L
365.676 133.441 L
365.06 132.355 L
364.194 131.456 L
363.131 130.8 L
361.939 130.429 L
360.692 130.367 L
359.468 130.617 L
358.345 131.163 L
357.394 131.971 L
356.673 132.99 L
356.228 134.157 L
356.087 135.398 L
S
GR
GS
[0.75 0 0 0.75 270.80093 120.31043] CT
0 0 1 RC
10.0 ML
0.667 LW
N
0 -4 M
0 4 L
-4 0 M
4 0 L
-2.828 -2.828 M
2.828 2.828 L
-2.828 2.828 M
2.828 -2.828 L
S
GR
GS
[0.75 0 0 0.75 0 0] CT
0 0 1 RC
1 LJ
0.667 LW
N
362.244 159.631 M
362.325 159.603 L
362.267 159.666 L
S
GR
GS
[0.75 0 0 0.75 0 0] CT
0 0 1 RC
1 LJ
0.667 LW
N
361.068 160.414 M
362.325 159.603 L
S
GR
GS
[0.75 0 0 0.75 0 0] CT
0 0 1 RC
1 LJ
0.667 LW
N
356.087 160.483 M
356.261 161.719 L
356.736 162.874 L
357.484 163.874 L
358.457 164.656 L
359.594 165.172 L
360.824 165.389 L
362.069 165.293 L
363.251 164.891 L
364.296 164.208 L
365.138 163.286 L
365.724 162.184 L
366.018 160.97 L
366.001 159.721 L
365.674 158.517 L
365.057 157.431 L
364.19 156.532 L
363.126 155.878 L
361.934 155.509 L
360.687 155.447 L
359.463 155.698 L
358.341 156.245 L
357.39 157.054 L
356.67 158.075 L
356.227 159.242 L
356.087 160.483 L
S
GR
GS
[0.75 0 0 0.75 269.27868 99.9786] CT
0 0 1 RC
10.0 ML
0.667 LW
N
0 -4 M
0 4 L
-4 0 M
4 0 L
-2.828 -2.828 M
2.828 2.828 L
-2.828 2.828 M
2.828 -2.828 L
S
GR
GS
[0.75 0 0 0.75 0 0] CT
0 0 1 RC
1 LJ
0.667 LW
N
360.215 132.522 M
360.296 132.494 L
360.237 132.557 L
S
GR
GS
[0.75 0 0 0.75 0 0] CT
0 0 1 RC
1 LJ
0.667 LW
N
359.038 133.305 M
360.296 132.494 L
S
GR
GS
[0.75 0 0 0.75 0 0] CT
0 0 1 RC
1 LJ
0.667 LW
N
354.057 133.349 M
354.203 132.109 L
354.652 130.944 L
355.377 129.927 L
356.332 129.123 L
357.457 128.581 L
358.682 128.336 L
359.928 128.404 L
361.119 128.779 L
362.179 129.439 L
363.042 130.341 L
363.653 131.43 L
363.974 132.637 L
363.985 133.885 L
363.686 135.097 L
363.094 136.197 L
362.247 137.115 L
361.199 137.793 L
360.015 138.189 L
358.769 138.279 L
357.541 138.056 L
356.406 137.534 L
355.437 136.747 L
354.695 135.743 L
354.225 134.586 L
354.057 133.349 L
S
GR
GS
[0.75 0 0 0.75 270.16177 127.03338] CT
0 0 1 RC
10.0 ML
0.667 LW
N
0 -4 M
0 4 L
-4 0 M
4 0 L
-2.828 -2.828 M
2.828 2.828 L
-2.828 2.828 M
2.828 -2.828 L
S
GR
GS
[0.75 0 0 0.75 0 0] CT
0 0 1 RC
1 LJ
0.667 LW
N
361.392 168.595 M
361.473 168.567 L
361.415 168.63 L
S
GR
GS
[0.75 0 0 0.75 0 0] CT
0 0 1 RC
1 LJ
0.667 LW
N
360.216 169.378 M
361.473 168.567 L
S
GR
GS
[0.75 0 0 0.75 0 0] CT
0 0 1 RC
1 LJ
0.667 LW
N
355.235 169.342 M
355.382 170.582 L
355.834 171.746 L
356.56 172.762 L
357.517 173.564 L
358.643 174.104 L
359.867 174.347 L
361.114 174.277 L
362.304 173.9 L
363.363 173.238 L
364.225 172.334 L
364.834 171.245 L
365.153 170.037 L
365.162 168.789 L
364.86 167.577 L
364.266 166.479 L
363.418 165.563 L
362.369 164.886 L
361.184 164.492 L
359.938 164.404 L
358.71 164.63 L
357.577 165.153 L
356.609 165.942 L
355.868 166.947 L
355.4 168.105 L
355.235 169.342 L
S
GR
GS
[0.75 0 0 0.75 268.63696 106.69525] CT
0 0 1 RC
10.0 ML
0.667 LW
N
0 -4 M
0 4 L
-4 0 M
4 0 L
-2.828 -2.828 M
2.828 2.828 L
-2.828 2.828 M
2.828 -2.828 L
S
GR
GS
[0.75 0 0 0.75 0 0] CT
0 0 1 RC
1 LJ
0.667 LW
N
359.359 141.477 M
359.44 141.45 L
359.382 141.512 L
S
GR
GS
[0.75 0 0 0.75 0 0] CT
0 0 1 RC
1 LJ
0.667 LW
N
358.183 142.26 M
359.44 141.45 L
S
GR
GS
[0.75 0 0 0.75 0 0] CT
0 0 1 RC
1 LJ
0.667 LW
N
353.202 142.182 M
353.339 143.423 L
353.78 144.591 L
354.498 145.612 L
355.448 146.423 L
356.569 146.973 L
357.791 147.226 L
359.039 147.167 L
360.232 146.8 L
361.297 146.148 L
362.166 145.251 L
362.784 144.167 L
363.114 142.963 L
363.134 141.714 L
362.842 140.5 L
362.258 139.396 L
361.418 138.473 L
360.374 137.787 L
359.193 137.383 L
357.948 137.285 L
356.718 137.499 L
355.58 138.013 L
354.606 138.794 L
353.856 139.792 L
353.378 140.946 L
353.202 142.182 L
S
GR
GS
[0.75 0 0 0.75 270.55403 120.06332] CT
0 0 1 RC
10.0 ML
0.667 LW
N
0 -4 M
0 4 L
-4 0 M
4 0 L
-2.828 -2.828 M
2.828 2.828 L
-2.828 2.828 M
2.828 -2.828 L
S
GR
GS
[0.75 0 0 0.75 0 0] CT
0 0 1 RC
1 LJ
0.667 LW
N
361.915 159.301 M
361.996 159.274 L
361.938 159.336 L
S
GR
GS
[0.75 0 0 0.75 0 0] CT
0 0 1 RC
1 LJ
0.667 LW
N
360.739 160.084 M
361.996 159.274 L
S
GR
GS
[0.75 0 0 0.75 0 0] CT
0 0 1 RC
1 LJ
0.667 LW
N
355.758 160.161 M
355.934 161.397 L
356.411 162.551 L
357.16 163.549 L
358.134 164.331 L
359.272 164.845 L
360.502 165.06 L
361.747 164.962 L
362.928 164.559 L
363.972 163.873 L
364.813 162.95 L
365.398 161.847 L
365.69 160.633 L
365.67 159.384 L
365.341 158.18 L
364.723 157.095 L
363.855 156.198 L
362.79 155.545 L
361.597 155.178 L
360.35 155.118 L
359.127 155.371 L
358.006 155.92 L
357.056 156.731 L
356.337 157.752 L
355.896 158.92 L
355.758 160.161 L
S
GR
GS
[0.75 0 0 0.75 269.03183 99.73136] CT
0 0 1 RC
10.0 ML
0.667 LW
N
0 -4 M
0 4 L
-4 0 M
4 0 L
-2.828 -2.828 M
2.828 2.828 L
-2.828 2.828 M
2.828 -2.828 L
S
GR
GS
[0.75 0 0 0.75 0 0] CT
0 0 1 RC
1 LJ
0.667 LW
N
359.886 132.192 M
359.967 132.165 L
359.908 132.227 L
S
GR
GS
[0.75 0 0 0.75 0 0] CT
0 0 1 RC
1 LJ
0.667 LW
N
358.709 132.975 M
359.967 132.165 L
S
GR
GS
[0.75 0 0 0.75 0 0] CT
0 0 1 RC
1 LJ
0.667 LW
N
353.728 133.02 M
353.873 131.78 L
354.323 130.615 L
355.047 129.598 L
356.002 128.794 L
357.127 128.252 L
358.351 128.007 L
359.598 128.074 L
360.789 128.449 L
361.849 129.109 L
362.712 130.011 L
363.324 131.1 L
363.645 132.306 L
363.656 133.555 L
363.357 134.767 L
362.765 135.866 L
361.919 136.784 L
360.871 137.463 L
359.687 137.859 L
358.441 137.949 L
357.213 137.726 L
356.078 137.205 L
355.109 136.418 L
354.366 135.414 L
353.896 134.257 L
353.728 133.02 L
S
GR
GS
[0.75 0 0 0.75 259.62712 90.32556] CT
0 0 1 RC
10.0 ML
0.667 LW
N
0 -4 M
0 4 L
-4 0 M
4 0 L
-2.828 -2.828 M
2.828 2.828 L
-2.828 2.828 M
2.828 -2.828 L
S
GR
GS
[0.75 0 0 0.75 0 0] CT
0 0 1 RC
1 LJ
0.667 LW
N
347.346 119.651 M
347.427 119.623 L
347.368 119.686 L
S
GR
GS
[0.75 0 0 0.75 0 0] CT
0 0 1 RC
1 LJ
0.667 LW
N
346.169 120.434 M
347.427 119.623 L
S
GR
GS
[0.75 0 0 0.75 0 0] CT
0 0 1 RC
1 LJ
0.667 LW
N
341.189 120.482 M
341.357 121.72 L
341.828 122.876 L
342.572 123.879 L
343.541 124.666 L
344.676 125.186 L
345.905 125.408 L
347.15 125.318 L
348.334 124.92 L
349.382 124.241 L
350.228 123.323 L
350.818 122.223 L
351.117 121.01 L
351.105 119.762 L
350.783 118.556 L
350.171 117.467 L
349.307 116.565 L
348.247 115.907 L
347.055 115.532 L
345.809 115.466 L
344.584 115.712 L
343.46 116.254 L
342.505 117.06 L
341.781 118.077 L
341.333 119.242 L
341.189 120.482 L
S
GR
GS
[0.75 0 0 0.75 268.98903 99.6862] CT
0 0 1 RC
10.0 ML
0.667 LW
N
0 -4 M
0 4 L
-4 0 M
4 0 L
-2.828 -2.828 M
2.828 2.828 L
-2.828 2.828 M
2.828 -2.828 L
S
GR
GS
[0.75 0 0 0.75 0 0] CT
0 0 1 RC
1 LJ
0.667 LW
N
359.829 132.132 M
359.91 132.104 L
359.851 132.167 L
S
GR
GS
[0.75 0 0 0.75 0 0] CT
0 0 1 RC
1 LJ
0.667 LW
N
358.652 132.915 M
359.91 132.104 L
S
GR
GS
[0.75 0 0 0.75 0 0] CT
0 0 1 RC
1 LJ
0.667 LW
N
353.671 132.968 M
353.841 134.205 L
354.313 135.361 L
355.057 136.363 L
356.028 137.149 L
357.163 137.668 L
358.392 137.889 L
359.637 137.798 L
360.82 137.399 L
361.868 136.719 L
362.713 135.8 L
363.303 134.7 L
363.6 133.487 L
363.587 132.238 L
363.264 131.032 L
362.651 129.945 L
361.786 129.044 L
360.725 128.386 L
359.534 128.012 L
358.287 127.947 L
357.063 128.194 L
355.939 128.738 L
354.985 129.544 L
354.262 130.562 L
353.815 131.727 L
353.671 132.968 L
S
GR
GS
[0.75 0 0 0.75 259.58434 90.2812] CT
0 0 1 RC
10.0 ML
0.667 LW
N
0 -4 M
0 4 L
-4 0 M
4 0 L
-2.828 -2.828 M
2.828 2.828 L
-2.828 2.828 M
2.828 -2.828 L
S
GR
GS
[0.75 0 0 0.75 0 0] CT
0 0 1 RC
1 LJ
0.667 LW
N
347.289 119.592 M
347.37 119.564 L
347.311 119.627 L
S
GR
GS
[0.75 0 0 0.75 0 0] CT
0 0 1 RC
1 LJ
0.667 LW
N
346.112 120.375 M
347.37 119.564 L
S
GR
GS
[0.75 0 0 0.75 0 0] CT
0 0 1 RC
1 LJ
0.667 LW
N
341.132 120.439 M
341.304 121.675 L
341.778 122.83 L
342.525 123.831 L
343.497 124.614 L
344.634 125.132 L
345.863 125.35 L
347.108 125.256 L
348.291 124.855 L
349.336 124.172 L
350.179 123.251 L
350.767 122.149 L
351.062 120.936 L
351.046 119.688 L
350.72 118.482 L
350.105 117.396 L
349.238 116.497 L
348.176 115.841 L
346.983 115.47 L
345.736 115.408 L
344.513 115.658 L
343.39 116.204 L
342.438 117.012 L
341.717 118.031 L
341.272 119.198 L
341.132 120.439 L
S
GR
GS
[0.75 0 0 0.75 272.61292 97.87194] CT
0 0 1 RC
10.0 ML
0.667 LW
N
0 -4 M
0 4 L
-4 0 M
4 0 L
-2.828 -2.828 M
2.828 2.828 L
-2.828 2.828 M
2.828 -2.828 L
S
GR
GS
[0.75 0 0 0.75 0 0] CT
0 0 1 RC
1 LJ
0.667 LW
N
364.66 129.713 M
364.741 129.685 L
364.683 129.748 L
S
GR
GS
[0.75 0 0 0.75 0 0] CT
0 0 1 RC
1 LJ
0.667 LW
N
363.484 130.496 M
364.741 129.685 L
S
GR
GS
[0.75 0 0 0.75 0 0] CT
0 0 1 RC
1 LJ
0.667 LW
N
358.503 130.569 M
358.678 131.805 L
359.154 132.959 L
359.903 133.958 L
360.876 134.74 L
362.014 135.255 L
363.244 135.471 L
364.488 135.375 L
365.67 134.972 L
366.715 134.287 L
367.556 133.365 L
368.141 132.262 L
368.434 131.048 L
368.416 129.8 L
368.088 128.595 L
367.471 127.51 L
366.603 126.612 L
365.539 125.958 L
364.346 125.59 L
363.099 125.53 L
361.876 125.782 L
360.754 126.33 L
359.803 127.139 L
359.084 128.16 L
358.642 129.328 L
358.503 130.569 L
S
GR
GS
[0.75 0 0 0.75 282.01767 79.06199] CT
0 0 1 RC
10.0 ML
0.667 LW
N
0 -4 M
0 4 L
-4 0 M
4 0 L
-2.828 -2.828 M
2.828 2.828 L
-2.828 2.828 M
2.828 -2.828 L
S
GR
GS
[0.75 0 0 0.75 0 0] CT
0 0 1 RC
1 LJ
0.667 LW
N
377.2 104.633 M
377.281 104.605 L
377.223 104.668 L
S
GR
GS
[0.75 0 0 0.75 0 0] CT
0 0 1 RC
1 LJ
0.667 LW
N
376.024 105.416 M
377.281 104.605 L
S
GR
GS
[0.75 0 0 0.75 0 0] CT
0 0 1 RC
1 LJ
0.667 LW
N
371.043 105.48 M
371.215 106.716 L
371.69 107.871 L
372.436 108.872 L
373.408 109.655 L
374.545 110.173 L
375.774 110.391 L
377.019 110.297 L
378.202 109.896 L
379.247 109.213 L
380.09 108.292 L
380.678 107.19 L
380.973 105.977 L
380.957 104.729 L
380.631 103.523 L
380.016 102.437 L
379.149 101.538 L
378.087 100.882 L
376.894 100.512 L
375.647 100.449 L
374.424 100.699 L
373.301 101.245 L
372.349 102.053 L
371.628 103.072 L
371.183 104.239 L
371.043 105.48 L
S
GR
GS
[0.75 0 0 0.75 291.42242 88.46697] CT
0 0 1 RC
10.0 ML
0.667 LW
N
0 -4 M
0 4 L
-4 0 M
4 0 L
-2.828 -2.828 M
2.828 2.828 L
-2.828 2.828 M
2.828 -2.828 L
S
GR
GS
[0.75 0 0 0.75 0 0] CT
0 0 1 RC
1 LJ
0.667 LW
N
389.74 117.173 M
389.821 117.145 L
389.762 117.208 L
S
GR
GS
[0.75 0 0 0.75 0 0] CT
0 0 1 RC
1 LJ
0.667 LW
N
388.563 117.956 M
389.821 117.145 L
S
GR
GS
[0.75 0 0 0.75 0 0] CT
0 0 1 RC
1 LJ
0.667 LW
N
383.582 118.009 M
383.726 116.768 L
384.173 115.602 L
384.896 114.585 L
385.85 113.779 L
386.974 113.235 L
388.198 112.988 L
389.445 113.053 L
390.636 113.427 L
391.698 114.085 L
392.562 114.986 L
393.175 116.073 L
393.498 117.279 L
393.511 118.528 L
393.214 119.741 L
392.624 120.841 L
391.779 121.76 L
390.732 122.44 L
389.548 122.839 L
388.303 122.93 L
387.074 122.709 L
385.939 122.19 L
384.968 121.404 L
384.224 120.402 L
383.752 119.246 L
383.582 118.009 L
S
GR
GS
[0.75 0 0 0.75 302.3494 99.39386] CT
0 0 1 RC
10.0 ML
0.667 LW
N
0 -4 M
0 4 L
-4 0 M
4 0 L
-2.828 -2.828 M
2.828 2.828 L
-2.828 2.828 M
2.828 -2.828 L
S
GR
GS
[0.75 0 0 0.75 0 0] CT
0 0 1 RC
1 LJ
0.667 LW
N
404.309 131.742 M
404.39 131.714 L
404.331 131.777 L
S
GR
GS
[0.75 0 0 0.75 0 0] CT
0 0 1 RC
1 LJ
0.667 LW
N
403.133 132.525 M
404.39 131.714 L
S
GR
GS
[0.75 0 0 0.75 0 0] CT
0 0 1 RC
1 LJ
0.667 LW
N
398.152 132.584 M
398.294 131.343 L
398.74 130.177 L
399.462 129.158 L
400.414 128.351 L
401.538 127.806 L
402.762 127.558 L
404.008 127.622 L
405.2 127.993 L
406.262 128.65 L
407.128 129.55 L
407.742 130.637 L
408.067 131.843 L
408.081 133.091 L
407.785 134.304 L
407.196 135.406 L
406.352 136.326 L
405.306 137.007 L
404.123 137.407 L
402.878 137.5 L
401.649 137.28 L
400.513 136.762 L
399.542 135.977 L
398.796 134.976 L
398.323 133.82 L
398.152 132.584 L
S
GR
GS
[0.75 0 0 0.75 290.76237 95.20632] CT
0 0 1 RC
10.0 ML
0.667 LW
N
0 -4 M
0 4 L
-4 0 M
4 0 L
-2.828 -2.828 M
2.828 2.828 L
-2.828 2.828 M
2.828 -2.828 L
S
GR
GS
[0.75 0 0 0.75 0 0] CT
0 0 1 RC
1 LJ
0.667 LW
N
388.86 126.159 M
388.941 126.131 L
388.882 126.194 L
S
GR
GS
[0.75 0 0 0.75 0 0] CT
0 0 1 RC
1 LJ
0.667 LW
N
387.683 126.942 M
388.941 126.131 L
S
GR
GS
[0.75 0 0 0.75 0 0] CT
0 0 1 RC
1 LJ
0.667 LW
N
382.703 126.864 M
382.878 125.628 L
383.356 124.474 L
384.106 123.476 L
385.08 122.695 L
386.218 122.181 L
387.448 121.966 L
388.693 122.064 L
389.874 122.468 L
390.918 123.154 L
391.758 124.077 L
392.343 125.181 L
392.634 126.395 L
392.615 127.643 L
392.285 128.848 L
391.667 129.932 L
390.798 130.829 L
389.733 131.481 L
388.54 131.849 L
387.293 131.908 L
386.07 131.655 L
384.949 131.105 L
383.999 130.294 L
383.281 129.273 L
382.84 128.105 L
382.703 126.864 L
S
GR
GS
[0.75 0 0 0.75 0 0] CT
1 GC
N
/f514426320{470 285 M
470 42 L
192 42 L
192 285 L
cp}def
f514426320
f
GR
GS
[0.75 0 0 0.75 179.25 55.49999] CT
/Helvetica-Bold 48 F
GS
[1 0 0 1 0 0] CT
0 19 moveto 
1 -1 scale
(LandMark) t 
GR
GR
GS
[0.75 0 0 0.75 162 55.5] CT
1 0 0 RC
N
f-1996900118
f
GR
GS
[0.75 0 0 0.75 162 55.5] CT
0 0 1 RC
10.0 ML
0.667 LW
N
0 -26.66 M
-23.088 13.33 L
23.088 13.33 L
cp
S
GR
GS
[0.75 0 0 0.75 179.25 126] CT
/Helvetica-Bold 48 F
GS
[1 0 0 1 0 0] CT
0 0 moveto 
1 -1 scale
(b) t 
GR
GR
GS
[0.75 0 0 0.75 201.75 108] CT
/Helvetica-Bold 38.4 F
GS
[1 0 0 1 0 0] CT
0 0 moveto 
1 -1 scale
(-) t 
GR
GR
GS
[0.75 0 0 0.75 211.5 126] CT
/Helvetica-Bold 48 F
GS
[1 0 0 1 0 0] CT
0 0 moveto 
1 -1 scale
([X) t 
GR
GR
GS
[0.75 0 0 0.75 247.5 144] CT
/Helvetica-Bold 38.4 F
GS
[1 0 0 1 0 0] CT
0 0 moveto 
1 -1 scale
(k) t 
GR
GR
GS
[0.75 0 0 0.75 264 126] CT
/Helvetica-Bold 48 F
GS
[1 0 0 1 0 0] CT
0 0 moveto 
1 -1 scale
(]) t 
GR
GR
GS
[0.75 0 0 0.75 0 0] CT
0 1 1 RC
1 LJ
0.667 LW
N
196 152.5 M
236 152.5 L
S
GR
GS
[0.75 0 0 0.75 0 0] CT
0 1 1 RC
1 LJ
0.667 LW
N
224 157.3 M
236 152.5 L
224 147.7 L
S
GR
GS
[0.75 0 0 0.75 179.25 187.5] CT
/Helvetica-Bold 48 F
GS
[1 0 0 1 0 0] CT
0 0 moveto 
1 -1 scale
(b[X) t 
GR
GR
GS
[0.75 0 0 0.75 237.75 205.5] CT
/Helvetica-Bold 38.4 F
GS
[1 0 0 1 0 0] CT
0 0 moveto 
1 -1 scale
(k) t 
GR
GR
GS
[0.75 0 0 0.75 254.25 187.5] CT
/Helvetica-Bold 48 F
GS
[1 0 0 1 0 0] CT
0 0 moveto 
1 -1 scale
(]) t 
GR
GR
GS
[0.75 0 0 0.75 0 0] CT
0 0 1 RC
1 LJ
0.667 LW
N
196 242 M
236 242 L
S
GR
GS
[0.75 0 0 0.75 0 0] CT
0.149 GC
10.0 ML
0.667 LW
N
192 285 M
192 42 L
470 42 L
470 285 L
cp
S
GR
%%Trailer
%%Pages: 1
%%EOF
