%!PS-Adobe-3.0 EPSF-3.0
%%Creator: (MATLAB, The Mathworks, Inc. Version 9.10.0.1649659 \(R2021a\) Update 1. Operating System: Windows 10)
%%Title: (C:/Users/ohads/ANPL/papers/research/2022 ICRA/Figures/TestCase_2/fig_files/Robots_estimation_k_8.eps)
%%CreationDate: 2021-08-04T10:58:29
%%Pages: (atend)
%%BoundingBox:    36     9   381   293
%%LanguageLevel: 3
%%EndComments
%%BeginProlog
%%BeginResource: procset (Apache XML Graphics Std ProcSet) 1.2 0
%%Version: 1.2 0
%%Copyright: (Copyright 2001-2003,2010 The Apache Software Foundation. License terms: http://www.apache.org/licenses/LICENSE-2.0)
/bd{bind def}bind def
/ld{load def}bd
/GR/grestore ld
/GS/gsave ld
/RM/rmoveto ld
/C/curveto ld
/t/show ld
/L/lineto ld
/ML/setmiterlimit ld
/CT/concat ld
/f/fill ld
/N/newpath ld
/S/stroke ld
/CC/setcmykcolor ld
/A/ashow ld
/cp/closepath ld
/RC/setrgbcolor ld
/LJ/setlinejoin ld
/GC/setgray ld
/LW/setlinewidth ld
/M/moveto ld
/re {4 2 roll M
1 index 0 rlineto
0 exch rlineto
neg 0 rlineto
cp } bd
/_ctm matrix def
/_tm matrix def
/BT { _ctm currentmatrix pop matrix _tm copy pop 0 0 moveto } bd
/ET { _ctm setmatrix } bd
/iTm { _ctm setmatrix _tm concat } bd
/Tm { _tm astore pop iTm 0 0 moveto } bd
/ux 0.0 def
/uy 0.0 def
/F {
  /Tp exch def
  /Tf exch def
  Tf findfont Tp scalefont setfont
  /cf Tf def  /cs Tp def
} bd
/ULS {currentpoint /uy exch def /ux exch def} bd
/ULE {
  /Tcx currentpoint pop def
  gsave
  newpath
  cf findfont cs scalefont dup
  /FontMatrix get 0 get /Ts exch def /FontInfo get dup
  /UnderlinePosition get Ts mul /To exch def
  /UnderlineThickness get Ts mul /Tt exch def
  ux uy To add moveto  Tcx uy To add lineto
  Tt setlinewidth stroke
  grestore
} bd
/OLE {
  /Tcx currentpoint pop def
  gsave
  newpath
  cf findfont cs scalefont dup
  /FontMatrix get 0 get /Ts exch def /FontInfo get dup
  /UnderlinePosition get Ts mul /To exch def
  /UnderlineThickness get Ts mul /Tt exch def
  ux uy To add cs add moveto Tcx uy To add cs add lineto
  Tt setlinewidth stroke
  grestore
} bd
/SOE {
  /Tcx currentpoint pop def
  gsave
  newpath
  cf findfont cs scalefont dup
  /FontMatrix get 0 get /Ts exch def /FontInfo get dup
  /UnderlinePosition get Ts mul /To exch def
  /UnderlineThickness get Ts mul /Tt exch def
  ux uy To add cs 10 mul 26 idiv add moveto Tcx uy To add cs 10 mul 26 idiv add lineto
  Tt setlinewidth stroke
  grestore
} bd
/QT {
/Y22 exch store
/X22 exch store
/Y21 exch store
/X21 exch store
currentpoint
/Y21 load 2 mul add 3 div exch
/X21 load 2 mul add 3 div exch
/X21 load 2 mul /X22 load add 3 div
/Y21 load 2 mul /Y22 load add 3 div
/X22 load /Y22 load curveto
} bd
/SSPD {
dup length /d exch dict def
{
/v exch def
/k exch def
currentpagedevice k known {
/cpdv currentpagedevice k get def
v cpdv ne {
/upd false def
/nullv v type /nulltype eq def
/nullcpdv cpdv type /nulltype eq def
nullv nullcpdv or
{
/upd true def
} {
/sametype v type cpdv type eq def
sametype {
v type /arraytype eq {
/vlen v length def
/cpdvlen cpdv length def
vlen cpdvlen eq {
0 1 vlen 1 sub {
/i exch def
/obj v i get def
/cpdobj cpdv i get def
obj cpdobj ne {
/upd true def
exit
} if
} for
} {
/upd true def
} ifelse
} {
v type /dicttype eq {
v {
/dv exch def
/dk exch def
/cpddv cpdv dk get def
dv cpddv ne {
/upd true def
exit
} if
} forall
} {
/upd true def
} ifelse
} ifelse
} if
} ifelse
upd true eq {
d k v put
} if
} if
} if
} forall
d length 0 gt {
d setpagedevice
} if
} bd
/RE { % /NewFontName [NewEncodingArray] /FontName RE -
  findfont dup length dict begin
  {
    1 index /FID ne
    {def} {pop pop} ifelse
  } forall
  /Encoding exch def
  /FontName 1 index def
  currentdict definefont pop
  end
} bind def
%%EndResource
%%BeginResource: procset (Apache XML Graphics EPS ProcSet) 1.0 0
%%Version: 1.0 0
%%Copyright: (Copyright 2002-2003 The Apache Software Foundation. License terms: http://www.apache.org/licenses/LICENSE-2.0)
/BeginEPSF { %def
/b4_Inc_state save def         % Save state for cleanup
/dict_count countdictstack def % Count objects on dict stack
/op_count count 1 sub def      % Count objects on operand stack
userdict begin                 % Push userdict on dict stack
/showpage { } def              % Redefine showpage, { } = null proc
0 setgray 0 setlinecap         % Prepare graphics state
1 setlinewidth 0 setlinejoin
10 setmiterlimit [ ] 0 setdash newpath
/languagelevel where           % If level not equal to 1 then
{pop languagelevel             % set strokeadjust and
1 ne                           % overprint to their defaults.
{false setstrokeadjust false setoverprint
} if
} if
} bd
/EndEPSF { %def
count op_count sub {pop} repeat            % Clean up stacks
countdictstack dict_count sub {end} repeat
b4_Inc_state restore
} bd
%%EndResource
%FOPBeginFontDict
%%IncludeResource: font Courier-Oblique
%%IncludeResource: font Courier-BoldOblique
%%IncludeResource: font Courier-Bold
%%IncludeResource: font ZapfDingbats
%%IncludeResource: font Symbol
%%IncludeResource: font Helvetica
%%IncludeResource: font Helvetica-Oblique
%%IncludeResource: font Helvetica-Bold
%%IncludeResource: font Helvetica-BoldOblique
%%IncludeResource: font Times-Roman
%%IncludeResource: font Times-Italic
%%IncludeResource: font Times-Bold
%%IncludeResource: font Times-BoldItalic
%%IncludeResource: font Courier
%FOPEndFontDict
%%BeginResource: encoding WinAnsiEncoding
/WinAnsiEncoding [
/.notdef /.notdef /.notdef /.notdef /.notdef
/.notdef /.notdef /.notdef /.notdef /.notdef
/.notdef /.notdef /.notdef /.notdef /.notdef
/.notdef /.notdef /.notdef /.notdef /.notdef
/.notdef /.notdef /.notdef /.notdef /.notdef
/.notdef /.notdef /.notdef /.notdef /.notdef
/.notdef /.notdef /space /exclam /quotedbl
/numbersign /dollar /percent /ampersand /quotesingle
/parenleft /parenright /asterisk /plus /comma
/hyphen /period /slash /zero /one
/two /three /four /five /six
/seven /eight /nine /colon /semicolon
/less /equal /greater /question /at
/A /B /C /D /E
/F /G /H /I /J
/K /L /M /N /O
/P /Q /R /S /T
/U /V /W /X /Y
/Z /bracketleft /backslash /bracketright /asciicircum
/underscore /quoteleft /a /b /c
/d /e /f /g /h
/i /j /k /l /m
/n /o /p /q /r
/s /t /u /v /w
/x /y /z /braceleft /bar
/braceright /asciitilde /bullet /Euro /bullet
/quotesinglbase /florin /quotedblbase /ellipsis /dagger
/daggerdbl /circumflex /perthousand /Scaron /guilsinglleft
/OE /bullet /Zcaron /bullet /bullet
/quoteleft /quoteright /quotedblleft /quotedblright /bullet
/endash /emdash /asciitilde /trademark /scaron
/guilsinglright /oe /bullet /zcaron /Ydieresis
/space /exclamdown /cent /sterling /currency
/yen /brokenbar /section /dieresis /copyright
/ordfeminine /guillemotleft /logicalnot /sfthyphen /registered
/macron /degree /plusminus /twosuperior /threesuperior
/acute /mu /paragraph /middot /cedilla
/onesuperior /ordmasculine /guillemotright /onequarter /onehalf
/threequarters /questiondown /Agrave /Aacute /Acircumflex
/Atilde /Adieresis /Aring /AE /Ccedilla
/Egrave /Eacute /Ecircumflex /Edieresis /Igrave
/Iacute /Icircumflex /Idieresis /Eth /Ntilde
/Ograve /Oacute /Ocircumflex /Otilde /Odieresis
/multiply /Oslash /Ugrave /Uacute /Ucircumflex
/Udieresis /Yacute /Thorn /germandbls /agrave
/aacute /acircumflex /atilde /adieresis /aring
/ae /ccedilla /egrave /eacute /ecircumflex
/edieresis /igrave /iacute /icircumflex /idieresis
/eth /ntilde /ograve /oacute /ocircumflex
/otilde /odieresis /divide /oslash /ugrave
/uacute /ucircumflex /udieresis /yacute /thorn
/ydieresis
] def
%%EndResource
%FOPBeginFontReencode
/Courier-Oblique findfont
dup length dict begin
  {1 index /FID ne {def} {pop pop} ifelse} forall
  /Encoding WinAnsiEncoding def
  currentdict
end
/Courier-Oblique exch definefont pop
/Courier-BoldOblique findfont
dup length dict begin
  {1 index /FID ne {def} {pop pop} ifelse} forall
  /Encoding WinAnsiEncoding def
  currentdict
end
/Courier-BoldOblique exch definefont pop
/Courier-Bold findfont
dup length dict begin
  {1 index /FID ne {def} {pop pop} ifelse} forall
  /Encoding WinAnsiEncoding def
  currentdict
end
/Courier-Bold exch definefont pop
/Helvetica findfont
dup length dict begin
  {1 index /FID ne {def} {pop pop} ifelse} forall
  /Encoding WinAnsiEncoding def
  currentdict
end
/Helvetica exch definefont pop
/Helvetica-Oblique findfont
dup length dict begin
  {1 index /FID ne {def} {pop pop} ifelse} forall
  /Encoding WinAnsiEncoding def
  currentdict
end
/Helvetica-Oblique exch definefont pop
/Helvetica-Bold findfont
dup length dict begin
  {1 index /FID ne {def} {pop pop} ifelse} forall
  /Encoding WinAnsiEncoding def
  currentdict
end
/Helvetica-Bold exch definefont pop
/Helvetica-BoldOblique findfont
dup length dict begin
  {1 index /FID ne {def} {pop pop} ifelse} forall
  /Encoding WinAnsiEncoding def
  currentdict
end
/Helvetica-BoldOblique exch definefont pop
/Times-Roman findfont
dup length dict begin
  {1 index /FID ne {def} {pop pop} ifelse} forall
  /Encoding WinAnsiEncoding def
  currentdict
end
/Times-Roman exch definefont pop
/Times-Italic findfont
dup length dict begin
  {1 index /FID ne {def} {pop pop} ifelse} forall
  /Encoding WinAnsiEncoding def
  currentdict
end
/Times-Italic exch definefont pop
/Times-Bold findfont
dup length dict begin
  {1 index /FID ne {def} {pop pop} ifelse} forall
  /Encoding WinAnsiEncoding def
  currentdict
end
/Times-Bold exch definefont pop
/Times-BoldItalic findfont
dup length dict begin
  {1 index /FID ne {def} {pop pop} ifelse} forall
  /Encoding WinAnsiEncoding def
  currentdict
end
/Times-BoldItalic exch definefont pop
/Courier findfont
dup length dict begin
  {1 index /FID ne {def} {pop pop} ifelse} forall
  /Encoding WinAnsiEncoding def
  currentdict
end
/Courier exch definefont pop
%FOPEndFontReencode
%%EndProlog
%%Page: 1 1
%%PageBoundingBox: 0 0 428 315
%%BeginPageSetup
[1 0 0 -1 0 315] CT
%%EndPageSetup
GS
[0.75 0 0 0.75 0 0] CT
1 GC
N
0 0 570 420 re
f
GR
GS
[0.75 0 0 0.75 0 0] CT
1 GC
N
0 0 570 420 re
f
GR
GS
[0.75 0 0 0.75 0 0] CT
1 GC
N
181.389 267 M
480.611 267 L
480.611 31 L
181.389 31 L
cp
f
GR
GS
[0.75 0 0 0.75 0 0] CT
0.149 GC
2 setlinecap
1 LJ
0.667 LW
N
181.389 267 M
480.611 267 L
S
GR
GS
[0.75 0 0 0.75 0 0] CT
0.149 GC
2 setlinecap
1 LJ
0.667 LW
N
181.389 267 M
181.389 264.008 L
S
GR
GS
[0.75 0 0 0.75 0 0] CT
0.149 GC
2 setlinecap
1 LJ
0.667 LW
N
256.194 267 M
256.194 264.008 L
S
GR
GS
[0.75 0 0 0.75 0 0] CT
0.149 GC
2 setlinecap
1 LJ
0.667 LW
N
331 267 M
331 264.008 L
S
GR
GS
[0.75 0 0 0.75 0 0] CT
0.149 GC
2 setlinecap
1 LJ
0.667 LW
N
405.806 267 M
405.806 264.008 L
S
GR
GS
[0.75 0 0 0.75 0 0] CT
0.149 GC
2 setlinecap
1 LJ
0.667 LW
N
480.611 267 M
480.611 264.008 L
S
GR
GS
[0.75 0 0 0.75 136.04141 210.25001] CT
0.149 GC
/Helvetica 53.333 F
GS
[1 0 0 1 0 0] CT
-24 54 moveto 
1 -1 scale
(-5) t 
GR
GR
GS
[0.75 0 0 0.75 192.14571 210.25001] CT
0.149 GC
/Helvetica 53.333 F
GS
[1 0 0 1 0 0] CT
-15 54 moveto 
1 -1 scale
(0) t 
GR
GR
GS
[0.75 0 0 0.75 248.25 210.25001] CT
0.149 GC
/Helvetica 53.333 F
GS
[1 0 0 1 0 0] CT
-15 54 moveto 
1 -1 scale
(5) t 
GR
GR
GS
[0.75 0 0 0.75 304.35429 210.25001] CT
0.149 GC
/Helvetica 53.333 F
GS
[1 0 0 1 0 0] CT
-30 54 moveto 
1 -1 scale
(10) t 
GR
GR
GS
[0.75 0 0 0.75 360.45859 210.25001] CT
0.149 GC
/Helvetica 53.333 F
GS
[1 0 0 1 0 0] CT
-30 54 moveto 
1 -1 scale
(15) t 
GR
GR
GS
[0.75 0 0 0.75 248.25011 260.74999] CT
0.149 GC
/Helvetica 58.667 F
GS
[1 0 0 1 0 0] CT
-34.5 59 moveto 
1 -1 scale
(Xs) t 
GR
GR
GS
[0.75 0 0 0.75 0 0] CT
0.149 GC
2 setlinecap
1 LJ
0.667 LW
N
181.389 267 M
181.389 31 L
S
GR
GS
[0.75 0 0 0.75 0 0] CT
0.149 GC
2 setlinecap
1 LJ
0.667 LW
N
181.389 207.062 M
184.381 207.062 L
S
GR
GS
[0.75 0 0 0.75 0 0] CT
0.149 GC
2 setlinecap
1 LJ
0.667 LW
N
181.389 132.256 M
184.381 132.256 L
S
GR
GS
[0.75 0 0 0.75 0 0] CT
0.149 GC
2 setlinecap
1 LJ
0.667 LW
N
181.389 57.45 M
184.381 57.45 L
S
GR
GS
[0.75 0 0 0.75 126.04142 155.29639] CT
0.149 GC
/Helvetica 53.333 F
GS
[1 0 0 1 0 0] CT
-30 21 moveto 
1 -1 scale
(5) t 
GR
GR
GS
[0.75 0 0 0.75 126.04142 99.1921] CT
0.149 GC
/Helvetica 53.333 F
GS
[1 0 0 1 0 0] CT
-60 21 moveto 
1 -1 scale
(10) t 
GR
GR
GS
[0.75 0 0 0.75 126.04142 43.0878] CT
0.149 GC
/Helvetica 53.333 F
GS
[1 0 0 1 0 0] CT
-60 21 moveto 
1 -1 scale
(15) t 
GR
GR
GS
[0 -0.75 0.75 0 78.04142 111.74991] CT
0.149 GC
/Helvetica 58.667 F
GS
[1 0 0 1 0 0] CT
-34.5 -13 moveto 
1 -1 scale
(Ys) t 
GR
GR
GS
[0.75 0 0 0.75 237.02914 132.85468] CT
1 0 0 RC
N
0 -26.66 M
-23.088 13.33 L
23.088 13.33 L
cp
f
GR
GS
[0.75 0 0 0.75 237.02914 132.85468] CT
0 0 1 RC
10.0 ML
0.667 LW
N
0 -26.66 M
-23.088 13.33 L
23.088 13.33 L
cp
S
GR
GS
[0.75 0 0 0.75 225.80827 121.63382] CT
1 0 0 RC
N
/f-1996900118{0 -26.66 M
-23.088 13.33 L
23.088 13.33 L
cp}def
f-1996900118
f
GR
GS
[0.75 0 0 0.75 225.80827 121.63382] CT
0 0 1 RC
10.0 ML
0.667 LW
N
0 -26.66 M
-23.088 13.33 L
23.088 13.33 L
cp
S
GR
GS
[0.75 0 0 0.75 270.69173 132.85468] CT
1 0 0 RC
N
f-1996900118
f
GR
GS
[0.75 0 0 0.75 270.69173 132.85468] CT
0 0 1 RC
10.0 ML
0.667 LW
N
0 -26.66 M
-23.088 13.33 L
23.088 13.33 L
cp
S
GR
GS
[0.75 0 0 0.75 248.25 177.73811] CT
1 0 0 RC
N
f-1996900118
f
GR
GS
[0.75 0 0 0.75 248.25 177.73811] CT
0 0 1 RC
10.0 ML
0.667 LW
N
0 -26.66 M
-23.088 13.33 L
23.088 13.33 L
cp
S
GR
GS
[0.75 0 0 0.75 248.25 110.41295] CT
1 0 0 RC
N
f-1996900118
f
GR
GS
[0.75 0 0 0.75 248.25 110.41295] CT
0 0 1 RC
10.0 ML
0.667 LW
N
0 -26.66 M
-23.088 13.33 L
23.088 13.33 L
cp
S
GR
GS
[0.75 0 0 0.75 237.02914 155.29639] CT
1 0 0 RC
N
f-1996900118
f
GR
GS
[0.75 0 0 0.75 237.02914 155.29639] CT
0 0 1 RC
10.0 ML
0.667 LW
N
0 -26.66 M
-23.088 13.33 L
23.088 13.33 L
cp
S
GR
GS
[0.75 0 0 0.75 281.91257 177.73811] CT
1 0 0 RC
N
f-1996900118
f
GR
GS
[0.75 0 0 0.75 281.91257 177.73811] CT
0 0 1 RC
10.0 ML
0.667 LW
N
0 -26.66 M
-23.088 13.33 L
23.088 13.33 L
cp
S
GR
GS
[0.75 0 0 0.75 259.47086 121.63382] CT
1 0 0 RC
N
f-1996900118
f
GR
GS
[0.75 0 0 0.75 259.47086 121.63382] CT
0 0 1 RC
10.0 ML
0.667 LW
N
0 -26.66 M
-23.088 13.33 L
23.088 13.33 L
cp
S
GR
GS
[0.75 0 0 0.75 267.22742 59.29927] CT
1 0 0 RC
10.0 ML
0.667 LW
N
0 -5 M
0 5 L
-5 0 M
5 0 L
S
GR
GS
[0.75 0 0 0.75 258.19551 75.61821] CT
0 1 1 RC
10.0 ML
0.667 LW
N
0 -4 M
0 4 L
-4 0 M
4 0 L
-2.828 -2.828 M
2.828 2.828 L
-2.828 2.828 M
2.828 -2.828 L
S
GR
GS
[0.75 0 0 0.75 0 0] CT
0 1 1 RC
1 LJ
0.667 LW
N
343.777 99.507 M
343.768 99.411 L
343.821 99.492 L
S
GR
GS
[0.75 0 0 0.75 0 0] CT
0 1 1 RC
1 LJ
0.667 LW
N
344.261 100.824 M
343.768 99.411 L
S
GR
GS
[0.75 0 0 0.75 0 0] CT
0 1 1 RC
1 LJ
0.667 LW
N
340.66 112.67 M
337.827 111.403 L
335.399 109.471 L
333.527 106.995 L
332.329 104.132 L
331.882 101.061 L
332.212 97.975 L
333.299 95.068 L
335.075 92.523 L
337.428 90.499 L
340.211 89.124 L
343.247 88.485 L
346.348 88.62 L
349.317 89.523 L
351.969 91.135 L
354.136 93.357 L
355.683 96.047 L
356.512 99.038 L
356.572 102.141 L
355.857 105.161 L
354.414 107.909 L
352.333 110.212 L
349.745 111.924 L
346.812 112.94 L
343.719 113.194 L
340.66 112.67 L
S
GR
GS
[0.75 0 0 0.75 248.79078 66.21348] CT
0 1 1 RC
10.0 ML
0.667 LW
N
0 -4 M
0 4 L
-4 0 M
4 0 L
-2.828 -2.828 M
2.828 2.828 L
-2.828 2.828 M
2.828 -2.828 L
S
GR
GS
[0.75 0 0 0.75 0 0] CT
0 1 1 RC
1 LJ
0.667 LW
N
331.237 86.968 M
331.229 86.872 L
331.282 86.952 L
S
GR
GS
[0.75 0 0 0.75 0 0] CT
0 1 1 RC
1 LJ
0.667 LW
N
331.721 88.285 M
331.229 86.872 L
S
GR
GS
[0.75 0 0 0.75 0 0] CT
0 1 1 RC
1 LJ
0.667 LW
N
343.506 92.08 M
344.08 89.03 L
343.877 85.933 L
342.91 82.984 L
341.24 80.368 L
338.972 78.249 L
336.249 76.761 L
333.241 75.997 L
330.137 76.005 L
327.133 76.785 L
324.417 78.287 L
322.161 80.418 L
320.504 83.042 L
319.553 85.997 L
319.366 89.094 L
319.956 92.142 L
321.285 94.946 L
323.269 97.332 L
325.785 99.15 L
328.673 100.285 L
331.754 100.666 L
334.832 100.269 L
337.714 99.119 L
340.22 97.288 L
342.192 94.891 L
343.506 92.08 L
S
GR
GS
[0.75 0 0 0.75 267.60015 56.80896] CT
0 1 1 RC
10.0 ML
0.667 LW
N
0 -4 M
0 4 L
-4 0 M
4 0 L
-2.828 -2.828 M
2.828 2.828 L
-2.828 2.828 M
2.828 -2.828 L
S
GR
GS
[0.75 0 0 0.75 0 0] CT
0 1 1 RC
1 LJ
0.667 LW
N
356.317 74.428 M
356.308 74.332 L
356.361 74.413 L
S
GR
GS
[0.75 0 0 0.75 0 0] CT
0 1 1 RC
1 LJ
0.667 LW
N
356.8 75.745 M
356.308 74.332 L
S
GR
GS
[0.75 0 0 0.75 0 0] CT
0 1 1 RC
1 LJ
0.667 LW
N
368.676 79.248 M
369.174 76.184 L
368.894 73.093 L
367.855 70.169 L
366.121 67.595 L
363.801 65.533 L
361.041 64.113 L
358.015 63.424 L
354.913 63.509 L
351.929 64.363 L
349.251 65.932 L
347.048 68.117 L
345.457 70.782 L
344.579 73.759 L
344.469 76.86 L
345.134 79.892 L
346.532 82.663 L
348.575 84.999 L
351.135 86.754 L
354.05 87.817 L
357.139 88.122 L
360.206 87.649 L
363.059 86.428 L
365.519 84.536 L
367.432 82.091 L
368.676 79.248 L
S
GR
GS
[0.75 0 0 0.75 277.00495 66.2135] CT
0 1 1 RC
10.0 ML
0.667 LW
N
0 -4 M
0 4 L
-4 0 M
4 0 L
-2.828 -2.828 M
2.828 2.828 L
-2.828 2.828 M
2.828 -2.828 L
S
GR
GS
[0.75 0 0 0.75 0 0] CT
0 1 1 RC
1 LJ
0.667 LW
N
368.856 86.968 M
368.848 86.872 L
368.9 86.952 L
S
GR
GS
[0.75 0 0 0.75 0 0] CT
0 1 1 RC
1 LJ
0.667 LW
N
369.34 88.285 M
368.848 86.872 L
S
GR
GS
[0.75 0 0 0.75 0 0] CT
0 1 1 RC
1 LJ
0.667 LW
N
381.275 91.579 M
381.719 88.508 L
381.386 85.422 L
380.295 82.516 L
378.517 79.973 L
376.161 77.952 L
373.377 76.58 L
370.34 75.944 L
367.239 76.083 L
364.271 76.989 L
361.621 78.604 L
359.456 80.828 L
357.912 83.52 L
357.086 86.512 L
357.03 89.615 L
357.748 92.634 L
359.194 95.38 L
361.277 97.681 L
363.867 99.391 L
366.801 100.403 L
369.895 100.653 L
372.953 100.127 L
375.785 98.856 L
378.211 96.921 L
380.08 94.444 L
381.275 91.579 L
S
GR
GS
[0.75 0 0 0.75 247.26865 64.69147] CT
0 1 1 RC
10.0 ML
0.667 LW
N
0 -4 M
0 4 L
-4 0 M
4 0 L
-2.828 -2.828 M
2.828 2.828 L
-2.828 2.828 M
2.828 -2.828 L
S
GR
GS
[0.75 0 0 0.75 0 0] CT
0 1 1 RC
1 LJ
0.667 LW
N
329.208 84.938 M
329.199 84.842 L
329.252 84.923 L
S
GR
GS
[0.75 0 0 0.75 0 0] CT
0 1 1 RC
1 LJ
0.667 LW
N
329.692 86.255 M
329.199 84.842 L
S
GR
GS
[0.75 0 0 0.75 0 0] CT
0 1 1 RC
1 LJ
0.667 LW
N
341.528 89.889 M
342.059 86.831 L
341.814 83.737 L
340.807 80.802 L
339.101 78.209 L
336.805 76.121 L
334.061 74.671 L
331.043 73.948 L
327.94 73.999 L
324.947 74.819 L
322.252 76.359 L
320.024 78.52 L
318.404 81.167 L
317.493 84.134 L
317.349 87.234 L
317.98 90.273 L
319.347 93.059 L
321.364 95.418 L
323.905 97.201 L
326.808 98.296 L
329.893 98.635 L
332.966 98.196 L
335.832 97.006 L
338.313 95.141 L
340.252 92.718 L
341.528 89.889 L
S
GR
GS
[0.75 0 0 0.75 258.19549 75.69808] CT
0 1 1 RC
10.0 ML
0.667 LW
N
0 -4 M
0 4 L
-4 0 M
4 0 L
-2.828 -2.828 M
2.828 2.828 L
-2.828 2.828 M
2.828 -2.828 L
S
GR
GS
[0.75 0 0 0.75 0 0] CT
0 1 1 RC
1 LJ
0.667 LW
N
343.777 99.614 M
343.768 99.518 L
343.821 99.598 L
S
GR
GS
[0.75 0 0 0.75 0 0] CT
0 1 1 RC
1 LJ
0.667 LW
N
344.261 100.931 M
343.768 99.518 L
S
GR
GS
[0.75 0 0 0.75 0 0] CT
0 1 1 RC
1 LJ
0.667 LW
N
356.112 104.514 M
356.631 101.454 L
356.372 98.361 L
355.353 95.43 L
353.636 92.844 L
351.331 90.767 L
348.581 89.328 L
345.56 88.618 L
342.457 88.682 L
339.467 89.515 L
336.779 91.066 L
334.561 93.236 L
332.952 95.89 L
332.054 98.861 L
331.922 101.962 L
332.567 104.998 L
333.945 107.778 L
335.972 110.129 L
338.52 111.901 L
341.429 112.984 L
344.515 113.309 L
347.585 112.857 L
350.447 111.656 L
352.92 109.78 L
354.849 107.349 L
356.112 104.514 L
S
GR
GS
[0.75 0 0 0.75 267.60017 56.88865] CT
0 1 1 RC
10.0 ML
0.667 LW
N
0 -4 M
0 4 L
-4 0 M
4 0 L
-2.828 -2.828 M
2.828 2.828 L
-2.828 2.828 M
2.828 -2.828 L
S
GR
GS
[0.75 0 0 0.75 0 0] CT
0 1 1 RC
1 LJ
0.667 LW
N
356.317 74.534 M
356.308 74.439 L
356.361 74.519 L
S
GR
GS
[0.75 0 0 0.75 0 0] CT
0 1 1 RC
1 LJ
0.667 LW
N
356.8 75.852 M
356.308 74.439 L
S
GR
GS
[0.75 0 0 0.75 0 0] CT
0 1 1 RC
1 LJ
0.667 LW
N
353.302 87.728 M
350.459 86.485 L
348.013 84.574 L
346.12 82.115 L
344.898 79.262 L
344.424 76.195 L
344.727 73.106 L
345.789 70.19 L
347.543 67.63 L
349.879 65.586 L
352.649 64.187 L
355.68 63.521 L
358.782 63.63 L
361.759 64.507 L
364.425 66.096 L
366.611 68.299 L
368.181 70.976 L
369.036 73.96 L
369.122 77.062 L
368.434 80.088 L
367.015 82.848 L
364.954 85.169 L
362.381 86.904 L
359.457 87.944 L
356.366 88.225 L
353.302 87.728 L
S
GR
GS
[0.75 0 0 0.75 267.59393 56.80261] CT
0 1 1 RC
10.0 ML
0.667 LW
N
0 -4 M
0 4 L
-4 0 M
4 0 L
-2.828 -2.828 M
2.828 2.828 L
-2.828 2.828 M
2.828 -2.828 L
S
GR
GS
[0.75 0 0 0.75 0 0] CT
0 1 1 RC
1 LJ
0.667 LW
N
356.308 74.42 M
356.3 74.324 L
356.352 74.404 L
S
GR
GS
[0.75 0 0 0.75 0 0] CT
0 1 1 RC
1 LJ
0.667 LW
N
356.792 75.737 M
356.3 74.324 L
S
GR
GS
[0.75 0 0 0.75 0 0] CT
0 1 1 RC
1 LJ
0.667 LW
N
368.67 79.232 M
369.166 76.168 L
368.884 73.077 L
367.843 70.154 L
366.107 67.581 L
363.786 65.52 L
361.026 64.102 L
357.999 63.415 L
354.897 63.502 L
351.914 64.357 L
349.237 65.928 L
347.035 68.115 L
345.446 70.781 L
344.57 73.758 L
344.462 76.86 L
345.128 79.891 L
346.528 82.661 L
348.572 84.996 L
351.133 86.749 L
354.05 87.811 L
357.139 88.113 L
360.206 87.638 L
363.058 86.415 L
365.517 84.521 L
367.427 82.076 L
368.67 79.232 L
S
GR
GS
[0.75 0 0 0.75 258.19421 75.61719] CT
0 1 1 RC
10.0 ML
0.667 LW
N
0 -4 M
0 4 L
-4 0 M
4 0 L
-2.828 -2.828 M
2.828 2.828 L
-2.828 2.828 M
2.828 -2.828 L
S
GR
GS
[0.75 0 0 0.75 0 0] CT
0 1 1 RC
1 LJ
0.667 LW
N
343.775 99.506 M
343.767 99.41 L
343.819 99.49 L
S
GR
GS
[0.75 0 0 0.75 0 0] CT
0 1 1 RC
1 LJ
0.667 LW
N
344.259 100.823 M
343.767 99.41 L
S
GR
GS
[0.75 0 0 0.75 0 0] CT
0 1 1 RC
1 LJ
0.667 LW
N
340.668 112.672 M
337.834 111.407 L
335.404 109.476 L
333.53 107.002 L
332.33 104.14 L
331.88 101.069 L
332.208 97.983 L
333.293 95.075 L
335.067 92.529 L
337.418 90.503 L
340.199 89.126 L
343.236 88.484 L
346.337 88.617 L
349.307 89.517 L
351.96 91.128 L
354.129 93.348 L
355.678 96.037 L
356.509 99.027 L
356.571 102.13 L
355.859 105.151 L
354.418 107.9 L
352.339 110.204 L
349.752 111.919 L
346.82 112.936 L
343.727 113.193 L
340.668 112.672 L
S
GR
GS
[0.75 0 0 0.75 248.78963 66.21264] CT
0 1 1 RC
10.0 ML
0.667 LW
N
0 -4 M
0 4 L
-4 0 M
4 0 L
-2.828 -2.828 M
2.828 2.828 L
-2.828 2.828 M
2.828 -2.828 L
S
GR
GS
[0.75 0 0 0.75 0 0] CT
0 1 1 RC
1 LJ
0.667 LW
N
331.236 86.966 M
331.227 86.871 L
331.28 86.951 L
S
GR
GS
[0.75 0 0 0.75 0 0] CT
0 1 1 RC
1 LJ
0.667 LW
N
331.72 88.284 M
331.227 86.871 L
S
GR
GS
[0.75 0 0 0.75 0 0] CT
0 1 1 RC
1 LJ
0.667 LW
N
343.527 92.01 M
344.082 88.956 L
343.861 85.861 L
342.877 82.917 L
341.192 80.311 L
338.912 78.206 L
336.18 76.734 L
333.167 75.987 L
330.064 76.014 L
327.064 76.811 L
324.357 78.329 L
322.113 80.473 L
320.472 83.107 L
319.538 86.067 L
319.37 89.166 L
319.977 92.209 L
321.322 95.006 L
323.321 97.381 L
325.847 99.183 L
328.742 100.301 L
331.824 100.664 L
334.9 100.249 L
337.776 99.082 L
340.271 97.237 L
342.229 94.829 L
343.527 92.01 L
S
GR
GS
[0.75 0 0 0.75 267.59908 56.80779] CT
0 1 1 RC
10.0 ML
0.667 LW
N
0 -4 M
0 4 L
-4 0 M
4 0 L
-2.828 -2.828 M
2.828 2.828 L
-2.828 2.828 M
2.828 -2.828 L
S
GR
GS
[0.75 0 0 0.75 0 0] CT
0 1 1 RC
1 LJ
0.667 LW
N
356.315 74.427 M
356.307 74.331 L
356.359 74.411 L
S
GR
GS
[0.75 0 0 0.75 0 0] CT
0 1 1 RC
1 LJ
0.667 LW
N
356.799 75.744 M
356.307 74.331 L
S
GR
GS
[0.75 0 0 0.75 0 0] CT
0 1 1 RC
1 LJ
0.667 LW
N
368.676 79.24 M
369.172 76.176 L
368.891 73.086 L
367.85 70.162 L
366.115 67.589 L
363.794 65.528 L
361.034 64.109 L
358.007 63.422 L
354.905 63.508 L
351.922 64.364 L
349.245 65.934 L
347.043 68.121 L
345.453 70.786 L
344.577 73.764 L
344.468 76.865 L
345.135 79.897 L
346.534 82.667 L
348.578 85.002 L
351.139 86.756 L
354.055 87.817 L
357.144 88.12 L
360.211 87.645 L
363.064 86.423 L
365.523 84.529 L
367.433 82.084 L
368.676 79.24 L
S
GR
GS
[0.75 0 0 0.75 277.00372 66.21247] CT
0 1 1 RC
10.0 ML
0.667 LW
N
0 -4 M
0 4 L
-4 0 M
4 0 L
-2.828 -2.828 M
2.828 2.828 L
-2.828 2.828 M
2.828 -2.828 L
S
GR
GS
[0.75 0 0 0.75 0 0] CT
0 1 1 RC
1 LJ
0.667 LW
N
368.855 86.966 M
368.846 86.87 L
368.899 86.951 L
S
GR
GS
[0.75 0 0 0.75 0 0] CT
0 1 1 RC
1 LJ
0.667 LW
N
369.338 88.283 M
368.846 86.87 L
S
GR
GS
[0.75 0 0 0.75 0 0] CT
0 1 1 RC
1 LJ
0.667 LW
N
381.278 91.561 M
381.718 88.489 L
381.38 85.403 L
380.285 82.499 L
378.503 79.959 L
376.145 77.941 L
373.359 76.573 L
370.32 75.941 L
367.22 76.085 L
364.253 76.995 L
361.605 78.614 L
359.444 80.841 L
357.904 83.535 L
357.082 86.528 L
357.031 89.631 L
357.753 92.65 L
359.202 95.394 L
361.289 97.691 L
363.882 99.397 L
366.817 100.405 L
369.911 100.651 L
372.969 100.12 L
375.798 98.846 L
378.222 96.907 L
380.088 94.427 L
381.278 91.561 L
S
GR
GS
[0.75 0 0 0.75 258.1888 75.61105] CT
0 1 1 RC
10.0 ML
0.667 LW
N
0 -4 M
0 4 L
-4 0 M
4 0 L
-2.828 -2.828 M
2.828 2.828 L
-2.828 2.828 M
2.828 -2.828 L
S
GR
GS
[0.75 0 0 0.75 0 0] CT
0 1 1 RC
1 LJ
0.667 LW
N
343.768 99.498 M
343.76 99.402 L
343.812 99.482 L
S
GR
GS
[0.75 0 0 0.75 0 0] CT
0 1 1 RC
1 LJ
0.667 LW
N
344.252 100.815 M
343.76 99.402 L
S
GR
GS
[0.75 0 0 0.75 0 0] CT
0 1 1 RC
1 LJ
0.667 LW
N
340.662 112.664 M
337.828 111.399 L
335.398 109.469 L
333.524 106.995 L
332.324 104.133 L
331.873 101.062 L
332.2 97.976 L
333.285 95.068 L
335.059 92.521 L
337.41 90.496 L
340.191 89.118 L
343.227 88.476 L
346.328 88.609 L
349.298 89.509 L
351.951 91.119 L
354.121 93.338 L
355.67 96.028 L
356.502 99.018 L
356.564 102.12 L
355.852 105.141 L
354.412 107.89 L
352.333 110.195 L
349.746 111.91 L
346.815 112.928 L
343.722 113.185 L
340.662 112.664 L
S
GR
GS
[0.75 0 0 0.75 248.78224 66.20566] CT
0 1 1 RC
10.0 ML
0.667 LW
N
0 -4 M
0 4 L
-4 0 M
4 0 L
-2.828 -2.828 M
2.828 2.828 L
-2.828 2.828 M
2.828 -2.828 L
S
GR
GS
[0.75 0 0 0.75 0 0] CT
0 1 1 RC
1 LJ
0.667 LW
N
331.226 86.957 M
331.217 86.861 L
331.27 86.942 L
S
GR
GS
[0.75 0 0 0.75 0 0] CT
0 1 1 RC
1 LJ
0.667 LW
N
331.71 88.274 M
331.217 86.861 L
S
GR
GS
[0.75 0 0 0.75 0 0] CT
0 1 1 RC
1 LJ
0.667 LW
N
327.983 100.081 M
325.164 98.783 L
322.756 96.825 L
320.91 94.33 L
319.744 91.454 L
319.329 88.378 L
319.692 85.296 L
320.81 82.401 L
322.613 79.875 L
324.988 77.877 L
327.785 76.532 L
330.828 75.924 L
333.927 76.093 L
336.887 77.027 L
339.521 78.668 L
341.665 80.913 L
343.183 83.62 L
343.98 86.619 L
344.006 89.723 L
343.259 92.735 L
341.787 95.467 L
339.682 97.747 L
337.075 99.432 L
334.132 100.416 L
331.036 100.637 L
327.983 100.081 L
S
GR
GS
[0.75 0 0 0.75 267.59283 56.80153] CT
0 1 1 RC
10.0 ML
0.667 LW
N
0 -4 M
0 4 L
-4 0 M
4 0 L
-2.828 -2.828 M
2.828 2.828 L
-2.828 2.828 M
2.828 -2.828 L
S
GR
GS
[0.75 0 0 0.75 0 0] CT
0 1 1 RC
1 LJ
0.667 LW
N
356.307 74.418 M
356.298 74.323 L
356.351 74.403 L
S
GR
GS
[0.75 0 0 0.75 0 0] CT
0 1 1 RC
1 LJ
0.667 LW
N
356.79 75.735 M
356.298 74.323 L
S
GR
GS
[0.75 0 0 0.75 0 0] CT
0 1 1 RC
1 LJ
0.667 LW
N
368.668 79.23 M
369.164 76.166 L
368.883 73.076 L
367.841 70.152 L
366.105 67.579 L
363.784 65.519 L
361.024 64.1 L
357.997 63.413 L
354.895 63.5 L
351.912 64.356 L
349.235 65.927 L
347.033 68.114 L
345.444 70.78 L
344.568 73.757 L
344.46 76.859 L
345.127 79.89 L
346.527 82.66 L
348.571 84.995 L
351.132 86.748 L
354.049 87.809 L
357.137 88.112 L
360.204 87.637 L
363.057 86.414 L
365.515 84.52 L
367.426 82.074 L
368.668 79.23 L
S
GR
GS
[0.75 0 0 0.75 276.99765 66.20603] CT
0 1 1 RC
10.0 ML
0.667 LW
N
0 -4 M
0 4 L
-4 0 M
4 0 L
-2.828 -2.828 M
2.828 2.828 L
-2.828 2.828 M
2.828 -2.828 L
S
GR
GS
[0.75 0 0 0.75 0 0] CT
0 1 1 RC
1 LJ
0.667 LW
N
368.847 86.958 M
368.838 86.862 L
368.891 86.942 L
S
GR
GS
[0.75 0 0 0.75 0 0] CT
0 1 1 RC
1 LJ
0.667 LW
N
369.33 88.275 M
368.838 86.862 L
S
GR
GS
[0.75 0 0 0.75 0 0] CT
0 1 1 RC
1 LJ
0.667 LW
N
366.054 100.215 M
363.188 99.025 L
360.707 97.16 L
358.769 94.736 L
357.494 91.906 L
356.962 88.849 L
357.208 85.755 L
358.216 82.819 L
359.921 80.227 L
362.219 78.14 L
364.962 76.69 L
367.981 75.967 L
371.084 76.018 L
374.077 76.84 L
376.771 78.379 L
378.999 80.541 L
380.618 83.188 L
381.529 86.155 L
381.673 89.255 L
381.041 92.294 L
379.673 95.08 L
377.656 97.438 L
375.116 99.221 L
372.212 100.316 L
369.127 100.654 L
366.054 100.215 L
S
GR
GS
[0.75 0 0 0.75 247.26013 64.6837] CT
0 1 1 RC
10.0 ML
0.667 LW
N
0 -4 M
0 4 L
-4 0 M
4 0 L
-2.828 -2.828 M
2.828 2.828 L
-2.828 2.828 M
2.828 -2.828 L
S
GR
GS
[0.75 0 0 0.75 0 0] CT
0 1 1 RC
1 LJ
0.667 LW
N
329.197 84.928 M
329.188 84.832 L
329.241 84.913 L
S
GR
GS
[0.75 0 0 0.75 0 0] CT
0 1 1 RC
1 LJ
0.667 LW
N
329.68 86.245 M
329.188 84.832 L
S
GR
GS
[0.75 0 0 0.75 0 0] CT
0 1 1 RC
1 LJ
0.667 LW
N
341.524 89.853 M
342.049 86.794 L
341.797 83.701 L
340.784 80.768 L
339.073 78.178 L
336.772 76.096 L
334.025 74.651 L
331.005 73.935 L
327.902 73.992 L
324.911 74.819 L
322.219 76.364 L
319.996 78.53 L
318.382 81.181 L
317.478 84.15 L
317.34 87.25 L
317.977 90.287 L
319.35 93.071 L
321.372 95.425 L
323.917 97.203 L
326.823 98.292 L
329.908 98.624 L
332.98 98.178 L
335.844 96.983 L
338.321 95.113 L
340.254 92.685 L
341.524 89.853 L
S
GR
GS
[0.75 0 0 0.75 267.55302 56.76155] CT
0 1 1 RC
10.0 ML
0.667 LW
N
0 -4 M
0 4 L
-4 0 M
4 0 L
-2.828 -2.828 M
2.828 2.828 L
-2.828 2.828 M
2.828 -2.828 L
S
GR
GS
[0.75 0 0 0.75 0 0] CT
0 1 1 RC
1 LJ
0.667 LW
N
356.254 74.365 M
356.245 74.269 L
356.298 74.35 L
S
GR
GS
[0.75 0 0 0.75 0 0] CT
0 1 1 RC
1 LJ
0.667 LW
N
356.737 75.682 M
356.245 74.269 L
S
GR
GS
[0.75 0 0 0.75 0 0] CT
0 1 1 RC
1 LJ
0.667 LW
N
353.253 87.563 M
350.408 86.323 L
347.96 84.415 L
346.064 81.957 L
344.839 79.106 L
344.361 76.039 L
344.661 72.95 L
345.72 70.033 L
347.471 67.471 L
349.804 65.424 L
352.573 64.022 L
355.604 63.353 L
358.705 63.458 L
361.684 64.332 L
364.351 65.918 L
366.54 68.119 L
368.113 70.794 L
368.971 73.776 L
369.061 76.879 L
368.376 79.906 L
366.96 82.667 L
364.901 84.99 L
362.33 86.728 L
359.407 87.772 L
356.317 88.056 L
353.253 87.563 L
S
GR
GS
[0.75 0 0 0.75 267.30618 56.51502] CT
0 1 1 RC
10.0 ML
0.667 LW
N
0 -4 M
0 4 L
-4 0 M
4 0 L
-2.828 -2.828 M
2.828 2.828 L
-2.828 2.828 M
2.828 -2.828 L
S
GR
GS
[0.75 0 0 0.75 0 0] CT
0 1 1 RC
1 LJ
0.667 LW
N
355.925 74.036 M
355.916 73.941 L
355.969 74.021 L
S
GR
GS
[0.75 0 0 0.75 0 0] CT
0 1 1 RC
1 LJ
0.667 LW
N
356.408 75.353 M
355.916 73.941 L
S
GR
GS
[0.75 0 0 0.75 0 0] CT
0 1 1 RC
1 LJ
0.667 LW
N
352.964 87.246 M
350.115 86.016 L
347.661 84.116 L
345.757 81.665 L
344.522 78.818 L
344.034 75.753 L
344.323 72.663 L
345.372 69.742 L
347.114 67.174 L
349.44 65.119 L
352.204 63.708 L
355.232 63.028 L
358.335 63.123 L
361.316 63.986 L
363.988 65.564 L
366.185 67.756 L
367.767 70.426 L
368.635 73.406 L
368.735 76.508 L
368.061 79.537 L
366.654 82.304 L
364.604 84.634 L
362.039 86.38 L
359.12 87.434 L
356.03 87.729 L
352.964 87.246 L
S
GR
GS
[0.75 0 0 0.75 246.97428 64.39752] CT
0 1 1 RC
10.0 ML
0.667 LW
N
0 -4 M
0 4 L
-4 0 M
4 0 L
-2.828 -2.828 M
2.828 2.828 L
-2.828 2.828 M
2.828 -2.828 L
S
GR
GS
[0.75 0 0 0.75 0 0] CT
0 1 1 RC
1 LJ
0.667 LW
N
328.815 84.546 M
328.807 84.451 L
328.859 84.531 L
S
GR
GS
[0.75 0 0 0.75 0 0] CT
0 1 1 RC
1 LJ
0.667 LW
N
329.299 85.863 M
328.807 84.451 L
S
GR
GS
[0.75 0 0 0.75 0 0] CT
0 1 1 RC
1 LJ
0.667 LW
N
325.706 97.712 M
322.872 96.446 L
320.443 94.515 L
318.569 92.041 L
317.37 89.178 L
316.92 86.108 L
317.248 83.022 L
318.334 80.114 L
320.108 77.568 L
322.46 75.543 L
325.241 74.166 L
328.278 73.524 L
331.379 73.658 L
334.349 74.559 L
337.001 76.17 L
339.17 78.39 L
340.719 81.079 L
341.55 84.07 L
341.611 87.172 L
340.898 90.193 L
339.457 92.942 L
337.378 95.246 L
334.791 96.96 L
331.859 97.977 L
328.766 98.233 L
325.706 97.712 L
S
GR
GS
[0.75 0 0 0.75 265.78411 54.99287] CT
0 1 1 RC
10.0 ML
0.667 LW
N
0 -4 M
0 4 L
-4 0 M
4 0 L
-2.828 -2.828 M
2.828 2.828 L
-2.828 2.828 M
2.828 -2.828 L
S
GR
GS
[0.75 0 0 0.75 0 0] CT
0 1 1 RC
1 LJ
0.667 LW
N
353.895 72.007 M
353.887 71.911 L
353.939 71.991 L
S
GR
GS
[0.75 0 0 0.75 0 0] CT
0 1 1 RC
1 LJ
0.667 LW
N
354.379 73.324 M
353.887 71.911 L
S
GR
GS
[0.75 0 0 0.75 0 0] CT
0 1 1 RC
1 LJ
0.667 LW
N
351.098 85.262 M
348.232 84.071 L
345.752 82.205 L
343.815 79.781 L
342.541 76.951 L
342.011 73.893 L
342.258 70.799 L
343.266 67.864 L
344.973 65.272 L
347.271 63.186 L
350.016 61.737 L
353.034 61.016 L
356.138 61.068 L
359.13 61.891 L
361.824 63.431 L
364.05 65.594 L
365.669 68.242 L
366.578 71.209 L
366.721 74.31 L
366.088 77.348 L
364.719 80.133 L
362.701 82.491 L
360.16 84.273 L
357.255 85.366 L
354.17 85.703 L
351.098 85.262 L
S
GR
GS
[0.75 0 0 0.75 267.59264 56.80122] CT
0 1 1 RC
10.0 ML
0.667 LW
N
0 -4 M
0 4 L
-4 0 M
4 0 L
-2.828 -2.828 M
2.828 2.828 L
-2.828 2.828 M
2.828 -2.828 L
S
GR
GS
[0.75 0 0 0.75 0 0] CT
0 1 1 RC
1 LJ
0.667 LW
N
356.307 74.418 M
356.298 74.322 L
356.351 74.403 L
S
GR
GS
[0.75 0 0 0.75 0 0] CT
0 1 1 RC
1 LJ
0.667 LW
N
356.79 75.735 M
356.298 74.322 L
S
GR
GS
[0.75 0 0 0.75 0 0] CT
0 1 1 RC
1 LJ
0.667 LW
N
368.668 79.23 M
369.164 76.167 L
368.882 73.076 L
367.841 70.152 L
366.106 67.579 L
363.785 65.519 L
361.025 64.1 L
357.998 63.413 L
354.896 63.5 L
351.913 64.355 L
349.236 65.926 L
347.034 68.113 L
345.444 70.778 L
344.568 73.756 L
344.46 76.857 L
345.126 79.888 L
346.526 82.659 L
348.57 84.994 L
351.131 86.747 L
354.047 87.809 L
357.136 88.111 L
360.203 87.636 L
363.056 86.414 L
365.515 84.52 L
367.425 82.074 L
368.668 79.23 L
S
GR
GS
[0.75 0 0 0.75 246.97469 64.39736] CT
0 1 1 RC
10.0 ML
0.667 LW
N
0 -4 M
0 4 L
-4 0 M
4 0 L
-2.828 -2.828 M
2.828 2.828 L
-2.828 2.828 M
2.828 -2.828 L
S
GR
GS
[0.75 0 0 0.75 0 0] CT
0 1 1 RC
1 LJ
0.667 LW
N
328.816 84.546 M
328.807 84.45 L
328.86 84.531 L
S
GR
GS
[0.75 0 0 0.75 0 0] CT
0 1 1 RC
1 LJ
0.667 LW
N
329.3 85.863 M
328.807 84.45 L
S
GR
GS
[0.75 0 0 0.75 0 0] CT
0 1 1 RC
1 LJ
0.667 LW
N
325.699 97.709 M
322.866 96.442 L
320.438 94.509 L
318.566 92.034 L
317.368 89.171 L
316.921 86.1 L
317.251 83.014 L
318.338 80.107 L
320.114 77.562 L
322.467 75.538 L
325.249 74.163 L
328.286 73.523 L
331.387 73.659 L
334.356 74.562 L
337.008 76.174 L
339.175 78.396 L
340.722 81.086 L
341.551 84.077 L
341.611 87.18 L
340.896 90.2 L
339.453 92.948 L
337.372 95.251 L
334.784 96.963 L
331.851 97.979 L
328.758 98.232 L
325.699 97.709 L
S
GR
GS
[0.75 0 0 0.75 258.20403 75.60311] CT
0 1 1 RC
10.0 ML
0.667 LW
N
0 -4 M
0 4 L
-4 0 M
4 0 L
-2.828 -2.828 M
2.828 2.828 L
-2.828 2.828 M
2.828 -2.828 L
S
GR
GS
[0.75 0 0 0.75 0 0] CT
0 1 1 RC
1 LJ
0.667 LW
N
343.788 99.487 M
343.78 99.391 L
343.833 99.472 L
S
GR
GS
[0.75 0 0 0.75 0 0] CT
0 1 1 RC
1 LJ
0.667 LW
N
344.272 100.804 M
343.78 99.391 L
S
GR
GS
[0.75 0 0 0.75 0 0] CT
0 1 1 RC
1 LJ
0.667 LW
N
356.121 104.395 M
356.642 101.336 L
356.385 98.243 L
355.368 95.311 L
353.653 92.724 L
351.349 90.645 L
348.6 89.204 L
345.579 88.492 L
342.477 88.554 L
339.486 89.385 L
336.797 90.934 L
334.577 93.103 L
332.967 95.756 L
332.066 98.726 L
331.933 101.827 L
332.575 104.863 L
333.952 107.645 L
335.978 109.996 L
338.524 111.77 L
341.432 112.855 L
344.518 113.183 L
347.589 112.733 L
350.451 111.533 L
352.925 109.659 L
354.856 107.229 L
356.121 104.395 L
S
GR
GS
[0.75 0 0 0.75 248.79865 66.19814] CT
0 1 1 RC
10.0 ML
0.667 LW
N
0 -4 M
0 4 L
-4 0 M
4 0 L
-2.828 -2.828 M
2.828 2.828 L
-2.828 2.828 M
2.828 -2.828 L
S
GR
GS
[0.75 0 0 0.75 0 0] CT
0 1 1 RC
1 LJ
0.667 LW
N
331.248 86.947 M
331.239 86.851 L
331.292 86.932 L
S
GR
GS
[0.75 0 0 0.75 0 0] CT
0 1 1 RC
1 LJ
0.667 LW
N
331.732 88.264 M
331.239 86.851 L
S
GR
GS
[0.75 0 0 0.75 0 0] CT
0 1 1 RC
1 LJ
0.667 LW
N
343.514 92.066 M
344.09 89.016 L
343.889 85.919 L
342.924 82.97 L
341.255 80.353 L
338.989 78.233 L
336.266 76.743 L
333.258 75.978 L
330.155 75.984 L
327.15 76.762 L
324.434 78.262 L
322.176 80.392 L
320.518 83.015 L
319.565 85.969 L
319.376 89.067 L
319.964 92.114 L
321.291 94.92 L
323.274 97.307 L
325.789 99.126 L
328.677 100.263 L
331.757 100.645 L
334.835 100.25 L
337.718 99.102 L
340.225 97.272 L
342.199 94.877 L
343.514 92.066 L
S
GR
GS
[0.75 0 0 0.75 267.6069 56.79331] CT
0 1 1 RC
10.0 ML
0.667 LW
N
0 -4 M
0 4 L
-4 0 M
4 0 L
-2.828 -2.828 M
2.828 2.828 L
-2.828 2.828 M
2.828 -2.828 L
S
GR
GS
[0.75 0 0 0.75 0 0] CT
0 1 1 RC
1 LJ
0.667 LW
N
356.326 74.407 M
356.317 74.312 L
356.37 74.392 L
S
GR
GS
[0.75 0 0 0.75 0 0] CT
0 1 1 RC
1 LJ
0.667 LW
N
356.809 75.724 M
356.317 74.312 L
S
GR
GS
[0.75 0 0 0.75 0 0] CT
0 1 1 RC
1 LJ
0.667 LW
N
353.292 87.595 M
350.45 86.348 L
348.008 84.433 L
346.119 81.97 L
344.901 79.115 L
344.432 76.048 L
344.741 72.959 L
345.808 70.045 L
347.566 67.487 L
349.905 65.447 L
352.677 64.053 L
355.71 63.392 L
358.811 63.506 L
361.787 64.388 L
364.45 65.982 L
366.632 68.188 L
368.198 70.868 L
369.048 73.853 L
369.129 76.955 L
368.436 79.98 L
367.012 82.738 L
364.948 85.055 L
362.371 86.786 L
359.446 87.822 L
356.355 88.097 L
353.292 87.595 L
S
GR
GS
[0.75 0 0 0.75 267.22742 59.29927] CT
1 0 0 RC
10.0 ML
0.667 LW
N
0 -5 M
0 5 L
-5 0 M
5 0 L
S
GR
GS
[0.75 0 0 0.75 260.45174 84.59989] CT
0 0 1 RC
10.0 ML
0.667 LW
N
0 -4 M
0 4 L
-4 0 M
4 0 L
-2.828 -2.828 M
2.828 2.828 L
-2.828 2.828 M
2.828 -2.828 L
S
GR
GS
[0.75 0 0 0.75 0 0] CT
0 0 1 RC
1 LJ
0.667 LW
N
346.785 111.483 M
346.777 111.387 L
346.829 111.467 L
S
GR
GS
[0.75 0 0 0.75 0 0] CT
0 0 1 RC
1 LJ
0.667 LW
N
347.269 112.8 M
346.777 111.387 L
S
GR
GS
[0.75 0 0 0.75 0 0] CT
0 0 1 RC
1 LJ
0.667 LW
N
351.77 114.933 M
352.159 113.746 L
352.241 112.5 L
352.01 111.273 L
351.482 110.142 L
350.688 109.178 L
349.68 108.441 L
348.52 107.978 L
347.282 107.819 L
346.043 107.972 L
344.881 108.428 L
343.869 109.16 L
343.07 110.12 L
342.536 111.248 L
342.298 112.474 L
342.374 113.72 L
342.756 114.909 L
343.423 115.965 L
344.33 116.822 L
345.423 117.426 L
346.632 117.74 L
347.88 117.743 L
349.09 117.436 L
350.186 116.837 L
351.099 115.985 L
351.77 114.933 L
S
GR
GS
[0.75 0 0 0.75 251.04673 75.1951] CT
0 0 1 RC
10.0 ML
0.667 LW
N
0 -4 M
0 4 L
-4 0 M
4 0 L
-2.828 -2.828 M
2.828 2.828 L
-2.828 2.828 M
2.828 -2.828 L
S
GR
GS
[0.75 0 0 0.75 0 0] CT
0 0 1 RC
1 LJ
0.667 LW
N
334.245 98.943 M
334.237 98.847 L
334.289 98.928 L
S
GR
GS
[0.75 0 0 0.75 0 0] CT
0 0 1 RC
1 LJ
0.667 LW
N
334.729 100.26 M
334.237 98.847 L
S
GR
GS
[0.75 0 0 0.75 0 0] CT
0 0 1 RC
1 LJ
0.667 LW
N
339.174 102.509 M
339.593 101.333 L
339.707 100.09 L
339.508 98.857 L
339.009 97.712 L
338.241 96.728 L
337.252 95.966 L
336.105 95.473 L
334.871 95.281 L
333.629 95.402 L
332.455 95.828 L
331.424 96.533 L
330.601 97.472 L
330.038 98.586 L
329.769 99.805 L
329.811 101.053 L
330.163 102.251 L
330.802 103.324 L
331.687 104.205 L
332.764 104.837 L
333.964 105.182 L
335.212 105.218 L
336.43 104.942 L
337.54 104.372 L
338.475 103.544 L
339.174 102.509 L
S
GR
GS
[0.75 0 0 0.75 249.52485 73.67302] CT
0 0 1 RC
10.0 ML
0.667 LW
N
0 -4 M
0 4 L
-4 0 M
4 0 L
-2.828 -2.828 M
2.828 2.828 L
-2.828 2.828 M
2.828 -2.828 L
S
GR
GS
[0.75 0 0 0.75 0 0] CT
0 0 1 RC
1 LJ
0.667 LW
N
332.216 96.914 M
332.208 96.818 L
332.26 96.898 L
S
GR
GS
[0.75 0 0 0.75 0 0] CT
0 0 1 RC
1 LJ
0.667 LW
N
332.7 98.231 M
332.208 96.818 L
S
GR
GS
[0.75 0 0 0.75 0 0] CT
0 0 1 RC
1 LJ
0.667 LW
N
330.549 102.724 M
329.499 102.047 L
328.651 101.132 L
328.056 100.033 L
327.754 98.822 L
327.762 97.573 L
328.081 96.366 L
328.69 95.276 L
329.55 94.372 L
330.609 93.71 L
331.799 93.332 L
333.046 93.262 L
334.271 93.504 L
335.397 94.043 L
336.354 94.845 L
337.081 95.86 L
337.533 97.024 L
337.681 98.264 L
337.516 99.502 L
337.049 100.659 L
336.308 101.665 L
335.341 102.454 L
334.207 102.978 L
332.979 103.204 L
331.734 103.117 L
330.549 102.724 L
S
GR
GS
[0.75 0 0 0.75 271.37853 62.74618] CT
0 1 0 RC
10.0 ML
0.667 LW
N
0 -4 M
0 4 L
-4 0 M
4 0 L
-2.828 -2.828 M
2.828 2.828 L
-2.828 2.828 M
2.828 -2.828 L
S
GR
GS
[0.75 0 0 0.75 0 0] CT
0 1 0 RC
1 LJ
0.667 LW
N
361.354 82.344 M
361.346 82.249 L
361.398 82.329 L
S
GR
GS
[0.75 0 0 0.75 0 0] CT
0 1 0 RC
1 LJ
0.667 LW
N
361.838 83.662 M
361.346 82.249 L
S
GR
GS
[0.75 0 0 0.75 0 0] CT
0 1 0 RC
1 LJ
0.667 LW
N
366.339 85.796 M
366.728 84.609 L
366.81 83.363 L
366.58 82.136 L
366.052 81.005 L
365.259 80.04 L
364.251 79.304 L
363.091 78.841 L
361.853 78.68 L
360.613 78.833 L
359.451 79.29 L
358.439 80.02 L
357.64 80.98 L
357.105 82.108 L
356.868 83.334 L
356.942 84.581 L
357.325 85.769 L
357.991 86.825 L
358.898 87.683 L
359.991 88.288 L
361.199 88.602 L
362.448 88.605 L
363.658 88.298 L
364.754 87.7 L
365.667 86.848 L
366.339 85.796 L
S
GR
GS
[0.75 0 0 0.75 272.90051 64.2682] CT
0 0 1 RC
10.0 ML
0.667 LW
N
0 -4 M
0 4 L
-4 0 M
4 0 L
-2.828 -2.828 M
2.828 2.828 L
-2.828 2.828 M
2.828 -2.828 L
S
GR
GS
[0.75 0 0 0.75 0 0] CT
0 0 1 RC
1 LJ
0.667 LW
N
363.384 84.374 M
363.375 84.278 L
363.428 84.358 L
S
GR
GS
[0.75 0 0 0.75 0 0] CT
0 0 1 RC
1 LJ
0.667 LW
N
363.867 85.691 M
363.375 84.278 L
S
GR
GS
[0.75 0 0 0.75 0 0] CT
0 0 1 RC
1 LJ
0.667 LW
N
368.324 87.915 M
368.737 86.737 L
368.845 85.493 L
368.639 84.261 L
368.134 83.12 L
367.36 82.139 L
366.367 81.382 L
365.217 80.896 L
363.982 80.711 L
362.74 80.839 L
361.569 81.272 L
360.542 81.982 L
359.724 82.926 L
359.167 84.043 L
358.905 85.264 L
358.954 86.511 L
359.313 87.707 L
359.957 88.777 L
360.847 89.652 L
361.927 90.279 L
363.129 90.617 L
364.378 90.646 L
365.594 90.363 L
366.701 89.787 L
367.631 88.954 L
368.324 87.915 L
S
GR
GS
[0.75 0 0 0.75 282.30537 73.67303] CT
0 0 1 RC
10.0 ML
0.667 LW
N
0 -4 M
0 4 L
-4 0 M
4 0 L
-2.828 -2.828 M
2.828 2.828 L
-2.828 2.828 M
2.828 -2.828 L
S
GR
GS
[0.75 0 0 0.75 0 0] CT
0 0 1 RC
1 LJ
0.667 LW
N
375.924 96.914 M
375.915 96.818 L
375.968 96.898 L
S
GR
GS
[0.75 0 0 0.75 0 0] CT
0 0 1 RC
1 LJ
0.667 LW
N
376.407 98.231 M
375.915 96.818 L
S
GR
GS
[0.75 0 0 0.75 0 0] CT
0 0 1 RC
1 LJ
0.667 LW
N
380.916 100.348 M
381.301 99.16 L
381.378 97.914 L
381.143 96.687 L
380.611 95.558 L
379.814 94.597 L
378.803 93.864 L
377.642 93.405 L
376.403 93.25 L
375.164 93.407 L
374.004 93.868 L
372.994 94.602 L
372.199 95.565 L
371.668 96.695 L
371.436 97.922 L
371.515 99.168 L
371.902 100.355 L
372.572 101.409 L
373.483 102.263 L
374.577 102.864 L
375.787 103.173 L
377.036 103.172 L
378.245 102.861 L
379.338 102.258 L
380.248 101.403 L
380.916 100.348 L
S
GR
GS
[0.75 0 0 0.75 251.04678 75.20802] CT
0 0 1 RC
10.0 ML
0.667 LW
N
0 -4 M
0 4 L
-4 0 M
4 0 L
-2.828 -2.828 M
2.828 2.828 L
-2.828 2.828 M
2.828 -2.828 L
S
GR
GS
[0.75 0 0 0.75 0 0] CT
0 0 1 RC
1 LJ
0.667 LW
N
334.245 98.96 M
334.237 98.865 L
334.289 98.945 L
S
GR
GS
[0.75 0 0 0.75 0 0] CT
0 0 1 RC
1 LJ
0.667 LW
N
334.729 100.277 M
334.237 98.865 L
S
GR
GS
[0.75 0 0 0.75 0 0] CT
0 0 1 RC
1 LJ
0.667 LW
N
339.162 102.549 M
339.588 101.375 L
339.708 100.132 L
339.516 98.899 L
339.022 97.752 L
338.259 96.763 L
337.275 95.996 L
336.13 95.497 L
334.897 95.299 L
333.654 95.414 L
332.478 95.834 L
331.444 96.533 L
330.616 97.468 L
330.046 98.579 L
329.771 99.797 L
329.807 101.045 L
330.153 102.245 L
330.786 103.321 L
331.667 104.206 L
332.74 104.844 L
333.938 105.195 L
335.186 105.237 L
336.405 104.968 L
337.519 104.404 L
338.458 103.58 L
339.162 102.549 L
S
GR
GS
[0.75 0 0 0.75 271.37856 62.75911] CT
0 0 1 RC
10.0 ML
0.667 LW
N
0 -4 M
0 4 L
-4 0 M
4 0 L
-2.828 -2.828 M
2.828 2.828 L
-2.828 2.828 M
2.828 -2.828 L
S
GR
GS
[0.75 0 0 0.75 0 0] CT
0 0 1 RC
1 LJ
0.667 LW
N
361.354 82.362 M
361.346 82.266 L
361.399 82.346 L
S
GR
GS
[0.75 0 0 0.75 0 0] CT
0 0 1 RC
1 LJ
0.667 LW
N
361.838 83.679 M
361.346 82.266 L
S
GR
GS
[0.75 0 0 0.75 0 0] CT
0 0 1 RC
1 LJ
0.667 LW
N
366.339 85.813 M
366.728 84.627 L
366.81 83.381 L
366.58 82.154 L
366.052 81.023 L
365.259 80.058 L
364.251 79.321 L
363.091 78.858 L
361.853 78.698 L
360.614 78.85 L
359.452 79.307 L
358.439 80.037 L
357.64 80.997 L
357.105 82.125 L
356.868 83.351 L
356.942 84.597 L
357.325 85.786 L
357.99 86.842 L
358.898 87.7 L
359.99 88.305 L
361.199 88.619 L
362.447 88.623 L
363.658 88.316 L
364.754 87.718 L
365.667 86.866 L
366.339 85.813 L
S
GR
GS
[0.75 0 0 0.75 271.37766 62.74521] CT
0 0 1 RC
10.0 ML
0.667 LW
N
0 -4 M
0 4 L
-4 0 M
4 0 L
-2.828 -2.828 M
2.828 2.828 L
-2.828 2.828 M
2.828 -2.828 L
S
GR
GS
[0.75 0 0 0.75 0 0] CT
0 0 1 RC
1 LJ
0.667 LW
N
361.353 82.343 M
361.345 82.247 L
361.397 82.328 L
S
GR
GS
[0.75 0 0 0.75 0 0] CT
0 0 1 RC
1 LJ
0.667 LW
N
361.837 83.66 M
361.345 82.247 L
S
GR
GS
[0.75 0 0 0.75 0 0] CT
0 0 1 RC
1 LJ
0.667 LW
N
359.703 88.161 M
358.65 87.489 L
357.798 86.576 L
357.2 85.48 L
356.893 84.27 L
356.897 83.021 L
357.211 81.813 L
357.816 80.721 L
358.673 79.813 L
359.729 79.147 L
360.918 78.765 L
362.164 78.69 L
363.39 78.927 L
364.518 79.462 L
365.478 80.261 L
366.209 81.273 L
366.665 82.436 L
366.818 83.675 L
366.658 84.913 L
366.195 86.073 L
365.458 87.081 L
364.493 87.874 L
363.362 88.402 L
362.135 88.633 L
360.889 88.55 L
359.703 88.161 L
S
GR
GS
[0.75 0 0 0.75 260.45123 84.59956] CT
0 0 1 RC
10.0 ML
0.667 LW
N
0 -4 M
0 4 L
-4 0 M
4 0 L
-2.828 -2.828 M
2.828 2.828 L
-2.828 2.828 M
2.828 -2.828 L
S
GR
GS
[0.75 0 0 0.75 0 0] CT
0 0 1 RC
1 LJ
0.667 LW
N
346.785 111.482 M
346.776 111.387 L
346.829 111.467 L
S
GR
GS
[0.75 0 0 0.75 0 0] CT
0 0 1 RC
1 LJ
0.667 LW
N
347.268 112.799 M
346.776 111.387 L
S
GR
GS
[0.75 0 0 0.75 0 0] CT
0 0 1 RC
1 LJ
0.667 LW
N
345.136 117.301 M
344.083 116.629 L
343.231 115.717 L
342.632 114.621 L
342.325 113.411 L
342.328 112.162 L
342.642 110.954 L
343.246 109.861 L
344.103 108.953 L
345.159 108.287 L
346.348 107.904 L
347.594 107.829 L
348.82 108.066 L
349.948 108.601 L
350.908 109.399 L
351.64 110.411 L
352.096 111.573 L
352.249 112.812 L
352.09 114.051 L
351.627 115.21 L
350.891 116.219 L
349.926 117.012 L
348.795 117.541 L
347.568 117.772 L
346.322 117.69 L
345.136 117.301 L
S
GR
GS
[0.75 0 0 0.75 251.04666 75.19491] CT
0 0 1 RC
10.0 ML
0.667 LW
N
0 -4 M
0 4 L
-4 0 M
4 0 L
-2.828 -2.828 M
2.828 2.828 L
-2.828 2.828 M
2.828 -2.828 L
S
GR
GS
[0.75 0 0 0.75 0 0] CT
0 0 1 RC
1 LJ
0.667 LW
N
334.245 98.943 M
334.237 98.847 L
334.289 98.927 L
S
GR
GS
[0.75 0 0 0.75 0 0] CT
0 0 1 RC
1 LJ
0.667 LW
N
334.729 100.26 M
334.237 98.847 L
S
GR
GS
[0.75 0 0 0.75 0 0] CT
0 0 1 RC
1 LJ
0.667 LW
N
339.201 102.453 M
339.606 101.272 L
339.705 100.027 L
339.49 98.797 L
338.977 97.659 L
338.197 96.684 L
337.199 95.934 L
336.045 95.456 L
334.809 95.279 L
333.568 95.416 L
332.4 95.857 L
331.378 96.574 L
330.567 97.523 L
330.017 98.645 L
329.763 99.867 L
329.822 101.114 L
330.188 102.308 L
330.84 103.373 L
331.737 104.242 L
332.821 104.861 L
334.025 105.191 L
335.274 105.211 L
336.488 104.92 L
337.591 104.336 L
338.515 103.496 L
339.201 102.453 L
S
GR
GS
[0.75 0 0 0.75 249.52467 73.67285] CT
0 0 1 RC
10.0 ML
0.667 LW
N
0 -4 M
0 4 L
-4 0 M
4 0 L
-2.828 -2.828 M
2.828 2.828 L
-2.828 2.828 M
2.828 -2.828 L
S
GR
GS
[0.75 0 0 0.75 0 0] CT
0 0 1 RC
1 LJ
0.667 LW
N
332.216 96.913 M
332.207 96.818 L
332.26 96.898 L
S
GR
GS
[0.75 0 0 0.75 0 0] CT
0 0 1 RC
1 LJ
0.667 LW
N
332.7 98.23 M
332.207 96.818 L
S
GR
GS
[0.75 0 0 0.75 0 0] CT
0 0 1 RC
1 LJ
0.667 LW
N
337.195 100.375 M
337.587 99.19 L
337.672 97.944 L
337.445 96.716 L
336.919 95.584 L
336.129 94.617 L
335.122 93.878 L
333.964 93.412 L
332.726 93.249 L
331.486 93.399 L
330.323 93.853 L
329.309 94.581 L
328.508 95.539 L
327.97 96.666 L
327.73 97.891 L
327.802 99.138 L
328.181 100.327 L
328.845 101.385 L
329.75 102.245 L
330.841 102.852 L
332.049 103.169 L
333.298 103.176 L
334.509 102.871 L
335.606 102.276 L
336.521 101.426 L
337.195 100.375 L
S
GR
GS
[0.75 0 0 0.75 271.37835 62.74601] CT
0 0 1 RC
10.0 ML
0.667 LW
N
0 -4 M
0 4 L
-4 0 M
4 0 L
-2.828 -2.828 M
2.828 2.828 L
-2.828 2.828 M
2.828 -2.828 L
S
GR
GS
[0.75 0 0 0.75 0 0] CT
0 0 1 RC
1 LJ
0.667 LW
N
361.354 82.344 M
361.346 82.249 L
361.398 82.329 L
S
GR
GS
[0.75 0 0 0.75 0 0] CT
0 0 1 RC
1 LJ
0.667 LW
N
361.838 83.661 M
361.346 82.249 L
S
GR
GS
[0.75 0 0 0.75 0 0] CT
0 0 1 RC
1 LJ
0.667 LW
N
366.339 85.796 M
366.728 84.609 L
366.81 83.363 L
366.58 82.136 L
366.051 81.005 L
365.258 80.04 L
364.25 79.303 L
363.091 78.84 L
361.853 78.68 L
360.613 78.833 L
359.451 79.289 L
358.439 80.02 L
357.64 80.98 L
357.105 82.108 L
356.867 83.334 L
356.942 84.58 L
357.324 85.769 L
357.99 86.825 L
358.898 87.683 L
359.99 88.287 L
361.199 88.601 L
362.447 88.605 L
363.658 88.298 L
364.754 87.7 L
365.666 86.848 L
366.339 85.796 L
S
GR
GS
[0.75 0 0 0.75 272.90034 64.26803] CT
0 0 1 RC
10.0 ML
0.667 LW
N
0 -4 M
0 4 L
-4 0 M
4 0 L
-2.828 -2.828 M
2.828 2.828 L
-2.828 2.828 M
2.828 -2.828 L
S
GR
GS
[0.75 0 0 0.75 0 0] CT
0 0 1 RC
1 LJ
0.667 LW
N
363.384 84.374 M
363.375 84.278 L
363.428 84.358 L
S
GR
GS
[0.75 0 0 0.75 0 0] CT
0 0 1 RC
1 LJ
0.667 LW
N
363.867 85.691 M
363.375 84.278 L
S
GR
GS
[0.75 0 0 0.75 0 0] CT
0 0 1 RC
1 LJ
0.667 LW
N
361.642 90.147 M
360.604 89.454 L
359.77 88.524 L
359.194 87.416 L
358.912 86.2 L
358.941 84.952 L
359.28 83.75 L
359.906 82.67 L
360.782 81.78 L
361.851 81.136 L
363.048 80.777 L
364.295 80.728 L
365.516 80.99 L
366.633 81.548 L
367.576 82.366 L
368.287 83.393 L
368.719 84.564 L
368.847 85.806 L
368.662 87.041 L
368.175 88.191 L
367.418 89.184 L
366.438 89.957 L
365.296 90.463 L
364.064 90.668 L
362.82 90.561 L
361.642 90.147 L
S
GR
GS
[0.75 0 0 0.75 282.30519 73.67285] CT
0 0 1 RC
10.0 ML
0.667 LW
N
0 -4 M
0 4 L
-4 0 M
4 0 L
-2.828 -2.828 M
2.828 2.828 L
-2.828 2.828 M
2.828 -2.828 L
S
GR
GS
[0.75 0 0 0.75 0 0] CT
0 0 1 RC
1 LJ
0.667 LW
N
375.923 96.913 M
375.915 96.818 L
375.967 96.898 L
S
GR
GS
[0.75 0 0 0.75 0 0] CT
0 0 1 RC
1 LJ
0.667 LW
N
376.407 98.23 M
375.915 96.818 L
S
GR
GS
[0.75 0 0 0.75 0 0] CT
0 0 1 RC
1 LJ
0.667 LW
N
380.916 100.347 M
381.301 99.159 L
381.378 97.913 L
381.143 96.687 L
380.61 95.557 L
379.813 94.596 L
378.802 93.863 L
377.641 93.405 L
376.402 93.249 L
375.164 93.407 L
374.003 93.868 L
372.994 94.603 L
372.199 95.565 L
371.668 96.696 L
371.435 97.922 L
371.515 99.169 L
371.902 100.356 L
372.572 101.409 L
373.483 102.263 L
374.578 102.864 L
375.787 103.173 L
377.036 103.172 L
378.245 102.86 L
379.339 102.258 L
380.248 101.402 L
380.916 100.347 L
S
GR
GS
[0.75 0 0 0.75 260.45103 84.59892] CT
0 0 1 RC
10.0 ML
0.667 LW
N
0 -4 M
0 4 L
-4 0 M
4 0 L
-2.828 -2.828 M
2.828 2.828 L
-2.828 2.828 M
2.828 -2.828 L
S
GR
GS
[0.75 0 0 0.75 0 0] CT
0 0 1 RC
1 LJ
0.667 LW
N
346.784 111.481 M
346.776 111.386 L
346.829 111.466 L
S
GR
GS
[0.75 0 0 0.75 0 0] CT
0 0 1 RC
1 LJ
0.667 LW
N
347.268 112.799 M
346.776 111.386 L
S
GR
GS
[0.75 0 0 0.75 0 0] CT
0 0 1 RC
1 LJ
0.667 LW
N
345.135 117.3 M
344.083 116.628 L
343.231 115.716 L
342.632 114.62 L
342.325 113.41 L
342.328 112.161 L
342.641 110.953 L
343.246 109.86 L
344.103 108.952 L
345.159 108.286 L
346.347 107.903 L
347.594 107.828 L
348.82 108.065 L
349.948 108.6 L
350.908 109.398 L
351.639 110.41 L
352.096 111.572 L
352.249 112.811 L
352.089 114.05 L
351.627 115.21 L
350.89 116.218 L
349.926 117.011 L
348.795 117.54 L
347.568 117.771 L
346.322 117.689 L
345.135 117.3 L
S
GR
GS
[0.75 0 0 0.75 251.04492 75.19357] CT
0 0 1 RC
10.0 ML
0.667 LW
N
0 -4 M
0 4 L
-4 0 M
4 0 L
-2.828 -2.828 M
2.828 2.828 L
-2.828 2.828 M
2.828 -2.828 L
S
GR
GS
[0.75 0 0 0.75 0 0] CT
0 0 1 RC
1 LJ
0.667 LW
N
334.243 98.941 M
334.234 98.845 L
334.287 98.926 L
S
GR
GS
[0.75 0 0 0.75 0 0] CT
0 0 1 RC
1 LJ
0.667 LW
N
334.727 100.258 M
334.234 98.845 L
S
GR
GS
[0.75 0 0 0.75 0 0] CT
0 0 1 RC
1 LJ
0.667 LW
N
332.533 104.73 M
331.49 104.044 L
330.65 103.12 L
330.066 102.016 L
329.775 100.802 L
329.795 99.554 L
330.126 98.349 L
330.745 97.265 L
331.614 96.369 L
332.679 95.717 L
333.873 95.351 L
335.12 95.293 L
336.343 95.546 L
337.464 96.096 L
338.413 96.908 L
339.13 97.93 L
339.571 99.098 L
339.707 100.339 L
339.53 101.575 L
339.052 102.728 L
338.302 103.726 L
337.327 104.507 L
336.189 105.02 L
334.959 105.234 L
333.714 105.135 L
332.533 104.73 L
S
GR
GS
[0.75 0 0 0.75 249.52265 73.67135] CT
0 0 1 RC
10.0 ML
0.667 LW
N
0 -4 M
0 4 L
-4 0 M
4 0 L
-2.828 -2.828 M
2.828 2.828 L
-2.828 2.828 M
2.828 -2.828 L
S
GR
GS
[0.75 0 0 0.75 0 0] CT
0 0 1 RC
1 LJ
0.667 LW
N
332.213 96.911 M
332.205 96.816 L
332.257 96.896 L
S
GR
GS
[0.75 0 0 0.75 0 0] CT
0 0 1 RC
1 LJ
0.667 LW
N
332.697 98.228 M
332.205 96.816 L
S
GR
GS
[0.75 0 0 0.75 0 0] CT
0 0 1 RC
1 LJ
0.667 LW
N
337.193 100.373 M
337.585 99.188 L
337.67 97.942 L
337.442 96.714 L
336.917 95.582 L
336.126 94.615 L
335.12 93.876 L
333.961 93.41 L
332.723 93.247 L
331.484 93.397 L
330.32 93.851 L
329.306 94.579 L
328.505 95.537 L
327.968 96.664 L
327.727 97.889 L
327.799 99.136 L
328.179 100.325 L
328.842 101.383 L
329.748 102.243 L
330.839 102.85 L
332.046 103.167 L
333.295 103.174 L
334.506 102.87 L
335.603 102.274 L
336.518 101.424 L
337.193 100.373 L
S
GR
GS
[0.75 0 0 0.75 271.37748 62.74504] CT
0 0 1 RC
10.0 ML
0.667 LW
N
0 -4 M
0 4 L
-4 0 M
4 0 L
-2.828 -2.828 M
2.828 2.828 L
-2.828 2.828 M
2.828 -2.828 L
S
GR
GS
[0.75 0 0 0.75 0 0] CT
0 0 1 RC
1 LJ
0.667 LW
N
361.353 82.343 M
361.344 82.247 L
361.397 82.328 L
S
GR
GS
[0.75 0 0 0.75 0 0] CT
0 0 1 RC
1 LJ
0.667 LW
N
361.837 83.66 M
361.344 82.247 L
S
GR
GS
[0.75 0 0 0.75 0 0] CT
0 0 1 RC
1 LJ
0.667 LW
N
359.703 88.161 M
358.65 87.489 L
357.798 86.576 L
357.2 85.48 L
356.893 84.27 L
356.897 83.021 L
357.211 81.813 L
357.815 80.72 L
358.673 79.813 L
359.729 79.147 L
360.918 78.764 L
362.164 78.69 L
363.39 78.927 L
364.518 79.462 L
365.478 80.261 L
366.209 81.273 L
366.665 82.435 L
366.818 83.675 L
366.658 84.913 L
366.195 86.073 L
365.458 87.081 L
364.493 87.874 L
363.362 88.402 L
362.135 88.632 L
360.889 88.55 L
359.703 88.161 L
S
GR
GS
[0.75 0 0 0.75 272.89938 64.26702] CT
0 0 1 RC
10.0 ML
0.667 LW
N
0 -4 M
0 4 L
-4 0 M
4 0 L
-2.828 -2.828 M
2.828 2.828 L
-2.828 2.828 M
2.828 -2.828 L
S
GR
GS
[0.75 0 0 0.75 0 0] CT
0 0 1 RC
1 LJ
0.667 LW
N
363.382 84.372 M
363.374 84.277 L
363.426 84.357 L
S
GR
GS
[0.75 0 0 0.75 0 0] CT
0 0 1 RC
1 LJ
0.667 LW
N
363.866 85.689 M
363.374 84.277 L
S
GR
GS
[0.75 0 0 0.75 0 0] CT
0 0 1 RC
1 LJ
0.667 LW
N
361.641 90.146 M
360.603 89.453 L
359.769 88.523 L
359.193 87.415 L
358.911 86.199 L
358.94 84.951 L
359.278 83.749 L
359.905 82.669 L
360.781 81.779 L
361.85 81.134 L
363.046 80.776 L
364.294 80.727 L
365.515 80.989 L
366.632 81.547 L
367.575 82.365 L
368.285 83.392 L
368.718 84.563 L
368.846 85.805 L
368.66 87.04 L
368.174 88.19 L
367.417 89.183 L
366.437 89.956 L
365.295 90.461 L
364.063 90.667 L
362.819 90.559 L
361.641 90.146 L
S
GR
GS
[0.75 0 0 0.75 282.30432 73.67189] CT
0 0 1 RC
10.0 ML
0.667 LW
N
0 -4 M
0 4 L
-4 0 M
4 0 L
-2.828 -2.828 M
2.828 2.828 L
-2.828 2.828 M
2.828 -2.828 L
S
GR
GS
[0.75 0 0 0.75 0 0] CT
0 0 1 RC
1 LJ
0.667 LW
N
375.922 96.912 M
375.914 96.816 L
375.966 96.897 L
S
GR
GS
[0.75 0 0 0.75 0 0] CT
0 0 1 RC
1 LJ
0.667 LW
N
376.406 98.229 M
375.914 96.816 L
S
GR
GS
[0.75 0 0 0.75 0 0] CT
0 0 1 RC
1 LJ
0.667 LW
N
374.289 102.738 M
373.234 102.07 L
372.379 101.161 L
371.776 100.067 L
371.464 98.858 L
371.463 97.61 L
371.773 96.4 L
372.373 95.305 L
373.227 94.394 L
374.281 93.724 L
375.468 93.337 L
376.714 93.258 L
377.94 93.49 L
379.071 94.021 L
380.034 94.816 L
380.768 95.825 L
381.229 96.986 L
381.387 98.224 L
381.232 99.463 L
380.773 100.625 L
380.04 101.636 L
379.079 102.432 L
377.95 102.965 L
376.723 103.2 L
375.477 103.123 L
374.289 102.738 L
S
GR
GS
[0.75 0 0 0.75 271.37107 62.73861] CT
0 0 1 RC
10.0 ML
0.667 LW
N
0 -4 M
0 4 L
-4 0 M
4 0 L
-2.828 -2.828 M
2.828 2.828 L
-2.828 2.828 M
2.828 -2.828 L
S
GR
GS
[0.75 0 0 0.75 0 0] CT
0 0 1 RC
1 LJ
0.667 LW
N
361.345 82.334 M
361.336 82.239 L
361.389 82.319 L
S
GR
GS
[0.75 0 0 0.75 0 0] CT
0 0 1 RC
1 LJ
0.667 LW
N
361.828 83.651 M
361.336 82.239 L
S
GR
GS
[0.75 0 0 0.75 0 0] CT
0 0 1 RC
1 LJ
0.667 LW
N
359.695 88.153 M
358.642 87.481 L
357.79 86.568 L
357.192 85.472 L
356.884 84.262 L
356.888 83.013 L
357.202 81.805 L
357.806 80.712 L
358.664 79.805 L
359.72 79.138 L
360.908 78.756 L
362.155 78.681 L
363.381 78.918 L
364.509 79.453 L
365.469 80.252 L
366.2 81.264 L
366.656 82.426 L
366.809 83.665 L
366.649 84.904 L
366.186 86.063 L
365.45 87.071 L
364.485 87.865 L
363.354 88.393 L
362.127 88.624 L
360.881 88.542 L
359.695 88.153 L
S
GR
GS
[0.75 0 0 0.75 271.33083 62.69855] CT
0 0 1 RC
10.0 ML
0.667 LW
N
0 -4 M
0 4 L
-4 0 M
4 0 L
-2.828 -2.828 M
2.828 2.828 L
-2.828 2.828 M
2.828 -2.828 L
S
GR
GS
[0.75 0 0 0.75 0 0] CT
0 0 1 RC
1 LJ
0.667 LW
N
361.291 82.281 M
361.282 82.185 L
361.335 82.266 L
S
GR
GS
[0.75 0 0 0.75 0 0] CT
0 0 1 RC
1 LJ
0.667 LW
N
361.774 83.598 M
361.282 82.185 L
S
GR
GS
[0.75 0 0 0.75 0 0] CT
0 0 1 RC
1 LJ
0.667 LW
N
366.277 85.728 M
366.665 84.542 L
366.746 83.296 L
366.515 82.069 L
365.986 80.938 L
365.192 79.974 L
364.183 79.238 L
363.023 78.776 L
361.785 78.617 L
360.546 78.771 L
359.384 79.228 L
358.372 79.96 L
357.574 80.92 L
357.04 82.049 L
356.804 83.275 L
356.88 84.521 L
357.263 85.71 L
357.93 86.765 L
358.838 87.622 L
359.931 88.226 L
361.14 88.539 L
362.388 88.541 L
363.598 88.233 L
364.694 87.634 L
365.606 86.781 L
366.277 85.728 L
S
GR
GS
[0.75 0 0 0.75 249.23012 73.37872] CT
0 0 1 RC
10.0 ML
0.667 LW
N
0 -4 M
0 4 L
-4 0 M
4 0 L
-2.828 -2.828 M
2.828 2.828 L
-2.828 2.828 M
2.828 -2.828 L
S
GR
GS
[0.75 0 0 0.75 0 0] CT
0 0 1 RC
1 LJ
0.667 LW
N
331.823 96.521 M
331.815 96.425 L
331.867 96.506 L
S
GR
GS
[0.75 0 0 0.75 0 0] CT
0 0 1 RC
1 LJ
0.667 LW
N
332.307 97.838 M
331.815 96.425 L
S
GR
GS
[0.75 0 0 0.75 0 0] CT
0 0 1 RC
1 LJ
0.667 LW
N
330.175 102.34 M
329.122 101.668 L
328.27 100.756 L
327.671 99.66 L
327.363 98.45 L
327.366 97.202 L
327.68 95.993 L
328.284 94.9 L
329.141 93.992 L
330.197 93.326 L
331.386 92.943 L
332.632 92.868 L
333.858 93.105 L
334.986 93.639 L
335.946 94.438 L
336.678 95.45 L
337.135 96.612 L
337.288 97.851 L
337.128 99.089 L
336.666 100.249 L
335.929 101.257 L
334.965 102.051 L
333.834 102.579 L
332.607 102.81 L
331.361 102.729 L
330.175 102.34 L
S
GR
GS
[0.75 0 0 0.75 271.37743 62.745] CT
0 0 1 RC
10.0 ML
0.667 LW
N
0 -4 M
0 4 L
-4 0 M
4 0 L
-2.828 -2.828 M
2.828 2.828 L
-2.828 2.828 M
2.828 -2.828 L
S
GR
GS
[0.75 0 0 0.75 0 0] CT
0 0 1 RC
1 LJ
0.667 LW
N
361.353 82.343 M
361.344 82.247 L
361.397 82.328 L
S
GR
GS
[0.75 0 0 0.75 0 0] CT
0 0 1 RC
1 LJ
0.667 LW
N
361.837 83.66 M
361.344 82.247 L
S
GR
GS
[0.75 0 0 0.75 0 0] CT
0 0 1 RC
1 LJ
0.667 LW
N
366.337 85.794 M
366.727 84.608 L
366.809 83.362 L
366.578 82.135 L
366.05 81.003 L
365.257 80.039 L
364.249 79.302 L
363.089 78.839 L
361.851 78.679 L
360.612 78.832 L
359.45 79.288 L
358.437 80.019 L
357.639 80.979 L
357.104 82.107 L
356.866 83.333 L
356.941 84.579 L
357.323 85.768 L
357.989 86.824 L
358.897 87.681 L
359.989 88.286 L
361.198 88.6 L
362.446 88.604 L
363.657 88.297 L
364.753 87.698 L
365.665 86.846 L
366.337 85.794 L
S
GR
GS
[0.75 0 0 0.75 260.45354 84.59755] CT
0 0 1 RC
10.0 ML
0.667 LW
N
0 -4 M
0 4 L
-4 0 M
4 0 L
-2.828 -2.828 M
2.828 2.828 L
-2.828 2.828 M
2.828 -2.828 L
S
GR
GS
[0.75 0 0 0.75 0 0] CT
0 0 1 RC
1 LJ
0.667 LW
N
346.788 111.48 M
346.779 111.384 L
346.832 111.464 L
S
GR
GS
[0.75 0 0 0.75 0 0] CT
0 0 1 RC
1 LJ
0.667 LW
N
347.271 112.797 M
346.779 111.384 L
S
GR
GS
[0.75 0 0 0.75 0 0] CT
0 0 1 RC
1 LJ
0.667 LW
N
345.139 117.299 M
344.087 116.627 L
343.234 115.715 L
342.635 114.619 L
342.328 113.409 L
342.331 112.16 L
342.645 110.951 L
343.249 109.859 L
344.106 108.951 L
345.162 108.284 L
346.35 107.901 L
347.597 107.826 L
348.822 108.063 L
349.951 108.598 L
350.911 109.396 L
351.642 110.408 L
352.099 111.57 L
352.253 112.809 L
352.093 114.048 L
351.63 115.207 L
350.894 116.216 L
349.93 117.009 L
348.799 117.538 L
347.572 117.769 L
346.326 117.687 L
345.139 117.299 L
S
GR
GS
[0.75 0 0 0.75 251.04826 75.19278] CT
0 0 1 RC
10.0 ML
0.667 LW
N
0 -4 M
0 4 L
-4 0 M
4 0 L
-2.828 -2.828 M
2.828 2.828 L
-2.828 2.828 M
2.828 -2.828 L
S
GR
GS
[0.75 0 0 0.75 0 0] CT
0 0 1 RC
1 LJ
0.667 LW
N
334.247 98.94 M
334.239 98.844 L
334.291 98.925 L
S
GR
GS
[0.75 0 0 0.75 0 0] CT
0 0 1 RC
1 LJ
0.667 LW
N
334.731 100.257 M
334.239 98.844 L
S
GR
GS
[0.75 0 0 0.75 0 0] CT
0 0 1 RC
1 LJ
0.667 LW
N
332.464 104.693 M
331.432 103.989 L
330.608 103.052 L
330.042 101.939 L
329.771 100.72 L
329.812 99.472 L
330.162 98.273 L
330.799 97.199 L
331.683 96.317 L
332.758 95.683 L
333.958 95.336 L
335.206 95.299 L
336.424 95.572 L
337.536 96.141 L
338.471 96.967 L
339.172 98.001 L
339.594 99.176 L
339.71 100.419 L
339.513 101.652 L
339.015 102.798 L
338.249 103.783 L
337.261 104.548 L
336.115 105.042 L
334.882 105.236 L
333.639 105.117 L
332.464 104.693 L
S
GR
GS
[0.75 0 0 0.75 271.37885 62.74342] CT
0 0 1 RC
10.0 ML
0.667 LW
N
0 -4 M
0 4 L
-4 0 M
4 0 L
-2.828 -2.828 M
2.828 2.828 L
-2.828 2.828 M
2.828 -2.828 L
S
GR
GS
[0.75 0 0 0.75 0 0] CT
0 0 1 RC
1 LJ
0.667 LW
N
361.355 82.341 M
361.346 82.245 L
361.399 82.325 L
S
GR
GS
[0.75 0 0 0.75 0 0] CT
0 0 1 RC
1 LJ
0.667 LW
N
361.838 83.658 M
361.346 82.245 L
S
GR
GS
[0.75 0 0 0.75 0 0] CT
0 0 1 RC
1 LJ
0.667 LW
N
366.34 85.791 M
366.729 84.605 L
366.811 83.359 L
366.58 82.132 L
366.052 81.001 L
365.259 80.036 L
364.25 79.3 L
363.091 78.837 L
361.852 78.677 L
360.613 78.83 L
359.451 79.286 L
358.439 80.017 L
357.64 80.977 L
357.105 82.105 L
356.868 83.331 L
356.943 84.578 L
357.325 85.766 L
357.992 86.822 L
358.899 87.68 L
359.992 88.284 L
361.2 88.598 L
362.449 88.602 L
363.659 88.294 L
364.755 87.696 L
365.668 86.844 L
366.34 85.791 L
S
GR
GS
[0.75 0 0 0.75 0 0] CT
1 GC
N
/f514426320{470 285 M
470 42 L
192 42 L
192 285 L
cp}def
f514426320
f
GR
GS
[0.75 0 0 0.75 179.25 55.49999] CT
/Helvetica-Bold 48 F
GS
[1 0 0 1 0 0] CT
0 19 moveto 
1 -1 scale
(LandMark) t 
GR
GR
GS
[0.75 0 0 0.75 162 55.5] CT
1 0 0 RC
N
f-1996900118
f
GR
GS
[0.75 0 0 0.75 162 55.5] CT
0 0 1 RC
10.0 ML
0.667 LW
N
0 -26.66 M
-23.088 13.33 L
23.088 13.33 L
cp
S
GR
GS
[0.75 0 0 0.75 179.25 126] CT
/Helvetica-Bold 48 F
GS
[1 0 0 1 0 0] CT
0 0 moveto 
1 -1 scale
(b) t 
GR
GR
GS
[0.75 0 0 0.75 201.75 108] CT
/Helvetica-Bold 38.4 F
GS
[1 0 0 1 0 0] CT
0 0 moveto 
1 -1 scale
(-) t 
GR
GR
GS
[0.75 0 0 0.75 211.5 126] CT
/Helvetica-Bold 48 F
GS
[1 0 0 1 0 0] CT
0 0 moveto 
1 -1 scale
([X) t 
GR
GR
GS
[0.75 0 0 0.75 247.5 144] CT
/Helvetica-Bold 38.4 F
GS
[1 0 0 1 0 0] CT
0 0 moveto 
1 -1 scale
(k) t 
GR
GR
GS
[0.75 0 0 0.75 264 126] CT
/Helvetica-Bold 48 F
GS
[1 0 0 1 0 0] CT
0 0 moveto 
1 -1 scale
(]) t 
GR
GR
GS
[0.75 0 0 0.75 0 0] CT
0 1 1 RC
1 LJ
0.667 LW
N
196 152.5 M
236 152.5 L
S
GR
GS
[0.75 0 0 0.75 0 0] CT
0 1 1 RC
1 LJ
0.667 LW
N
224 157.3 M
236 152.5 L
224 147.7 L
S
GR
GS
[0.75 0 0 0.75 179.25 187.5] CT
/Helvetica-Bold 48 F
GS
[1 0 0 1 0 0] CT
0 0 moveto 
1 -1 scale
(b[X) t 
GR
GR
GS
[0.75 0 0 0.75 237.75 205.5] CT
/Helvetica-Bold 38.4 F
GS
[1 0 0 1 0 0] CT
0 0 moveto 
1 -1 scale
(k) t 
GR
GR
GS
[0.75 0 0 0.75 254.25 187.5] CT
/Helvetica-Bold 48 F
GS
[1 0 0 1 0 0] CT
0 0 moveto 
1 -1 scale
(]) t 
GR
GR
GS
[0.75 0 0 0.75 0 0] CT
0 0 1 RC
1 LJ
0.667 LW
N
196 242 M
236 242 L
S
GR
GS
[0.75 0 0 0.75 0 0] CT
0.149 GC
10.0 ML
0.667 LW
N
192 285 M
192 42 L
470 42 L
470 285 L
cp
S
GR
%%Trailer
%%Pages: 1
%%EOF
