%!PS-Adobe-3.0 EPSF-3.0
%%Creator: (MATLAB, The Mathworks, Inc. Version 9.10.0.1649659 \(R2021a\) Update 1. Operating System: Windows 10)
%%Title: (C:/Users/ohads/ANPL/papers/research/2022 ICRA/Figures/TestCase_2/fig_files/Robots_estimation_k_5.eps)
%%CreationDate: 2021-08-04T10:58:11
%%Pages: (atend)
%%BoundingBox:   295     9  1097   669
%%LanguageLevel: 3
%%EndComments
%%BeginProlog
%%BeginResource: procset (Apache XML Graphics Std ProcSet) 1.2 0
%%Version: 1.2 0
%%Copyright: (Copyright 2001-2003,2010 The Apache Software Foundation. License terms: http://www.apache.org/licenses/LICENSE-2.0)
/bd{bind def}bind def
/ld{load def}bd
/GR/grestore ld
/GS/gsave ld
/RM/rmoveto ld
/C/curveto ld
/t/show ld
/L/lineto ld
/ML/setmiterlimit ld
/CT/concat ld
/f/fill ld
/N/newpath ld
/S/stroke ld
/CC/setcmykcolor ld
/A/ashow ld
/cp/closepath ld
/RC/setrgbcolor ld
/LJ/setlinejoin ld
/GC/setgray ld
/LW/setlinewidth ld
/M/moveto ld
/re {4 2 roll M
1 index 0 rlineto
0 exch rlineto
neg 0 rlineto
cp } bd
/_ctm matrix def
/_tm matrix def
/BT { _ctm currentmatrix pop matrix _tm copy pop 0 0 moveto } bd
/ET { _ctm setmatrix } bd
/iTm { _ctm setmatrix _tm concat } bd
/Tm { _tm astore pop iTm 0 0 moveto } bd
/ux 0.0 def
/uy 0.0 def
/F {
  /Tp exch def
  /Tf exch def
  Tf findfont Tp scalefont setfont
  /cf Tf def  /cs Tp def
} bd
/ULS {currentpoint /uy exch def /ux exch def} bd
/ULE {
  /Tcx currentpoint pop def
  gsave
  newpath
  cf findfont cs scalefont dup
  /FontMatrix get 0 get /Ts exch def /FontInfo get dup
  /UnderlinePosition get Ts mul /To exch def
  /UnderlineThickness get Ts mul /Tt exch def
  ux uy To add moveto  Tcx uy To add lineto
  Tt setlinewidth stroke
  grestore
} bd
/OLE {
  /Tcx currentpoint pop def
  gsave
  newpath
  cf findfont cs scalefont dup
  /FontMatrix get 0 get /Ts exch def /FontInfo get dup
  /UnderlinePosition get Ts mul /To exch def
  /UnderlineThickness get Ts mul /Tt exch def
  ux uy To add cs add moveto Tcx uy To add cs add lineto
  Tt setlinewidth stroke
  grestore
} bd
/SOE {
  /Tcx currentpoint pop def
  gsave
  newpath
  cf findfont cs scalefont dup
  /FontMatrix get 0 get /Ts exch def /FontInfo get dup
  /UnderlinePosition get Ts mul /To exch def
  /UnderlineThickness get Ts mul /Tt exch def
  ux uy To add cs 10 mul 26 idiv add moveto Tcx uy To add cs 10 mul 26 idiv add lineto
  Tt setlinewidth stroke
  grestore
} bd
/QT {
/Y22 exch store
/X22 exch store
/Y21 exch store
/X21 exch store
currentpoint
/Y21 load 2 mul add 3 div exch
/X21 load 2 mul add 3 div exch
/X21 load 2 mul /X22 load add 3 div
/Y21 load 2 mul /Y22 load add 3 div
/X22 load /Y22 load curveto
} bd
/SSPD {
dup length /d exch dict def
{
/v exch def
/k exch def
currentpagedevice k known {
/cpdv currentpagedevice k get def
v cpdv ne {
/upd false def
/nullv v type /nulltype eq def
/nullcpdv cpdv type /nulltype eq def
nullv nullcpdv or
{
/upd true def
} {
/sametype v type cpdv type eq def
sametype {
v type /arraytype eq {
/vlen v length def
/cpdvlen cpdv length def
vlen cpdvlen eq {
0 1 vlen 1 sub {
/i exch def
/obj v i get def
/cpdobj cpdv i get def
obj cpdobj ne {
/upd true def
exit
} if
} for
} {
/upd true def
} ifelse
} {
v type /dicttype eq {
v {
/dv exch def
/dk exch def
/cpddv cpdv dk get def
dv cpddv ne {
/upd true def
exit
} if
} forall
} {
/upd true def
} ifelse
} ifelse
} if
} ifelse
upd true eq {
d k v put
} if
} if
} if
} forall
d length 0 gt {
d setpagedevice
} if
} bd
/RE { % /NewFontName [NewEncodingArray] /FontName RE -
  findfont dup length dict begin
  {
    1 index /FID ne
    {def} {pop pop} ifelse
  } forall
  /Encoding exch def
  /FontName 1 index def
  currentdict definefont pop
  end
} bind def
%%EndResource
%%BeginResource: procset (Apache XML Graphics EPS ProcSet) 1.0 0
%%Version: 1.0 0
%%Copyright: (Copyright 2002-2003 The Apache Software Foundation. License terms: http://www.apache.org/licenses/LICENSE-2.0)
/BeginEPSF { %def
/b4_Inc_state save def         % Save state for cleanup
/dict_count countdictstack def % Count objects on dict stack
/op_count count 1 sub def      % Count objects on operand stack
userdict begin                 % Push userdict on dict stack
/showpage { } def              % Redefine showpage, { } = null proc
0 setgray 0 setlinecap         % Prepare graphics state
1 setlinewidth 0 setlinejoin
10 setmiterlimit [ ] 0 setdash newpath
/languagelevel where           % If level not equal to 1 then
{pop languagelevel             % set strokeadjust and
1 ne                           % overprint to their defaults.
{false setstrokeadjust false setoverprint
} if
} if
} bd
/EndEPSF { %def
count op_count sub {pop} repeat            % Clean up stacks
countdictstack dict_count sub {end} repeat
b4_Inc_state restore
} bd
%%EndResource
%FOPBeginFontDict
%%IncludeResource: font Courier-Oblique
%%IncludeResource: font Courier-BoldOblique
%%IncludeResource: font Courier-Bold
%%IncludeResource: font ZapfDingbats
%%IncludeResource: font Symbol
%%IncludeResource: font Helvetica
%%IncludeResource: font Helvetica-Oblique
%%IncludeResource: font Helvetica-Bold
%%IncludeResource: font Helvetica-BoldOblique
%%IncludeResource: font Times-Roman
%%IncludeResource: font Times-Italic
%%IncludeResource: font Times-Bold
%%IncludeResource: font Times-BoldItalic
%%IncludeResource: font Courier
%FOPEndFontDict
%%BeginResource: encoding WinAnsiEncoding
/WinAnsiEncoding [
/.notdef /.notdef /.notdef /.notdef /.notdef
/.notdef /.notdef /.notdef /.notdef /.notdef
/.notdef /.notdef /.notdef /.notdef /.notdef
/.notdef /.notdef /.notdef /.notdef /.notdef
/.notdef /.notdef /.notdef /.notdef /.notdef
/.notdef /.notdef /.notdef /.notdef /.notdef
/.notdef /.notdef /space /exclam /quotedbl
/numbersign /dollar /percent /ampersand /quotesingle
/parenleft /parenright /asterisk /plus /comma
/hyphen /period /slash /zero /one
/two /three /four /five /six
/seven /eight /nine /colon /semicolon
/less /equal /greater /question /at
/A /B /C /D /E
/F /G /H /I /J
/K /L /M /N /O
/P /Q /R /S /T
/U /V /W /X /Y
/Z /bracketleft /backslash /bracketright /asciicircum
/underscore /quoteleft /a /b /c
/d /e /f /g /h
/i /j /k /l /m
/n /o /p /q /r
/s /t /u /v /w
/x /y /z /braceleft /bar
/braceright /asciitilde /bullet /Euro /bullet
/quotesinglbase /florin /quotedblbase /ellipsis /dagger
/daggerdbl /circumflex /perthousand /Scaron /guilsinglleft
/OE /bullet /Zcaron /bullet /bullet
/quoteleft /quoteright /quotedblleft /quotedblright /bullet
/endash /emdash /asciitilde /trademark /scaron
/guilsinglright /oe /bullet /zcaron /Ydieresis
/space /exclamdown /cent /sterling /currency
/yen /brokenbar /section /dieresis /copyright
/ordfeminine /guillemotleft /logicalnot /sfthyphen /registered
/macron /degree /plusminus /twosuperior /threesuperior
/acute /mu /paragraph /middot /cedilla
/onesuperior /ordmasculine /guillemotright /onequarter /onehalf
/threequarters /questiondown /Agrave /Aacute /Acircumflex
/Atilde /Adieresis /Aring /AE /Ccedilla
/Egrave /Eacute /Ecircumflex /Edieresis /Igrave
/Iacute /Icircumflex /Idieresis /Eth /Ntilde
/Ograve /Oacute /Ocircumflex /Otilde /Odieresis
/multiply /Oslash /Ugrave /Uacute /Ucircumflex
/Udieresis /Yacute /Thorn /germandbls /agrave
/aacute /acircumflex /atilde /adieresis /aring
/ae /ccedilla /egrave /eacute /ecircumflex
/edieresis /igrave /iacute /icircumflex /idieresis
/eth /ntilde /ograve /oacute /ocircumflex
/otilde /odieresis /divide /oslash /ugrave
/uacute /ucircumflex /udieresis /yacute /thorn
/ydieresis
] def
%%EndResource
%FOPBeginFontReencode
/Courier-Oblique findfont
dup length dict begin
  {1 index /FID ne {def} {pop pop} ifelse} forall
  /Encoding WinAnsiEncoding def
  currentdict
end
/Courier-Oblique exch definefont pop
/Courier-BoldOblique findfont
dup length dict begin
  {1 index /FID ne {def} {pop pop} ifelse} forall
  /Encoding WinAnsiEncoding def
  currentdict
end
/Courier-BoldOblique exch definefont pop
/Courier-Bold findfont
dup length dict begin
  {1 index /FID ne {def} {pop pop} ifelse} forall
  /Encoding WinAnsiEncoding def
  currentdict
end
/Courier-Bold exch definefont pop
/Helvetica findfont
dup length dict begin
  {1 index /FID ne {def} {pop pop} ifelse} forall
  /Encoding WinAnsiEncoding def
  currentdict
end
/Helvetica exch definefont pop
/Helvetica-Oblique findfont
dup length dict begin
  {1 index /FID ne {def} {pop pop} ifelse} forall
  /Encoding WinAnsiEncoding def
  currentdict
end
/Helvetica-Oblique exch definefont pop
/Helvetica-Bold findfont
dup length dict begin
  {1 index /FID ne {def} {pop pop} ifelse} forall
  /Encoding WinAnsiEncoding def
  currentdict
end
/Helvetica-Bold exch definefont pop
/Helvetica-BoldOblique findfont
dup length dict begin
  {1 index /FID ne {def} {pop pop} ifelse} forall
  /Encoding WinAnsiEncoding def
  currentdict
end
/Helvetica-BoldOblique exch definefont pop
/Times-Roman findfont
dup length dict begin
  {1 index /FID ne {def} {pop pop} ifelse} forall
  /Encoding WinAnsiEncoding def
  currentdict
end
/Times-Roman exch definefont pop
/Times-Italic findfont
dup length dict begin
  {1 index /FID ne {def} {pop pop} ifelse} forall
  /Encoding WinAnsiEncoding def
  currentdict
end
/Times-Italic exch definefont pop
/Times-Bold findfont
dup length dict begin
  {1 index /FID ne {def} {pop pop} ifelse} forall
  /Encoding WinAnsiEncoding def
  currentdict
end
/Times-Bold exch definefont pop
/Times-BoldItalic findfont
dup length dict begin
  {1 index /FID ne {def} {pop pop} ifelse} forall
  /Encoding WinAnsiEncoding def
  currentdict
end
/Times-BoldItalic exch definefont pop
/Courier findfont
dup length dict begin
  {1 index /FID ne {def} {pop pop} ifelse} forall
  /Encoding WinAnsiEncoding def
  currentdict
end
/Courier exch definefont pop
%FOPEndFontReencode
%%EndProlog
%%Page: 1 1
%%PageBoundingBox: 0 0 1440 722
%%BeginPageSetup
[1 0 0 -1 0 722] CT
%%EndPageSetup
GS
[0.75 0 0 0.75 0 -0.25] CT
1 GC
N
0 0 1920 963 re
f
GR
GS
[0.75 0 0 0.75 0 -0.25] CT
1 GC
N
0 0 1920 963 re
f
GR
GS
[0.75 0 0 0.75 0 -0.25] CT
1 GC
N
526.147 810 M
1461.853 810 L
1461.853 72 L
526.147 72 L
cp
f
GR
GS
[0.75 0 0 0.75 0 -0.25] CT
0.149 GC
2 setlinecap
1 LJ
0.667 LW
N
526.147 810 M
1461.853 810 L
S
GR
GS
[0.75 0 0 0.75 0 -0.25] CT
0.149 GC
2 setlinecap
1 LJ
0.667 LW
N
571.43 810 M
571.43 800.643 L
S
GR
GS
[0.75 0 0 0.75 0 -0.25] CT
0.149 GC
2 setlinecap
1 LJ
0.667 LW
N
722.126 810 M
722.126 800.643 L
S
GR
GS
[0.75 0 0 0.75 0 -0.25] CT
0.149 GC
2 setlinecap
1 LJ
0.667 LW
N
872.823 810 M
872.823 800.643 L
S
GR
GS
[0.75 0 0 0.75 0 -0.25] CT
0.149 GC
2 setlinecap
1 LJ
0.667 LW
N
1023.519 810 M
1023.519 800.643 L
S
GR
GS
[0.75 0 0 0.75 0 -0.25] CT
0.149 GC
2 setlinecap
1 LJ
0.667 LW
N
1174.215 810 M
1174.215 800.643 L
S
GR
GS
[0.75 0 0 0.75 0 -0.25] CT
0.149 GC
2 setlinecap
1 LJ
0.667 LW
N
1324.911 810 M
1324.911 800.643 L
S
GR
GS
[0.75 0 0 0.75 428.57249 617.24998] CT
0.149 GC
/Helvetica 53.333 F
GS
[1 0 0 1 0 0] CT
-15 54 moveto 
1 -1 scale
(2) t 
GR
GR
GS
[0.75 0 0 0.75 541.59471 617.24998] CT
0.149 GC
/Helvetica 53.333 F
GS
[1 0 0 1 0 0] CT
-15 54 moveto 
1 -1 scale
(4) t 
GR
GR
GS
[0.75 0 0 0.75 654.61693 617.24998] CT
0.149 GC
/Helvetica 53.333 F
GS
[1 0 0 1 0 0] CT
-15 54 moveto 
1 -1 scale
(6) t 
GR
GR
GS
[0.75 0 0 0.75 767.63919 617.24998] CT
0.149 GC
/Helvetica 53.333 F
GS
[1 0 0 1 0 0] CT
-15 54 moveto 
1 -1 scale
(8) t 
GR
GR
GS
[0.75 0 0 0.75 880.66141 617.24998] CT
0.149 GC
/Helvetica 53.333 F
GS
[1 0 0 1 0 0] CT
-30 54 moveto 
1 -1 scale
(10) t 
GR
GR
GS
[0.75 0 0 0.75 993.68362 617.24998] CT
0.149 GC
/Helvetica 53.333 F
GS
[1 0 0 1 0 0] CT
-30 54 moveto 
1 -1 scale
(12) t 
GR
GR
GS
[0.75 0 0 0.75 745.50032 667.75002] CT
0.149 GC
/Helvetica 58.667 F
GS
[1 0 0 1 0 0] CT
-34.5 59 moveto 
1 -1 scale
(Xs) t 
GR
GR
GS
[0.75 0 0 0.75 0 -0.25] CT
0.149 GC
2 setlinecap
1 LJ
0.667 LW
N
526.147 810 M
526.147 72 L
S
GR
GS
[0.75 0 0 0.75 0 -0.25] CT
0.149 GC
2 setlinecap
1 LJ
0.667 LW
N
526.147 759.467 M
535.504 759.467 L
S
GR
GS
[0.75 0 0 0.75 0 -0.25] CT
0.149 GC
2 setlinecap
1 LJ
0.667 LW
N
526.147 608.77 M
535.504 608.77 L
S
GR
GS
[0.75 0 0 0.75 0 -0.25] CT
0.149 GC
2 setlinecap
1 LJ
0.667 LW
N
526.147 458.074 M
535.504 458.074 L
S
GR
GS
[0.75 0 0 0.75 0 -0.25] CT
0.149 GC
2 setlinecap
1 LJ
0.667 LW
N
526.147 307.378 M
535.504 307.378 L
S
GR
GS
[0.75 0 0 0.75 0 -0.25] CT
0.149 GC
2 setlinecap
1 LJ
0.667 LW
N
526.147 156.681 M
535.504 156.681 L
S
GR
GS
[0.75 0 0 0.75 384.61043 569.35001] CT
0.149 GC
/Helvetica 53.333 F
GS
[1 0 0 1 0 0] CT
-30 21 moveto 
1 -1 scale
(4) t 
GR
GR
GS
[0.75 0 0 0.75 384.61043 456.32779] CT
0.149 GC
/Helvetica 53.333 F
GS
[1 0 0 1 0 0] CT
-30 21 moveto 
1 -1 scale
(6) t 
GR
GR
GS
[0.75 0 0 0.75 384.61043 343.30555] CT
0.149 GC
/Helvetica 53.333 F
GS
[1 0 0 1 0 0] CT
-30 21 moveto 
1 -1 scale
(8) t 
GR
GR
GS
[0.75 0 0 0.75 384.61043 230.28333] CT
0.149 GC
/Helvetica 53.333 F
GS
[1 0 0 1 0 0] CT
-60 21 moveto 
1 -1 scale
(10) t 
GR
GR
GS
[0.75 0 0 0.75 384.61043 117.26109] CT
0.149 GC
/Helvetica 53.333 F
GS
[1 0 0 1 0 0] CT
-60 21 moveto 
1 -1 scale
(12) t 
GR
GR
GS
[0 -0.75 0.75 0 336.61043 330.49973] CT
0.149 GC
/Helvetica 58.667 F
GS
[1 0 0 1 0 0] CT
-34.5 -13 moveto 
1 -1 scale
(Ys) t 
GR
GR
GS
[0.75 0 0 0.75 541.59471 399.81668] CT
1 0 0 RC
N
0 -26.66 M
-23.088 13.33 L
23.088 13.33 L
cp
f
GR
GS
[0.75 0 0 0.75 541.59471 399.81668] CT
0 0 1 RC
10.0 ML
0.667 LW
N
0 -26.66 M
-23.088 13.33 L
23.088 13.33 L
cp
S
GR
GS
[0.75 0 0 0.75 485.0836 343.30555] CT
1 0 0 RC
N
/f-1996900118{0 -26.66 M
-23.088 13.33 L
23.088 13.33 L
cp}def
f-1996900118
f
GR
GS
[0.75 0 0 0.75 485.0836 343.30555] CT
0 0 1 RC
10.0 ML
0.667 LW
N
0 -26.66 M
-23.088 13.33 L
23.088 13.33 L
cp
S
GR
GS
[0.75 0 0 0.75 711.12808 399.81668] CT
1 0 0 RC
N
f-1996900118
f
GR
GS
[0.75 0 0 0.75 711.12808 399.81668] CT
0 0 1 RC
10.0 ML
0.667 LW
N
0 -26.66 M
-23.088 13.33 L
23.088 13.33 L
cp
S
GR
GS
[0.75 0 0 0.75 598.10582 286.79444] CT
1 0 0 RC
N
f-1996900118
f
GR
GS
[0.75 0 0 0.75 598.10582 286.79444] CT
0 0 1 RC
10.0 ML
0.667 LW
N
0 -26.66 M
-23.088 13.33 L
23.088 13.33 L
cp
S
GR
GS
[0.75 0 0 0.75 541.59471 512.8389] CT
1 0 0 RC
N
f-1996900118
f
GR
GS
[0.75 0 0 0.75 541.59471 512.8389] CT
0 0 1 RC
10.0 ML
0.667 LW
N
0 -26.66 M
-23.088 13.33 L
23.088 13.33 L
cp
S
GR
GS
[0.75 0 0 0.75 654.61693 343.30555] CT
1 0 0 RC
N
f-1996900118
f
GR
GS
[0.75 0 0 0.75 654.61693 343.30555] CT
0 0 1 RC
10.0 ML
0.667 LW
N
0 -26.66 M
-23.088 13.33 L
23.088 13.33 L
cp
S
GR
GS
[0.75 0 0 0.75 777.88467 358.63457] CT
1 0 0 RC
10.0 ML
0.667 LW
N
0 -5 M
0 5 L
-5 0 M
5 0 L
S
GR
GS
[0.75 0 0 0.75 806.67078 329.61416] CT
0 1 1 RC
10.0 ML
0.667 LW
N
0 -4 M
0 4 L
-4 0 M
4 0 L
-2.828 -2.828 M
2.828 2.828 L
-2.828 2.828 M
2.828 -2.828 L
S
GR
GS
[0.75 0 0 0.75 0 -0.25] CT
0 1 1 RC
1 LJ
0.667 LW
N
1076.768 432.876 M
1076.98 432.419 L
1077.008 432.922 L
S
GR
GS
[0.75 0 0 0.75 0 -0.25] CT
0 1 1 RC
1 LJ
0.667 LW
N
1075.561 439.819 M
1076.98 432.419 L
S
GR
GS
[0.75 0 0 0.75 0 -0.25] CT
0 1 1 RC
1 LJ
10.667 LW
N
1013.629 447.071 M
1017.378 462.244 L
1024.783 476.009 L
1035.379 487.5 L
1048.499 495.995 L
1063.32 500.96 L
1078.91 502.084 L
1094.289 499.295 L
1108.492 492.769 L
1120.625 482.916 L
1129.927 470.355 L
1135.813 455.875 L
1137.913 440.387 L
1136.096 424.862 L
1130.474 410.278 L
1121.402 397.55 L
1109.45 387.477 L
1095.369 380.694 L
1080.043 377.625 L
1064.435 378.465 L
1049.526 383.159 L
1036.254 391.414 L
1025.451 402.71 L
1017.796 416.338 L
1013.772 431.441 L
1013.629 447.071 L
S
GR
GS
[0.75 0 0 0.75 806.6716 424.3481] CT
0 1 1 RC
10.0 ML
0.667 LW
N
0 -4 M
0 4 L
-4 0 M
4 0 L
-2.828 -2.828 M
2.828 2.828 L
-2.828 2.828 M
2.828 -2.828 L
S
GR
GS
[0.75 0 0 0.75 0 -0.25] CT
0 1 1 RC
1 LJ
0.667 LW
N
1076.77 559.188 M
1076.982 558.731 L
1077.01 559.234 L
S
GR
GS
[0.75 0 0 0.75 0 -0.25] CT
0 1 1 RC
1 LJ
0.667 LW
N
1075.562 566.131 M
1076.982 558.731 L
S
GR
GS
[0.75 0 0 0.75 0 -0.25] CT
0 1 1 RC
1 LJ
0.667 LW
N
1013.505 572.219 M
1016.969 587.461 L
1024.114 601.362 L
1034.492 613.05 L
1047.451 621.789 L
1062.176 627.032 L
1077.742 628.448 L
1093.171 625.948 L
1107.493 619.689 L
1119.81 610.066 L
1129.346 597.681 L
1135.502 583.315 L
1137.893 567.868 L
1136.367 552.313 L
1131.02 537.625 L
1122.189 524.729 L
1110.428 514.434 L
1096.476 507.388 L
1081.21 504.032 L
1065.589 504.579 L
1050.595 508.993 L
1037.17 516.997 L
1026.157 528.088 L
1018.248 541.57 L
1013.941 556.595 L
1013.505 572.219 L
S
GR
GS
[0.75 0 0 0.75 799.00552 321.9522] CT
0 1 1 RC
10.0 ML
0.667 LW
N
0 -4 M
0 4 L
-4 0 M
4 0 L
-2.828 -2.828 M
2.828 2.828 L
-2.828 2.828 M
2.828 -2.828 L
S
GR
GS
[0.75 0 0 0.75 0 -0.25] CT
0 1 1 RC
1 LJ
0.667 LW
N
1066.548 422.66 M
1066.76 422.203 L
1066.788 422.706 L
S
GR
GS
[0.75 0 0 0.75 0 -0.25] CT
0 1 1 RC
1 LJ
0.667 LW
N
1065.341 429.603 M
1066.76 422.203 L
S
GR
GS
[0.75 0 0 0.75 0 -0.25] CT
0 1 1 RC
1 LJ
0.667 LW
N
1003.208 434.867 M
1006.469 450.153 L
1013.43 464.148 L
1023.651 475.972 L
1036.493 484.883 L
1051.147 490.321 L
1066.693 491.943 L
1082.153 489.648 L
1096.558 483.581 L
1109.001 474.121 L
1118.701 461.865 L
1125.047 447.581 L
1127.643 432.168 L
1126.323 416.594 L
1121.172 401.837 L
1112.513 388.824 L
1100.89 378.374 L
1087.033 371.143 L
1071.813 367.585 L
1056.186 367.924 L
1041.135 372.138 L
1027.604 379.963 L
1016.445 390.907 L
1008.358 404.283 L
1003.852 419.249 L
1003.208 434.867 L
S
GR
GS
[0.75 0 0 0.75 803.4538 458.20833] CT
0 1 1 RC
10.0 ML
0.667 LW
N
0 -4 M
0 4 L
-4 0 M
4 0 L
-2.828 -2.828 M
2.828 2.828 L
-2.828 2.828 M
2.828 -2.828 L
S
GR
GS
[0.75 0 0 0.75 0 -0.25] CT
0 1 1 RC
1 LJ
0.667 LW
N
1072.479 604.335 M
1072.691 603.878 L
1072.719 604.38 L
S
GR
GS
[0.75 0 0 0.75 0 -0.25] CT
0 1 1 RC
1 LJ
0.667 LW
N
1071.272 611.278 M
1072.691 603.878 L
S
GR
GS
[0.75 0 0 0.75 0 -0.25] CT
0 1 1 RC
1 LJ
10.667 LW
N
1009.069 615.637 M
1012.108 630.969 L
1018.864 645.064 L
1028.912 657.036 L
1041.623 666.133 L
1056.196 671.783 L
1071.717 673.631 L
1087.209 671.561 L
1101.701 665.704 L
1114.28 656.427 L
1124.157 644.312 L
1130.711 630.123 L
1133.53 614.749 L
1132.437 599.157 L
1127.501 584.326 L
1119.032 571.189 L
1107.562 560.571 L
1093.812 553.139 L
1078.645 549.36 L
1063.015 549.472 L
1047.904 553.467 L
1034.261 561.095 L
1022.944 571.875 L
1014.663 585.132 L
1009.94 600.031 L
1009.069 615.637 L
S
GR
GS
[0.75 0 0 0.75 795.77573 355.78224] CT
0 1 1 RC
10.0 ML
0.667 LW
N
0 -4 M
0 4 L
-4 0 M
4 0 L
-2.828 -2.828 M
2.828 2.828 L
-2.828 2.828 M
2.828 -2.828 L
S
GR
GS
[0.75 0 0 0.75 0 -0.25] CT
0 1 1 RC
1 LJ
0.667 LW
N
1062.242 467.766 M
1062.454 467.31 L
1062.482 467.812 L
S
GR
GS
[0.75 0 0 0.75 0 -0.25] CT
0 1 1 RC
1 LJ
0.667 LW
N
1061.034 474.71 M
1062.454 467.31 L
S
GR
GS
[0.75 0 0 0.75 0 -0.25] CT
0 1 1 RC
1 LJ
10.667 LW
N
998.762 477.92 M
999.92 462.332 L
1004.918 447.523 L
1013.443 434.421 L
1024.957 423.851 L
1038.738 416.477 L
1053.921 412.762 L
1069.55 412.939 L
1084.644 416.997 L
1098.255 424.682 L
1109.527 435.51 L
1117.752 448.801 L
1122.413 463.72 L
1123.218 479.33 L
1120.115 494.649 L
1113.3 508.715 L
1103.201 520.645 L
1090.453 529.689 L
1075.856 535.277 L
1060.328 537.06 L
1044.844 534.926 L
1030.377 529.008 L
1017.837 519.678 L
1008.011 507.522 L
1001.517 493.305 L
998.762 477.92 L
S
GR
GS
[0.75 0 0 0.75 805.42841 423.10381] CT
0 1 1 RC
10.0 ML
0.667 LW
N
0 -4 M
0 4 L
-4 0 M
4 0 L
-2.828 -2.828 M
2.828 2.828 L
-2.828 2.828 M
2.828 -2.828 L
S
GR
GS
[0.75 0 0 0.75 0 -0.25] CT
0 1 1 RC
1 LJ
0.667 LW
N
1075.112 557.529 M
1075.324 557.072 L
1075.352 557.575 L
S
GR
GS
[0.75 0 0 0.75 0 -0.25] CT
0 1 1 RC
1 LJ
0.667 LW
N
1073.905 564.472 M
1075.324 557.072 L
S
GR
GS
[0.75 0 0 0.75 0 -0.25] CT
0 1 1 RC
1 LJ
10.667 LW
N
1011.834 570.424 M
1015.265 585.673 L
1022.38 599.59 L
1032.732 611.301 L
1045.671 620.069 L
1060.385 625.343 L
1075.948 626.793 L
1091.382 624.327 L
1105.719 618.1 L
1118.056 608.503 L
1127.619 596.14 L
1133.807 581.787 L
1136.231 566.346 L
1134.739 550.787 L
1129.425 536.088 L
1120.622 523.172 L
1108.883 512.852 L
1094.947 505.775 L
1079.688 502.386 L
1064.067 502.898 L
1049.063 507.279 L
1035.62 515.254 L
1024.583 526.321 L
1016.645 539.785 L
1012.304 554.801 L
1011.834 570.424 L
S
GR
GS
[0.75 0 0 0.75 797.76233 320.70695] CT
0 1 1 RC
10.0 ML
0.667 LW
N
0 -4 M
0 4 L
-4 0 M
4 0 L
-2.828 -2.828 M
2.828 2.828 L
-2.828 2.828 M
2.828 -2.828 L
S
GR
GS
[0.75 0 0 0.75 0 -0.25] CT
0 1 1 RC
1 LJ
0.667 LW
N
1064.891 420.999 M
1065.103 420.543 L
1065.131 421.045 L
S
GR
GS
[0.75 0 0 0.75 0 -0.25] CT
0 1 1 RC
1 LJ
0.667 LW
N
1063.683 427.943 M
1065.103 420.543 L
S
GR
GS
[0.75 0 0 0.75 0 -0.25] CT
0 1 1 RC
1 LJ
0.667 LW
N
1001.553 433.233 M
1002.189 417.615 L
1006.69 402.647 L
1014.771 389.268 L
1025.926 378.319 L
1039.453 370.488 L
1054.502 366.267 L
1070.129 365.922 L
1085.35 369.473 L
1099.21 376.699 L
1110.838 387.144 L
1119.503 400.153 L
1124.66 414.907 L
1125.986 430.481 L
1123.397 445.896 L
1117.057 460.182 L
1107.362 472.443 L
1094.923 481.907 L
1080.521 487.981 L
1065.062 490.282 L
1049.515 488.666 L
1034.859 483.235 L
1022.014 474.33 L
1011.787 462.51 L
1004.821 448.518 L
1001.553 433.233 L
S
GR
GS
[0.75 0 0 0.75 750.3951 273.33285] CT
0 1 1 RC
10.0 ML
0.667 LW
N
0 -4 M
0 4 L
-4 0 M
4 0 L
-2.828 -2.828 M
2.828 2.828 L
-2.828 2.828 M
2.828 -2.828 L
S
GR
GS
[0.75 0 0 0.75 0 -0.25] CT
0 1 1 RC
1 LJ
0.667 LW
N
1001.734 357.834 M
1001.946 357.377 L
1001.974 357.88 L
S
GR
GS
[0.75 0 0 0.75 0 -0.25] CT
0 1 1 RC
1 LJ
0.667 LW
N
1000.527 364.777 M
1001.946 357.377 L
S
GR
GS
[0.75 0 0 0.75 0 -0.25] CT
0 1 1 RC
1 LJ
0.667 LW
N
938.437 370.521 M
938.959 354.9 L
943.35 339.899 L
951.333 326.461 L
962.408 315.431 L
975.877 307.501 L
990.896 303.171 L
1006.519 302.711 L
1021.766 306.151 L
1035.678 313.275 L
1047.382 323.635 L
1056.142 336.58 L
1061.407 351.297 L
1062.847 366.86 L
1060.371 382.293 L
1054.135 396.626 L
1044.53 408.957 L
1032.161 418.512 L
1017.803 424.691 L
1002.361 427.105 L
986.803 425.603 L
972.107 420.279 L
959.197 411.468 L
948.884 399.722 L
941.816 385.782 L
938.437 370.521 L
S
GR
GS
[0.75 0 0 0.75 797.54645 320.47914] CT
0 1 1 RC
10.0 ML
0.667 LW
N
0 -4 M
0 4 L
-4 0 M
4 0 L
-2.828 -2.828 M
2.828 2.828 L
-2.828 2.828 M
2.828 -2.828 L
S
GR
GS
[0.75 0 0 0.75 0 -0.25] CT
0 1 1 RC
1 LJ
0.667 LW
N
1064.603 420.696 M
1064.815 420.239 L
1064.843 420.742 L
S
GR
GS
[0.75 0 0 0.75 0 -0.25] CT
0 1 1 RC
1 LJ
0.667 LW
N
1063.395 427.639 M
1064.815 420.239 L
S
GR
GS
[0.75 0 0 0.75 0 -0.25] CT
0 1 1 RC
1 LJ
10.667 LW
N
1001.308 433.408 M
1001.824 417.786 L
1006.209 402.783 L
1014.187 389.342 L
1025.256 378.308 L
1038.723 370.373 L
1053.739 366.036 L
1069.363 365.57 L
1084.611 369.004 L
1098.526 376.123 L
1110.234 386.478 L
1118.999 399.419 L
1124.27 414.134 L
1125.716 429.697 L
1123.246 445.131 L
1117.016 459.466 L
1107.416 471.801 L
1095.051 481.361 L
1080.696 487.546 L
1065.254 489.966 L
1049.696 488.47 L
1034.998 483.152 L
1022.085 474.346 L
1011.767 462.605 L
1004.693 448.667 L
1001.308 433.408 L
S
GR
GS
[0.75 0 0 0.75 750.18077 273.11129] CT
0 1 1 RC
10.0 ML
0.667 LW
N
0 -4 M
0 4 L
-4 0 M
4 0 L
-2.828 -2.828 M
2.828 2.828 L
-2.828 2.828 M
2.828 -2.828 L
S
GR
GS
[0.75 0 0 0.75 0 -0.25] CT
0 1 1 RC
1 LJ
0.667 LW
N
1001.448 357.538 M
1001.66 357.082 L
1001.688 357.584 L
S
GR
GS
[0.75 0 0 0.75 0 -0.25] CT
0 1 1 RC
1 LJ
0.667 LW
N
1000.241 364.482 M
1001.66 357.082 L
S
GR
GS
[0.75 0 0 0.75 0 -0.25] CT
0 1 1 RC
1 LJ
10.667 LW
N
938.309 371.733 M
942.058 386.907 L
949.463 400.672 L
960.058 412.163 L
973.179 420.658 L
987.999 425.623 L
1003.589 426.747 L
1018.969 423.958 L
1033.171 417.432 L
1045.305 407.579 L
1054.607 395.018 L
1060.493 380.538 L
1062.593 365.05 L
1060.776 349.526 L
1055.154 334.941 L
1046.083 322.213 L
1034.131 312.14 L
1020.049 305.357 L
1004.723 302.288 L
989.115 303.127 L
974.207 307.822 L
960.934 316.076 L
950.131 327.372 L
942.476 341 L
938.452 356.103 L
938.309 371.733 L
S
GR
GS
[0.75 0 0 0.75 815.7973 311.34209] CT
0 1 1 RC
10.0 ML
10.667 LW
N
0 -4 M
0 4 L
-4 0 M
4 0 L
-2.828 -2.828 M
2.828 2.828 L
-2.828 2.828 M
2.828 -2.828 L
S
GR
GS
[0.75 0 0 0.75 0 -0.25] CT
0 1 1 RC
1 LJ
0.667 LW
N
1088.937 408.513 M
1089.149 408.056 L
1089.177 408.559 L
S
GR
GS
[0.75 0 0 0.75 0 -0.25] CT
0 1 1 RC
1 LJ
0.667 LW
N
1087.73 415.456 M
1089.149 408.056 L
S
GR
GS
[0.75 0 0 0.75 0 -0.25] CT
0 1 1 RC
1 LJ
10.667 LW
N
1025.679 421.608 M
1029.158 436.846 L
1036.318 450.74 L
1046.708 462.417 L
1059.675 471.143 L
1074.406 476.371 L
1089.973 477.771 L
1105.399 475.255 L
1119.716 468.982 L
1132.022 459.346 L
1141.546 446.952 L
1147.688 432.579 L
1150.062 417.13 L
1148.52 401.576 L
1143.158 386.894 L
1134.314 374.007 L
1122.543 363.724 L
1108.584 356.692 L
1093.314 353.352 L
1077.694 353.914 L
1062.705 358.343 L
1049.288 366.361 L
1038.286 377.464 L
1030.391 390.954 L
1026.099 405.983 L
1025.679 421.608 L
S
GR
GS
[0.75 0 0 0.75 863.16074 216.60847] CT
0 1 1 RC
10.0 ML
0.667 LW
N
0 -4 M
0 4 L
-4 0 M
4 0 L
-2.828 -2.828 M
2.828 2.828 L
-2.828 2.828 M
2.828 -2.828 L
S
GR
GS
[0.75 0 0 0.75 0 -0.25] CT
0 1 1 RC
1 LJ
0.667 LW
N
1152.089 282.201 M
1152.3 281.745 L
1152.328 282.247 L
S
GR
GS
[0.75 0 0 0.75 0 -0.25] CT
0 1 1 RC
1 LJ
0.667 LW
N
1150.881 289.145 M
1152.3 281.745 L
S
GR
GS
[0.75 0 0 0.75 0 -0.25] CT
0 1 1 RC
1 LJ
10.667 LW
N
1088.949 296.395 M
1092.698 311.569 L
1100.103 325.334 L
1110.698 336.825 L
1123.818 345.321 L
1138.639 350.286 L
1154.229 351.41 L
1169.608 348.621 L
1183.811 342.095 L
1195.945 332.242 L
1205.247 319.681 L
1211.133 305.202 L
1213.233 289.713 L
1211.416 274.189 L
1205.795 259.604 L
1196.723 246.876 L
1184.771 236.804 L
1170.69 230.02 L
1155.364 226.951 L
1139.756 227.79 L
1124.847 232.484 L
1111.574 240.739 L
1100.771 252.035 L
1093.117 265.663 L
1089.092 280.766 L
1088.949 296.395 L
S
GR
GS
[0.75 0 0 0.75 910.52682 263.97623] CT
0 1 1 RC
10.0 ML
0.667 LW
N
0 -4 M
0 4 L
-4 0 M
4 0 L
-2.828 -2.828 M
2.828 2.828 L
-2.828 2.828 M
2.828 -2.828 L
S
GR
GS
[0.75 0 0 0.75 0 -0.25] CT
0 1 1 RC
1 LJ
0.667 LW
N
1215.243 345.358 M
1215.455 344.902 L
1215.483 345.404 L
S
GR
GS
[0.75 0 0 0.75 0 -0.25] CT
0 1 1 RC
1 LJ
0.667 LW
N
1214.036 352.302 M
1215.455 344.902 L
S
GR
GS
[0.75 0 0 0.75 0 -0.25] CT
0 1 1 RC
1 LJ
10.667 LW
N
1151.948 358.07 M
1155.333 373.329 L
1162.407 387.267 L
1172.724 399.008 L
1185.638 407.814 L
1200.335 413.133 L
1215.894 414.629 L
1231.336 412.209 L
1245.69 406.024 L
1258.056 396.464 L
1267.656 384.129 L
1273.886 369.795 L
1276.356 354.361 L
1274.911 338.798 L
1269.64 324.083 L
1260.875 311.141 L
1249.167 300.786 L
1235.252 293.667 L
1220.004 290.233 L
1204.381 290.699 L
1189.364 295.035 L
1175.898 302.97 L
1164.828 314.004 L
1156.849 327.445 L
1152.464 342.448 L
1151.948 358.07 L
S
GR
GS
[0.75 0 0 0.75 965.55753 319.00631] CT
0 1 1 RC
10.0 ML
0.667 LW
N
0 -4 M
0 4 L
-4 0 M
4 0 L
-2.828 -2.828 M
2.828 2.828 L
-2.828 2.828 M
2.828 -2.828 L
S
GR
GS
[0.75 0 0 0.75 0 -0.25] CT
0 1 1 RC
1 LJ
0.667 LW
N
1288.618 418.732 M
1288.829 418.275 L
1288.857 418.778 L
S
GR
GS
[0.75 0 0 0.75 0 -0.25] CT
0 1 1 RC
1 LJ
0.667 LW
N
1287.41 425.675 M
1288.829 418.275 L
S
GR
GS
[0.75 0 0 0.75 0 -0.25] CT
0 1 1 RC
1 LJ
10.667 LW
N
1225.312 431.324 M
1228.667 446.59 L
1235.714 460.541 L
1246.009 472.302 L
1258.906 481.133 L
1273.593 486.48 L
1289.149 488.006 L
1304.595 485.615 L
1318.962 479.458 L
1331.346 469.922 L
1340.969 457.605 L
1347.227 443.283 L
1349.727 427.854 L
1348.311 412.288 L
1343.068 397.563 L
1334.328 384.604 L
1322.641 374.227 L
1308.739 367.082 L
1293.497 363.618 L
1277.873 364.054 L
1262.848 368.362 L
1249.366 376.271 L
1238.275 387.284 L
1230.271 400.709 L
1225.858 415.703 L
1225.312 431.324 L
S
GR
GS
[0.75 0 0 0.75 907.20374 297.91908] CT
0 1 1 RC
10.0 ML
0.667 LW
N
0 -4 M
0 4 L
-4 0 M
4 0 L
-2.828 -2.828 M
2.828 2.828 L
-2.828 2.828 M
2.828 -2.828 L
S
GR
GS
[0.75 0 0 0.75 0 -0.25] CT
0 1 1 RC
1 LJ
0.667 LW
N
1210.813 390.616 M
1211.025 390.159 L
1211.053 390.662 L
S
GR
GS
[0.75 0 0 0.75 0 -0.25] CT
0 1 1 RC
1 LJ
0.667 LW
N
1209.605 397.559 M
1211.025 390.159 L
S
GR
GS
[0.75 0 0 0.75 0 -0.25] CT
0 1 1 RC
1 LJ
10.667 LW
N
1147.356 401.194 M
1150.216 416.56 L
1156.807 430.733 L
1166.716 442.821 L
1179.32 452.065 L
1193.826 457.884 L
1209.324 459.913 L
1224.84 458.024 L
1239.398 452.335 L
1252.085 443.205 L
1262.102 431.207 L
1268.821 417.094 L
1271.819 401.754 L
1270.907 386.15 L
1266.144 371.264 L
1257.829 358.029 L
1246.483 347.278 L
1232.82 339.687 L
1217.699 335.731 L
1202.068 335.661 L
1186.912 339.48 L
1173.181 346.948 L
1161.739 357.596 L
1153.305 370.756 L
1148.408 385.599 L
1147.356 401.194 L
S
GR
GS
[0.75 0 0 0.75 777.88467 358.63457] CT
0.718 0.275 1 RC
10.0 ML
10.667 LW
N
-5.333 0 M
0 7.093 L
5.333 0 L
0 -7.093 L
cp
S
GR
GS
[0.75 0 0 0.75 773.44565 340.57231] CT
0 1 0 RC
10.0 ML
0.667 LW
N
0 -4 M
0 4 L
-4 0 M
4 0 L
-2.828 -2.828 M
2.828 2.828 L
-2.828 2.828 M
2.828 -2.828 L
S
GR
GS
[0.75 0 0 0.75 0 -0.25] CT
0 1 0 RC
1 LJ
0.667 LW
N
1032.468 447.486 M
1032.68 447.03 L
1032.708 447.532 L
S
GR
GS
[0.75 0 0 0.75 0 -0.25] CT
0 1 0 RC
1 LJ
0.667 LW
N
1031.261 454.43 M
1032.68 447.03 L
S
GR
GS
[0.75 0 0 0.75 0 -0.25] CT
0 1 0 RC
1 LJ
10.667 LW
N
1006.891 460.383 M
1006.176 454.136 L
1007.037 447.907 L
1009.421 442.087 L
1013.176 437.044 L
1018.068 433.092 L
1023.789 430.482 L
1029.979 429.376 L
1036.25 429.844 L
1042.208 431.858 L
1047.477 435.289 L
1051.728 439.923 L
1054.692 445.469 L
1056.185 451.578 L
1056.111 457.865 L
1054.476 463.938 L
1051.382 469.412 L
1047.024 473.945 L
1041.675 477.252 L
1035.672 479.125 L
1029.392 479.447 L
1023.229 478.196 L
1017.571 475.452 L
1012.773 471.387 L
1009.137 466.257 L
1006.891 460.383 L
S
GR
GS
[0.75 0 0 0.75 868.17563 293.2121] CT
0 0 1 RC
10.0 ML
0.667 LW
N
0 -4 M
0 4 L
-4 0 M
4 0 L
-2.828 -2.828 M
2.828 2.828 L
-2.828 2.828 M
2.828 -2.828 L
S
GR
GS
[0.75 0 0 0.75 0 -0.25] CT
0 0 1 RC
1 LJ
0.667 LW
N
1158.775 384.339 M
1158.986 383.883 L
1159.014 384.385 L
S
GR
GS
[0.75 0 0 0.75 0 -0.25] CT
0 0 1 RC
1 LJ
0.667 LW
N
1157.568 391.283 M
1158.986 383.883 L
S
GR
GS
[0.75 0 0 0.75 0 -0.25] CT
0 0 1 RC
1 LJ
0.667 LW
N
1133.132 396.962 M
1132.488 390.707 L
1133.419 384.488 L
1135.868 378.696 L
1139.68 373.695 L
1144.616 369.799 L
1150.365 367.252 L
1156.568 366.216 L
1162.833 366.755 L
1168.767 368.835 L
1173.998 372.326 L
1178.196 377.007 L
1181.098 382.586 L
1182.522 388.711 L
1182.377 394.998 L
1180.674 401.051 L
1177.519 406.49 L
1173.11 410.974 L
1167.724 414.221 L
1161.701 416.026 L
1155.418 416.277 L
1149.269 414.957 L
1143.643 412.15 L
1138.891 408.031 L
1135.312 402.86 L
1133.132 396.962 L
S
GR
GS
[0.75 0 0 0.75 773.44656 355.90545] CT
0 0 1 RC
10.0 ML
0.667 LW
N
0 -4 M
0 4 L
-4 0 M
4 0 L
-2.828 -2.828 M
2.828 2.828 L
-2.828 2.828 M
2.828 -2.828 L
S
GR
GS
[0.75 0 0 0.75 0 -0.25] CT
0 0 1 RC
1 LJ
0.667 LW
N
1032.469 467.931 M
1032.681 467.474 L
1032.709 467.977 L
S
GR
GS
[0.75 0 0 0.75 0 -0.25] CT
0 0 1 RC
1 LJ
0.667 LW
N
1031.262 474.874 M
1032.681 467.474 L
S
GR
GS
[0.75 0 0 0.75 0 -0.25] CT
0 0 1 RC
1 LJ
10.667 LW
N
1006.762 480.267 M
1008.873 486.19 L
1012.391 491.402 L
1017.094 495.576 L
1022.688 498.449 L
1028.82 499.841 L
1035.106 499.664 L
1041.15 497.929 L
1046.573 494.746 L
1051.034 490.314 L
1054.253 484.912 L
1056.027 478.879 L
1056.245 472.594 L
1054.893 466.453 L
1052.056 460.841 L
1047.913 456.11 L
1042.724 452.559 L
1036.814 450.41 L
1030.556 449.798 L
1024.342 450.761 L
1018.562 453.24 L
1013.581 457.078 L
1009.711 462.034 L
1007.195 467.797 L
1006.191 474.004 L
1006.762 480.267 L
S
GR
GS
[0.75 0 0 0.75 773.44675 450.63802] CT
0 0 1 RC
10.0 ML
0.667 LW
N
0 -4 M
0 4 L
-4 0 M
4 0 L
-2.828 -2.828 M
2.828 2.828 L
-2.828 2.828 M
2.828 -2.828 L
S
GR
GS
[0.75 0 0 0.75 0 -0.25] CT
0 0 1 RC
1 LJ
0.667 LW
N
1032.469 594.241 M
1032.681 593.784 L
1032.709 594.287 L
S
GR
GS
[0.75 0 0 0.75 0 -0.25] CT
0 0 1 RC
1 LJ
0.667 LW
N
1031.262 601.184 M
1032.681 593.784 L
S
GR
GS
[0.75 0 0 0.75 0 -0.25] CT
0 0 1 RC
1 LJ
10.667 LW
N
1006.909 607.205 M
1006.177 600.96 L
1007.021 594.728 L
1009.388 588.903 L
1013.129 583.848 L
1018.01 579.884 L
1023.724 577.257 L
1029.911 576.134 L
1036.183 576.585 L
1042.146 578.581 L
1047.425 581.998 L
1051.689 586.62 L
1054.669 592.158 L
1056.178 598.262 L
1056.122 604.55 L
1054.504 610.627 L
1051.425 616.11 L
1047.08 620.656 L
1041.74 623.977 L
1035.743 625.867 L
1029.464 626.206 L
1023.297 624.972 L
1017.632 622.244 L
1012.822 618.193 L
1009.172 613.073 L
1006.909 607.205 L
S
GR
GS
[0.75 0 0 0.75 772.20575 339.3366] CT
0 0 1 RC
10.0 ML
0.667 LW
N
0 -4 M
0 4 L
-4 0 M
4 0 L
-2.828 -2.828 M
2.828 2.828 L
-2.828 2.828 M
2.828 -2.828 L
S
GR
GS
[0.75 0 0 0.75 0 -0.25] CT
0 0 1 RC
1 LJ
0.667 LW
N
1030.815 445.839 M
1031.027 445.382 L
1031.054 445.885 L
S
GR
GS
[0.75 0 0 0.75 0 -0.25] CT
0 0 1 RC
1 LJ
0.667 LW
N
1029.608 452.782 M
1031.027 445.382 L
S
GR
GS
[0.75 0 0 0.75 0 -0.25] CT
0 0 1 RC
1 LJ
0.667 LW
N
1005.213 458.631 M
1004.524 452.38 L
1005.412 446.155 L
1007.82 440.346 L
1011.598 435.319 L
1016.507 431.388 L
1022.239 428.802 L
1028.434 427.723 L
1034.702 428.218 L
1040.651 430.257 L
1045.906 433.711 L
1050.136 438.364 L
1053.077 443.922 L
1054.543 450.037 L
1054.443 456.324 L
1052.781 462.389 L
1049.664 467.851 L
1045.287 472.365 L
1039.924 475.649 L
1033.913 477.496 L
1027.632 477.791 L
1021.474 476.514 L
1015.828 473.745 L
1011.048 469.66 L
1007.433 464.514 L
1005.213 458.631 L
S
GR
GS
[0.75 0 0 0.75 803.4538 458.20833] CT
0 0 1 RC
10.0 ML
0.667 LW
N
0 -4 M
0 4 L
-4 0 M
4 0 L
-2.828 -2.828 M
2.828 2.828 L
-2.828 2.828 M
2.828 -2.828 L
S
GR
GS
[0.75 0 0 0.75 0 -0.25] CT
0 0 1 RC
1 LJ
0.667 LW
N
1072.479 604.335 M
1072.691 603.878 L
1072.719 604.38 L
S
GR
GS
[0.75 0 0 0.75 0 -0.25] CT
0 0 1 RC
1 LJ
0.667 LW
N
1071.272 611.278 M
1072.691 603.878 L
S
GR
GS
[0.75 0 0 0.75 0 -0.25] CT
0 0 1 RC
1 LJ
10.667 LW
N
1046.665 616.163 M
1046.224 609.89 L
1047.356 603.704 L
1049.99 597.995 L
1053.962 593.12 L
1059.022 589.385 L
1064.851 587.027 L
1071.084 586.192 L
1077.328 586.933 L
1083.192 589.204 L
1088.307 592.862 L
1092.352 597.678 L
1095.072 603.347 L
1096.296 609.515 L
1095.948 615.794 L
1094.05 621.789 L
1090.72 627.123 L
1086.169 631.462 L
1080.681 634.533 L
1074.602 636.142 L
1068.314 636.189 L
1062.212 634.671 L
1056.679 631.683 L
1052.063 627.413 L
1048.653 622.129 L
1046.665 616.163 L
S
GR
GS
[0.75 0 0 0.75 795.77573 355.78224] CT
0 0 1 RC
10.0 ML
0.667 LW
N
0 -4 M
0 4 L
-4 0 M
4 0 L
-2.828 -2.828 M
2.828 2.828 L
-2.828 2.828 M
2.828 -2.828 L
S
GR
GS
[0.75 0 0 0.75 0 -0.25] CT
0 0 1 RC
1 LJ
0.667 LW
N
1062.242 467.766 M
1062.454 467.31 L
1062.482 467.812 L
S
GR
GS
[0.75 0 0 0.75 0 -0.25] CT
0 0 1 RC
1 LJ
0.667 LW
N
1061.034 474.71 M
1062.454 467.31 L
S
GR
GS
[0.75 0 0 0.75 0 -0.25] CT
0 0 1 RC
1 LJ
10.667 LW
N
1036.272 478.731 M
1036.05 472.447 L
1037.398 466.305 L
1040.231 460.691 L
1044.37 455.957 L
1049.558 452.402 L
1055.466 450.249 L
1061.724 449.633 L
1067.939 450.592 L
1073.719 453.067 L
1078.703 456.901 L
1082.577 461.855 L
1085.097 467.616 L
1086.105 473.823 L
1085.538 480.086 L
1083.431 486.011 L
1079.917 491.226 L
1075.217 495.403 L
1069.625 498.279 L
1063.493 499.675 L
1057.207 499.503 L
1051.162 497.772 L
1045.737 494.592 L
1041.273 490.163 L
1038.05 484.763 L
1036.272 478.731 L
S
GR
GS
[0.75 0 0 0.75 772.00452 339.13509] CT
0 0 1 RC
10.0 ML
0.667 LW
N
0 -4 M
0 4 L
-4 0 M
4 0 L
-2.828 -2.828 M
2.828 2.828 L
-2.828 2.828 M
2.828 -2.828 L
S
GR
GS
[0.75 0 0 0.75 0 -0.25] CT
0 0 1 RC
1 LJ
0.667 LW
N
1030.546 445.57 M
1030.758 445.113 L
1030.786 445.616 L
S
GR
GS
[0.75 0 0 0.75 0 -0.25] CT
0 0 1 RC
1 LJ
0.667 LW
N
1029.339 452.513 M
1030.758 445.113 L
S
GR
GS
[0.75 0 0 0.75 0 -0.25] CT
0 0 1 RC
1 LJ
0.667 LW
N
1004.948 458.377 M
1007.172 464.259 L
1010.79 469.403 L
1015.573 473.485 L
1021.221 476.25 L
1027.379 477.523 L
1033.66 477.225 L
1039.67 475.374 L
1045.03 472.087 L
1049.405 467.57 L
1052.519 462.107 L
1054.177 456.04 L
1054.273 449.753 L
1052.804 443.639 L
1049.859 438.082 L
1045.626 433.433 L
1040.369 429.982 L
1034.419 427.947 L
1028.15 427.455 L
1021.955 428.538 L
1016.225 431.128 L
1011.319 435.061 L
1007.545 440.091 L
1005.14 445.901 L
1004.256 452.127 L
1004.948 458.377 L
S
GR
GS
[0.75 0 0 0.75 764.33871 331.46721] CT
0 0 1 RC
10.0 ML
0.667 LW
N
0 -4 M
0 4 L
-4 0 M
4 0 L
-2.828 -2.828 M
2.828 2.828 L
-2.828 2.828 M
2.828 -2.828 L
S
GR
GS
[0.75 0 0 0.75 0 -0.25] CT
0 0 1 RC
1 LJ
0.667 LW
N
1020.325 435.346 M
1020.537 434.89 L
1020.565 435.392 L
S
GR
GS
[0.75 0 0 0.75 0 -0.25] CT
0 0 1 RC
1 LJ
0.667 LW
N
1019.118 442.29 M
1020.537 434.89 L
S
GR
GS
[0.75 0 0 0.75 0 -0.25] CT
0 0 1 RC
1 LJ
10.667 LW
N
994.751 448.252 M
994.034 442.005 L
994.893 435.775 L
997.274 429.955 L
1001.027 424.91 L
1005.918 420.957 L
1011.638 418.345 L
1017.828 417.237 L
1024.099 417.703 L
1030.057 419.714 L
1035.328 423.143 L
1039.58 427.776 L
1042.546 433.32 L
1044.041 439.428 L
1043.969 445.716 L
1042.337 451.789 L
1039.245 457.265 L
1034.888 461.799 L
1029.541 465.108 L
1023.539 466.983 L
1017.259 467.307 L
1011.096 466.059 L
1005.437 463.317 L
1000.637 459.254 L
996.999 454.125 L
994.751 448.252 L
S
GR
GS
[0.75 0 0 0.75 716.97185 284.09503] CT
0 0 1 RC
10.0 ML
0.667 LW
N
0 -4 M
0 4 L
-4 0 M
4 0 L
-2.828 -2.828 M
2.828 2.828 L
-2.828 2.828 M
2.828 -2.828 L
S
GR
GS
[0.75 0 0 0.75 0 -0.25] CT
0 0 1 RC
1 LJ
0.667 LW
N
957.169 372.183 M
957.381 371.727 L
957.409 372.229 L
S
GR
GS
[0.75 0 0 0.75 0 -0.25] CT
0 0 1 RC
1 LJ
0.667 LW
N
955.962 379.127 M
957.381 371.727 L
S
GR
GS
[0.75 0 0 0.75 0 -0.25] CT
0 0 1 RC
1 LJ
0.667 LW
N
931.572 384.996 M
930.879 378.746 L
931.762 372.52 L
934.165 366.709 L
937.938 361.678 L
942.844 357.744 L
948.574 355.153 L
954.768 354.069 L
961.037 354.559 L
966.987 356.593 L
972.245 360.042 L
976.479 364.691 L
979.425 370.247 L
980.896 376.361 L
980.801 382.649 L
979.144 388.715 L
976.032 394.179 L
971.658 398.697 L
966.298 401.985 L
960.288 403.837 L
954.007 404.137 L
947.849 402.865 L
942.2 400.101 L
937.417 396.02 L
933.798 390.877 L
931.572 384.996 L
S
GR
GS
[0.75 0 0 0.75 771.96936 339.09785] CT
0 0 1 RC
10.0 ML
0.667 LW
N
0 -4 M
0 4 L
-4 0 M
4 0 L
-2.828 -2.828 M
2.828 2.828 L
-2.828 2.828 M
2.828 -2.828 L
S
GR
GS
[0.75 0 0 0.75 0 -0.25] CT
0 0 1 RC
1 LJ
0.667 LW
N
1030.5 445.52 M
1030.711 445.064 L
1030.739 445.566 L
S
GR
GS
[0.75 0 0 0.75 0 -0.25] CT
0 0 1 RC
1 LJ
0.667 LW
N
1029.292 452.464 M
1030.711 445.064 L
S
GR
GS
[0.75 0 0 0.75 0 -0.25] CT
0 0 1 RC
1 LJ
0.667 LW
N
1004.928 458.439 M
1007.179 464.31 L
1010.82 469.437 L
1015.622 473.498 L
1021.282 476.237 L
1027.446 477.482 L
1033.726 477.155 L
1039.727 475.277 L
1045.073 471.966 L
1049.427 467.429 L
1052.516 461.951 L
1054.146 455.878 L
1054.214 449.59 L
1052.716 443.482 L
1049.747 437.939 L
1045.492 433.309 L
1040.219 429.882 L
1034.26 427.874 L
1027.989 427.411 L
1021.8 428.522 L
1016.081 431.138 L
1011.193 435.094 L
1007.442 440.141 L
1005.063 445.962 L
1004.208 452.192 L
1004.928 458.439 L
S
GR
GS
[0.75 0 0 0.75 716.93811 284.0626] CT
0 0 1 RC
10.0 ML
0.667 LW
N
0 -4 M
0 4 L
-4 0 M
4 0 L
-2.828 -2.828 M
2.828 2.828 L
-2.828 2.828 M
2.828 -2.828 L
S
GR
GS
[0.75 0 0 0.75 0 -0.25] CT
0 0 1 RC
1 LJ
0.667 LW
N
957.124 372.14 M
957.336 371.683 L
957.364 372.186 L
S
GR
GS
[0.75 0 0 0.75 0 -0.25] CT
0 0 1 RC
1 LJ
0.667 LW
N
955.917 379.083 M
957.336 371.683 L
S
GR
GS
[0.75 0 0 0.75 0 -0.25] CT
0 0 1 RC
1 LJ
10.667 LW
N
931.548 385.037 M
933.794 390.91 L
937.43 396.041 L
942.228 400.106 L
947.886 402.85 L
954.049 404.1 L
960.329 403.779 L
966.332 401.906 L
971.68 398.599 L
976.039 394.066 L
979.132 388.591 L
980.768 382.519 L
980.841 376.231 L
979.349 370.123 L
976.384 364.577 L
972.134 359.943 L
966.864 356.511 L
960.907 354.498 L
954.636 354.03 L
948.446 355.135 L
942.725 357.746 L
937.833 361.697 L
934.077 366.741 L
931.694 372.56 L
930.833 378.789 L
931.548 385.037 L
S
GR
GS
[0.75 0 0 0.75 774.92404 337.61843] CT
0 0 1 RC
10.0 ML
0.667 LW
N
0 -4 M
0 4 L
-4 0 M
4 0 L
-2.828 -2.828 M
2.828 2.828 L
-2.828 2.828 M
2.828 -2.828 L
S
GR
GS
[0.75 0 0 0.75 0 -0.25] CT
0 0 1 RC
1 LJ
0.667 LW
N
1034.439 443.548 M
1034.651 443.091 L
1034.679 443.594 L
S
GR
GS
[0.75 0 0 0.75 0 -0.25] CT
0 0 1 RC
1 LJ
0.667 LW
N
1033.232 450.491 M
1034.651 443.091 L
S
GR
GS
[0.75 0 0 0.75 0 -0.25] CT
0 0 1 RC
1 LJ
10.667 LW
N
1008.876 456.5 M
1011.135 462.368 L
1014.783 467.49 L
1019.591 471.544 L
1025.255 474.276 L
1031.42 475.512 L
1037.7 475.177 L
1043.698 473.29 L
1049.039 469.971 L
1053.387 465.428 L
1056.469 459.946 L
1058.09 453.87 L
1058.149 447.582 L
1056.643 441.477 L
1053.666 435.938 L
1049.405 431.314 L
1044.127 427.894 L
1038.166 425.895 L
1031.894 425.44 L
1025.706 426.56 L
1019.991 429.184 L
1015.108 433.146 L
1011.364 438.198 L
1008.994 444.023 L
1008.147 450.254 L
1008.876 456.5 L
S
GR
GS
[0.75 0 0 0.75 822.28757 242.8863] CT
0 0 1 RC
10.0 ML
0.667 LW
N
0 -4 M
0 4 L
-4 0 M
4 0 L
-2.828 -2.828 M
2.828 2.828 L
-2.828 2.828 M
2.828 -2.828 L
S
GR
GS
[0.75 0 0 0.75 0 -0.25] CT
0 0 1 RC
1 LJ
0.667 LW
N
1097.59 317.238 M
1097.802 316.782 L
1097.83 317.284 L
S
GR
GS
[0.75 0 0 0.75 0 -0.25] CT
0 0 1 RC
1 LJ
0.667 LW
N
1096.383 324.182 M
1097.802 316.782 L
S
GR
GS
[0.75 0 0 0.75 0 -0.25] CT
0 0 1 RC
1 LJ
10.667 LW
N
1071.897 329.637 M
1074.024 335.555 L
1077.554 340.759 L
1082.269 344.921 L
1087.87 347.779 L
1094.005 349.155 L
1100.291 348.962 L
1106.331 347.212 L
1111.745 344.014 L
1116.195 339.571 L
1119.4 334.161 L
1121.158 328.123 L
1121.36 321.838 L
1119.992 315.7 L
1117.141 310.095 L
1112.986 305.376 L
1107.788 301.837 L
1101.873 299.703 L
1095.613 299.107 L
1089.401 300.087 L
1083.628 302.58 L
1078.657 306.431 L
1074.799 311.397 L
1072.298 317.166 L
1071.31 323.377 L
1071.897 329.637 L
S
GR
GS
[0.75 0 0 0.75 869.65329 290.25681] CT
0 0 1 RC
10.0 ML
0.667 LW
N
0 -4 M
0 4 L
-4 0 M
4 0 L
-2.828 -2.828 M
2.828 2.828 L
-2.828 2.828 M
2.828 -2.828 L
S
GR
GS
[0.75 0 0 0.75 0 -0.25] CT
0 0 1 RC
1 LJ
0.667 LW
N
1160.745 380.399 M
1160.957 379.942 L
1160.985 380.445 L
S
GR
GS
[0.75 0 0 0.75 0 -0.25] CT
0 0 1 RC
1 LJ
0.667 LW
N
1159.538 387.342 M
1160.957 379.942 L
S
GR
GS
[0.75 0 0 0.75 0 -0.25] CT
0 0 1 RC
1 LJ
10.667 LW
N
1135.122 393.103 M
1134.456 386.85 L
1135.367 380.628 L
1137.796 374.828 L
1141.591 369.814 L
1146.514 365.901 L
1152.256 363.336 L
1158.455 362.279 L
1164.721 362.798 L
1170.663 364.858 L
1175.905 368.331 L
1180.119 372.999 L
1183.039 378.567 L
1184.483 384.688 L
1184.36 390.975 L
1182.677 397.034 L
1179.54 402.484 L
1175.146 406.982 L
1169.771 410.247 L
1163.754 412.072 L
1157.471 412.343 L
1151.319 411.044 L
1145.682 408.255 L
1140.917 404.153 L
1137.321 398.994 L
1135.122 393.103 L
S
GR
GS
[0.75 0 0 0.75 829.95309 227.55289] CT
0 0 1 RC
10.0 ML
0.667 LW
N
0 -4 M
0 4 L
-4 0 M
4 0 L
-2.828 -2.828 M
2.828 2.828 L
-2.828 2.828 M
2.828 -2.828 L
S
GR
GS
[0.75 0 0 0.75 0 -0.25] CT
0 0 1 RC
1 LJ
0.667 LW
N
1107.811 296.794 M
1108.023 296.337 L
1108.051 296.84 L
S
GR
GS
[0.75 0 0 0.75 0 -0.25] CT
0 0 1 RC
1 LJ
0.667 LW
N
1106.604 303.737 M
1108.023 296.337 L
S
GR
GS
[0.75 0 0 0.75 0 -0.25] CT
0 0 1 RC
1 LJ
10.667 LW
N
1082.234 309.691 M
1081.519 303.443 L
1082.381 297.214 L
1084.764 291.395 L
1088.52 286.351 L
1093.411 282.4 L
1099.132 279.789 L
1105.323 278.683 L
1111.594 279.152 L
1117.551 281.165 L
1122.821 284.597 L
1127.071 289.231 L
1130.036 294.776 L
1131.528 300.885 L
1131.454 307.173 L
1129.819 313.245 L
1126.725 318.72 L
1122.367 323.253 L
1117.019 326.56 L
1111.016 328.433 L
1104.735 328.754 L
1098.573 327.503 L
1092.915 324.759 L
1088.117 320.694 L
1084.48 315.564 L
1082.234 309.691 L
S
GR
GS
[0.75 0 0 0.75 877.32037 274.92065] CT
0 0 1 RC
10.0 ML
0.667 LW
N
0 -4 M
0 4 L
-4 0 M
4 0 L
-2.828 -2.828 M
2.828 2.828 L
-2.828 2.828 M
2.828 -2.828 L
S
GR
GS
[0.75 0 0 0.75 0 -0.25] CT
0 0 1 RC
1 LJ
0.667 LW
N
1170.968 359.951 M
1171.18 359.494 L
1171.207 359.997 L
S
GR
GS
[0.75 0 0 0.75 0 -0.25] CT
0 0 1 RC
1 LJ
0.667 LW
N
1169.76 366.894 M
1171.18 359.494 L
S
GR
GS
[0.75 0 0 0.75 0 -0.25] CT
0 0 1 RC
1 LJ
9.333 LW
N
1145.436 373.03 M
1147.726 378.886 L
1151.401 383.989 L
1156.229 388.018 L
1161.907 390.72 L
1168.079 391.924 L
1174.356 391.556 L
1180.345 389.638 L
1185.669 386.291 L
1189.993 381.726 L
1193.046 376.228 L
1194.635 370.144 L
1194.662 363.856 L
1193.124 357.759 L
1190.118 352.235 L
1185.833 347.633 L
1180.538 344.241 L
1174.566 342.272 L
1168.292 341.851 L
1162.11 343.003 L
1156.409 345.656 L
1151.547 349.644 L
1147.829 354.715 L
1145.489 360.552 L
1144.674 366.787 L
1145.436 373.03 L
S
GR
GS
[0.75 0 0 0.75 932.35272 329.95373] CT
0 0 1 RC
10.0 ML
0.667 LW
N
0 -4 M
0 4 L
-4 0 M
4 0 L
-2.828 -2.828 M
2.828 2.828 L
-2.828 2.828 M
2.828 -2.828 L
S
GR
GS
[0.75 0 0 0.75 0 -0.25] CT
0 0 1 RC
1 LJ
0.667 LW
N
1244.344 433.328 M
1244.556 432.872 L
1244.584 433.374 L
S
GR
GS
[0.75 0 0 0.75 0 -0.25] CT
0 0 1 RC
1 LJ
0.667 LW
N
1243.137 440.272 M
1244.556 432.872 L
S
GR
GS
[0.75 0 0 0.75 0 -0.25] CT
0 0 1 RC
1 LJ
0.667 LW
N
1218.871 446.635 M
1221.216 452.47 L
1224.938 457.538 L
1229.804 461.522 L
1235.508 464.17 L
1241.69 465.316 L
1247.964 464.889 L
1253.935 462.915 L
1259.227 459.519 L
1263.508 454.913 L
1266.509 449.387 L
1268.041 443.288 L
1268.009 437 L
1266.414 430.917 L
1263.356 425.422 L
1259.028 420.86 L
1253.701 417.518 L
1247.711 415.606 L
1241.433 415.243 L
1235.262 416.453 L
1229.586 419.16 L
1224.762 423.193 L
1221.092 428.299 L
1218.807 434.158 L
1218.051 440.401 L
1218.871 446.635 L
S
GR
GS
[0.75 0 0 0.75 884.9848 282.58807] CT
0 0 1 RC
10.0 ML
0.667 LW
N
0 -4 M
0 4 L
-4 0 M
4 0 L
-2.828 -2.828 M
2.828 2.828 L
-2.828 2.828 M
2.828 -2.828 L
S
GR
GS
[0.75 0 0 0.75 0 -0.25] CT
0 0 1 RC
1 LJ
0.667 LW
N
1181.187 370.174 M
1181.399 369.717 L
1181.427 370.22 L
S
GR
GS
[0.75 0 0 0.75 0 -0.25] CT
0 0 1 RC
1 LJ
0.667 LW
N
1179.98 377.117 M
1181.399 369.717 L
S
GR
GS
[0.75 0 0 0.75 0 -0.25] CT
0 0 1 RC
1 LJ
10.667 LW
N
1155.615 383.092 M
1157.867 388.964 L
1161.507 394.091 L
1166.309 398.152 L
1171.969 400.891 L
1178.133 402.136 L
1184.413 401.809 L
1190.414 399.931 L
1195.76 396.619 L
1200.114 392.082 L
1203.203 386.605 L
1204.833 380.531 L
1204.901 374.243 L
1203.403 368.136 L
1200.434 362.593 L
1196.179 357.963 L
1190.907 354.536 L
1184.948 352.528 L
1178.676 352.065 L
1172.487 353.176 L
1166.768 355.792 L
1161.88 359.747 L
1158.129 364.794 L
1155.751 370.615 L
1154.895 376.845 L
1155.615 383.092 L
S
GR
GS
[0.75 0 0 0.75 941.25604 338.85835] CT
0 0 1 RC
10.0 ML
0.667 LW
N
0 -4 M
0 4 L
-4 0 M
4 0 L
-2.828 -2.828 M
2.828 2.828 L
-2.828 2.828 M
2.828 -2.828 L
S
GR
GS
[0.75 0 0 0.75 0 -0.25] CT
0 0 1 RC
1 LJ
0.667 LW
N
1256.215 445.201 M
1256.427 444.744 L
1256.455 445.247 L
S
GR
GS
[0.75 0 0 0.75 0 -0.25] CT
0 0 1 RC
1 LJ
0.667 LW
N
1255.008 452.144 M
1256.427 444.744 L
S
GR
GS
[0.75 0 0 0.75 0 -0.25] CT
0 0 1 RC
1 LJ
10.667 LW
N
1230.65 458.146 M
1229.923 451.9 L
1230.772 445.669 L
1233.144 439.845 L
1236.889 434.794 L
1241.773 430.833 L
1247.489 428.211 L
1253.677 427.093 L
1259.949 427.549 L
1265.91 429.551 L
1271.187 432.972 L
1275.446 437.598 L
1278.422 443.138 L
1279.926 449.243 L
1279.865 455.531 L
1278.242 461.607 L
1275.158 467.087 L
1270.809 471.629 L
1265.467 474.947 L
1259.468 476.831 L
1253.188 477.165 L
1247.023 475.926 L
1241.36 473.193 L
1236.554 469.138 L
1232.908 464.015 L
1230.65 458.146 L
S
GR
GS
[0.75 0 0 0.75 933.58978 331.19134] CT
0 0 1 RC
10.0 ML
0.667 LW
N
0 -4 M
0 4 L
-4 0 M
4 0 L
-2.828 -2.828 M
2.828 2.828 L
-2.828 2.828 M
2.828 -2.828 L
S
GR
GS
[0.75 0 0 0.75 0 -0.25] CT
0 0 1 RC
1 LJ
0.667 LW
N
1245.993 434.978 M
1246.205 434.522 L
1246.233 435.024 L
S
GR
GS
[0.75 0 0 0.75 0 -0.25] CT
0 0 1 RC
1 LJ
0.667 LW
N
1244.786 441.922 M
1246.205 434.522 L
S
GR
GS
[0.75 0 0 0.75 0 -0.25] CT
0 0 1 RC
1 LJ
10.667 LW
N
1220.491 448.171 M
1219.7 441.933 L
1220.485 435.694 L
1222.798 429.846 L
1226.492 424.757 L
1231.335 420.747 L
1237.024 418.067 L
1243.2 416.886 L
1249.476 417.278 L
1255.458 419.218 L
1260.768 422.585 L
1265.075 427.167 L
1268.107 432.677 L
1269.673 438.767 L
1269.676 445.055 L
1268.115 451.146 L
1265.088 456.658 L
1260.786 461.244 L
1255.478 464.616 L
1249.498 466.562 L
1243.222 466.959 L
1237.045 465.784 L
1231.354 463.109 L
1226.507 459.103 L
1222.808 454.017 L
1220.491 448.171 L
S
GR
GS
[0.75 0 0 0.75 907.20374 297.91908] CT
0 0 1 RC
10.0 ML
0.667 LW
N
0 -4 M
0 4 L
-4 0 M
4 0 L
-2.828 -2.828 M
2.828 2.828 L
-2.828 2.828 M
2.828 -2.828 L
S
GR
GS
[0.75 0 0 0.75 0 -0.25] CT
0 0 1 RC
1 LJ
0.667 LW
N
1210.813 390.616 M
1211.025 390.159 L
1211.053 390.662 L
S
GR
GS
[0.75 0 0 0.75 0 -0.25] CT
0 0 1 RC
1 LJ
0.667 LW
N
1209.605 397.559 M
1211.025 390.159 L
S
GR
GS
[0.75 0 0 0.75 0 -0.25] CT
0 0 1 RC
1 LJ
10.667 LW
N
1184.876 401.78 M
1186.703 407.797 L
1189.968 413.171 L
1194.468 417.564 L
1199.918 420.7 L
1205.978 422.382 L
1212.265 422.504 L
1218.385 421.059 L
1223.953 418.137 L
1228.62 413.922 L
1232.092 408.679 L
1234.151 402.738 L
1234.668 396.471 L
1233.61 390.272 L
1231.044 384.531 L
1227.13 379.609 L
1222.116 375.814 L
1216.315 373.386 L
1210.093 372.477 L
1203.84 373.144 L
1197.949 375.345 L
1192.791 378.941 L
1188.689 383.707 L
1185.902 389.344 L
1184.603 395.497 L
1184.876 401.78 L
S
GR
GS
[0.75 0 0 0.75 0 -0.25] CT
1 GC
N
/f155623792{1451 326 M
1451 83 L
1173 83 L
1173 326 L
cp}def
f155623792
f
GR
GS
[0.75 0 0 0.75 915 85.99999] CT
/Helvetica-Bold 48 F
GS
[1 0 0 1 0 0] CT
0 19 moveto 
1 -1 scale
(LandMark) t 
GR
GR
GS
[0.75 0 0 0.75 897.75 86] CT
1 0 0 RC
N
f-1996900118
f
GR
GS
[0.75 0 0 0.75 897.75 86] CT
0 0 1 RC
10.0 ML
0.667 LW
N
0 -26.66 M
-23.088 13.33 L
23.088 13.33 L
cp
S
GR
GS
[0.75 0 0 0.75 915 156.5] CT
/Helvetica-Bold 48 F
GS
[1 0 0 1 0 0] CT
0 0 moveto 
1 -1 scale
(b) t 
GR
GR
GS
[0.75 0 0 0.75 937.5 138.5] CT
/Helvetica-Bold 38.4 F
GS
[1 0 0 1 0 0] CT
0 0 moveto 
1 -1 scale
(-) t 
GR
GR
GS
[0.75 0 0 0.75 947.25 156.5] CT
/Helvetica-Bold 48 F
GS
[1 0 0 1 0 0] CT
0 0 moveto 
1 -1 scale
([X) t 
GR
GR
GS
[0.75 0 0 0.75 983.25 174.5] CT
/Helvetica-Bold 38.4 F
GS
[1 0 0 1 0 0] CT
0 0 moveto 
1 -1 scale
(k) t 
GR
GR
GS
[0.75 0 0 0.75 999.75 156.5] CT
/Helvetica-Bold 48 F
GS
[1 0 0 1 0 0] CT
0 0 moveto 
1 -1 scale
(]) t 
GR
GR
GS
[0.75 0 0 0.75 0 -0.25] CT
0 1 1 RC
1 LJ
10.667 LW
N
1177 193.5 M
1217 193.5 L
S
GR
GS
[0.75 0 0 0.75 915 218] CT
/Helvetica-Bold 48 F
GS
[1 0 0 1 0 0] CT
0 0 moveto 
1 -1 scale
(b[X) t 
GR
GR
GS
[0.75 0 0 0.75 973.5 236] CT
/Helvetica-Bold 38.4 F
GS
[1 0 0 1 0 0] CT
0 0 moveto 
1 -1 scale
(k) t 
GR
GR
GS
[0.75 0 0 0.75 990 218] CT
/Helvetica-Bold 48 F
GS
[1 0 0 1 0 0] CT
0 0 moveto 
1 -1 scale
(]) t 
GR
GR
GS
[0.75 0 0 0.75 0 -0.25] CT
0 0 1 RC
1 LJ
10.667 LW
N
1177 283 M
1217 283 L
S
GR
GS
[0.75 0 0 0.75 0 -0.25] CT
0.149 GC
10.0 ML
0.667 LW
N
1173 326 M
1173 83 L
1451 83 L
1451 326 L
cp
S
GR
%%Trailer
%%Pages: 1
%%EOF
