\relax 
\providecommand\hyper@newdestlabel[2]{}
\providecommand\HyperFirstAtBeginDocument{\AtBeginDocument}
\HyperFirstAtBeginDocument{\ifx\hyper@anchor\@undefined
\global\let\oldcontentsline\contentsline
\gdef\contentsline#1#2#3#4{\oldcontentsline{#1}{#2}{#3}}
\global\let\oldnewlabel\newlabel
\gdef\newlabel#1#2{\newlabelxx{#1}#2}
\gdef\newlabelxx#1#2#3#4#5#6{\oldnewlabel{#1}{{#2}{#3}}}
\AtEndDocument{\ifx\hyper@anchor\@undefined
\let\contentsline\oldcontentsline
\let\newlabel\oldnewlabel
\fi}
\fi}
\global\let\hyper@last\relax 
\gdef\HyperFirstAtBeginDocument#1{#1}
\providecommand\HyField@AuxAddToFields[1]{}
\providecommand\HyField@AuxAddToCoFields[2]{}
\bibstyle{IEEEtran}
\bibdata{../../../../References/refs}
\babel@aux{english}{}
\@writefile{toc}{\contentsline {section}{\numberline {I}Introduction}{1}{section.1}}
\newlabel{sec:introduction}{{I}{1}{Introduction}{section.1}{}}
\@writefile{toc}{\contentsline {section}{\numberline {II}Notations and Problem Formulation}{1}{section.2}}
\newlabel{sec:preliminaries}{{II}{1}{Notations and Problem Formulation}{section.2}{}}
\@writefile{toc}{\contentsline {section}{\numberline {III}Approach}{1}{section.3}}
\newlabel{sec:approach}{{III}{1}{Approach}{section.3}{}}
\@writefile{toc}{\contentsline {section}{\numberline {IV}Experiments}{1}{section.4}}
\newlabel{sec:experiments}{{IV}{1}{Experiments}{section.4}{}}
\@writefile{toc}{\contentsline {section}{\numberline {V}Conclusions}{1}{section.5}}
\newlabel{sec:conclusions}{{V}{1}{Conclusions}{section.5}{}}
\@writefile{toc}{\contentsline {section}{References}{1}{section*.1}}
