%!PS-Adobe-3.0 EPSF-3.0
%%Creator: (MATLAB, The Mathworks, Inc. Version 9.10.0.1649659 \(R2021a\) Update 1. Operating System: Windows 10)
%%Title: (C:/Users/ohads/ANPL/papers/research/2022 ICRA/Figures/TestCase_1/fig_files/Robots_estimation_k_0.eps)
%%CreationDate: 2021-07-29T16:43:25
%%Pages: (atend)
%%BoundingBox:   295     9  1122   669
%%LanguageLevel: 3
%%EndComments
%%BeginProlog
%%BeginResource: procset (Apache XML Graphics Std ProcSet) 1.2 0
%%Version: 1.2 0
%%Copyright: (Copyright 2001-2003,2010 The Apache Software Foundation. License terms: http://www.apache.org/licenses/LICENSE-2.0)
/bd{bind def}bind def
/ld{load def}bd
/GR/grestore ld
/GS/gsave ld
/RM/rmoveto ld
/C/curveto ld
/t/show ld
/L/lineto ld
/ML/setmiterlimit ld
/CT/concat ld
/f/fill ld
/N/newpath ld
/S/stroke ld
/CC/setcmykcolor ld
/A/ashow ld
/cp/closepath ld
/RC/setrgbcolor ld
/LJ/setlinejoin ld
/GC/setgray ld
/LW/setlinewidth ld
/M/moveto ld
/re {4 2 roll M
1 index 0 rlineto
0 exch rlineto
neg 0 rlineto
cp } bd
/_ctm matrix def
/_tm matrix def
/BT { _ctm currentmatrix pop matrix _tm copy pop 0 0 moveto } bd
/ET { _ctm setmatrix } bd
/iTm { _ctm setmatrix _tm concat } bd
/Tm { _tm astore pop iTm 0 0 moveto } bd
/ux 0.0 def
/uy 0.0 def
/F {
  /Tp exch def
  /Tf exch def
  Tf findfont Tp scalefont setfont
  /cf Tf def  /cs Tp def
} bd
/ULS {currentpoint /uy exch def /ux exch def} bd
/ULE {
  /Tcx currentpoint pop def
  gsave
  newpath
  cf findfont cs scalefont dup
  /FontMatrix get 0 get /Ts exch def /FontInfo get dup
  /UnderlinePosition get Ts mul /To exch def
  /UnderlineThickness get Ts mul /Tt exch def
  ux uy To add moveto  Tcx uy To add lineto
  Tt setlinewidth stroke
  grestore
} bd
/OLE {
  /Tcx currentpoint pop def
  gsave
  newpath
  cf findfont cs scalefont dup
  /FontMatrix get 0 get /Ts exch def /FontInfo get dup
  /UnderlinePosition get Ts mul /To exch def
  /UnderlineThickness get Ts mul /Tt exch def
  ux uy To add cs add moveto Tcx uy To add cs add lineto
  Tt setlinewidth stroke
  grestore
} bd
/SOE {
  /Tcx currentpoint pop def
  gsave
  newpath
  cf findfont cs scalefont dup
  /FontMatrix get 0 get /Ts exch def /FontInfo get dup
  /UnderlinePosition get Ts mul /To exch def
  /UnderlineThickness get Ts mul /Tt exch def
  ux uy To add cs 10 mul 26 idiv add moveto Tcx uy To add cs 10 mul 26 idiv add lineto
  Tt setlinewidth stroke
  grestore
} bd
/QT {
/Y22 exch store
/X22 exch store
/Y21 exch store
/X21 exch store
currentpoint
/Y21 load 2 mul add 3 div exch
/X21 load 2 mul add 3 div exch
/X21 load 2 mul /X22 load add 3 div
/Y21 load 2 mul /Y22 load add 3 div
/X22 load /Y22 load curveto
} bd
/SSPD {
dup length /d exch dict def
{
/v exch def
/k exch def
currentpagedevice k known {
/cpdv currentpagedevice k get def
v cpdv ne {
/upd false def
/nullv v type /nulltype eq def
/nullcpdv cpdv type /nulltype eq def
nullv nullcpdv or
{
/upd true def
} {
/sametype v type cpdv type eq def
sametype {
v type /arraytype eq {
/vlen v length def
/cpdvlen cpdv length def
vlen cpdvlen eq {
0 1 vlen 1 sub {
/i exch def
/obj v i get def
/cpdobj cpdv i get def
obj cpdobj ne {
/upd true def
exit
} if
} for
} {
/upd true def
} ifelse
} {
v type /dicttype eq {
v {
/dv exch def
/dk exch def
/cpddv cpdv dk get def
dv cpddv ne {
/upd true def
exit
} if
} forall
} {
/upd true def
} ifelse
} ifelse
} if
} ifelse
upd true eq {
d k v put
} if
} if
} if
} forall
d length 0 gt {
d setpagedevice
} if
} bd
/RE { % /NewFontName [NewEncodingArray] /FontName RE -
  findfont dup length dict begin
  {
    1 index /FID ne
    {def} {pop pop} ifelse
  } forall
  /Encoding exch def
  /FontName 1 index def
  currentdict definefont pop
  end
} bind def
%%EndResource
%%BeginResource: procset (Apache XML Graphics EPS ProcSet) 1.0 0
%%Version: 1.0 0
%%Copyright: (Copyright 2002-2003 The Apache Software Foundation. License terms: http://www.apache.org/licenses/LICENSE-2.0)
/BeginEPSF { %def
/b4_Inc_state save def         % Save state for cleanup
/dict_count countdictstack def % Count objects on dict stack
/op_count count 1 sub def      % Count objects on operand stack
userdict begin                 % Push userdict on dict stack
/showpage { } def              % Redefine showpage, { } = null proc
0 setgray 0 setlinecap         % Prepare graphics state
1 setlinewidth 0 setlinejoin
10 setmiterlimit [ ] 0 setdash newpath
/languagelevel where           % If level not equal to 1 then
{pop languagelevel             % set strokeadjust and
1 ne                           % overprint to their defaults.
{false setstrokeadjust false setoverprint
} if
} if
} bd
/EndEPSF { %def
count op_count sub {pop} repeat            % Clean up stacks
countdictstack dict_count sub {end} repeat
b4_Inc_state restore
} bd
%%EndResource
%FOPBeginFontDict
%%IncludeResource: font Courier-Oblique
%%IncludeResource: font Courier-BoldOblique
%%IncludeResource: font Courier-Bold
%%IncludeResource: font ZapfDingbats
%%IncludeResource: font Symbol
%%IncludeResource: font Helvetica
%%IncludeResource: font Helvetica-Oblique
%%IncludeResource: font Helvetica-Bold
%%IncludeResource: font Helvetica-BoldOblique
%%IncludeResource: font Times-Roman
%%IncludeResource: font Times-Italic
%%IncludeResource: font Times-Bold
%%IncludeResource: font Times-BoldItalic
%%IncludeResource: font Courier
%FOPEndFontDict
%%BeginResource: encoding WinAnsiEncoding
/WinAnsiEncoding [
/.notdef /.notdef /.notdef /.notdef /.notdef
/.notdef /.notdef /.notdef /.notdef /.notdef
/.notdef /.notdef /.notdef /.notdef /.notdef
/.notdef /.notdef /.notdef /.notdef /.notdef
/.notdef /.notdef /.notdef /.notdef /.notdef
/.notdef /.notdef /.notdef /.notdef /.notdef
/.notdef /.notdef /space /exclam /quotedbl
/numbersign /dollar /percent /ampersand /quotesingle
/parenleft /parenright /asterisk /plus /comma
/hyphen /period /slash /zero /one
/two /three /four /five /six
/seven /eight /nine /colon /semicolon
/less /equal /greater /question /at
/A /B /C /D /E
/F /G /H /I /J
/K /L /M /N /O
/P /Q /R /S /T
/U /V /W /X /Y
/Z /bracketleft /backslash /bracketright /asciicircum
/underscore /quoteleft /a /b /c
/d /e /f /g /h
/i /j /k /l /m
/n /o /p /q /r
/s /t /u /v /w
/x /y /z /braceleft /bar
/braceright /asciitilde /bullet /Euro /bullet
/quotesinglbase /florin /quotedblbase /ellipsis /dagger
/daggerdbl /circumflex /perthousand /Scaron /guilsinglleft
/OE /bullet /Zcaron /bullet /bullet
/quoteleft /quoteright /quotedblleft /quotedblright /bullet
/endash /emdash /asciitilde /trademark /scaron
/guilsinglright /oe /bullet /zcaron /Ydieresis
/space /exclamdown /cent /sterling /currency
/yen /brokenbar /section /dieresis /copyright
/ordfeminine /guillemotleft /logicalnot /sfthyphen /registered
/macron /degree /plusminus /twosuperior /threesuperior
/acute /mu /paragraph /middot /cedilla
/onesuperior /ordmasculine /guillemotright /onequarter /onehalf
/threequarters /questiondown /Agrave /Aacute /Acircumflex
/Atilde /Adieresis /Aring /AE /Ccedilla
/Egrave /Eacute /Ecircumflex /Edieresis /Igrave
/Iacute /Icircumflex /Idieresis /Eth /Ntilde
/Ograve /Oacute /Ocircumflex /Otilde /Odieresis
/multiply /Oslash /Ugrave /Uacute /Ucircumflex
/Udieresis /Yacute /Thorn /germandbls /agrave
/aacute /acircumflex /atilde /adieresis /aring
/ae /ccedilla /egrave /eacute /ecircumflex
/edieresis /igrave /iacute /icircumflex /idieresis
/eth /ntilde /ograve /oacute /ocircumflex
/otilde /odieresis /divide /oslash /ugrave
/uacute /ucircumflex /udieresis /yacute /thorn
/ydieresis
] def
%%EndResource
%FOPBeginFontReencode
/Courier-Oblique findfont
dup length dict begin
  {1 index /FID ne {def} {pop pop} ifelse} forall
  /Encoding WinAnsiEncoding def
  currentdict
end
/Courier-Oblique exch definefont pop
/Courier-BoldOblique findfont
dup length dict begin
  {1 index /FID ne {def} {pop pop} ifelse} forall
  /Encoding WinAnsiEncoding def
  currentdict
end
/Courier-BoldOblique exch definefont pop
/Courier-Bold findfont
dup length dict begin
  {1 index /FID ne {def} {pop pop} ifelse} forall
  /Encoding WinAnsiEncoding def
  currentdict
end
/Courier-Bold exch definefont pop
/Helvetica findfont
dup length dict begin
  {1 index /FID ne {def} {pop pop} ifelse} forall
  /Encoding WinAnsiEncoding def
  currentdict
end
/Helvetica exch definefont pop
/Helvetica-Oblique findfont
dup length dict begin
  {1 index /FID ne {def} {pop pop} ifelse} forall
  /Encoding WinAnsiEncoding def
  currentdict
end
/Helvetica-Oblique exch definefont pop
/Helvetica-Bold findfont
dup length dict begin
  {1 index /FID ne {def} {pop pop} ifelse} forall
  /Encoding WinAnsiEncoding def
  currentdict
end
/Helvetica-Bold exch definefont pop
/Helvetica-BoldOblique findfont
dup length dict begin
  {1 index /FID ne {def} {pop pop} ifelse} forall
  /Encoding WinAnsiEncoding def
  currentdict
end
/Helvetica-BoldOblique exch definefont pop
/Times-Roman findfont
dup length dict begin
  {1 index /FID ne {def} {pop pop} ifelse} forall
  /Encoding WinAnsiEncoding def
  currentdict
end
/Times-Roman exch definefont pop
/Times-Italic findfont
dup length dict begin
  {1 index /FID ne {def} {pop pop} ifelse} forall
  /Encoding WinAnsiEncoding def
  currentdict
end
/Times-Italic exch definefont pop
/Times-Bold findfont
dup length dict begin
  {1 index /FID ne {def} {pop pop} ifelse} forall
  /Encoding WinAnsiEncoding def
  currentdict
end
/Times-Bold exch definefont pop
/Times-BoldItalic findfont
dup length dict begin
  {1 index /FID ne {def} {pop pop} ifelse} forall
  /Encoding WinAnsiEncoding def
  currentdict
end
/Times-BoldItalic exch definefont pop
/Courier findfont
dup length dict begin
  {1 index /FID ne {def} {pop pop} ifelse} forall
  /Encoding WinAnsiEncoding def
  currentdict
end
/Courier exch definefont pop
%FOPEndFontReencode
%%EndProlog
%%Page: 1 1
%%PageBoundingBox: 0 0 1440 722
%%BeginPageSetup
[1 0 0 -1 0 722] CT
%%EndPageSetup
GS
[0.75 0 0 0.75 0 -0.25] CT
1 GC
N
0 0 1920 963 re
f
GR
GS
[0.75 0 0 0.75 0 -0.25] CT
1 GC
N
0 0 1920 963 re
f
GR
GS
[0.75 0 0 0.75 0 -0.25] CT
1 GC
N
526.147 810 M
1461.853 810 L
1461.853 72 L
526.147 72 L
cp
f
GR
GS
[0.75 0 0 0.75 0 -0.25] CT
0.149 GC
2 setlinecap
1 LJ
0.667 LW
N
526.147 810 M
1461.853 810 L
S
GR
GS
[0.75 0 0 0.75 0 -0.25] CT
0.149 GC
2 setlinecap
1 LJ
0.667 LW
N
526.147 810 M
526.147 800.643 L
S
GR
GS
[0.75 0 0 0.75 0 -0.25] CT
0.149 GC
2 setlinecap
1 LJ
0.667 LW
N
760.074 810 M
760.074 800.643 L
S
GR
GS
[0.75 0 0 0.75 0 -0.25] CT
0.149 GC
2 setlinecap
1 LJ
0.667 LW
N
994 810 M
994 800.643 L
S
GR
GS
[0.75 0 0 0.75 0 -0.25] CT
0.149 GC
2 setlinecap
1 LJ
0.667 LW
N
1227.926 810 M
1227.926 800.643 L
S
GR
GS
[0.75 0 0 0.75 0 -0.25] CT
0.149 GC
2 setlinecap
1 LJ
0.667 LW
N
1461.853 810 M
1461.853 800.643 L
S
GR
GS
[0.75 0 0 0.75 394.61041 617.24998] CT
0.149 GC
/Helvetica 53.333 F
GS
[1 0 0 1 0 0] CT
-24 54 moveto 
1 -1 scale
(-5) t 
GR
GR
GS
[0.75 0 0 0.75 570.05521 617.24998] CT
0.149 GC
/Helvetica 53.333 F
GS
[1 0 0 1 0 0] CT
-15 54 moveto 
1 -1 scale
(0) t 
GR
GR
GS
[0.75 0 0 0.75 745.5 617.24998] CT
0.149 GC
/Helvetica 53.333 F
GS
[1 0 0 1 0 0] CT
-15 54 moveto 
1 -1 scale
(5) t 
GR
GR
GS
[0.75 0 0 0.75 920.94479 617.24998] CT
0.149 GC
/Helvetica 53.333 F
GS
[1 0 0 1 0 0] CT
-30 54 moveto 
1 -1 scale
(10) t 
GR
GR
GS
[0.75 0 0 0.75 1096.38959 617.24998] CT
0.149 GC
/Helvetica 53.333 F
GS
[1 0 0 1 0 0] CT
-30 54 moveto 
1 -1 scale
(15) t 
GR
GR
GS
[0.75 0 0 0.75 745.50032 667.75002] CT
0.149 GC
/Helvetica 58.667 F
GS
[1 0 0 1 0 0] CT
-34.5 59 moveto 
1 -1 scale
(Xs) t 
GR
GR
GS
[0.75 0 0 0.75 0 -0.25] CT
0.149 GC
2 setlinecap
1 LJ
0.667 LW
N
526.147 810 M
526.147 72 L
S
GR
GS
[0.75 0 0 0.75 0 -0.25] CT
0.149 GC
2 setlinecap
1 LJ
0.667 LW
N
526.147 648.901 M
535.504 648.901 L
S
GR
GS
[0.75 0 0 0.75 0 -0.25] CT
0.149 GC
2 setlinecap
1 LJ
0.667 LW
N
526.147 414.975 M
535.504 414.975 L
S
GR
GS
[0.75 0 0 0.75 0 -0.25] CT
0.149 GC
2 setlinecap
1 LJ
0.667 LW
N
526.147 181.048 M
535.504 181.048 L
S
GR
GS
[0.75 0 0 0.75 384.61043 486.42566] CT
0.149 GC
/Helvetica 53.333 F
GS
[1 0 0 1 0 0] CT
-30 21 moveto 
1 -1 scale
(0) t 
GR
GR
GS
[0.75 0 0 0.75 384.61043 310.98089] CT
0.149 GC
/Helvetica 53.333 F
GS
[1 0 0 1 0 0] CT
-30 21 moveto 
1 -1 scale
(5) t 
GR
GR
GS
[0.75 0 0 0.75 384.61043 135.53609] CT
0.149 GC
/Helvetica 53.333 F
GS
[1 0 0 1 0 0] CT
-60 21 moveto 
1 -1 scale
(10) t 
GR
GR
GS
[0 -0.75 0.75 0 336.61043 330.49973] CT
0.149 GC
/Helvetica 58.667 F
GS
[1 0 0 1 0 0] CT
-34.5 -13 moveto 
1 -1 scale
(Ys) t 
GR
GR
GS
[0.75 0 0 0.75 780.58896 451.3367] CT
1 0 0 RC
N
0 -35.547 M
-30.783 17.773 L
30.783 17.773 L
cp
f
GR
GS
[0.75 0 0 0.75 780.58896 451.3367] CT
0 0 1 RC
10.0 ML
4 LW
N
0 -35.547 M
-30.783 17.773 L
30.783 17.773 L
cp
S
GR
GS
[0.75 0 0 0.75 745.5 381.15881] CT
1 0 0 RC
N
/f-166438322{0 -35.547 M
-30.783 17.773 L
30.783 17.773 L
cp}def
f-166438322
f
GR
GS
[0.75 0 0 0.75 745.5 381.15881] CT
0 0 1 RC
10.0 ML
4 LW
N
0 -35.547 M
-30.783 17.773 L
30.783 17.773 L
cp
S
GR
GS
[0.75 0 0 0.75 920.94479 240.80297] CT
1 0 0 RC
N
f-166438322
f
GR
GS
[0.75 0 0 0.75 920.94479 240.80297] CT
0 0 1 RC
10.0 ML
4 LW
N
0 -35.547 M
-30.783 17.773 L
30.783 17.773 L
cp
S
GR
GS
[0.75 0 0 0.75 640.23312 381.15881] CT
1 0 0 RC
N
f-166438322
f
GR
GS
[0.75 0 0 0.75 640.23312 381.15881] CT
0 0 1 RC
10.0 ML
4 LW
N
0 -35.547 M
-30.783 17.773 L
30.783 17.773 L
cp
S
GR
GS
[0.75 0 0 0.75 780.58896 275.89193] CT
1 0 0 RC
N
f-166438322
f
GR
GS
[0.75 0 0 0.75 780.58896 275.89193] CT
0 0 1 RC
10.0 ML
4 LW
N
0 -35.547 M
-30.783 17.773 L
30.783 17.773 L
cp
S
GR
GS
[0.75 0 0 0.75 745.5 310.98089] CT
1 0 0 RC
N
f-166438322
f
GR
GS
[0.75 0 0 0.75 745.5 310.98089] CT
0 0 1 RC
10.0 ML
4 LW
N
0 -35.547 M
-30.783 17.773 L
30.783 17.773 L
cp
S
GR
GS
[0.75 0 0 0.75 675.32208 346.06985] CT
1 0 0 RC
N
f-166438322
f
GR
GS
[0.75 0 0 0.75 675.32208 346.06985] CT
0 0 1 RC
10.0 ML
4 LW
N
0 -35.547 M
-30.783 17.773 L
30.783 17.773 L
cp
S
GR
GS
[0.75 0 0 0.75 815.67792 451.3367] CT
1 0 0 RC
N
f-166438322
f
GR
GS
[0.75 0 0 0.75 815.67792 451.3367] CT
0 0 1 RC
10.0 ML
4 LW
N
0 -35.547 M
-30.783 17.773 L
30.783 17.773 L
cp
S
GR
GS
[0.75 0 0 0.75 596.37195 381.15881] CT
1 0 0 RC
10.0 ML
0.667 LW
N
0 -5 M
0 5 L
-5 0 M
5 0 L
S
GR
GS
[0.75 0 0 0.75 596.37195 381.15881] CT
0 0 1 RC
10.0 ML
0.667 LW
N
0 -4 M
0 4 L
-4 0 M
4 0 L
-2.828 -2.828 M
2.828 2.828 L
-2.828 2.828 M
2.828 -2.828 L
S
GR
GS
[0.75 0 0 0.75 0 -0.25] CT
0 0 1 RC
1 LJ
0.667 LW
N
799.532 508.468 M
799.841 508.545 L
799.532 508.622 L
S
GR
GS
[0.75 0 0 0.75 0 -0.25] CT
0 0 1 RC
1 LJ
0.667 LW
N
795.163 508.545 M
799.841 508.545 L
S
GR
GS
[0.75 0 0 0.75 0 -0.25] CT
0 0 1 RC
1 LJ
20 LW
N
840.084 508.545 M
838.672 487.674 L
834.527 468.113 L
827.909 451.094 L
819.233 437.684 L
809.044 428.727 L
797.983 424.785 L
786.745 426.106 L
776.036 432.607 L
766.529 443.879 L
758.821 459.215 L
753.396 477.65 L
750.596 498.026 L
750.596 519.064 L
753.396 539.44 L
758.821 557.875 L
766.529 573.211 L
776.036 584.483 L
786.745 590.984 L
797.983 592.305 L
809.044 588.363 L
819.233 579.406 L
827.909 565.996 L
834.527 548.977 L
838.672 529.417 L
840.084 508.545 L
S
GR
GS
[0.75 0 0 0.75 0 -0.25] CT
0.718 0.275 1 RC
1 LJ
13.333 LW
N
795.163 508.545 M
918.983 492.191 L
1014.721 430.61 L
988.693 360.42 L
958.063 301.586 L
904.666 279.884 L
S
GR
GS
[0.75 0 0 0.75 596.37195 381.15881] CT
0 1 1 RC
N
/f1021916533{0 -7.109 M
-6.157 3.555 L
6.157 3.555 L
cp}def
f1021916533
f
GR
GS
[0.75 0 0 0.75 596.37195 381.15881] CT
0 1 0 RC
10.0 ML
0.667 LW
N
0 -7.109 M
-6.157 3.555 L
6.157 3.555 L
cp
S
GR
GS
[0.75 0 0 0.75 689.23723 368.89301] CT
0 1 1 RC
N
f1021916533
f
GR
GS
[0.75 0 0 0.75 689.23723 368.89301] CT
0 1 0 RC
10.0 ML
0.667 LW
N
0 -7.109 M
-6.157 3.555 L
6.157 3.555 L
cp
S
GR
GS
[0.75 0 0 0.75 761.04089 322.7074] CT
0 1 1 RC
N
f1021916533
f
GR
GS
[0.75 0 0 0.75 761.04089 322.7074] CT
0 1 0 RC
10.0 ML
0.667 LW
N
0 -7.109 M
-6.157 3.555 L
6.157 3.555 L
cp
S
GR
GS
[0.75 0 0 0.75 741.51984 270.06524] CT
0 1 1 RC
N
f1021916533
f
GR
GS
[0.75 0 0 0.75 741.51984 270.06524] CT
0 1 0 RC
10.0 ML
0.667 LW
N
0 -7.109 M
-6.157 3.555 L
6.157 3.555 L
cp
S
GR
GS
[0.75 0 0 0.75 718.54756 225.93934] CT
0 1 1 RC
N
f1021916533
f
GR
GS
[0.75 0 0 0.75 718.54756 225.93934] CT
0 1 0 RC
10.0 ML
0.667 LW
N
0 -7.109 M
-6.157 3.555 L
6.157 3.555 L
cp
S
GR
GS
[0.75 0 0 0.75 678.49974 209.66328] CT
0 1 1 RC
N
f1021916533
f
GR
GS
[0.75 0 0 0.75 678.49974 209.66328] CT
0 1 0 RC
10.0 ML
0.667 LW
N
0 -7.109 M
-6.157 3.555 L
6.157 3.555 L
cp
S
GR
GS
[0.75 0 0 0.75 0 -0.25] CT
1 GC
N
/f1346342596{1495 275 M
1495 72 L
1113 72 L
1113 275 L
cp}def
f1346342596
f
GR
GS
[0.75 0 0 0.75 885.40466 77.375] CT
/Helvetica-Bold 40 F
GS
[1 0 0 1 0 0] CT
0 16 moveto 
1 -1 scale
(LandMark) t 
GR
GR
GS
[0.75 0 0 0.75 868.16016 77.375] CT
1 0 0 RC
N
/f-1996900118{0 -26.66 M
-23.088 13.33 L
23.088 13.33 L
cp}def
f-1996900118
f
GR
GS
[0.75 0 0 0.75 868.16016 77.375] CT
0 0 1 RC
10.0 ML
4 LW
N
0 -26.66 M
-23.088 13.33 L
23.088 13.33 L
cp
S
GR
GS
[0.75 0 0 0.75 885.75 135.5] CT
/Helvetica-Bold 40 F
GS
[1 0 0 1 0 0] CT
0 0 moveto 
1 -1 scale
(p\(X) t 
GR
GR
GS
[0.75 0 0 0.75 934.5 150.5] CT
/Helvetica-Bold 32 F
GS
[1 0 0 1 0 0] CT
0 0 moveto 
1 -1 scale
(0) t 
GR
GR
GS
[0.75 0 0 0.75 948 135.5] CT
/Helvetica-Bold 40 F
GS
[1 0 0 1 0 0] CT
0 0 moveto 
1 -1 scale
(\)) t 
GR
GR
GS
[0.75 0 0 0.75 0 -0.25] CT
0 0 1 RC
1 LJ
20 LW
N
1137.553 173.5 M
1177.541 173.5 L
S
GR
GS
[0.75 0 0 0.75 885.40466 182.375] CT
/Helvetica-Bold 40 F
GS
[1 0 0 1 0 0] CT
0 16 moveto 
1 -1 scale
(Real Trajectory) t 
GR
GR
GS
[0.75 0 0 0.75 0 -0.25] CT
0.718 0.275 1 RC
1 LJ
13.333 LW
N
1137.553 243.5 M
1177.541 243.5 L
S
GR
GS
[0.75 0 0 0.75 0 -0.25] CT
0.149 GC
10.0 ML
0.667 LW
N
1113 275 M
1113 72 L
1495 72 L
1495 275 L
cp
S
GR
GS
[0.75 0 0 0.75 608.93999 183.46686] CT
/Helvetica-Bold 40 F
GS
[1 0 0 1 0 0] CT
0 41 moveto 
1 -1 scale
(End) t 
GR
GR
%%Trailer
%%Pages: 1
%%EOF
