%!PS-Adobe-3.0 EPSF-3.0
%%Creator: (MATLAB, The Mathworks, Inc. Version 9.10.0.1649659 \(R2021a\) Update 1. Operating System: Windows 10)
%%Title: (C:/Users/ohads/ANPL/papers/research/2022 ICRA/Figures/TestCase_1/fig_files/Robots_estimation_k_5.eps)
%%CreationDate: 2021-07-29T16:43:56
%%Pages: (atend)
%%BoundingBox:   295     9  1117   669
%%LanguageLevel: 3
%%EndComments
%%BeginProlog
%%BeginResource: procset (Apache XML Graphics Std ProcSet) 1.2 0
%%Version: 1.2 0
%%Copyright: (Copyright 2001-2003,2010 The Apache Software Foundation. License terms: http://www.apache.org/licenses/LICENSE-2.0)
/bd{bind def}bind def
/ld{load def}bd
/GR/grestore ld
/GS/gsave ld
/RM/rmoveto ld
/C/curveto ld
/t/show ld
/L/lineto ld
/ML/setmiterlimit ld
/CT/concat ld
/f/fill ld
/N/newpath ld
/S/stroke ld
/CC/setcmykcolor ld
/A/ashow ld
/cp/closepath ld
/RC/setrgbcolor ld
/LJ/setlinejoin ld
/GC/setgray ld
/LW/setlinewidth ld
/M/moveto ld
/re {4 2 roll M
1 index 0 rlineto
0 exch rlineto
neg 0 rlineto
cp } bd
/_ctm matrix def
/_tm matrix def
/BT { _ctm currentmatrix pop matrix _tm copy pop 0 0 moveto } bd
/ET { _ctm setmatrix } bd
/iTm { _ctm setmatrix _tm concat } bd
/Tm { _tm astore pop iTm 0 0 moveto } bd
/ux 0.0 def
/uy 0.0 def
/F {
  /Tp exch def
  /Tf exch def
  Tf findfont Tp scalefont setfont
  /cf Tf def  /cs Tp def
} bd
/ULS {currentpoint /uy exch def /ux exch def} bd
/ULE {
  /Tcx currentpoint pop def
  gsave
  newpath
  cf findfont cs scalefont dup
  /FontMatrix get 0 get /Ts exch def /FontInfo get dup
  /UnderlinePosition get Ts mul /To exch def
  /UnderlineThickness get Ts mul /Tt exch def
  ux uy To add moveto  Tcx uy To add lineto
  Tt setlinewidth stroke
  grestore
} bd
/OLE {
  /Tcx currentpoint pop def
  gsave
  newpath
  cf findfont cs scalefont dup
  /FontMatrix get 0 get /Ts exch def /FontInfo get dup
  /UnderlinePosition get Ts mul /To exch def
  /UnderlineThickness get Ts mul /Tt exch def
  ux uy To add cs add moveto Tcx uy To add cs add lineto
  Tt setlinewidth stroke
  grestore
} bd
/SOE {
  /Tcx currentpoint pop def
  gsave
  newpath
  cf findfont cs scalefont dup
  /FontMatrix get 0 get /Ts exch def /FontInfo get dup
  /UnderlinePosition get Ts mul /To exch def
  /UnderlineThickness get Ts mul /Tt exch def
  ux uy To add cs 10 mul 26 idiv add moveto Tcx uy To add cs 10 mul 26 idiv add lineto
  Tt setlinewidth stroke
  grestore
} bd
/QT {
/Y22 exch store
/X22 exch store
/Y21 exch store
/X21 exch store
currentpoint
/Y21 load 2 mul add 3 div exch
/X21 load 2 mul add 3 div exch
/X21 load 2 mul /X22 load add 3 div
/Y21 load 2 mul /Y22 load add 3 div
/X22 load /Y22 load curveto
} bd
/SSPD {
dup length /d exch dict def
{
/v exch def
/k exch def
currentpagedevice k known {
/cpdv currentpagedevice k get def
v cpdv ne {
/upd false def
/nullv v type /nulltype eq def
/nullcpdv cpdv type /nulltype eq def
nullv nullcpdv or
{
/upd true def
} {
/sametype v type cpdv type eq def
sametype {
v type /arraytype eq {
/vlen v length def
/cpdvlen cpdv length def
vlen cpdvlen eq {
0 1 vlen 1 sub {
/i exch def
/obj v i get def
/cpdobj cpdv i get def
obj cpdobj ne {
/upd true def
exit
} if
} for
} {
/upd true def
} ifelse
} {
v type /dicttype eq {
v {
/dv exch def
/dk exch def
/cpddv cpdv dk get def
dv cpddv ne {
/upd true def
exit
} if
} forall
} {
/upd true def
} ifelse
} ifelse
} if
} ifelse
upd true eq {
d k v put
} if
} if
} if
} forall
d length 0 gt {
d setpagedevice
} if
} bd
/RE { % /NewFontName [NewEncodingArray] /FontName RE -
  findfont dup length dict begin
  {
    1 index /FID ne
    {def} {pop pop} ifelse
  } forall
  /Encoding exch def
  /FontName 1 index def
  currentdict definefont pop
  end
} bind def
%%EndResource
%%BeginResource: procset (Apache XML Graphics EPS ProcSet) 1.0 0
%%Version: 1.0 0
%%Copyright: (Copyright 2002-2003 The Apache Software Foundation. License terms: http://www.apache.org/licenses/LICENSE-2.0)
/BeginEPSF { %def
/b4_Inc_state save def         % Save state for cleanup
/dict_count countdictstack def % Count objects on dict stack
/op_count count 1 sub def      % Count objects on operand stack
userdict begin                 % Push userdict on dict stack
/showpage { } def              % Redefine showpage, { } = null proc
0 setgray 0 setlinecap         % Prepare graphics state
1 setlinewidth 0 setlinejoin
10 setmiterlimit [ ] 0 setdash newpath
/languagelevel where           % If level not equal to 1 then
{pop languagelevel             % set strokeadjust and
1 ne                           % overprint to their defaults.
{false setstrokeadjust false setoverprint
} if
} if
} bd
/EndEPSF { %def
count op_count sub {pop} repeat            % Clean up stacks
countdictstack dict_count sub {end} repeat
b4_Inc_state restore
} bd
%%EndResource
%FOPBeginFontDict
%%IncludeResource: font Courier-Oblique
%%IncludeResource: font Courier-BoldOblique
%%IncludeResource: font Courier-Bold
%%IncludeResource: font ZapfDingbats
%%IncludeResource: font Symbol
%%IncludeResource: font Helvetica
%%IncludeResource: font Helvetica-Oblique
%%IncludeResource: font Helvetica-Bold
%%IncludeResource: font Helvetica-BoldOblique
%%IncludeResource: font Times-Roman
%%IncludeResource: font Times-Italic
%%IncludeResource: font Times-Bold
%%IncludeResource: font Times-BoldItalic
%%IncludeResource: font Courier
%FOPEndFontDict
%%BeginResource: encoding WinAnsiEncoding
/WinAnsiEncoding [
/.notdef /.notdef /.notdef /.notdef /.notdef
/.notdef /.notdef /.notdef /.notdef /.notdef
/.notdef /.notdef /.notdef /.notdef /.notdef
/.notdef /.notdef /.notdef /.notdef /.notdef
/.notdef /.notdef /.notdef /.notdef /.notdef
/.notdef /.notdef /.notdef /.notdef /.notdef
/.notdef /.notdef /space /exclam /quotedbl
/numbersign /dollar /percent /ampersand /quotesingle
/parenleft /parenright /asterisk /plus /comma
/hyphen /period /slash /zero /one
/two /three /four /five /six
/seven /eight /nine /colon /semicolon
/less /equal /greater /question /at
/A /B /C /D /E
/F /G /H /I /J
/K /L /M /N /O
/P /Q /R /S /T
/U /V /W /X /Y
/Z /bracketleft /backslash /bracketright /asciicircum
/underscore /quoteleft /a /b /c
/d /e /f /g /h
/i /j /k /l /m
/n /o /p /q /r
/s /t /u /v /w
/x /y /z /braceleft /bar
/braceright /asciitilde /bullet /Euro /bullet
/quotesinglbase /florin /quotedblbase /ellipsis /dagger
/daggerdbl /circumflex /perthousand /Scaron /guilsinglleft
/OE /bullet /Zcaron /bullet /bullet
/quoteleft /quoteright /quotedblleft /quotedblright /bullet
/endash /emdash /asciitilde /trademark /scaron
/guilsinglright /oe /bullet /zcaron /Ydieresis
/space /exclamdown /cent /sterling /currency
/yen /brokenbar /section /dieresis /copyright
/ordfeminine /guillemotleft /logicalnot /sfthyphen /registered
/macron /degree /plusminus /twosuperior /threesuperior
/acute /mu /paragraph /middot /cedilla
/onesuperior /ordmasculine /guillemotright /onequarter /onehalf
/threequarters /questiondown /Agrave /Aacute /Acircumflex
/Atilde /Adieresis /Aring /AE /Ccedilla
/Egrave /Eacute /Ecircumflex /Edieresis /Igrave
/Iacute /Icircumflex /Idieresis /Eth /Ntilde
/Ograve /Oacute /Ocircumflex /Otilde /Odieresis
/multiply /Oslash /Ugrave /Uacute /Ucircumflex
/Udieresis /Yacute /Thorn /germandbls /agrave
/aacute /acircumflex /atilde /adieresis /aring
/ae /ccedilla /egrave /eacute /ecircumflex
/edieresis /igrave /iacute /icircumflex /idieresis
/eth /ntilde /ograve /oacute /ocircumflex
/otilde /odieresis /divide /oslash /ugrave
/uacute /ucircumflex /udieresis /yacute /thorn
/ydieresis
] def
%%EndResource
%FOPBeginFontReencode
/Courier-Oblique findfont
dup length dict begin
  {1 index /FID ne {def} {pop pop} ifelse} forall
  /Encoding WinAnsiEncoding def
  currentdict
end
/Courier-Oblique exch definefont pop
/Courier-BoldOblique findfont
dup length dict begin
  {1 index /FID ne {def} {pop pop} ifelse} forall
  /Encoding WinAnsiEncoding def
  currentdict
end
/Courier-BoldOblique exch definefont pop
/Courier-Bold findfont
dup length dict begin
  {1 index /FID ne {def} {pop pop} ifelse} forall
  /Encoding WinAnsiEncoding def
  currentdict
end
/Courier-Bold exch definefont pop
/Helvetica findfont
dup length dict begin
  {1 index /FID ne {def} {pop pop} ifelse} forall
  /Encoding WinAnsiEncoding def
  currentdict
end
/Helvetica exch definefont pop
/Helvetica-Oblique findfont
dup length dict begin
  {1 index /FID ne {def} {pop pop} ifelse} forall
  /Encoding WinAnsiEncoding def
  currentdict
end
/Helvetica-Oblique exch definefont pop
/Helvetica-Bold findfont
dup length dict begin
  {1 index /FID ne {def} {pop pop} ifelse} forall
  /Encoding WinAnsiEncoding def
  currentdict
end
/Helvetica-Bold exch definefont pop
/Helvetica-BoldOblique findfont
dup length dict begin
  {1 index /FID ne {def} {pop pop} ifelse} forall
  /Encoding WinAnsiEncoding def
  currentdict
end
/Helvetica-BoldOblique exch definefont pop
/Times-Roman findfont
dup length dict begin
  {1 index /FID ne {def} {pop pop} ifelse} forall
  /Encoding WinAnsiEncoding def
  currentdict
end
/Times-Roman exch definefont pop
/Times-Italic findfont
dup length dict begin
  {1 index /FID ne {def} {pop pop} ifelse} forall
  /Encoding WinAnsiEncoding def
  currentdict
end
/Times-Italic exch definefont pop
/Times-Bold findfont
dup length dict begin
  {1 index /FID ne {def} {pop pop} ifelse} forall
  /Encoding WinAnsiEncoding def
  currentdict
end
/Times-Bold exch definefont pop
/Times-BoldItalic findfont
dup length dict begin
  {1 index /FID ne {def} {pop pop} ifelse} forall
  /Encoding WinAnsiEncoding def
  currentdict
end
/Times-BoldItalic exch definefont pop
/Courier findfont
dup length dict begin
  {1 index /FID ne {def} {pop pop} ifelse} forall
  /Encoding WinAnsiEncoding def
  currentdict
end
/Courier exch definefont pop
%FOPEndFontReencode
%%EndProlog
%%Page: 1 1
%%PageBoundingBox: 0 0 1440 722
%%BeginPageSetup
[1 0 0 -1 0 722] CT
%%EndPageSetup
GS
[0.75 0 0 0.75 0 -0.25] CT
1 GC
N
0 0 1920 963 re
f
GR
GS
[0.75 0 0 0.75 0 -0.25] CT
1 GC
N
0 0 1920 963 re
f
GR
GS
[0.75 0 0 0.75 0 -0.25] CT
1 GC
N
526.147 810 M
1461.853 810 L
1461.853 72 L
526.147 72 L
cp
f
GR
GS
[0.75 0 0 0.75 0 -0.25] CT
0.149 GC
2 setlinecap
1 LJ
0.667 LW
N
526.147 810 M
1461.853 810 L
S
GR
GS
[0.75 0 0 0.75 0 -0.25] CT
0.149 GC
2 setlinecap
1 LJ
0.667 LW
N
526.147 810 M
526.147 800.643 L
S
GR
GS
[0.75 0 0 0.75 0 -0.25] CT
0.149 GC
2 setlinecap
1 LJ
0.667 LW
N
760.074 810 M
760.074 800.643 L
S
GR
GS
[0.75 0 0 0.75 0 -0.25] CT
0.149 GC
2 setlinecap
1 LJ
0.667 LW
N
994 810 M
994 800.643 L
S
GR
GS
[0.75 0 0 0.75 0 -0.25] CT
0.149 GC
2 setlinecap
1 LJ
0.667 LW
N
1227.926 810 M
1227.926 800.643 L
S
GR
GS
[0.75 0 0 0.75 0 -0.25] CT
0.149 GC
2 setlinecap
1 LJ
0.667 LW
N
1461.853 810 M
1461.853 800.643 L
S
GR
GS
[0.75 0 0 0.75 394.61041 617.24998] CT
0.149 GC
/Helvetica 53.333 F
GS
[1 0 0 1 0 0] CT
-24 54 moveto 
1 -1 scale
(-5) t 
GR
GR
GS
[0.75 0 0 0.75 570.05521 617.24998] CT
0.149 GC
/Helvetica 53.333 F
GS
[1 0 0 1 0 0] CT
-15 54 moveto 
1 -1 scale
(0) t 
GR
GR
GS
[0.75 0 0 0.75 745.5 617.24998] CT
0.149 GC
/Helvetica 53.333 F
GS
[1 0 0 1 0 0] CT
-15 54 moveto 
1 -1 scale
(5) t 
GR
GR
GS
[0.75 0 0 0.75 920.94479 617.24998] CT
0.149 GC
/Helvetica 53.333 F
GS
[1 0 0 1 0 0] CT
-30 54 moveto 
1 -1 scale
(10) t 
GR
GR
GS
[0.75 0 0 0.75 1096.38959 617.24998] CT
0.149 GC
/Helvetica 53.333 F
GS
[1 0 0 1 0 0] CT
-30 54 moveto 
1 -1 scale
(15) t 
GR
GR
GS
[0.75 0 0 0.75 745.50032 667.75002] CT
0.149 GC
/Helvetica 58.667 F
GS
[1 0 0 1 0 0] CT
-34.5 59 moveto 
1 -1 scale
(Xs) t 
GR
GR
GS
[0.75 0 0 0.75 0 -0.25] CT
0.149 GC
2 setlinecap
1 LJ
0.667 LW
N
526.147 810 M
526.147 72 L
S
GR
GS
[0.75 0 0 0.75 0 -0.25] CT
0.149 GC
2 setlinecap
1 LJ
0.667 LW
N
526.147 728.441 M
535.504 728.441 L
S
GR
GS
[0.75 0 0 0.75 0 -0.25] CT
0.149 GC
2 setlinecap
1 LJ
0.667 LW
N
526.147 494.515 M
535.504 494.515 L
S
GR
GS
[0.75 0 0 0.75 0 -0.25] CT
0.149 GC
2 setlinecap
1 LJ
0.667 LW
N
526.147 260.589 M
535.504 260.589 L
S
GR
GS
[0.75 0 0 0.75 384.61043 546.08101] CT
0.149 GC
/Helvetica 53.333 F
GS
[1 0 0 1 0 0] CT
-30 21 moveto 
1 -1 scale
(0) t 
GR
GR
GS
[0.75 0 0 0.75 384.61043 370.63619] CT
0.149 GC
/Helvetica 53.333 F
GS
[1 0 0 1 0 0] CT
-30 21 moveto 
1 -1 scale
(5) t 
GR
GR
GS
[0.75 0 0 0.75 384.61043 195.19142] CT
0.149 GC
/Helvetica 53.333 F
GS
[1 0 0 1 0 0] CT
-60 21 moveto 
1 -1 scale
(10) t 
GR
GR
GS
[0 -0.75 0.75 0 336.61043 330.49975] CT
0.149 GC
/Helvetica 58.667 F
GS
[1 0 0 1 0 0] CT
-34.5 -13 moveto 
1 -1 scale
(Ys) t 
GR
GR
GS
[0.75 0 0 0.75 780.58896 510.99205] CT
1 0 0 RC
N
0 -26.66 M
-23.088 13.33 L
23.088 13.33 L
cp
f
GR
GS
[0.75 0 0 0.75 780.58896 510.99205] CT
0 0 1 RC
10.0 ML
0.667 LW
N
0 -26.66 M
-23.088 13.33 L
23.088 13.33 L
cp
S
GR
GS
[0.75 0 0 0.75 745.5 440.81413] CT
1 0 0 RC
N
/f-1996900118{0 -26.66 M
-23.088 13.33 L
23.088 13.33 L
cp}def
f-1996900118
f
GR
GS
[0.75 0 0 0.75 745.5 440.81413] CT
0 0 1 RC
10.0 ML
0.667 LW
N
0 -26.66 M
-23.088 13.33 L
23.088 13.33 L
cp
S
GR
GS
[0.75 0 0 0.75 920.94479 300.4583] CT
1 0 0 RC
N
f-1996900118
f
GR
GS
[0.75 0 0 0.75 920.94479 300.4583] CT
0 0 1 RC
10.0 ML
0.667 LW
N
0 -26.66 M
-23.088 13.33 L
23.088 13.33 L
cp
S
GR
GS
[0.75 0 0 0.75 640.23312 440.81413] CT
1 0 0 RC
N
f-1996900118
f
GR
GS
[0.75 0 0 0.75 640.23312 440.81413] CT
0 0 1 RC
10.0 ML
0.667 LW
N
0 -26.66 M
-23.088 13.33 L
23.088 13.33 L
cp
S
GR
GS
[0.75 0 0 0.75 780.58896 335.54726] CT
1 0 0 RC
N
f-1996900118
f
GR
GS
[0.75 0 0 0.75 780.58896 335.54726] CT
0 0 1 RC
10.0 ML
0.667 LW
N
0 -26.66 M
-23.088 13.33 L
23.088 13.33 L
cp
S
GR
GS
[0.75 0 0 0.75 745.5 370.63619] CT
1 0 0 RC
N
f-1996900118
f
GR
GS
[0.75 0 0 0.75 745.5 370.63619] CT
0 0 1 RC
10.0 ML
0.667 LW
N
0 -26.66 M
-23.088 13.33 L
23.088 13.33 L
cp
S
GR
GS
[0.75 0 0 0.75 675.32208 405.72517] CT
1 0 0 RC
N
f-1996900118
f
GR
GS
[0.75 0 0 0.75 675.32208 405.72517] CT
0 0 1 RC
10.0 ML
0.667 LW
N
0 -26.66 M
-23.088 13.33 L
23.088 13.33 L
cp
S
GR
GS
[0.75 0 0 0.75 815.67792 510.99205] CT
1 0 0 RC
N
f-1996900118
f
GR
GS
[0.75 0 0 0.75 815.67792 510.99205] CT
0 0 1 RC
10.0 ML
0.667 LW
N
0 -26.66 M
-23.088 13.33 L
23.088 13.33 L
cp
S
GR
GS
[0.75 0 0 0.75 673.00502 249.20465] CT
0 1 1 RC
10.0 ML
8 LW
N
0 -4 M
0 4 L
-4 0 M
4 0 L
-2.828 -2.828 M
2.828 2.828 L
-2.828 2.828 M
2.828 -2.828 L
S
GR
GS
[0.75 0 0 0.75 0 -0.25] CT
0 1 1 RC
1 LJ
8 LW
N
894.02 335.563 M
893.806 335.672 L
893.944 335.475 L
S
GR
GS
[0.75 0 0 0.75 0 -0.25] CT
0 1 1 RC
1 LJ
8 LW
N
897.34 332.606 M
893.806 335.672 L
S
GR
GS
[0.75 0 0 0.75 0 -0.25] CT
0 1 1 RC
1 LJ
8 LW
N
864.126 312.71 M
860.221 321.596 L
858.649 331.173 L
859.508 340.84 L
862.744 349.989 L
868.154 358.047 L
875.398 364.506 L
884.02 368.96 L
893.48 371.131 L
903.182 370.88 L
912.517 368.225 L
920.898 363.332 L
927.799 356.508 L
932.786 348.182 L
935.546 338.878 L
935.906 329.179 L
933.842 319.696 L
929.484 311.024 L
923.107 303.708 L
915.111 298.208 L
905.998 294.869 L
896.341 293.902 L
886.747 295.366 L
877.819 299.17 L
870.117 305.075 L
864.126 312.71 L
S
GR
GS
[0.75 0 0 0.75 673.00259 190.38633] CT
0 1 1 RC
10.0 ML
8 LW
N
0 -4 M
0 4 L
-4 0 M
4 0 L
-2.828 -2.828 M
2.828 2.828 L
-2.828 2.828 M
2.828 -2.828 L
S
GR
GS
[0.75 0 0 0.75 0 -0.25] CT
0 1 1 RC
1 LJ
8 LW
N
894.017 257.139 M
893.803 257.247 L
893.941 257.051 L
S
GR
GS
[0.75 0 0 0.75 0 -0.25] CT
0 1 1 RC
1 LJ
8 LW
N
897.337 254.182 M
893.803 257.247 L
S
GR
GS
[0.75 0 0 0.75 0 -0.25] CT
0 1 1 RC
1 LJ
8 LW
N
861.563 239.375 M
866.369 230.943 L
873.121 223.972 L
881.395 218.899 L
890.67 216.043 L
900.364 215.583 L
909.868 217.549 L
918.585 221.816 L
925.967 228.117 L
931.549 236.056 L
934.982 245.134 L
936.05 254.78 L
934.685 264.388 L
930.973 273.356 L
925.148 281.118 L
917.575 287.189 L
908.731 291.185 L
899.171 292.856 L
889.495 292.097 L
880.313 288.956 L
872.2 283.629 L
865.666 276.453 L
861.122 267.877 L
858.854 258.44 L
859.004 248.736 L
861.563 239.375 L
S
GR
GS
[0.75 0 0 0.75 614.18307 219.7961] CT
0 1 1 RC
10.0 ML
8 LW
N
0 -4 M
0 4 L
-4 0 M
4 0 L
-2.828 -2.828 M
2.828 2.828 L
-2.828 2.828 M
2.828 -2.828 L
S
GR
GS
[0.75 0 0 0.75 0 -0.25] CT
0 1 1 RC
1 LJ
8 LW
N
815.591 296.352 M
815.377 296.461 L
815.515 296.264 L
S
GR
GS
[0.75 0 0 0.75 0 -0.25] CT
0 1 1 RC
1 LJ
8 LW
N
818.911 293.395 M
815.377 296.461 L
S
GR
GS
[0.75 0 0 0.75 0 -0.25] CT
0 1 1 RC
1 LJ
8 LW
N
783.178 278.487 M
788.008 270.069 L
794.78 263.117 L
803.068 258.067 L
812.351 255.237 L
822.047 254.805 L
831.545 256.797 L
840.25 261.089 L
847.614 267.411 L
853.174 275.365 L
856.581 284.452 L
857.622 294.102 L
856.23 303.706 L
852.493 312.663 L
846.646 320.41 L
839.056 326.458 L
830.201 330.43 L
820.636 332.074 L
810.963 331.288 L
801.789 328.121 L
793.691 322.772 L
787.177 315.577 L
782.658 306.988 L
780.416 297.545 L
780.594 287.842 L
783.178 278.487 L
S
GR
GS
[0.75 0 0 0.75 673.00507 180.86459] CT
0 1 1 RC
10.0 ML
8 LW
N
0 -4 M
0 4 L
-4 0 M
4 0 L
-2.828 -2.828 M
2.828 2.828 L
-2.828 2.828 M
2.828 -2.828 L
S
GR
GS
[0.75 0 0 0.75 0 -0.25] CT
0 1 1 RC
1 LJ
8 LW
N
894.02 244.443 M
893.806 244.552 L
893.944 244.355 L
S
GR
GS
[0.75 0 0 0.75 0 -0.25] CT
0 1 1 RC
1 LJ
8 LW
N
897.34 241.486 M
893.806 244.552 L
S
GR
GS
[0.75 0 0 0.75 0 -0.25] CT
0 1 1 RC
1 LJ
8 LW
N
864.029 221.752 M
869.983 214.088 L
877.656 208.146 L
886.566 204.298 L
896.153 202.787 L
905.815 203.707 L
914.943 207.002 L
922.966 212.463 L
929.379 219.748 L
933.778 228.399 L
935.888 237.872 L
935.576 247.572 L
932.862 256.889 L
927.915 265.239 L
921.047 272.097 L
912.69 277.031 L
903.368 279.731 L
893.667 280.029 L
884.198 277.905 L
875.553 273.492 L
868.278 267.069 L
862.829 259.037 L
859.549 249.904 L
858.643 240.241 L
860.168 230.656 L
864.029 221.752 L
S
GR
GS
[0.75 0 0 0.75 673.77795 249.20467] CT
0 1 1 RC
10.0 ML
8 LW
N
0 -4 M
0 4 L
-4 0 M
4 0 L
-2.828 -2.828 M
2.828 2.828 L
-2.828 2.828 M
2.828 -2.828 L
S
GR
GS
[0.75 0 0 0.75 0 -0.25] CT
0 1 1 RC
1 LJ
8 LW
N
895.051 335.563 M
894.836 335.672 L
894.974 335.475 L
S
GR
GS
[0.75 0 0 0.75 0 -0.25] CT
0 1 1 RC
1 LJ
8 LW
N
898.371 332.606 M
894.836 335.672 L
S
GR
GS
[0.75 0 0 0.75 0 -0.25] CT
0 1 1 RC
1 LJ
8 LW
N
864.301 314.214 M
860.797 323.265 L
859.654 332.902 L
860.944 342.521 L
864.586 351.517 L
870.35 359.325 L
877.875 365.454 L
886.688 369.519 L
896.235 371.265 L
905.916 370.581 L
915.123 367.512 L
923.277 362.249 L
929.867 355.124 L
934.477 346.583 L
936.819 337.165 L
936.745 327.46 L
934.259 318.079 L
929.519 309.61 L
922.821 302.586 L
914.587 297.449 L
905.335 294.52 L
895.644 293.985 L
886.125 295.876 L
877.375 300.076 L
869.945 306.319 L
864.301 314.214 L
S
GR
GS
[0.75 0 0 0.75 673.77466 190.38647] CT
0 1 1 RC
10.0 ML
8 LW
N
0 -4 M
0 4 L
-4 0 M
4 0 L
-2.828 -2.828 M
2.828 2.828 L
-2.828 2.828 M
2.828 -2.828 L
S
GR
GS
[0.75 0 0 0.75 0 -0.25] CT
0 1 1 RC
1 LJ
8 LW
N
895.047 257.139 M
894.832 257.248 L
894.97 257.051 L
S
GR
GS
[0.75 0 0 0.75 0 -0.25] CT
0 1 1 RC
1 LJ
8 LW
N
898.366 254.182 M
894.832 257.248 L
S
GR
GS
[0.75 0 0 0.75 0 -0.25] CT
0 1 1 RC
1 LJ
8 LW
N
862.446 239.733 M
859.981 249.12 L
859.928 258.825 L
862.29 268.238 L
866.919 276.768 L
873.524 283.879 L
881.69 289.124 L
890.904 292.173 L
900.586 292.836 L
910.129 291.069 L
918.933 286.985 L
926.445 280.84 L
932.192 273.019 L
935.814 264.015 L
937.083 254.393 L
935.919 244.758 L
932.396 235.715 L
926.734 227.833 L
919.29 221.605 L
910.531 217.425 L
901.008 215.555 L
891.319 216.111 L
882.073 219.06 L
873.85 224.215 L
867.168 231.254 L
862.446 239.733 L
S
GR
GS
[0.75 0 0 0.75 614.95551 219.79599] CT
0 1 1 RC
10.0 ML
8 LW
N
0 -4 M
0 4 L
-4 0 M
4 0 L
-2.828 -2.828 M
2.828 2.828 L
-2.828 2.828 M
2.828 -2.828 L
S
GR
GS
[0.75 0 0 0.75 0 -0.25] CT
0 1 1 RC
1 LJ
8 LW
N
816.621 296.352 M
816.406 296.46 L
816.544 296.263 L
S
GR
GS
[0.75 0 0 0.75 0 -0.25] CT
0 1 1 RC
1 LJ
8 LW
N
819.941 293.395 M
816.406 296.46 L
S
GR
GS
[0.75 0 0 0.75 0 -0.25] CT
0 1 1 RC
1 LJ
8 LW
N
784.051 278.87 M
788.791 270.401 L
795.488 263.376 L
803.721 258.238 L
812.974 255.309 L
822.664 254.773 L
832.183 256.664 L
840.933 260.862 L
848.364 267.105 L
854.009 275 L
857.513 284.05 L
858.657 293.688 L
857.368 303.307 L
853.727 312.303 L
847.963 320.111 L
840.438 326.241 L
831.626 330.307 L
822.079 332.053 L
812.398 331.37 L
803.191 328.301 L
795.036 323.039 L
788.446 315.914 L
783.835 307.375 L
781.493 297.956 L
781.566 288.251 L
784.051 278.87 L
S
GR
GS
[0.75 0 0 0.75 672.09782 179.03658] CT
0 1 1 RC
10.0 ML
8 LW
N
0 -4 M
0 4 L
-4 0 M
4 0 L
-2.828 -2.828 M
2.828 2.828 L
-2.828 2.828 M
2.828 -2.828 L
S
GR
GS
[0.75 0 0 0.75 0 -0.25] CT
0 1 1 RC
1 LJ
8 LW
N
892.811 242.006 M
892.596 242.114 L
892.734 241.918 L
S
GR
GS
[0.75 0 0 0.75 0 -0.25] CT
0 1 1 RC
1 LJ
8 LW
N
896.13 239.049 M
892.596 242.114 L
S
GR
GS
[0.75 0 0 0.75 0 -0.25] CT
0 1 1 RC
1 LJ
8 LW
N
862.921 219.145 M
868.914 211.511 L
876.617 205.608 L
885.547 201.806 L
895.141 200.344 L
904.798 201.314 L
913.91 204.655 L
921.905 210.157 L
928.28 217.474 L
932.635 226.148 L
934.697 235.631 L
934.335 245.33 L
931.573 254.633 L
926.584 262.958 L
919.681 269.78 L
911.298 274.671 L
901.963 277.324 L
892.261 277.572 L
882.802 275.4 L
874.181 270.943 L
866.938 264.482 L
861.53 256.424 L
858.297 247.273 L
857.44 237.606 L
859.014 228.029 L
862.921 219.145 L
S
GR
GS
[0.75 0 0 0.75 673.00502 249.20465] CT
0 1 0 RC
10.0 ML
8 LW
N
0 -4 M
0 4 L
-4 0 M
4 0 L
-2.828 -2.828 M
2.828 2.828 L
-2.828 2.828 M
2.828 -2.828 L
S
GR
GS
[0.75 0 0 0.75 0 -0.25] CT
0 1 0 RC
1 LJ
8 LW
N
894.02 335.563 M
893.806 335.672 L
893.944 335.475 L
S
GR
GS
[0.75 0 0 0.75 0 -0.25] CT
0 1 0 RC
1 LJ
8 LW
N
897.34 332.606 M
893.806 335.672 L
S
GR
GS
[0.75 0 0 0.75 0 -0.25] CT
0 1 0 RC
1 LJ
8 LW
N
885.505 322.478 M
888.396 319.853 L
891.848 318.03 L
895.646 317.122 L
899.55 317.187 L
903.315 318.221 L
906.705 320.159 L
909.506 322.879 L
911.543 326.21 L
912.687 329.943 L
912.867 333.844 L
912.072 337.666 L
910.351 341.171 L
907.812 344.137 L
904.615 346.379 L
900.962 347.756 L
897.08 348.181 L
893.215 347.627 L
889.609 346.129 L
886.489 343.782 L
884.051 340.732 L
882.448 337.172 L
881.78 333.325 L
882.09 329.433 L
883.358 325.74 L
885.505 322.478 L
S
GR
GS
[0.75 0 0 0.75 643.96921 290.53659] CT
0 0 1 RC
10.0 ML
8 LW
N
0 -4 M
0 4 L
-4 0 M
4 0 L
-2.828 -2.828 M
2.828 2.828 L
-2.828 2.828 M
2.828 -2.828 L
S
GR
GS
[0.75 0 0 0.75 0 -0.25] CT
0 0 1 RC
1 LJ
8 LW
N
855.306 390.673 M
855.092 390.781 L
855.23 390.585 L
S
GR
GS
[0.75 0 0 0.75 0 -0.25] CT
0 0 1 RC
1 LJ
8 LW
N
858.626 387.715 M
855.092 390.781 L
S
GR
GS
[0.75 0 0 0.75 0 -0.25] CT
0 0 1 RC
1 LJ
8 LW
N
846.367 378.106 M
849.142 375.359 L
852.512 373.389 L
856.267 372.318 L
860.171 372.216 L
863.977 373.087 L
867.447 374.877 L
870.362 377.474 L
872.54 380.715 L
873.844 384.395 L
874.192 388.284 L
873.561 392.138 L
871.992 395.713 L
869.584 398.786 L
866.486 401.163 L
862.895 402.696 L
859.035 403.287 L
855.15 402.899 L
851.483 401.558 L
848.265 399.347 L
845.698 396.405 L
843.943 392.917 L
843.111 389.102 L
843.253 385.2 L
844.362 381.456 L
846.367 378.106 L
S
GR
GS
[0.75 0 0 0.75 673.77795 249.20467] CT
0 0 1 RC
10.0 ML
8 LW
N
0 -4 M
0 4 L
-4 0 M
4 0 L
-2.828 -2.828 M
2.828 2.828 L
-2.828 2.828 M
2.828 -2.828 L
S
GR
GS
[0.75 0 0 0.75 0 -0.25] CT
0 0 1 RC
1 LJ
8 LW
N
895.051 335.563 M
894.836 335.672 L
894.974 335.475 L
S
GR
GS
[0.75 0 0 0.75 0 -0.25] CT
0 0 1 RC
1 LJ
8 LW
N
898.371 332.606 M
894.836 335.672 L
S
GR
GS
[0.75 0 0 0.75 0 -0.25] CT
0 0 1 RC
1 LJ
8 LW
N
886.538 322.476 M
884.39 325.737 L
883.121 329.43 L
882.81 333.322 L
883.477 337.169 L
885.08 340.73 L
887.518 343.78 L
890.637 346.128 L
894.243 347.626 L
898.108 348.181 L
901.989 347.757 L
905.643 346.381 L
908.841 344.139 L
911.38 341.173 L
913.102 337.669 L
913.898 333.846 L
913.718 329.946 L
912.575 326.213 L
910.538 322.881 L
907.738 320.161 L
904.348 318.222 L
900.583 317.188 L
896.679 317.122 L
892.882 318.029 L
889.429 319.852 L
886.538 322.476 L
S
GR
GS
[0.75 0 0 0.75 644.09445 290.53636] CT
0 0 1 RC
10.0 ML
8 LW
N
0 -4 M
0 4 L
-4 0 M
4 0 L
-2.828 -2.828 M
2.828 2.828 L
-2.828 2.828 M
2.828 -2.828 L
S
GR
GS
[0.75 0 0 0.75 0 -0.25] CT
0 0 1 RC
1 LJ
8 LW
N
855.473 390.672 M
855.259 390.781 L
855.397 390.584 L
S
GR
GS
[0.75 0 0 0.75 0 -0.25] CT
0 0 1 RC
1 LJ
8 LW
N
858.793 387.715 M
855.259 390.781 L
S
GR
GS
[0.75 0 0 0.75 0 -0.25] CT
0 0 1 RC
1 LJ
8 LW
N
846.516 378.127 M
849.286 375.376 L
852.654 373.399 L
856.407 372.322 L
860.31 372.213 L
864.118 373.077 L
867.591 374.861 L
870.511 377.453 L
872.695 380.69 L
874.005 384.368 L
874.36 388.256 L
873.736 392.11 L
872.174 395.689 L
869.77 398.766 L
866.677 401.149 L
863.089 402.688 L
859.23 403.286 L
855.344 402.905 L
851.675 401.57 L
848.453 399.365 L
845.88 396.428 L
844.119 392.943 L
843.28 389.13 L
843.416 385.227 L
844.518 381.482 L
846.516 378.127 L
S
GR
GS
[0.75 0 0 0.75 0 -0.25] CT
1 GC
N
/f155623792{1451 326 M
1451 83 L
1173 83 L
1173 326 L
cp}def
f155623792
f
GR
GS
[0.75 0 0 0.75 915 85.99999] CT
/Helvetica-Bold 48 F
GS
[1 0 0 1 0 0] CT
0 19 moveto 
1 -1 scale
(LandMark) t 
GR
GR
GS
[0.75 0 0 0.75 897.75 86] CT
1 0 0 RC
N
f-1996900118
f
GR
GS
[0.75 0 0 0.75 897.75 86] CT
0 0 1 RC
10.0 ML
0.667 LW
N
0 -26.66 M
-23.088 13.33 L
23.088 13.33 L
cp
S
GR
GS
[0.75 0 0 0.75 915 146] CT
/Helvetica-Bold 48 F
GS
[1 0 0 1 0 0] CT
0 0 moveto 
1 -1 scale
(b[X) t 
GR
GR
GS
[0.75 0 0 0.75 973.5 164] CT
/Helvetica-Bold 38.4 F
GS
[1 0 0 1 0 0] CT
0 0 moveto 
1 -1 scale
(k) t 
GR
GR
GS
[0.75 0 0 0.75 990 146] CT
/Helvetica-Bold 48 F
GS
[1 0 0 1 0 0] CT
0 0 moveto 
1 -1 scale
(]) t 
GR
GR
GS
[0.75 0 0 0.75 0 -0.25] CT
0 0 1 RC
1 LJ
8 LW
N
1177 186.5 M
1217 186.5 L
S
GR
GS
[0.75 0 0 0.75 915 218] CT
/Helvetica-Bold 48 F
GS
[1 0 0 1 0 0] CT
0 0 moveto 
1 -1 scale
(b) t 
GR
GR
GS
[0.75 0 0 0.75 937.5 200] CT
/Helvetica-Bold 38.4 F
GS
[1 0 0 1 0 0] CT
0 0 moveto 
1 -1 scale
(-) t 
GR
GR
GS
[0.75 0 0 0.75 947.25 218] CT
/Helvetica-Bold 48 F
GS
[1 0 0 1 0 0] CT
0 0 moveto 
1 -1 scale
([X) t 
GR
GR
GS
[0.75 0 0 0.75 983.25 236] CT
/Helvetica-Bold 38.4 F
GS
[1 0 0 1 0 0] CT
0 0 moveto 
1 -1 scale
(k) t 
GR
GR
GS
[0.75 0 0 0.75 999.75 218] CT
/Helvetica-Bold 48 F
GS
[1 0 0 1 0 0] CT
0 0 moveto 
1 -1 scale
(]) t 
GR
GR
GS
[0.75 0 0 0.75 0 -0.25] CT
0 1 1 RC
1 LJ
8 LW
N
1177 276 M
1217 276 L
S
GR
GS
[0.75 0 0 0.75 0 -0.25] CT
0.149 GC
10.0 ML
0.667 LW
N
1173 326 M
1173 83 L
1451 83 L
1451 326 L
cp
S
GR
%%Trailer
%%Pages: 1
%%EOF
