%!PS-Adobe-3.0 EPSF-3.0
%%Creator: (MATLAB, The Mathworks, Inc. Version 9.10.0.1649659 \(R2021a\) Update 1. Operating System: Windows 10)
%%Title: (C:/Users/ohads/ANPL/papers/research/2022 ICRA/Figures/TestCase_1/fig_files/Robots_estimation_k_5_no_propagted.eps)
%%CreationDate: 2021-07-29T16:44:00
%%Pages: (atend)
%%BoundingBox:   316     9  1119   671
%%LanguageLevel: 3
%%EndComments
%%BeginProlog
%%BeginResource: procset (Apache XML Graphics Std ProcSet) 1.2 0
%%Version: 1.2 0
%%Copyright: (Copyright 2001-2003,2010 The Apache Software Foundation. License terms: http://www.apache.org/licenses/LICENSE-2.0)
/bd{bind def}bind def
/ld{load def}bd
/GR/grestore ld
/GS/gsave ld
/RM/rmoveto ld
/C/curveto ld
/t/show ld
/L/lineto ld
/ML/setmiterlimit ld
/CT/concat ld
/f/fill ld
/N/newpath ld
/S/stroke ld
/CC/setcmykcolor ld
/A/ashow ld
/cp/closepath ld
/RC/setrgbcolor ld
/LJ/setlinejoin ld
/GC/setgray ld
/LW/setlinewidth ld
/M/moveto ld
/re {4 2 roll M
1 index 0 rlineto
0 exch rlineto
neg 0 rlineto
cp } bd
/_ctm matrix def
/_tm matrix def
/BT { _ctm currentmatrix pop matrix _tm copy pop 0 0 moveto } bd
/ET { _ctm setmatrix } bd
/iTm { _ctm setmatrix _tm concat } bd
/Tm { _tm astore pop iTm 0 0 moveto } bd
/ux 0.0 def
/uy 0.0 def
/F {
  /Tp exch def
  /Tf exch def
  Tf findfont Tp scalefont setfont
  /cf Tf def  /cs Tp def
} bd
/ULS {currentpoint /uy exch def /ux exch def} bd
/ULE {
  /Tcx currentpoint pop def
  gsave
  newpath
  cf findfont cs scalefont dup
  /FontMatrix get 0 get /Ts exch def /FontInfo get dup
  /UnderlinePosition get Ts mul /To exch def
  /UnderlineThickness get Ts mul /Tt exch def
  ux uy To add moveto  Tcx uy To add lineto
  Tt setlinewidth stroke
  grestore
} bd
/OLE {
  /Tcx currentpoint pop def
  gsave
  newpath
  cf findfont cs scalefont dup
  /FontMatrix get 0 get /Ts exch def /FontInfo get dup
  /UnderlinePosition get Ts mul /To exch def
  /UnderlineThickness get Ts mul /Tt exch def
  ux uy To add cs add moveto Tcx uy To add cs add lineto
  Tt setlinewidth stroke
  grestore
} bd
/SOE {
  /Tcx currentpoint pop def
  gsave
  newpath
  cf findfont cs scalefont dup
  /FontMatrix get 0 get /Ts exch def /FontInfo get dup
  /UnderlinePosition get Ts mul /To exch def
  /UnderlineThickness get Ts mul /Tt exch def
  ux uy To add cs 10 mul 26 idiv add moveto Tcx uy To add cs 10 mul 26 idiv add lineto
  Tt setlinewidth stroke
  grestore
} bd
/QT {
/Y22 exch store
/X22 exch store
/Y21 exch store
/X21 exch store
currentpoint
/Y21 load 2 mul add 3 div exch
/X21 load 2 mul add 3 div exch
/X21 load 2 mul /X22 load add 3 div
/Y21 load 2 mul /Y22 load add 3 div
/X22 load /Y22 load curveto
} bd
/SSPD {
dup length /d exch dict def
{
/v exch def
/k exch def
currentpagedevice k known {
/cpdv currentpagedevice k get def
v cpdv ne {
/upd false def
/nullv v type /nulltype eq def
/nullcpdv cpdv type /nulltype eq def
nullv nullcpdv or
{
/upd true def
} {
/sametype v type cpdv type eq def
sametype {
v type /arraytype eq {
/vlen v length def
/cpdvlen cpdv length def
vlen cpdvlen eq {
0 1 vlen 1 sub {
/i exch def
/obj v i get def
/cpdobj cpdv i get def
obj cpdobj ne {
/upd true def
exit
} if
} for
} {
/upd true def
} ifelse
} {
v type /dicttype eq {
v {
/dv exch def
/dk exch def
/cpddv cpdv dk get def
dv cpddv ne {
/upd true def
exit
} if
} forall
} {
/upd true def
} ifelse
} ifelse
} if
} ifelse
upd true eq {
d k v put
} if
} if
} if
} forall
d length 0 gt {
d setpagedevice
} if
} bd
/RE { % /NewFontName [NewEncodingArray] /FontName RE -
  findfont dup length dict begin
  {
    1 index /FID ne
    {def} {pop pop} ifelse
  } forall
  /Encoding exch def
  /FontName 1 index def
  currentdict definefont pop
  end
} bind def
%%EndResource
%%BeginResource: procset (Apache XML Graphics EPS ProcSet) 1.0 0
%%Version: 1.0 0
%%Copyright: (Copyright 2002-2003 The Apache Software Foundation. License terms: http://www.apache.org/licenses/LICENSE-2.0)
/BeginEPSF { %def
/b4_Inc_state save def         % Save state for cleanup
/dict_count countdictstack def % Count objects on dict stack
/op_count count 1 sub def      % Count objects on operand stack
userdict begin                 % Push userdict on dict stack
/showpage { } def              % Redefine showpage, { } = null proc
0 setgray 0 setlinecap         % Prepare graphics state
1 setlinewidth 0 setlinejoin
10 setmiterlimit [ ] 0 setdash newpath
/languagelevel where           % If level not equal to 1 then
{pop languagelevel             % set strokeadjust and
1 ne                           % overprint to their defaults.
{false setstrokeadjust false setoverprint
} if
} if
} bd
/EndEPSF { %def
count op_count sub {pop} repeat            % Clean up stacks
countdictstack dict_count sub {end} repeat
b4_Inc_state restore
} bd
%%EndResource
%FOPBeginFontDict
%%IncludeResource: font Courier-Oblique
%%IncludeResource: font Courier-BoldOblique
%%IncludeResource: font Courier-Bold
%%IncludeResource: font ZapfDingbats
%%IncludeResource: font Symbol
%%IncludeResource: font Helvetica
%%IncludeResource: font Helvetica-Oblique
%%IncludeResource: font Helvetica-Bold
%%IncludeResource: font Helvetica-BoldOblique
%%IncludeResource: font Times-Roman
%%IncludeResource: font Times-Italic
%%IncludeResource: font Times-Bold
%%IncludeResource: font Times-BoldItalic
%%IncludeResource: font Courier
%FOPEndFontDict
%%BeginResource: encoding WinAnsiEncoding
/WinAnsiEncoding [
/.notdef /.notdef /.notdef /.notdef /.notdef
/.notdef /.notdef /.notdef /.notdef /.notdef
/.notdef /.notdef /.notdef /.notdef /.notdef
/.notdef /.notdef /.notdef /.notdef /.notdef
/.notdef /.notdef /.notdef /.notdef /.notdef
/.notdef /.notdef /.notdef /.notdef /.notdef
/.notdef /.notdef /space /exclam /quotedbl
/numbersign /dollar /percent /ampersand /quotesingle
/parenleft /parenright /asterisk /plus /comma
/hyphen /period /slash /zero /one
/two /three /four /five /six
/seven /eight /nine /colon /semicolon
/less /equal /greater /question /at
/A /B /C /D /E
/F /G /H /I /J
/K /L /M /N /O
/P /Q /R /S /T
/U /V /W /X /Y
/Z /bracketleft /backslash /bracketright /asciicircum
/underscore /quoteleft /a /b /c
/d /e /f /g /h
/i /j /k /l /m
/n /o /p /q /r
/s /t /u /v /w
/x /y /z /braceleft /bar
/braceright /asciitilde /bullet /Euro /bullet
/quotesinglbase /florin /quotedblbase /ellipsis /dagger
/daggerdbl /circumflex /perthousand /Scaron /guilsinglleft
/OE /bullet /Zcaron /bullet /bullet
/quoteleft /quoteright /quotedblleft /quotedblright /bullet
/endash /emdash /asciitilde /trademark /scaron
/guilsinglright /oe /bullet /zcaron /Ydieresis
/space /exclamdown /cent /sterling /currency
/yen /brokenbar /section /dieresis /copyright
/ordfeminine /guillemotleft /logicalnot /sfthyphen /registered
/macron /degree /plusminus /twosuperior /threesuperior
/acute /mu /paragraph /middot /cedilla
/onesuperior /ordmasculine /guillemotright /onequarter /onehalf
/threequarters /questiondown /Agrave /Aacute /Acircumflex
/Atilde /Adieresis /Aring /AE /Ccedilla
/Egrave /Eacute /Ecircumflex /Edieresis /Igrave
/Iacute /Icircumflex /Idieresis /Eth /Ntilde
/Ograve /Oacute /Ocircumflex /Otilde /Odieresis
/multiply /Oslash /Ugrave /Uacute /Ucircumflex
/Udieresis /Yacute /Thorn /germandbls /agrave
/aacute /acircumflex /atilde /adieresis /aring
/ae /ccedilla /egrave /eacute /ecircumflex
/edieresis /igrave /iacute /icircumflex /idieresis
/eth /ntilde /ograve /oacute /ocircumflex
/otilde /odieresis /divide /oslash /ugrave
/uacute /ucircumflex /udieresis /yacute /thorn
/ydieresis
] def
%%EndResource
%FOPBeginFontReencode
/Courier-Oblique findfont
dup length dict begin
  {1 index /FID ne {def} {pop pop} ifelse} forall
  /Encoding WinAnsiEncoding def
  currentdict
end
/Courier-Oblique exch definefont pop
/Courier-BoldOblique findfont
dup length dict begin
  {1 index /FID ne {def} {pop pop} ifelse} forall
  /Encoding WinAnsiEncoding def
  currentdict
end
/Courier-BoldOblique exch definefont pop
/Courier-Bold findfont
dup length dict begin
  {1 index /FID ne {def} {pop pop} ifelse} forall
  /Encoding WinAnsiEncoding def
  currentdict
end
/Courier-Bold exch definefont pop
/Helvetica findfont
dup length dict begin
  {1 index /FID ne {def} {pop pop} ifelse} forall
  /Encoding WinAnsiEncoding def
  currentdict
end
/Helvetica exch definefont pop
/Helvetica-Oblique findfont
dup length dict begin
  {1 index /FID ne {def} {pop pop} ifelse} forall
  /Encoding WinAnsiEncoding def
  currentdict
end
/Helvetica-Oblique exch definefont pop
/Helvetica-Bold findfont
dup length dict begin
  {1 index /FID ne {def} {pop pop} ifelse} forall
  /Encoding WinAnsiEncoding def
  currentdict
end
/Helvetica-Bold exch definefont pop
/Helvetica-BoldOblique findfont
dup length dict begin
  {1 index /FID ne {def} {pop pop} ifelse} forall
  /Encoding WinAnsiEncoding def
  currentdict
end
/Helvetica-BoldOblique exch definefont pop
/Times-Roman findfont
dup length dict begin
  {1 index /FID ne {def} {pop pop} ifelse} forall
  /Encoding WinAnsiEncoding def
  currentdict
end
/Times-Roman exch definefont pop
/Times-Italic findfont
dup length dict begin
  {1 index /FID ne {def} {pop pop} ifelse} forall
  /Encoding WinAnsiEncoding def
  currentdict
end
/Times-Italic exch definefont pop
/Times-Bold findfont
dup length dict begin
  {1 index /FID ne {def} {pop pop} ifelse} forall
  /Encoding WinAnsiEncoding def
  currentdict
end
/Times-Bold exch definefont pop
/Times-BoldItalic findfont
dup length dict begin
  {1 index /FID ne {def} {pop pop} ifelse} forall
  /Encoding WinAnsiEncoding def
  currentdict
end
/Times-BoldItalic exch definefont pop
/Courier findfont
dup length dict begin
  {1 index /FID ne {def} {pop pop} ifelse} forall
  /Encoding WinAnsiEncoding def
  currentdict
end
/Courier exch definefont pop
%FOPEndFontReencode
%%EndProlog
%%Page: 1 1
%%PageBoundingBox: 0 0 1440 722
%%BeginPageSetup
[1 0 0 -1 0 722] CT
%%EndPageSetup
GS
[0.75 0 0 0.75 0 -0.25] CT
1 GC
N
0 0 1920 963 re
f
GR
GS
[0.75 0 0 0.75 0 -0.25] CT
1 GC
N
0 0 1920 963 re
f
GR
GS
[0.75 0 0 0.75 0 -0.25] CT
1 GC
N
526.147 810 M
1461.853 810 L
1461.853 72 L
526.147 72 L
cp
f
GR
GS
[0.75 0 0 0.75 0 -0.25] CT
0.149 GC
2 setlinecap
1 LJ
0.667 LW
N
526.147 810 M
1461.853 810 L
S
GR
GS
[0.75 0 0 0.75 0 -0.25] CT
0.149 GC
2 setlinecap
1 LJ
0.667 LW
N
526.147 810 M
526.147 800.643 L
S
GR
GS
[0.75 0 0 0.75 0 -0.25] CT
0.149 GC
2 setlinecap
1 LJ
0.667 LW
N
760.074 810 M
760.074 800.643 L
S
GR
GS
[0.75 0 0 0.75 0 -0.25] CT
0.149 GC
2 setlinecap
1 LJ
0.667 LW
N
994 810 M
994 800.643 L
S
GR
GS
[0.75 0 0 0.75 0 -0.25] CT
0.149 GC
2 setlinecap
1 LJ
0.667 LW
N
1227.926 810 M
1227.926 800.643 L
S
GR
GS
[0.75 0 0 0.75 0 -0.25] CT
0.149 GC
2 setlinecap
1 LJ
0.667 LW
N
1461.853 810 M
1461.853 800.643 L
S
GR
GS
[0.75 0 0 0.75 394.61041 617.24998] CT
0.149 GC
/Helvetica 53.333 F
GS
[1 0 0 1 0 0] CT
-24 54 moveto 
1 -1 scale
(-5) t 
GR
GR
GS
[0.75 0 0 0.75 570.05521 617.24998] CT
0.149 GC
/Helvetica 53.333 F
GS
[1 0 0 1 0 0] CT
-15 54 moveto 
1 -1 scale
(0) t 
GR
GR
GS
[0.75 0 0 0.75 745.5 617.24998] CT
0.149 GC
/Helvetica 53.333 F
GS
[1 0 0 1 0 0] CT
-15 54 moveto 
1 -1 scale
(5) t 
GR
GR
GS
[0.75 0 0 0.75 920.94479 617.24998] CT
0.149 GC
/Helvetica 53.333 F
GS
[1 0 0 1 0 0] CT
-30 54 moveto 
1 -1 scale
(10) t 
GR
GR
GS
[0.75 0 0 0.75 1096.38959 617.24998] CT
0.149 GC
/Helvetica 53.333 F
GS
[1 0 0 1 0 0] CT
-30 54 moveto 
1 -1 scale
(15) t 
GR
GR
GS
[0.75 0 0 0.75 745.50032 667.75002] CT
0.149 GC
/Helvetica 58.667 F
GS
[1 0 0 1 0 0] CT
-34.5 59 moveto 
1 -1 scale
(Xs) t 
GR
GR
GS
[0.75 0 0 0.75 0 -0.25] CT
0.149 GC
2 setlinecap
1 LJ
0.667 LW
N
526.147 810 M
526.147 72 L
S
GR
GS
[0.75 0 0 0.75 0 -0.25] CT
0.149 GC
2 setlinecap
1 LJ
0.667 LW
N
526.147 670.052 M
535.504 670.052 L
S
GR
GS
[0.75 0 0 0.75 0 -0.25] CT
0.149 GC
2 setlinecap
1 LJ
0.667 LW
N
526.147 436.126 M
535.504 436.126 L
S
GR
GS
[0.75 0 0 0.75 0 -0.25] CT
0.149 GC
2 setlinecap
1 LJ
0.667 LW
N
526.147 202.2 M
535.504 202.2 L
S
GR
GS
[0.75 0 0 0.75 384.61043 502.28932] CT
0.149 GC
/Helvetica 53.333 F
GS
[1 0 0 1 0 0] CT
-30 21 moveto 
1 -1 scale
(0) t 
GR
GR
GS
[0.75 0 0 0.75 384.61043 326.84455] CT
0.149 GC
/Helvetica 53.333 F
GS
[1 0 0 1 0 0] CT
-30 21 moveto 
1 -1 scale
(5) t 
GR
GR
GS
[0.75 0 0 0.75 384.61043 151.39976] CT
0.149 GC
/Helvetica 53.333 F
GS
[1 0 0 1 0 0] CT
-60 21 moveto 
1 -1 scale
(10) t 
GR
GR
GS
[0 -0.75 0.75 0 358.41552 331.20484] CT
0.149 GC
/Helvetica 58.667 F
GS
[1 0 0 1 0 0] CT
-34.5 -13 moveto 
1 -1 scale
(Ys) t 
GR
GR
GS
[0.75 0 0 0.75 780.58896 467.20036] CT
1 0 0 RC
N
0 -35.547 M
-30.783 17.773 L
30.783 17.773 L
cp
f
GR
GS
[0.75 0 0 0.75 780.58896 467.20036] CT
0 0 1 RC
10.0 ML
0.667 LW
N
0 -35.547 M
-30.783 17.773 L
30.783 17.773 L
cp
S
GR
GS
[0.75 0 0 0.75 745.5 397.02245] CT
1 0 0 RC
N
/f-166438322{0 -35.547 M
-30.783 17.773 L
30.783 17.773 L
cp}def
f-166438322
f
GR
GS
[0.75 0 0 0.75 745.5 397.02245] CT
0 0 1 RC
10.0 ML
0.667 LW
N
0 -35.547 M
-30.783 17.773 L
30.783 17.773 L
cp
S
GR
GS
[0.75 0 0 0.75 920.94479 256.66663] CT
1 0 0 RC
N
f-166438322
f
GR
GS
[0.75 0 0 0.75 920.94479 256.66663] CT
0 0 1 RC
10.0 ML
0.667 LW
N
0 -35.547 M
-30.783 17.773 L
30.783 17.773 L
cp
S
GR
GS
[0.75 0 0 0.75 640.23312 397.02245] CT
1 0 0 RC
N
f-166438322
f
GR
GS
[0.75 0 0 0.75 640.23312 397.02245] CT
0 0 1 RC
10.0 ML
0.667 LW
N
0 -35.547 M
-30.783 17.773 L
30.783 17.773 L
cp
S
GR
GS
[0.75 0 0 0.75 780.58896 291.75559] CT
1 0 0 RC
N
f-166438322
f
GR
GS
[0.75 0 0 0.75 780.58896 291.75559] CT
0 0 1 RC
10.0 ML
0.667 LW
N
0 -35.547 M
-30.783 17.773 L
30.783 17.773 L
cp
S
GR
GS
[0.75 0 0 0.75 745.5 326.84455] CT
1 0 0 RC
N
f-166438322
f
GR
GS
[0.75 0 0 0.75 745.5 326.84455] CT
0 0 1 RC
10.0 ML
0.667 LW
N
0 -35.547 M
-30.783 17.773 L
30.783 17.773 L
cp
S
GR
GS
[0.75 0 0 0.75 675.32208 361.93351] CT
1 0 0 RC
N
f-166438322
f
GR
GS
[0.75 0 0 0.75 675.32208 361.93351] CT
0 0 1 RC
10.0 ML
0.667 LW
N
0 -35.547 M
-30.783 17.773 L
30.783 17.773 L
cp
S
GR
GS
[0.75 0 0 0.75 815.67792 467.20036] CT
1 0 0 RC
N
f-166438322
f
GR
GS
[0.75 0 0 0.75 815.67792 467.20036] CT
0 0 1 RC
10.0 ML
0.667 LW
N
0 -35.547 M
-30.783 17.773 L
30.783 17.773 L
cp
S
GR
GS
[0.75 0 0 0.75 673.00502 205.41299] CT
0 1 1 RC
10.0 ML
8 LW
N
0 -4 M
0 4 L
-4 0 M
4 0 L
-2.828 -2.828 M
2.828 2.828 L
-2.828 2.828 M
2.828 -2.828 L
S
GR
GS
[0.75 0 0 0.75 673.00502 205.41299] CT
0 1 0 RC
10.0 ML
8 LW
N
0 -4 M
0 4 L
-4 0 M
4 0 L
-2.828 -2.828 M
2.828 2.828 L
-2.828 2.828 M
2.828 -2.828 L
S
GR
GS
[0.75 0 0 0.75 0 -0.25] CT
0 1 0 RC
1 LJ
8 LW
N
894.02 277.174 M
893.806 277.283 L
893.944 277.086 L
S
GR
GS
[0.75 0 0 0.75 0 -0.25] CT
0 1 0 RC
1 LJ
8 LW
N
897.34 274.217 M
893.806 277.283 L
S
GR
GS
[0.75 0 0 0.75 0 -0.25] CT
0 1 0 RC
1 LJ
13.333 LW
N
885.505 264.09 M
888.396 261.465 L
891.848 259.641 L
895.646 258.733 L
899.55 258.798 L
903.315 259.832 L
906.705 261.77 L
909.506 264.49 L
911.543 267.821 L
912.687 271.554 L
912.867 275.455 L
912.072 279.277 L
910.351 282.782 L
907.812 285.749 L
904.615 287.991 L
900.962 289.367 L
897.08 289.792 L
893.215 289.238 L
889.609 287.74 L
886.489 285.393 L
884.051 282.343 L
882.448 278.783 L
881.78 274.936 L
882.09 271.044 L
883.358 267.351 L
885.505 264.09 L
S
GR
GS
[0.75 0 0 0.75 643.96921 246.74495] CT
0 0 1 RC
10.0 ML
8 LW
N
0 -4 M
0 4 L
-4 0 M
4 0 L
-2.828 -2.828 M
2.828 2.828 L
-2.828 2.828 M
2.828 -2.828 L
S
GR
GS
[0.75 0 0 0.75 0 -0.25] CT
0 0 1 RC
1 LJ
8 LW
N
855.306 332.284 M
855.092 332.393 L
855.23 332.196 L
S
GR
GS
[0.75 0 0 0.75 0 -0.25] CT
0 0 1 RC
1 LJ
8 LW
N
858.626 329.327 M
855.092 332.393 L
S
GR
GS
[0.75 0 0 0.75 0 -0.25] CT
0 0 1 RC
1 LJ
8 LW
N
846.367 319.717 M
849.142 316.97 L
852.512 315 L
856.267 313.93 L
860.171 313.827 L
863.977 314.698 L
867.447 316.488 L
870.362 319.085 L
872.54 322.326 L
873.844 326.006 L
874.192 329.895 L
873.561 333.749 L
871.992 337.324 L
869.584 340.397 L
866.486 342.774 L
862.895 344.307 L
859.035 344.898 L
855.15 344.511 L
851.483 343.169 L
848.265 340.958 L
845.698 338.016 L
843.943 334.528 L
843.111 330.713 L
843.253 326.811 L
844.362 323.068 L
846.367 319.717 L
S
GR
GS
[0.75 0 0 0.75 673.77795 205.41303] CT
0 0 1 RC
10.0 ML
8 LW
N
0 -4 M
0 4 L
-4 0 M
4 0 L
-2.828 -2.828 M
2.828 2.828 L
-2.828 2.828 M
2.828 -2.828 L
S
GR
GS
[0.75 0 0 0.75 0 -0.25] CT
0 0 1 RC
1 LJ
8 LW
N
895.051 277.174 M
894.836 277.283 L
894.974 277.086 L
S
GR
GS
[0.75 0 0 0.75 0 -0.25] CT
0 0 1 RC
1 LJ
8 LW
N
898.371 274.217 M
894.836 277.283 L
S
GR
GS
[0.75 0 0 0.75 0 -0.25] CT
0 0 1 RC
1 LJ
13.333 LW
N
886.538 264.087 M
884.39 267.348 L
883.121 271.041 L
882.81 274.933 L
883.477 278.78 L
885.08 282.341 L
887.518 285.391 L
890.637 287.739 L
894.243 289.237 L
898.108 289.792 L
901.989 289.368 L
905.643 287.992 L
908.841 285.751 L
911.38 282.784 L
913.102 279.28 L
913.898 275.458 L
913.718 271.557 L
912.575 267.824 L
910.538 264.492 L
907.738 261.772 L
904.348 259.833 L
900.583 258.799 L
896.679 258.733 L
892.882 259.64 L
889.429 261.463 L
886.538 264.087 L
S
GR
GS
[0.75 0 0 0.75 644.09445 246.7447] CT
0 0 1 RC
10.0 ML
8 LW
N
0 -4 M
0 4 L
-4 0 M
4 0 L
-2.828 -2.828 M
2.828 2.828 L
-2.828 2.828 M
2.828 -2.828 L
S
GR
GS
[0.75 0 0 0.75 0 -0.25] CT
0 0 1 RC
1 LJ
8 LW
N
855.473 332.283 M
855.259 332.392 L
855.397 332.195 L
S
GR
GS
[0.75 0 0 0.75 0 -0.25] CT
0 0 1 RC
1 LJ
8 LW
N
858.793 329.326 M
855.259 332.392 L
S
GR
GS
[0.75 0 0 0.75 0 -0.25] CT
0 0 1 RC
1 LJ
13.333 LW
N
846.516 319.738 M
849.286 316.987 L
852.654 315.01 L
856.407 313.933 L
860.31 313.824 L
864.118 314.688 L
867.591 316.472 L
870.511 319.064 L
872.695 322.301 L
874.005 325.979 L
874.36 329.867 L
873.736 333.722 L
872.174 337.3 L
869.77 340.377 L
866.677 342.76 L
863.089 344.299 L
859.23 344.897 L
855.344 344.516 L
851.675 343.182 L
848.453 340.976 L
845.88 338.039 L
844.119 334.554 L
843.28 330.741 L
843.416 326.839 L
844.518 323.093 L
846.516 319.738 L
S
GR
GS
[0.75 0 0 0.75 0 -0.25] CT
1 GC
N
/f-277867124{1491 208 M
1491 69 L
1227 69 L
1227 208 L
cp}def
f-277867124
f
GR
GS
[0.75 0 0 0.75 964.49615 74.2915] CT
/Helvetica-Bold 40 F
GS
[1 0 0 1 0 0] CT
0 16 moveto 
1 -1 scale
(LandMark) t 
GR
GR
GS
[0.75 0 0 0.75 947.24496 74.2915] CT
1 0 0 RC
N
/f-1996900118{0 -26.66 M
-23.088 13.33 L
23.088 13.33 L
cp}def
f-1996900118
f
GR
GS
[0.75 0 0 0.75 947.24496 74.2915] CT
0 0 1 RC
10.0 ML
0.667 LW
N
0 -26.66 M
-23.088 13.33 L
23.088 13.33 L
cp
S
GR
GS
[0.75 0 0 0.75 964.5 130.25] CT
/Helvetica-Bold 40 F
GS
[1 0 0 1 0 0] CT
0 0 moveto 
1 -1 scale
(b[X) t 
GR
GR
GS
[0.75 0 0 0.75 1013.25 145.25] CT
/Helvetica-Bold 32 F
GS
[1 0 0 1 0 0] CT
0 0 moveto 
1 -1 scale
(k) t 
GR
GR
GS
[0.75 0 0 0.75 1026.75 130.25] CT
/Helvetica-Bold 40 F
GS
[1 0 0 1 0 0] CT
0 0 moveto 
1 -1 scale
(]) t 
GR
GR
GS
[0.75 0 0 0.75 0 -0.25] CT
0 0 1 RC
1 LJ
13.333 LW
N
1242.992 166.919 M
1282.995 166.919 L
S
GR
GS
[0.75 0 0 0.75 0 -0.25] CT
0.149 GC
10.0 ML
0.667 LW
N
1227 208 M
1227 69 L
1491 69 L
1491 208 L
cp
S
GR
%%Trailer
%%Pages: 1
%%EOF
