%!PS-Adobe-3.0 EPSF-3.0
%%Creator: (MATLAB, The Mathworks, Inc. Version 9.10.0.1649659 \(R2021a\) Update 1. Operating System: Windows 10)
%%Title: (C:/Users/ohads/ANPL/papers/research/2022 ICRA/Figures/TestCase_1/fig_files/Robots_estimation_k_2.eps)
%%CreationDate: 2021-07-29T16:43:38
%%Pages: (atend)
%%BoundingBox:    36     9   381   293
%%LanguageLevel: 3
%%EndComments
%%BeginProlog
%%BeginResource: procset (Apache XML Graphics Std ProcSet) 1.2 0
%%Version: 1.2 0
%%Copyright: (Copyright 2001-2003,2010 The Apache Software Foundation. License terms: http://www.apache.org/licenses/LICENSE-2.0)
/bd{bind def}bind def
/ld{load def}bd
/GR/grestore ld
/GS/gsave ld
/RM/rmoveto ld
/C/curveto ld
/t/show ld
/L/lineto ld
/ML/setmiterlimit ld
/CT/concat ld
/f/fill ld
/N/newpath ld
/S/stroke ld
/CC/setcmykcolor ld
/A/ashow ld
/cp/closepath ld
/RC/setrgbcolor ld
/LJ/setlinejoin ld
/GC/setgray ld
/LW/setlinewidth ld
/M/moveto ld
/re {4 2 roll M
1 index 0 rlineto
0 exch rlineto
neg 0 rlineto
cp } bd
/_ctm matrix def
/_tm matrix def
/BT { _ctm currentmatrix pop matrix _tm copy pop 0 0 moveto } bd
/ET { _ctm setmatrix } bd
/iTm { _ctm setmatrix _tm concat } bd
/Tm { _tm astore pop iTm 0 0 moveto } bd
/ux 0.0 def
/uy 0.0 def
/F {
  /Tp exch def
  /Tf exch def
  Tf findfont Tp scalefont setfont
  /cf Tf def  /cs Tp def
} bd
/ULS {currentpoint /uy exch def /ux exch def} bd
/ULE {
  /Tcx currentpoint pop def
  gsave
  newpath
  cf findfont cs scalefont dup
  /FontMatrix get 0 get /Ts exch def /FontInfo get dup
  /UnderlinePosition get Ts mul /To exch def
  /UnderlineThickness get Ts mul /Tt exch def
  ux uy To add moveto  Tcx uy To add lineto
  Tt setlinewidth stroke
  grestore
} bd
/OLE {
  /Tcx currentpoint pop def
  gsave
  newpath
  cf findfont cs scalefont dup
  /FontMatrix get 0 get /Ts exch def /FontInfo get dup
  /UnderlinePosition get Ts mul /To exch def
  /UnderlineThickness get Ts mul /Tt exch def
  ux uy To add cs add moveto Tcx uy To add cs add lineto
  Tt setlinewidth stroke
  grestore
} bd
/SOE {
  /Tcx currentpoint pop def
  gsave
  newpath
  cf findfont cs scalefont dup
  /FontMatrix get 0 get /Ts exch def /FontInfo get dup
  /UnderlinePosition get Ts mul /To exch def
  /UnderlineThickness get Ts mul /Tt exch def
  ux uy To add cs 10 mul 26 idiv add moveto Tcx uy To add cs 10 mul 26 idiv add lineto
  Tt setlinewidth stroke
  grestore
} bd
/QT {
/Y22 exch store
/X22 exch store
/Y21 exch store
/X21 exch store
currentpoint
/Y21 load 2 mul add 3 div exch
/X21 load 2 mul add 3 div exch
/X21 load 2 mul /X22 load add 3 div
/Y21 load 2 mul /Y22 load add 3 div
/X22 load /Y22 load curveto
} bd
/SSPD {
dup length /d exch dict def
{
/v exch def
/k exch def
currentpagedevice k known {
/cpdv currentpagedevice k get def
v cpdv ne {
/upd false def
/nullv v type /nulltype eq def
/nullcpdv cpdv type /nulltype eq def
nullv nullcpdv or
{
/upd true def
} {
/sametype v type cpdv type eq def
sametype {
v type /arraytype eq {
/vlen v length def
/cpdvlen cpdv length def
vlen cpdvlen eq {
0 1 vlen 1 sub {
/i exch def
/obj v i get def
/cpdobj cpdv i get def
obj cpdobj ne {
/upd true def
exit
} if
} for
} {
/upd true def
} ifelse
} {
v type /dicttype eq {
v {
/dv exch def
/dk exch def
/cpddv cpdv dk get def
dv cpddv ne {
/upd true def
exit
} if
} forall
} {
/upd true def
} ifelse
} ifelse
} if
} ifelse
upd true eq {
d k v put
} if
} if
} if
} forall
d length 0 gt {
d setpagedevice
} if
} bd
/RE { % /NewFontName [NewEncodingArray] /FontName RE -
  findfont dup length dict begin
  {
    1 index /FID ne
    {def} {pop pop} ifelse
  } forall
  /Encoding exch def
  /FontName 1 index def
  currentdict definefont pop
  end
} bind def
%%EndResource
%%BeginResource: procset (Apache XML Graphics EPS ProcSet) 1.0 0
%%Version: 1.0 0
%%Copyright: (Copyright 2002-2003 The Apache Software Foundation. License terms: http://www.apache.org/licenses/LICENSE-2.0)
/BeginEPSF { %def
/b4_Inc_state save def         % Save state for cleanup
/dict_count countdictstack def % Count objects on dict stack
/op_count count 1 sub def      % Count objects on operand stack
userdict begin                 % Push userdict on dict stack
/showpage { } def              % Redefine showpage, { } = null proc
0 setgray 0 setlinecap         % Prepare graphics state
1 setlinewidth 0 setlinejoin
10 setmiterlimit [ ] 0 setdash newpath
/languagelevel where           % If level not equal to 1 then
{pop languagelevel             % set strokeadjust and
1 ne                           % overprint to their defaults.
{false setstrokeadjust false setoverprint
} if
} if
} bd
/EndEPSF { %def
count op_count sub {pop} repeat            % Clean up stacks
countdictstack dict_count sub {end} repeat
b4_Inc_state restore
} bd
%%EndResource
%FOPBeginFontDict
%%IncludeResource: font Courier-Oblique
%%IncludeResource: font Courier-BoldOblique
%%IncludeResource: font Courier-Bold
%%IncludeResource: font ZapfDingbats
%%IncludeResource: font Symbol
%%IncludeResource: font Helvetica
%%IncludeResource: font Helvetica-Oblique
%%IncludeResource: font Helvetica-Bold
%%IncludeResource: font Helvetica-BoldOblique
%%IncludeResource: font Times-Roman
%%IncludeResource: font Times-Italic
%%IncludeResource: font Times-Bold
%%IncludeResource: font Times-BoldItalic
%%IncludeResource: font Courier
%FOPEndFontDict
%%BeginResource: encoding WinAnsiEncoding
/WinAnsiEncoding [
/.notdef /.notdef /.notdef /.notdef /.notdef
/.notdef /.notdef /.notdef /.notdef /.notdef
/.notdef /.notdef /.notdef /.notdef /.notdef
/.notdef /.notdef /.notdef /.notdef /.notdef
/.notdef /.notdef /.notdef /.notdef /.notdef
/.notdef /.notdef /.notdef /.notdef /.notdef
/.notdef /.notdef /space /exclam /quotedbl
/numbersign /dollar /percent /ampersand /quotesingle
/parenleft /parenright /asterisk /plus /comma
/hyphen /period /slash /zero /one
/two /three /four /five /six
/seven /eight /nine /colon /semicolon
/less /equal /greater /question /at
/A /B /C /D /E
/F /G /H /I /J
/K /L /M /N /O
/P /Q /R /S /T
/U /V /W /X /Y
/Z /bracketleft /backslash /bracketright /asciicircum
/underscore /quoteleft /a /b /c
/d /e /f /g /h
/i /j /k /l /m
/n /o /p /q /r
/s /t /u /v /w
/x /y /z /braceleft /bar
/braceright /asciitilde /bullet /Euro /bullet
/quotesinglbase /florin /quotedblbase /ellipsis /dagger
/daggerdbl /circumflex /perthousand /Scaron /guilsinglleft
/OE /bullet /Zcaron /bullet /bullet
/quoteleft /quoteright /quotedblleft /quotedblright /bullet
/endash /emdash /asciitilde /trademark /scaron
/guilsinglright /oe /bullet /zcaron /Ydieresis
/space /exclamdown /cent /sterling /currency
/yen /brokenbar /section /dieresis /copyright
/ordfeminine /guillemotleft /logicalnot /sfthyphen /registered
/macron /degree /plusminus /twosuperior /threesuperior
/acute /mu /paragraph /middot /cedilla
/onesuperior /ordmasculine /guillemotright /onequarter /onehalf
/threequarters /questiondown /Agrave /Aacute /Acircumflex
/Atilde /Adieresis /Aring /AE /Ccedilla
/Egrave /Eacute /Ecircumflex /Edieresis /Igrave
/Iacute /Icircumflex /Idieresis /Eth /Ntilde
/Ograve /Oacute /Ocircumflex /Otilde /Odieresis
/multiply /Oslash /Ugrave /Uacute /Ucircumflex
/Udieresis /Yacute /Thorn /germandbls /agrave
/aacute /acircumflex /atilde /adieresis /aring
/ae /ccedilla /egrave /eacute /ecircumflex
/edieresis /igrave /iacute /icircumflex /idieresis
/eth /ntilde /ograve /oacute /ocircumflex
/otilde /odieresis /divide /oslash /ugrave
/uacute /ucircumflex /udieresis /yacute /thorn
/ydieresis
] def
%%EndResource
%FOPBeginFontReencode
/Courier-Oblique findfont
dup length dict begin
  {1 index /FID ne {def} {pop pop} ifelse} forall
  /Encoding WinAnsiEncoding def
  currentdict
end
/Courier-Oblique exch definefont pop
/Courier-BoldOblique findfont
dup length dict begin
  {1 index /FID ne {def} {pop pop} ifelse} forall
  /Encoding WinAnsiEncoding def
  currentdict
end
/Courier-BoldOblique exch definefont pop
/Courier-Bold findfont
dup length dict begin
  {1 index /FID ne {def} {pop pop} ifelse} forall
  /Encoding WinAnsiEncoding def
  currentdict
end
/Courier-Bold exch definefont pop
/Helvetica findfont
dup length dict begin
  {1 index /FID ne {def} {pop pop} ifelse} forall
  /Encoding WinAnsiEncoding def
  currentdict
end
/Helvetica exch definefont pop
/Helvetica-Oblique findfont
dup length dict begin
  {1 index /FID ne {def} {pop pop} ifelse} forall
  /Encoding WinAnsiEncoding def
  currentdict
end
/Helvetica-Oblique exch definefont pop
/Helvetica-Bold findfont
dup length dict begin
  {1 index /FID ne {def} {pop pop} ifelse} forall
  /Encoding WinAnsiEncoding def
  currentdict
end
/Helvetica-Bold exch definefont pop
/Helvetica-BoldOblique findfont
dup length dict begin
  {1 index /FID ne {def} {pop pop} ifelse} forall
  /Encoding WinAnsiEncoding def
  currentdict
end
/Helvetica-BoldOblique exch definefont pop
/Times-Roman findfont
dup length dict begin
  {1 index /FID ne {def} {pop pop} ifelse} forall
  /Encoding WinAnsiEncoding def
  currentdict
end
/Times-Roman exch definefont pop
/Times-Italic findfont
dup length dict begin
  {1 index /FID ne {def} {pop pop} ifelse} forall
  /Encoding WinAnsiEncoding def
  currentdict
end
/Times-Italic exch definefont pop
/Times-Bold findfont
dup length dict begin
  {1 index /FID ne {def} {pop pop} ifelse} forall
  /Encoding WinAnsiEncoding def
  currentdict
end
/Times-Bold exch definefont pop
/Times-BoldItalic findfont
dup length dict begin
  {1 index /FID ne {def} {pop pop} ifelse} forall
  /Encoding WinAnsiEncoding def
  currentdict
end
/Times-BoldItalic exch definefont pop
/Courier findfont
dup length dict begin
  {1 index /FID ne {def} {pop pop} ifelse} forall
  /Encoding WinAnsiEncoding def
  currentdict
end
/Courier exch definefont pop
%FOPEndFontReencode
%%EndProlog
%%Page: 1 1
%%PageBoundingBox: 0 0 428 315
%%BeginPageSetup
[1 0 0 -1 0 315] CT
%%EndPageSetup
GS
[0.75 0 0 0.75 0 0] CT
1 GC
N
0 0 570 420 re
f
GR
GS
[0.75 0 0 0.75 0 0] CT
1 GC
N
0 0 570 420 re
f
GR
GS
[0.75 0 0 0.75 0 0] CT
1 GC
N
181.389 267 M
480.611 267 L
480.611 31 L
181.389 31 L
cp
f
GR
GS
[0.75 0 0 0.75 0 0] CT
0.149 GC
2 setlinecap
1 LJ
0.667 LW
N
181.389 267 M
480.611 267 L
S
GR
GS
[0.75 0 0 0.75 0 0] CT
0.149 GC
2 setlinecap
1 LJ
0.667 LW
N
181.389 267 M
181.389 264.008 L
S
GR
GS
[0.75 0 0 0.75 0 0] CT
0.149 GC
2 setlinecap
1 LJ
0.667 LW
N
256.194 267 M
256.194 264.008 L
S
GR
GS
[0.75 0 0 0.75 0 0] CT
0.149 GC
2 setlinecap
1 LJ
0.667 LW
N
331 267 M
331 264.008 L
S
GR
GS
[0.75 0 0 0.75 0 0] CT
0.149 GC
2 setlinecap
1 LJ
0.667 LW
N
405.806 267 M
405.806 264.008 L
S
GR
GS
[0.75 0 0 0.75 0 0] CT
0.149 GC
2 setlinecap
1 LJ
0.667 LW
N
480.611 267 M
480.611 264.008 L
S
GR
GS
[0.75 0 0 0.75 136.04141 210.25001] CT
0.149 GC
/Helvetica 53.333 F
GS
[1 0 0 1 0 0] CT
-24 54 moveto 
1 -1 scale
(-5) t 
GR
GR
GS
[0.75 0 0 0.75 192.14571 210.25001] CT
0.149 GC
/Helvetica 53.333 F
GS
[1 0 0 1 0 0] CT
-15 54 moveto 
1 -1 scale
(0) t 
GR
GR
GS
[0.75 0 0 0.75 248.25 210.25001] CT
0.149 GC
/Helvetica 53.333 F
GS
[1 0 0 1 0 0] CT
-15 54 moveto 
1 -1 scale
(5) t 
GR
GR
GS
[0.75 0 0 0.75 304.35429 210.25001] CT
0.149 GC
/Helvetica 53.333 F
GS
[1 0 0 1 0 0] CT
-30 54 moveto 
1 -1 scale
(10) t 
GR
GR
GS
[0.75 0 0 0.75 360.45859 210.25001] CT
0.149 GC
/Helvetica 53.333 F
GS
[1 0 0 1 0 0] CT
-30 54 moveto 
1 -1 scale
(15) t 
GR
GR
GS
[0.75 0 0 0.75 248.25011 260.74999] CT
0.149 GC
/Helvetica 58.667 F
GS
[1 0 0 1 0 0] CT
-34.5 59 moveto 
1 -1 scale
(Xs) t 
GR
GR
GS
[0.75 0 0 0.75 0 0] CT
0.149 GC
2 setlinecap
1 LJ
0.667 LW
N
181.389 267 M
181.389 31 L
S
GR
GS
[0.75 0 0 0.75 0 0] CT
0.149 GC
2 setlinecap
1 LJ
0.667 LW
N
181.389 231.79 M
184.381 231.79 L
S
GR
GS
[0.75 0 0 0.75 0 0] CT
0.149 GC
2 setlinecap
1 LJ
0.667 LW
N
181.389 156.984 M
184.381 156.984 L
S
GR
GS
[0.75 0 0 0.75 0 0] CT
0.149 GC
2 setlinecap
1 LJ
0.667 LW
N
181.389 82.179 M
184.381 82.179 L
S
GR
GS
[0.75 0 0 0.75 126.04142 173.84264] CT
0.149 GC
/Helvetica 53.333 F
GS
[1 0 0 1 0 0] CT
-30 21 moveto 
1 -1 scale
(0) t 
GR
GR
GS
[0.75 0 0 0.75 126.04142 117.73835] CT
0.149 GC
/Helvetica 53.333 F
GS
[1 0 0 1 0 0] CT
-30 21 moveto 
1 -1 scale
(5) t 
GR
GR
GS
[0.75 0 0 0.75 126.04142 61.63406] CT
0.149 GC
/Helvetica 53.333 F
GS
[1 0 0 1 0 0] CT
-60 21 moveto 
1 -1 scale
(10) t 
GR
GR
GS
[0 -0.75 0.75 0 78.04142 111.74992] CT
0.149 GC
/Helvetica 58.667 F
GS
[1 0 0 1 0 0] CT
-34.5 -13 moveto 
1 -1 scale
(Ys) t 
GR
GR
GS
[0.75 0 0 0.75 259.47086 162.62179] CT
1 0 0 RC
N
0 -26.66 M
-23.088 13.33 L
23.088 13.33 L
cp
f
GR
GS
[0.75 0 0 0.75 259.47086 162.62179] CT
0 0 1 RC
10.0 ML
0.667 LW
N
0 -26.66 M
-23.088 13.33 L
23.088 13.33 L
cp
S
GR
GS
[0.75 0 0 0.75 248.25 140.18008] CT
1 0 0 RC
N
/f-1996900118{0 -26.66 M
-23.088 13.33 L
23.088 13.33 L
cp}def
f-1996900118
f
GR
GS
[0.75 0 0 0.75 248.25 140.18008] CT
0 0 1 RC
10.0 ML
0.667 LW
N
0 -26.66 M
-23.088 13.33 L
23.088 13.33 L
cp
S
GR
GS
[0.75 0 0 0.75 304.35429 95.29663] CT
1 0 0 RC
N
f-1996900118
f
GR
GS
[0.75 0 0 0.75 304.35429 95.29663] CT
0 0 1 RC
10.0 ML
0.667 LW
N
0 -26.66 M
-23.088 13.33 L
23.088 13.33 L
cp
S
GR
GS
[0.75 0 0 0.75 214.58743 140.18008] CT
1 0 0 RC
N
f-1996900118
f
GR
GS
[0.75 0 0 0.75 214.58743 140.18008] CT
0 0 1 RC
10.0 ML
0.667 LW
N
0 -26.66 M
-23.088 13.33 L
23.088 13.33 L
cp
S
GR
GS
[0.75 0 0 0.75 259.47086 106.5175] CT
1 0 0 RC
N
f-1996900118
f
GR
GS
[0.75 0 0 0.75 259.47086 106.5175] CT
0 0 1 RC
10.0 ML
0.667 LW
N
0 -26.66 M
-23.088 13.33 L
23.088 13.33 L
cp
S
GR
GS
[0.75 0 0 0.75 248.25 117.73835] CT
1 0 0 RC
N
f-1996900118
f
GR
GS
[0.75 0 0 0.75 248.25 117.73835] CT
0 0 1 RC
10.0 ML
0.667 LW
N
0 -26.66 M
-23.088 13.33 L
23.088 13.33 L
cp
S
GR
GS
[0.75 0 0 0.75 225.80827 128.95921] CT
1 0 0 RC
N
f-1996900118
f
GR
GS
[0.75 0 0 0.75 225.80827 128.95921] CT
0 0 1 RC
10.0 ML
0.667 LW
N
0 -26.66 M
-23.088 13.33 L
23.088 13.33 L
cp
S
GR
GS
[0.75 0 0 0.75 270.69173 162.62179] CT
1 0 0 RC
N
f-1996900118
f
GR
GS
[0.75 0 0 0.75 270.69173 162.62179] CT
0 0 1 RC
10.0 ML
0.667 LW
N
0 -26.66 M
-23.088 13.33 L
23.088 13.33 L
cp
S
GR
GS
[0.75 0 0 0.75 253.21971 121.48829] CT
1 0 0 RC
10.0 ML
0.667 LW
N
0 -5 M
0 5 L
-5 0 M
5 0 L
S
GR
GS
[0.75 0 0 0.75 251.63699 124.47301] CT
0 1 1 RC
10.0 ML
0.667 LW
N
0 -4 M
0 4 L
-4 0 M
4 0 L
-2.828 -2.828 M
2.828 2.828 L
-2.828 2.828 M
2.828 -2.828 L
S
GR
GS
[0.75 0 0 0.75 0 0] CT
0 1 1 RC
1 LJ
0.667 LW
N
335.068 164.635 M
335.061 164.539 L
335.112 164.621 L
S
GR
GS
[0.75 0 0 0.75 0 0] CT
0 1 1 RC
1 LJ
0.667 LW
N
335.516 165.964 M
335.061 164.539 L
S
GR
GS
[0.75 0 0 0.75 0 0] CT
0 1 1 RC
1 LJ
0.667 LW
N
323.039 165.964 M
323.431 169.081 L
324.582 172.002 L
326.421 174.544 L
328.831 176.547 L
331.661 177.884 L
334.733 178.473 L
337.854 178.275 L
340.829 177.304 L
343.47 175.621 L
345.611 173.331 L
347.117 170.578 L
347.895 167.535 L
347.895 164.393 L
347.117 161.35 L
345.61 158.597 L
343.469 156.307 L
340.828 154.623 L
337.854 153.652 L
334.732 153.455 L
331.66 154.044 L
328.83 155.382 L
326.42 157.385 L
324.582 159.926 L
323.431 162.847 L
323.039 165.964 L
S
GR
GS
[0.75 0 0 0.75 241.32763 102.78777] CT
0 1 1 RC
10.0 ML
0.667 LW
N
0 -4 M
0 4 L
-4 0 M
4 0 L
-2.828 -2.828 M
2.828 2.828 L
-2.828 2.828 M
2.828 -2.828 L
S
GR
GS
[0.75 0 0 0.75 0 0] CT
0 1 1 RC
1 LJ
0.667 LW
N
321.322 135.722 M
321.316 135.625 L
321.367 135.707 L
S
GR
GS
[0.75 0 0 0.75 0 0] CT
0 1 1 RC
1 LJ
0.667 LW
N
321.77 137.05 M
321.316 135.625 L
S
GR
GS
[0.75 0 0 0.75 0 0] CT
0 1 1 RC
1 LJ
0.667 LW
N
309.293 137.051 M
309.685 140.168 L
310.837 143.089 L
312.675 145.63 L
315.085 147.633 L
317.915 148.97 L
320.987 149.559 L
324.109 149.362 L
327.083 148.391 L
329.724 146.707 L
331.865 144.417 L
333.371 141.664 L
334.149 138.621 L
334.149 135.479 L
333.371 132.436 L
331.864 129.683 L
329.723 127.393 L
327.082 125.71 L
324.108 124.739 L
320.986 124.542 L
317.914 125.13 L
315.084 126.468 L
312.674 128.471 L
310.836 131.013 L
309.685 133.934 L
309.293 137.051 L
S
GR
GS
[0.75 0 0 0.75 251.63704 70.25973] CT
0 1 1 RC
10.0 ML
0.667 LW
N
0 -4 M
0 4 L
-4 0 M
4 0 L
-2.828 -2.828 M
2.828 2.828 L
-2.828 2.828 M
2.828 -2.828 L
S
GR
GS
[0.75 0 0 0.75 0 0] CT
0 1 1 RC
1 LJ
0.667 LW
N
335.068 92.351 M
335.061 92.254 L
335.112 92.337 L
S
GR
GS
[0.75 0 0 0.75 0 0] CT
0 1 1 RC
1 LJ
0.667 LW
N
335.516 93.68 M
335.061 92.254 L
S
GR
GS
[0.75 0 0 0.75 0 0] CT
0 1 1 RC
1 LJ
0.667 LW
N
323.039 93.68 M
323.431 90.563 L
324.582 87.642 L
326.42 85.1 L
328.83 83.098 L
331.66 81.76 L
334.732 81.171 L
337.854 81.368 L
340.828 82.339 L
343.469 84.022 L
345.61 86.312 L
347.117 89.065 L
347.895 92.108 L
347.895 95.25 L
347.117 98.293 L
345.611 101.046 L
343.47 103.337 L
340.829 105.02 L
337.854 105.991 L
334.733 106.188 L
331.661 105.6 L
328.831 104.262 L
326.421 102.26 L
324.582 99.718 L
323.431 96.797 L
323.039 93.68 L
S
GR
GS
[0.75 0 0 0.75 241.32765 81.1024] CT
0 1 1 RC
10.0 ML
0.667 LW
N
0 -4 M
0 4 L
-4 0 M
4 0 L
-2.828 -2.828 M
2.828 2.828 L
-2.828 2.828 M
2.828 -2.828 L
S
GR
GS
[0.75 0 0 0.75 0 0] CT
0 1 1 RC
1 LJ
0.667 LW
N
321.322 106.808 M
321.316 106.711 L
321.367 106.794 L
S
GR
GS
[0.75 0 0 0.75 0 0] CT
0 1 1 RC
1 LJ
0.667 LW
N
321.77 108.137 M
321.316 106.711 L
S
GR
GS
[0.75 0 0 0.75 0 0] CT
0 1 1 RC
1 LJ
0.667 LW
N
309.293 108.137 M
309.685 111.254 L
310.837 114.175 L
312.675 116.717 L
315.085 118.719 L
317.915 120.057 L
320.987 120.645 L
324.109 120.448 L
327.083 119.477 L
329.724 117.793 L
331.865 115.503 L
333.371 112.75 L
334.149 109.707 L
334.149 106.565 L
333.371 103.522 L
331.864 100.769 L
329.723 98.479 L
327.082 96.796 L
324.108 95.825 L
320.986 95.628 L
317.914 96.217 L
315.084 97.554 L
312.674 99.557 L
310.836 102.099 L
309.685 105.02 L
309.293 108.137 L
S
GR
GS
[0.75 0 0 0.75 261.9464 124.47399] CT
0 1 1 RC
10.0 ML
0.667 LW
N
0 -4 M
0 4 L
-4 0 M
4 0 L
-2.828 -2.828 M
2.828 2.828 L
-2.828 2.828 M
2.828 -2.828 L
S
GR
GS
[0.75 0 0 0.75 0 0] CT
0 1 1 RC
1 LJ
0.667 LW
N
348.813 164.637 M
348.807 164.54 L
348.858 164.622 L
S
GR
GS
[0.75 0 0 0.75 0 0] CT
0 1 1 RC
1 LJ
0.667 LW
N
349.262 165.965 M
348.807 164.54 L
S
GR
GS
[0.75 0 0 0.75 0 0] CT
0 1 1 RC
1 LJ
0.667 LW
N
336.785 165.966 M
337.177 169.083 L
338.328 172.004 L
340.167 174.545 L
342.577 176.548 L
345.407 177.885 L
348.479 178.474 L
351.6 178.277 L
354.575 177.306 L
357.215 175.622 L
359.356 173.332 L
360.863 170.579 L
361.641 167.536 L
361.641 164.394 L
360.863 161.351 L
359.356 158.598 L
357.215 156.308 L
354.574 154.625 L
351.599 153.654 L
348.478 153.457 L
345.406 154.045 L
342.576 155.383 L
340.166 157.386 L
338.328 159.928 L
337.177 162.849 L
336.785 165.966 L
S
GR
GS
[0.75 0 0 0.75 253.21971 121.48829] CT
1 0 0 RC
10.0 ML
0.667 LW
N
0 -5 M
0 5 L
-5 0 M
5 0 L
S
GR
GS
[0.75 0 0 0.75 251.63699 124.47301] CT
0 1 0 RC
10.0 ML
0.667 LW
N
0 -4 M
0 4 L
-4 0 M
4 0 L
-2.828 -2.828 M
2.828 2.828 L
-2.828 2.828 M
2.828 -2.828 L
S
GR
GS
[0.75 0 0 0.75 0 0] CT
0 1 0 RC
1 LJ
0.667 LW
N
335.068 164.635 M
335.061 164.539 L
335.112 164.621 L
S
GR
GS
[0.75 0 0 0.75 0 0] CT
0 1 0 RC
1 LJ
0.667 LW
N
335.516 165.964 M
335.061 164.539 L
S
GR
GS
[0.75 0 0 0.75 0 0] CT
0 1 0 RC
1 LJ
0.667 LW
N
330.529 165.964 M
330.685 167.205 L
331.145 168.368 L
331.88 169.38 L
332.844 170.178 L
333.975 170.711 L
335.203 170.945 L
336.45 170.867 L
337.639 170.48 L
338.695 169.81 L
339.551 168.898 L
340.153 167.801 L
340.464 166.59 L
340.464 165.339 L
340.153 164.127 L
339.551 163.031 L
338.695 162.119 L
337.64 161.448 L
336.451 161.062 L
335.203 160.983 L
333.975 161.217 L
332.844 161.75 L
331.88 162.547 L
331.146 163.559 L
330.685 164.723 L
330.529 165.964 L
S
GR
GS
[0.75 0 0 0.75 260.77718 124.53615] CT
0 0 1 RC
10.0 ML
0.667 LW
N
0 -4 M
0 4 L
-4 0 M
4 0 L
-2.828 -2.828 M
2.828 2.828 L
-2.828 2.828 M
2.828 -2.828 L
S
GR
GS
[0.75 0 0 0.75 0 0] CT
0 0 1 RC
1 LJ
0.667 LW
N
347.255 164.72 M
347.248 164.623 L
347.299 164.705 L
S
GR
GS
[0.75 0 0 0.75 0 0] CT
0 0 1 RC
1 LJ
0.667 LW
N
347.703 166.048 M
347.248 164.623 L
S
GR
GS
[0.75 0 0 0.75 0 0] CT
0 0 1 RC
1 LJ
0.667 LW
N
342.716 166.048 M
342.872 167.289 L
343.332 168.453 L
344.067 169.465 L
345.031 170.262 L
346.162 170.795 L
347.39 171.029 L
348.637 170.951 L
349.826 170.564 L
350.882 169.894 L
351.738 168.982 L
352.34 167.886 L
352.651 166.674 L
352.651 165.423 L
352.34 164.211 L
351.738 163.115 L
350.882 162.203 L
349.826 161.532 L
348.638 161.146 L
347.39 161.067 L
346.162 161.302 L
345.031 161.834 L
344.067 162.632 L
343.333 163.644 L
342.872 164.807 L
342.716 166.048 L
S
GR
GS
[0.75 0 0 0.75 241.32763 102.78777] CT
0 0 1 RC
10.0 ML
0.667 LW
N
0 -4 M
0 4 L
-4 0 M
4 0 L
-2.828 -2.828 M
2.828 2.828 L
-2.828 2.828 M
2.828 -2.828 L
S
GR
GS
[0.75 0 0 0.75 0 0] CT
0 0 1 RC
1 LJ
0.667 LW
N
321.322 135.722 M
321.316 135.625 L
321.367 135.707 L
S
GR
GS
[0.75 0 0 0.75 0 0] CT
0 0 1 RC
1 LJ
0.667 LW
N
321.77 137.05 M
321.316 135.625 L
S
GR
GS
[0.75 0 0 0.75 0 0] CT
0 0 1 RC
1 LJ
0.667 LW
N
316.783 137.05 M
316.939 138.291 L
317.4 139.455 L
318.134 140.467 L
319.098 141.264 L
320.229 141.797 L
321.457 142.031 L
322.705 141.953 L
323.894 141.566 L
324.949 140.896 L
325.805 139.984 L
326.407 138.888 L
326.718 137.676 L
326.718 136.425 L
326.407 135.213 L
325.805 134.117 L
324.949 133.205 L
323.894 132.534 L
322.705 132.148 L
321.457 132.069 L
320.229 132.304 L
319.098 132.836 L
318.135 133.634 L
317.4 134.646 L
316.94 135.809 L
316.783 137.05 L
S
GR
GS
[0.75 0 0 0.75 251.63704 70.25973] CT
0 0 1 RC
10.0 ML
0.667 LW
N
0 -4 M
0 4 L
-4 0 M
4 0 L
-2.828 -2.828 M
2.828 2.828 L
-2.828 2.828 M
2.828 -2.828 L
S
GR
GS
[0.75 0 0 0.75 0 0] CT
0 0 1 RC
1 LJ
0.667 LW
N
335.068 92.351 M
335.061 92.254 L
335.112 92.337 L
S
GR
GS
[0.75 0 0 0.75 0 0] CT
0 0 1 RC
1 LJ
0.667 LW
N
335.516 93.68 M
335.061 92.254 L
S
GR
GS
[0.75 0 0 0.75 0 0] CT
0 0 1 RC
1 LJ
0.667 LW
N
330.529 93.68 M
330.685 94.921 L
331.146 96.084 L
331.88 97.096 L
332.844 97.894 L
333.975 98.426 L
335.203 98.661 L
336.45 98.582 L
337.639 98.196 L
338.695 97.525 L
339.551 96.613 L
340.153 95.517 L
340.464 94.305 L
340.464 93.054 L
340.153 91.842 L
339.551 90.746 L
338.695 89.834 L
337.64 89.164 L
336.451 88.777 L
335.203 88.699 L
333.975 88.933 L
332.844 89.466 L
331.881 90.263 L
331.146 91.275 L
330.685 92.438 L
330.529 93.68 L
S
GR
GS
[0.75 0 0 0.75 249.70198 70.451] CT
0 0 1 RC
10.0 ML
0.667 LW
N
0 -4 M
0 4 L
-4 0 M
4 0 L
-2.828 -2.828 M
2.828 2.828 L
-2.828 2.828 M
2.828 -2.828 L
S
GR
GS
[0.75 0 0 0.75 0 0] CT
0 0 1 RC
1 LJ
0.667 LW
N
332.488 92.606 M
332.481 92.509 L
332.532 92.592 L
S
GR
GS
[0.75 0 0 0.75 0 0] CT
0 0 1 RC
1 LJ
0.667 LW
N
332.936 93.935 M
332.481 92.509 L
S
GR
GS
[0.75 0 0 0.75 0 0] CT
0 0 1 RC
1 LJ
0.667 LW
N
327.949 93.935 M
328.105 92.693 L
328.566 91.53 L
329.3 90.518 L
330.264 89.721 L
331.395 89.188 L
332.623 88.954 L
333.871 89.032 L
335.06 89.419 L
336.115 90.089 L
336.971 91.001 L
337.573 92.097 L
337.884 93.309 L
337.884 94.56 L
337.573 95.772 L
336.971 96.868 L
336.115 97.78 L
335.059 98.451 L
333.87 98.837 L
332.623 98.916 L
331.395 98.681 L
330.264 98.149 L
329.3 97.351 L
328.565 96.339 L
328.105 95.176 L
327.949 93.935 L
S
GR
GS
[0.75 0 0 0.75 241.32765 81.1024] CT
0 0 1 RC
10.0 ML
0.667 LW
N
0 -4 M
0 4 L
-4 0 M
4 0 L
-2.828 -2.828 M
2.828 2.828 L
-2.828 2.828 M
2.828 -2.828 L
S
GR
GS
[0.75 0 0 0.75 0 0] CT
0 0 1 RC
1 LJ
0.667 LW
N
321.322 106.808 M
321.316 106.711 L
321.367 106.794 L
S
GR
GS
[0.75 0 0 0.75 0 0] CT
0 0 1 RC
1 LJ
0.667 LW
N
321.77 108.137 M
321.316 106.711 L
S
GR
GS
[0.75 0 0 0.75 0 0] CT
0 0 1 RC
1 LJ
0.667 LW
N
316.783 108.136 M
316.939 109.378 L
317.4 110.541 L
318.134 111.553 L
319.098 112.35 L
320.229 112.883 L
321.457 113.118 L
322.705 113.039 L
323.894 112.653 L
324.949 111.982 L
325.805 111.07 L
326.407 109.974 L
326.718 108.762 L
326.718 107.511 L
326.407 106.299 L
325.805 105.203 L
324.949 104.291 L
323.894 103.621 L
322.705 103.234 L
321.457 103.155 L
320.229 103.39 L
319.098 103.922 L
318.135 104.72 L
317.4 105.732 L
316.94 106.895 L
316.783 108.136 L
S
GR
GS
[0.75 0 0 0.75 261.9464 124.47399] CT
0 0 1 RC
10.0 ML
0.667 LW
N
0 -4 M
0 4 L
-4 0 M
4 0 L
-2.828 -2.828 M
2.828 2.828 L
-2.828 2.828 M
2.828 -2.828 L
S
GR
GS
[0.75 0 0 0.75 0 0] CT
0 0 1 RC
1 LJ
0.667 LW
N
348.813 164.637 M
348.807 164.54 L
348.858 164.622 L
S
GR
GS
[0.75 0 0 0.75 0 0] CT
0 0 1 RC
1 LJ
0.667 LW
N
349.262 165.965 M
348.807 164.54 L
S
GR
GS
[0.75 0 0 0.75 0 0] CT
0 0 1 RC
1 LJ
0.667 LW
N
344.275 165.965 M
344.431 164.724 L
344.892 163.561 L
345.626 162.549 L
346.59 161.751 L
347.721 161.219 L
348.949 160.984 L
350.197 161.063 L
351.386 161.449 L
352.441 162.12 L
353.297 163.032 L
353.899 164.128 L
354.21 165.34 L
354.21 166.591 L
353.899 167.803 L
353.297 168.899 L
352.441 169.811 L
351.385 170.481 L
350.196 170.868 L
348.949 170.946 L
347.721 170.712 L
346.589 170.179 L
345.626 169.382 L
344.891 168.37 L
344.431 167.206 L
344.275 165.965 L
S
GR
GS
[0.75 0 0 0.75 0 0] CT
1 GC
N
/f514426320{470 285 M
470 42 L
192 42 L
192 285 L
cp}def
f514426320
f
GR
GS
[0.75 0 0 0.75 179.25 55.49999] CT
/Helvetica-Bold 48 F
GS
[1 0 0 1 0 0] CT
0 19 moveto 
1 -1 scale
(LandMark) t 
GR
GR
GS
[0.75 0 0 0.75 162 55.5] CT
1 0 0 RC
N
f-1996900118
f
GR
GS
[0.75 0 0 0.75 162 55.5] CT
0 0 1 RC
10.0 ML
0.667 LW
N
0 -26.66 M
-23.088 13.33 L
23.088 13.33 L
cp
S
GR
GS
[0.75 0 0 0.75 179.25 126] CT
/Helvetica-Bold 48 F
GS
[1 0 0 1 0 0] CT
0 0 moveto 
1 -1 scale
(b) t 
GR
GR
GS
[0.75 0 0 0.75 201.75 108] CT
/Helvetica-Bold 38.4 F
GS
[1 0 0 1 0 0] CT
0 0 moveto 
1 -1 scale
(-) t 
GR
GR
GS
[0.75 0 0 0.75 211.5 126] CT
/Helvetica-Bold 48 F
GS
[1 0 0 1 0 0] CT
0 0 moveto 
1 -1 scale
([X) t 
GR
GR
GS
[0.75 0 0 0.75 247.5 144] CT
/Helvetica-Bold 38.4 F
GS
[1 0 0 1 0 0] CT
0 0 moveto 
1 -1 scale
(k) t 
GR
GR
GS
[0.75 0 0 0.75 264 126] CT
/Helvetica-Bold 48 F
GS
[1 0 0 1 0 0] CT
0 0 moveto 
1 -1 scale
(]) t 
GR
GR
GS
[0.75 0 0 0.75 0 0] CT
0 1 1 RC
1 LJ
0.667 LW
N
196 152.5 M
236 152.5 L
S
GR
GS
[0.75 0 0 0.75 0 0] CT
0 1 1 RC
1 LJ
0.667 LW
N
224 157.3 M
236 152.5 L
224 147.7 L
S
GR
GS
[0.75 0 0 0.75 179.25 187.5] CT
/Helvetica-Bold 48 F
GS
[1 0 0 1 0 0] CT
0 0 moveto 
1 -1 scale
(b[X) t 
GR
GR
GS
[0.75 0 0 0.75 237.75 205.5] CT
/Helvetica-Bold 38.4 F
GS
[1 0 0 1 0 0] CT
0 0 moveto 
1 -1 scale
(k) t 
GR
GR
GS
[0.75 0 0 0.75 254.25 187.5] CT
/Helvetica-Bold 48 F
GS
[1 0 0 1 0 0] CT
0 0 moveto 
1 -1 scale
(]) t 
GR
GR
GS
[0.75 0 0 0.75 0 0] CT
0 0 1 RC
1 LJ
0.667 LW
N
196 242 M
236 242 L
S
GR
GS
[0.75 0 0 0.75 0 0] CT
0.149 GC
10.0 ML
0.667 LW
N
192 285 M
192 42 L
470 42 L
470 285 L
cp
S
GR
%%Trailer
%%Pages: 1
%%EOF
