%!PS-Adobe-3.0 EPSF-3.0
%%Creator: (MATLAB, The Mathworks, Inc. Version 9.10.0.1649659 \(R2021a\) Update 1. Operating System: Windows 10)
%%Title: (C:/Users/ohads/ANPL/papers/research/2022 ICRA/Figures/TestCase_1/fig_files/Robots_estimation_k_3.eps)
%%CreationDate: 2021-07-29T16:43:43
%%Pages: (atend)
%%BoundingBox:   295     9  1117   669
%%LanguageLevel: 3
%%EndComments
%%BeginProlog
%%BeginResource: procset (Apache XML Graphics Std ProcSet) 1.2 0
%%Version: 1.2 0
%%Copyright: (Copyright 2001-2003,2010 The Apache Software Foundation. License terms: http://www.apache.org/licenses/LICENSE-2.0)
/bd{bind def}bind def
/ld{load def}bd
/GR/grestore ld
/GS/gsave ld
/RM/rmoveto ld
/C/curveto ld
/t/show ld
/L/lineto ld
/ML/setmiterlimit ld
/CT/concat ld
/f/fill ld
/N/newpath ld
/S/stroke ld
/CC/setcmykcolor ld
/A/ashow ld
/cp/closepath ld
/RC/setrgbcolor ld
/LJ/setlinejoin ld
/GC/setgray ld
/LW/setlinewidth ld
/M/moveto ld
/re {4 2 roll M
1 index 0 rlineto
0 exch rlineto
neg 0 rlineto
cp } bd
/_ctm matrix def
/_tm matrix def
/BT { _ctm currentmatrix pop matrix _tm copy pop 0 0 moveto } bd
/ET { _ctm setmatrix } bd
/iTm { _ctm setmatrix _tm concat } bd
/Tm { _tm astore pop iTm 0 0 moveto } bd
/ux 0.0 def
/uy 0.0 def
/F {
  /Tp exch def
  /Tf exch def
  Tf findfont Tp scalefont setfont
  /cf Tf def  /cs Tp def
} bd
/ULS {currentpoint /uy exch def /ux exch def} bd
/ULE {
  /Tcx currentpoint pop def
  gsave
  newpath
  cf findfont cs scalefont dup
  /FontMatrix get 0 get /Ts exch def /FontInfo get dup
  /UnderlinePosition get Ts mul /To exch def
  /UnderlineThickness get Ts mul /Tt exch def
  ux uy To add moveto  Tcx uy To add lineto
  Tt setlinewidth stroke
  grestore
} bd
/OLE {
  /Tcx currentpoint pop def
  gsave
  newpath
  cf findfont cs scalefont dup
  /FontMatrix get 0 get /Ts exch def /FontInfo get dup
  /UnderlinePosition get Ts mul /To exch def
  /UnderlineThickness get Ts mul /Tt exch def
  ux uy To add cs add moveto Tcx uy To add cs add lineto
  Tt setlinewidth stroke
  grestore
} bd
/SOE {
  /Tcx currentpoint pop def
  gsave
  newpath
  cf findfont cs scalefont dup
  /FontMatrix get 0 get /Ts exch def /FontInfo get dup
  /UnderlinePosition get Ts mul /To exch def
  /UnderlineThickness get Ts mul /Tt exch def
  ux uy To add cs 10 mul 26 idiv add moveto Tcx uy To add cs 10 mul 26 idiv add lineto
  Tt setlinewidth stroke
  grestore
} bd
/QT {
/Y22 exch store
/X22 exch store
/Y21 exch store
/X21 exch store
currentpoint
/Y21 load 2 mul add 3 div exch
/X21 load 2 mul add 3 div exch
/X21 load 2 mul /X22 load add 3 div
/Y21 load 2 mul /Y22 load add 3 div
/X22 load /Y22 load curveto
} bd
/SSPD {
dup length /d exch dict def
{
/v exch def
/k exch def
currentpagedevice k known {
/cpdv currentpagedevice k get def
v cpdv ne {
/upd false def
/nullv v type /nulltype eq def
/nullcpdv cpdv type /nulltype eq def
nullv nullcpdv or
{
/upd true def
} {
/sametype v type cpdv type eq def
sametype {
v type /arraytype eq {
/vlen v length def
/cpdvlen cpdv length def
vlen cpdvlen eq {
0 1 vlen 1 sub {
/i exch def
/obj v i get def
/cpdobj cpdv i get def
obj cpdobj ne {
/upd true def
exit
} if
} for
} {
/upd true def
} ifelse
} {
v type /dicttype eq {
v {
/dv exch def
/dk exch def
/cpddv cpdv dk get def
dv cpddv ne {
/upd true def
exit
} if
} forall
} {
/upd true def
} ifelse
} ifelse
} if
} ifelse
upd true eq {
d k v put
} if
} if
} if
} forall
d length 0 gt {
d setpagedevice
} if
} bd
/RE { % /NewFontName [NewEncodingArray] /FontName RE -
  findfont dup length dict begin
  {
    1 index /FID ne
    {def} {pop pop} ifelse
  } forall
  /Encoding exch def
  /FontName 1 index def
  currentdict definefont pop
  end
} bind def
%%EndResource
%%BeginResource: procset (Apache XML Graphics EPS ProcSet) 1.0 0
%%Version: 1.0 0
%%Copyright: (Copyright 2002-2003 The Apache Software Foundation. License terms: http://www.apache.org/licenses/LICENSE-2.0)
/BeginEPSF { %def
/b4_Inc_state save def         % Save state for cleanup
/dict_count countdictstack def % Count objects on dict stack
/op_count count 1 sub def      % Count objects on operand stack
userdict begin                 % Push userdict on dict stack
/showpage { } def              % Redefine showpage, { } = null proc
0 setgray 0 setlinecap         % Prepare graphics state
1 setlinewidth 0 setlinejoin
10 setmiterlimit [ ] 0 setdash newpath
/languagelevel where           % If level not equal to 1 then
{pop languagelevel             % set strokeadjust and
1 ne                           % overprint to their defaults.
{false setstrokeadjust false setoverprint
} if
} if
} bd
/EndEPSF { %def
count op_count sub {pop} repeat            % Clean up stacks
countdictstack dict_count sub {end} repeat
b4_Inc_state restore
} bd
%%EndResource
%FOPBeginFontDict
%%IncludeResource: font Courier-Oblique
%%IncludeResource: font Courier-BoldOblique
%%IncludeResource: font Courier-Bold
%%IncludeResource: font ZapfDingbats
%%IncludeResource: font Symbol
%%IncludeResource: font Helvetica
%%IncludeResource: font Helvetica-Oblique
%%IncludeResource: font Helvetica-Bold
%%IncludeResource: font Helvetica-BoldOblique
%%IncludeResource: font Times-Roman
%%IncludeResource: font Times-Italic
%%IncludeResource: font Times-Bold
%%IncludeResource: font Times-BoldItalic
%%IncludeResource: font Courier
%FOPEndFontDict
%%BeginResource: encoding WinAnsiEncoding
/WinAnsiEncoding [
/.notdef /.notdef /.notdef /.notdef /.notdef
/.notdef /.notdef /.notdef /.notdef /.notdef
/.notdef /.notdef /.notdef /.notdef /.notdef
/.notdef /.notdef /.notdef /.notdef /.notdef
/.notdef /.notdef /.notdef /.notdef /.notdef
/.notdef /.notdef /.notdef /.notdef /.notdef
/.notdef /.notdef /space /exclam /quotedbl
/numbersign /dollar /percent /ampersand /quotesingle
/parenleft /parenright /asterisk /plus /comma
/hyphen /period /slash /zero /one
/two /three /four /five /six
/seven /eight /nine /colon /semicolon
/less /equal /greater /question /at
/A /B /C /D /E
/F /G /H /I /J
/K /L /M /N /O
/P /Q /R /S /T
/U /V /W /X /Y
/Z /bracketleft /backslash /bracketright /asciicircum
/underscore /quoteleft /a /b /c
/d /e /f /g /h
/i /j /k /l /m
/n /o /p /q /r
/s /t /u /v /w
/x /y /z /braceleft /bar
/braceright /asciitilde /bullet /Euro /bullet
/quotesinglbase /florin /quotedblbase /ellipsis /dagger
/daggerdbl /circumflex /perthousand /Scaron /guilsinglleft
/OE /bullet /Zcaron /bullet /bullet
/quoteleft /quoteright /quotedblleft /quotedblright /bullet
/endash /emdash /asciitilde /trademark /scaron
/guilsinglright /oe /bullet /zcaron /Ydieresis
/space /exclamdown /cent /sterling /currency
/yen /brokenbar /section /dieresis /copyright
/ordfeminine /guillemotleft /logicalnot /sfthyphen /registered
/macron /degree /plusminus /twosuperior /threesuperior
/acute /mu /paragraph /middot /cedilla
/onesuperior /ordmasculine /guillemotright /onequarter /onehalf
/threequarters /questiondown /Agrave /Aacute /Acircumflex
/Atilde /Adieresis /Aring /AE /Ccedilla
/Egrave /Eacute /Ecircumflex /Edieresis /Igrave
/Iacute /Icircumflex /Idieresis /Eth /Ntilde
/Ograve /Oacute /Ocircumflex /Otilde /Odieresis
/multiply /Oslash /Ugrave /Uacute /Ucircumflex
/Udieresis /Yacute /Thorn /germandbls /agrave
/aacute /acircumflex /atilde /adieresis /aring
/ae /ccedilla /egrave /eacute /ecircumflex
/edieresis /igrave /iacute /icircumflex /idieresis
/eth /ntilde /ograve /oacute /ocircumflex
/otilde /odieresis /divide /oslash /ugrave
/uacute /ucircumflex /udieresis /yacute /thorn
/ydieresis
] def
%%EndResource
%FOPBeginFontReencode
/Courier-Oblique findfont
dup length dict begin
  {1 index /FID ne {def} {pop pop} ifelse} forall
  /Encoding WinAnsiEncoding def
  currentdict
end
/Courier-Oblique exch definefont pop
/Courier-BoldOblique findfont
dup length dict begin
  {1 index /FID ne {def} {pop pop} ifelse} forall
  /Encoding WinAnsiEncoding def
  currentdict
end
/Courier-BoldOblique exch definefont pop
/Courier-Bold findfont
dup length dict begin
  {1 index /FID ne {def} {pop pop} ifelse} forall
  /Encoding WinAnsiEncoding def
  currentdict
end
/Courier-Bold exch definefont pop
/Helvetica findfont
dup length dict begin
  {1 index /FID ne {def} {pop pop} ifelse} forall
  /Encoding WinAnsiEncoding def
  currentdict
end
/Helvetica exch definefont pop
/Helvetica-Oblique findfont
dup length dict begin
  {1 index /FID ne {def} {pop pop} ifelse} forall
  /Encoding WinAnsiEncoding def
  currentdict
end
/Helvetica-Oblique exch definefont pop
/Helvetica-Bold findfont
dup length dict begin
  {1 index /FID ne {def} {pop pop} ifelse} forall
  /Encoding WinAnsiEncoding def
  currentdict
end
/Helvetica-Bold exch definefont pop
/Helvetica-BoldOblique findfont
dup length dict begin
  {1 index /FID ne {def} {pop pop} ifelse} forall
  /Encoding WinAnsiEncoding def
  currentdict
end
/Helvetica-BoldOblique exch definefont pop
/Times-Roman findfont
dup length dict begin
  {1 index /FID ne {def} {pop pop} ifelse} forall
  /Encoding WinAnsiEncoding def
  currentdict
end
/Times-Roman exch definefont pop
/Times-Italic findfont
dup length dict begin
  {1 index /FID ne {def} {pop pop} ifelse} forall
  /Encoding WinAnsiEncoding def
  currentdict
end
/Times-Italic exch definefont pop
/Times-Bold findfont
dup length dict begin
  {1 index /FID ne {def} {pop pop} ifelse} forall
  /Encoding WinAnsiEncoding def
  currentdict
end
/Times-Bold exch definefont pop
/Times-BoldItalic findfont
dup length dict begin
  {1 index /FID ne {def} {pop pop} ifelse} forall
  /Encoding WinAnsiEncoding def
  currentdict
end
/Times-BoldItalic exch definefont pop
/Courier findfont
dup length dict begin
  {1 index /FID ne {def} {pop pop} ifelse} forall
  /Encoding WinAnsiEncoding def
  currentdict
end
/Courier exch definefont pop
%FOPEndFontReencode
%%EndProlog
%%Page: 1 1
%%PageBoundingBox: 0 0 1440 722
%%BeginPageSetup
[1 0 0 -1 0 722] CT
%%EndPageSetup
GS
[0.75 0 0 0.75 0 -0.25] CT
1 GC
N
0 0 1920 963 re
f
GR
GS
[0.75 0 0 0.75 0 -0.25] CT
1 GC
N
0 0 1920 963 re
f
GR
GS
[0.75 0 0 0.75 0 -0.25] CT
1 GC
N
526.147 810 M
1461.853 810 L
1461.853 72 L
526.147 72 L
cp
f
GR
GS
[0.75 0 0 0.75 0 -0.25] CT
0.149 GC
2 setlinecap
1 LJ
0.667 LW
N
526.147 810 M
1461.853 810 L
S
GR
GS
[0.75 0 0 0.75 0 -0.25] CT
0.149 GC
2 setlinecap
1 LJ
0.667 LW
N
526.147 810 M
526.147 800.643 L
S
GR
GS
[0.75 0 0 0.75 0 -0.25] CT
0.149 GC
2 setlinecap
1 LJ
0.667 LW
N
760.074 810 M
760.074 800.643 L
S
GR
GS
[0.75 0 0 0.75 0 -0.25] CT
0.149 GC
2 setlinecap
1 LJ
0.667 LW
N
994 810 M
994 800.643 L
S
GR
GS
[0.75 0 0 0.75 0 -0.25] CT
0.149 GC
2 setlinecap
1 LJ
0.667 LW
N
1227.926 810 M
1227.926 800.643 L
S
GR
GS
[0.75 0 0 0.75 0 -0.25] CT
0.149 GC
2 setlinecap
1 LJ
0.667 LW
N
1461.853 810 M
1461.853 800.643 L
S
GR
GS
[0.75 0 0 0.75 394.61046 617.24998] CT
0.149 GC
/Helvetica 53.333 F
GS
[1 0 0 1 0 0] CT
-24 54 moveto 
1 -1 scale
(-5) t 
GR
GR
GS
[0.75 0 0 0.75 570.05521 617.24998] CT
0.149 GC
/Helvetica 53.333 F
GS
[1 0 0 1 0 0] CT
-15 54 moveto 
1 -1 scale
(0) t 
GR
GR
GS
[0.75 0 0 0.75 745.5 617.24998] CT
0.149 GC
/Helvetica 53.333 F
GS
[1 0 0 1 0 0] CT
-15 54 moveto 
1 -1 scale
(5) t 
GR
GR
GS
[0.75 0 0 0.75 920.94479 617.24998] CT
0.149 GC
/Helvetica 53.333 F
GS
[1 0 0 1 0 0] CT
-30 54 moveto 
1 -1 scale
(10) t 
GR
GR
GS
[0.75 0 0 0.75 1096.38959 617.24998] CT
0.149 GC
/Helvetica 53.333 F
GS
[1 0 0 1 0 0] CT
-30 54 moveto 
1 -1 scale
(15) t 
GR
GR
GS
[0.75 0 0 0.75 745.50032 667.75002] CT
0.149 GC
/Helvetica 58.667 F
GS
[1 0 0 1 0 0] CT
-34.5 59 moveto 
1 -1 scale
(Xs) t 
GR
GR
GS
[0.75 0 0 0.75 0 -0.25] CT
0.149 GC
2 setlinecap
1 LJ
0.667 LW
N
526.147 810 M
526.147 72 L
S
GR
GS
[0.75 0 0 0.75 0 -0.25] CT
0.149 GC
2 setlinecap
1 LJ
0.667 LW
N
526.147 744.237 M
535.504 744.237 L
S
GR
GS
[0.75 0 0 0.75 0 -0.25] CT
0.149 GC
2 setlinecap
1 LJ
0.667 LW
N
526.147 510.311 M
535.504 510.311 L
S
GR
GS
[0.75 0 0 0.75 0 -0.25] CT
0.149 GC
2 setlinecap
1 LJ
0.667 LW
N
526.147 276.384 M
535.504 276.384 L
S
GR
GS
[0.75 0 0 0.75 384.61043 557.9277] CT
0.149 GC
/Helvetica 53.333 F
GS
[1 0 0 1 0 0] CT
-30 21 moveto 
1 -1 scale
(0) t 
GR
GR
GS
[0.75 0 0 0.75 384.61043 382.48291] CT
0.149 GC
/Helvetica 53.333 F
GS
[1 0 0 1 0 0] CT
-30 21 moveto 
1 -1 scale
(5) t 
GR
GR
GS
[0.75 0 0 0.75 384.61043 207.03814] CT
0.149 GC
/Helvetica 53.333 F
GS
[1 0 0 1 0 0] CT
-60 21 moveto 
1 -1 scale
(10) t 
GR
GR
GS
[0 -0.75 0.75 0 336.61045 330.49973] CT
0.149 GC
/Helvetica 58.667 F
GS
[1 0 0 1 0 0] CT
-34.5 -13 moveto 
1 -1 scale
(Ys) t 
GR
GR
GS
[0.75 0 0 0.75 780.58896 522.83875] CT
1 0 0 RC
N
0 -26.66 M
-23.088 13.33 L
23.088 13.33 L
cp
f
GR
GS
[0.75 0 0 0.75 780.58896 522.83875] CT
0 0 1 RC
10.0 ML
0.667 LW
N
0 -26.66 M
-23.088 13.33 L
23.088 13.33 L
cp
S
GR
GS
[0.75 0 0 0.75 745.5 452.66083] CT
1 0 0 RC
N
/f-1996900118{0 -26.66 M
-23.088 13.33 L
23.088 13.33 L
cp}def
f-1996900118
f
GR
GS
[0.75 0 0 0.75 745.5 452.66083] CT
0 0 1 RC
10.0 ML
0.667 LW
N
0 -26.66 M
-23.088 13.33 L
23.088 13.33 L
cp
S
GR
GS
[0.75 0 0 0.75 920.94479 312.30502] CT
1 0 0 RC
N
f-1996900118
f
GR
GS
[0.75 0 0 0.75 920.94479 312.30502] CT
0 0 1 RC
10.0 ML
0.667 LW
N
0 -26.66 M
-23.088 13.33 L
23.088 13.33 L
cp
S
GR
GS
[0.75 0 0 0.75 640.23312 452.66083] CT
1 0 0 RC
N
f-1996900118
f
GR
GS
[0.75 0 0 0.75 640.23312 452.66083] CT
0 0 1 RC
10.0 ML
0.667 LW
N
0 -26.66 M
-23.088 13.33 L
23.088 13.33 L
cp
S
GR
GS
[0.75 0 0 0.75 780.58896 347.39395] CT
1 0 0 RC
N
f-1996900118
f
GR
GS
[0.75 0 0 0.75 780.58896 347.39395] CT
0 0 1 RC
10.0 ML
0.667 LW
N
0 -26.66 M
-23.088 13.33 L
23.088 13.33 L
cp
S
GR
GS
[0.75 0 0 0.75 745.5 382.48291] CT
1 0 0 RC
N
f-1996900118
f
GR
GS
[0.75 0 0 0.75 745.5 382.48291] CT
0 0 1 RC
10.0 ML
0.667 LW
N
0 -26.66 M
-23.088 13.33 L
23.088 13.33 L
cp
S
GR
GS
[0.75 0 0 0.75 675.32208 417.57187] CT
1 0 0 RC
N
f-1996900118
f
GR
GS
[0.75 0 0 0.75 675.32208 417.57187] CT
0 0 1 RC
10.0 ML
0.667 LW
N
0 -26.66 M
-23.088 13.33 L
23.088 13.33 L
cp
S
GR
GS
[0.75 0 0 0.75 815.67792 522.83875] CT
1 0 0 RC
N
f-1996900118
f
GR
GS
[0.75 0 0 0.75 815.67792 522.83875] CT
0 0 1 RC
10.0 ML
0.667 LW
N
0 -26.66 M
-23.088 13.33 L
23.088 13.33 L
cp
S
GR
GS
[0.75 0 0 0.75 734.76869 336.6829] CT
0 1 1 RC
10.0 ML
8 LW
N
0 -4 M
0 4 L
-4 0 M
4 0 L
-2.828 -2.828 M
2.828 2.828 L
-2.828 2.828 M
2.828 -2.828 L
S
GR
GS
[0.75 0 0 0.75 0 -0.25] CT
0 1 1 RC
1 LJ
8 LW
N
978.289 445.089 M
978.27 444.787 L
978.43 445.044 L
S
GR
GS
[0.75 0 0 0.75 0 -0.25] CT
0 1 1 RC
1 LJ
8 LW
N
979.692 449.244 M
978.27 444.787 L
S
GR
GS
[0.75 0 0 0.75 0 -0.25] CT
0 1 1 RC
1 LJ
8 LW
N
940.966 449.238 M
942.181 458.87 L
945.754 467.897 L
951.458 475.752 L
958.937 481.941 L
967.719 486.076 L
977.254 487.897 L
986.942 487.289 L
996.175 484.29 L
1004.371 479.089 L
1011.017 472.013 L
1015.695 463.507 L
1018.111 454.104 L
1018.112 444.396 L
1015.7 434.992 L
1011.024 426.484 L
1004.381 419.406 L
996.185 414.203 L
986.954 411.201 L
977.266 410.59 L
967.73 412.408 L
958.947 416.54 L
951.466 422.727 L
945.759 430.58 L
942.184 439.606 L
940.966 449.238 L
S
GR
GS
[0.75 0 0 0.75 763.35123 336.88029] CT
0 1 1 RC
10.0 ML
8 LW
N
0 -4 M
0 4 L
-4 0 M
4 0 L
-2.828 -2.828 M
2.828 2.828 L
-2.828 2.828 M
2.828 -2.828 L
S
GR
GS
[0.75 0 0 0.75 0 -0.25] CT
0 1 1 RC
1 LJ
8 LW
N
1016.399 445.352 M
1016.38 445.05 L
1016.54 445.308 L
S
GR
GS
[0.75 0 0 0.75 0 -0.25] CT
0 1 1 RC
1 LJ
8 LW
N
1017.802 449.507 M
1016.38 445.05 L
S
GR
GS
[0.75 0 0 0.75 0 -0.25] CT
0 1 1 RC
1 LJ
8 LW
N
979.076 449.504 M
980.294 439.872 L
983.868 430.846 L
989.575 422.992 L
997.055 416.805 L
1005.838 412.672 L
1015.374 410.854 L
1025.062 411.464 L
1034.293 414.465 L
1042.489 419.668 L
1049.133 426.745 L
1053.809 435.253 L
1056.222 444.656 L
1056.221 454.365 L
1053.806 463.768 L
1049.129 472.275 L
1042.483 479.351 L
1034.287 484.552 L
1025.055 487.551 L
1015.367 488.16 L
1005.832 486.34 L
997.049 482.206 L
989.57 476.017 L
983.865 468.162 L
980.292 459.135 L
979.076 449.504 L
S
GR
GS
[0.75 0 0 0.75 702.53009 268.87054] CT
0 1 1 RC
10.0 ML
8 LW
N
0 -4 M
0 4 L
-4 0 M
4 0 L
-2.828 -2.828 M
2.828 2.828 L
-2.828 2.828 M
2.828 -2.828 L
S
GR
GS
[0.75 0 0 0.75 0 -0.25] CT
0 1 1 RC
1 LJ
8 LW
N
935.305 354.673 M
935.285 354.37 L
935.445 354.628 L
S
GR
GS
[0.75 0 0 0.75 0 -0.25] CT
0 1 1 RC
1 LJ
8 LW
N
936.707 358.827 M
935.285 354.37 L
S
GR
GS
[0.75 0 0 0.75 0 -0.25] CT
0 1 1 RC
1 LJ
8 LW
N
897.982 358.822 M
899.199 349.19 L
902.774 340.164 L
908.481 332.311 L
915.961 326.124 L
924.745 321.992 L
934.281 320.174 L
943.968 320.785 L
953.2 323.786 L
961.395 328.989 L
968.039 336.067 L
972.715 344.575 L
975.127 353.979 L
975.126 363.687 L
972.711 373.09 L
968.033 381.597 L
961.387 388.673 L
953.19 393.873 L
943.958 396.872 L
934.27 397.48 L
924.735 395.66 L
915.952 391.525 L
908.474 385.336 L
902.769 377.481 L
899.197 368.454 L
897.982 358.822 L
S
GR
GS
[0.75 0 0 0.75 734.76883 167.15153] CT
0 1 1 RC
10.0 ML
8 LW
N
0 -4 M
0 4 L
-4 0 M
4 0 L
-2.828 -2.828 M
2.828 2.828 L
-2.828 2.828 M
2.828 -2.828 L
S
GR
GS
[0.75 0 0 0.75 0 -0.25] CT
0 1 1 RC
1 LJ
8 LW
N
978.29 219.047 M
978.27 218.745 L
978.43 219.003 L
S
GR
GS
[0.75 0 0 0.75 0 -0.25] CT
0 1 1 RC
1 LJ
8 LW
N
979.692 223.202 M
978.27 218.745 L
S
GR
GS
[0.75 0 0 0.75 0 -0.25] CT
0 1 1 RC
1 LJ
8 LW
N
940.966 223.196 M
942.182 232.828 L
945.754 241.855 L
951.458 249.71 L
958.937 255.9 L
967.72 260.034 L
977.254 261.855 L
986.943 261.247 L
996.175 258.248 L
1004.372 253.047 L
1011.018 245.971 L
1015.695 237.465 L
1018.111 228.062 L
1018.112 218.354 L
1015.7 208.95 L
1011.024 200.442 L
1004.381 193.364 L
996.185 188.161 L
986.954 185.159 L
977.266 184.548 L
967.73 186.366 L
958.947 190.498 L
951.466 196.686 L
945.759 204.539 L
942.185 213.565 L
940.966 223.196 L
S
GR
GS
[0.75 0 0 0.75 728.7177 167.74962] CT
0 1 1 RC
10.0 ML
8 LW
N
0 -4 M
0 4 L
-4 0 M
4 0 L
-2.828 -2.828 M
2.828 2.828 L
-2.828 2.828 M
2.828 -2.828 L
S
GR
GS
[0.75 0 0 0.75 0 -0.25] CT
0 1 1 RC
1 LJ
8 LW
N
970.221 219.845 M
970.202 219.542 L
970.362 219.8 L
S
GR
GS
[0.75 0 0 0.75 0 -0.25] CT
0 1 1 RC
1 LJ
8 LW
N
971.624 223.999 M
970.202 219.542 L
S
GR
GS
[0.75 0 0 0.75 0 -0.25] CT
0 1 1 RC
1 LJ
8 LW
N
932.898 223.996 M
934.114 233.628 L
937.687 242.655 L
943.392 250.509 L
950.871 256.698 L
959.654 260.833 L
969.189 262.653 L
978.877 262.044 L
988.109 259.045 L
996.305 253.843 L
1002.951 246.767 L
1007.628 238.26 L
1010.043 228.857 L
1010.044 219.149 L
1007.631 209.745 L
1002.955 201.238 L
996.311 194.16 L
988.115 188.957 L
978.883 185.956 L
969.195 185.346 L
959.66 187.164 L
950.877 191.297 L
943.396 197.485 L
937.69 205.338 L
934.116 214.364 L
932.898 223.996 L
S
GR
GS
[0.75 0 0 0.75 702.53009 201.05782] CT
0 1 1 RC
10.0 ML
8 LW
N
0 -4 M
0 4 L
-4 0 M
4 0 L
-2.828 -2.828 M
2.828 2.828 L
-2.828 2.828 M
2.828 -2.828 L
S
GR
GS
[0.75 0 0 0.75 0 -0.25] CT
0 1 1 RC
1 LJ
8 LW
N
935.305 264.256 M
935.285 263.953 L
935.445 264.211 L
S
GR
GS
[0.75 0 0 0.75 0 -0.25] CT
0 1 1 RC
1 LJ
8 LW
N
936.707 268.41 M
935.285 263.953 L
S
GR
GS
[0.75 0 0 0.75 0 -0.25] CT
0 1 1 RC
1 LJ
8 LW
N
897.982 268.405 M
899.197 278.037 L
902.769 287.064 L
908.474 294.919 L
915.952 301.108 L
924.735 305.243 L
934.27 307.063 L
943.958 306.455 L
953.19 303.456 L
961.387 298.256 L
968.033 291.18 L
972.711 282.673 L
975.126 273.27 L
975.127 263.562 L
972.715 254.158 L
968.039 245.65 L
961.395 238.572 L
953.2 233.369 L
943.968 230.368 L
934.281 229.757 L
924.745 231.575 L
915.961 235.707 L
908.481 241.894 L
902.774 249.748 L
899.2 258.774 L
897.982 268.405 L
S
GR
GS
[0.75 0 0 0.75 767.00743 336.68592] CT
0 1 1 RC
10.0 ML
8 LW
N
0 -4 M
0 4 L
-4 0 M
4 0 L
-2.828 -2.828 M
2.828 2.828 L
-2.828 2.828 M
2.828 -2.828 L
S
GR
GS
[0.75 0 0 0.75 0 -0.25] CT
0 1 1 RC
1 LJ
8 LW
N
1021.274 445.093 M
1021.255 444.791 L
1021.414 445.048 L
S
GR
GS
[0.75 0 0 0.75 0 -0.25] CT
0 1 1 RC
1 LJ
8 LW
N
1022.677 449.248 M
1021.255 444.791 L
S
GR
GS
[0.75 0 0 0.75 0 -0.25] CT
0 1 1 RC
1 LJ
8 LW
N
983.951 449.242 M
985.166 458.873 L
988.738 467.901 L
994.443 475.756 L
1001.921 481.945 L
1010.704 486.08 L
1020.239 487.901 L
1029.927 487.293 L
1039.159 484.294 L
1047.356 479.094 L
1054.002 472.018 L
1058.68 463.511 L
1061.096 454.108 L
1061.097 444.4 L
1058.685 434.996 L
1054.01 426.488 L
1047.366 419.41 L
1039.171 414.207 L
1029.939 411.205 L
1020.251 410.594 L
1010.716 412.412 L
1001.932 416.544 L
994.451 422.731 L
988.744 430.584 L
985.17 439.61 L
983.951 449.242 L
S
GR
GS
[0.75 0 0 0.75 734.76869 336.6829] CT
0 0 1 RC
10.0 ML
8 LW
N
0 -4 M
0 4 L
-4 0 M
4 0 L
-2.828 -2.828 M
2.828 2.828 L
-2.828 2.828 M
2.828 -2.828 L
S
GR
GS
[0.75 0 0 0.75 0 -0.25] CT
0 0 1 RC
1 LJ
8 LW
N
978.289 445.089 M
978.27 444.787 L
978.43 445.044 L
S
GR
GS
[0.75 0 0 0.75 0 -0.25] CT
0 0 1 RC
1 LJ
8 LW
N
979.692 449.244 M
978.27 444.787 L
S
GR
GS
[0.75 0 0 0.75 0 -0.25] CT
0 0 1 RC
1 LJ
8 LW
N
964.114 449.23 M
964.607 445.357 L
966.048 441.727 L
968.346 438.57 L
971.356 436.084 L
974.891 434.425 L
978.727 433.696 L
982.624 433.945 L
986.336 435.155 L
989.631 437.25 L
992.302 440.099 L
994.18 443.522 L
995.148 447.305 L
995.144 451.21 L
994.17 454.991 L
992.286 458.411 L
989.61 461.255 L
986.312 463.345 L
982.597 464.548 L
978.7 464.79 L
974.865 464.055 L
971.333 462.389 L
968.327 459.897 L
966.035 456.736 L
964.6 453.105 L
964.114 449.23 L
S
GR
GS
[0.75 0 0 0.75 736.36153 288.79638] CT
0 0 1 RC
10.0 ML
8 LW
N
0 -4 M
0 4 L
-4 0 M
4 0 L
-2.828 -2.828 M
2.828 2.828 L
-2.828 2.828 M
2.828 -2.828 L
S
GR
GS
[0.75 0 0 0.75 0 -0.25] CT
0 0 1 RC
1 LJ
8 LW
N
980.413 381.241 M
980.394 380.938 L
980.553 381.196 L
S
GR
GS
[0.75 0 0 0.75 0 -0.25] CT
0 0 1 RC
1 LJ
8 LW
N
981.815 385.395 M
980.394 380.938 L
S
GR
GS
[0.75 0 0 0.75 0 -0.25] CT
0 0 1 RC
1 LJ
8 LW
N
966.238 385.385 M
966.73 381.511 L
968.17 377.881 L
970.467 374.724 L
973.478 372.237 L
977.012 370.577 L
980.848 369.848 L
984.745 370.096 L
988.457 371.305 L
991.753 373.399 L
994.424 376.247 L
996.303 379.671 L
997.271 383.453 L
997.268 387.358 L
996.295 391.139 L
994.411 394.56 L
991.737 397.405 L
988.438 399.495 L
984.724 400.699 L
980.827 400.941 L
976.992 400.207 L
973.46 398.542 L
970.453 396.051 L
968.16 392.89 L
966.725 389.259 L
966.238 385.385 L
S
GR
GS
[0.75 0 0 0.75 741.13303 347.62194] CT
0 0 1 RC
10.0 ML
8 LW
N
0 -4 M
0 4 L
-4 0 M
4 0 L
-2.828 -2.828 M
2.828 2.828 L
-2.828 2.828 M
2.828 -2.828 L
S
GR
GS
[0.75 0 0 0.75 0 -0.25] CT
0 0 1 RC
1 LJ
8 LW
N
986.775 459.675 M
986.756 459.372 L
986.915 459.63 L
S
GR
GS
[0.75 0 0 0.75 0 -0.25] CT
0 0 1 RC
1 LJ
8 LW
N
988.177 463.829 M
986.756 459.372 L
S
GR
GS
[0.75 0 0 0.75 0 -0.25] CT
0 0 1 RC
1 LJ
8 LW
N
972.6 463.822 M
973.088 467.696 L
974.523 471.327 L
976.817 474.487 L
979.824 476.978 L
983.357 478.642 L
987.192 479.375 L
991.089 479.132 L
994.803 477.927 L
998.101 475.837 L
1000.775 472.992 L
1002.658 469.571 L
1003.631 465.789 L
1003.633 461.884 L
1002.663 458.102 L
1000.784 454.679 L
998.112 451.831 L
994.817 449.738 L
991.104 448.529 L
987.207 448.282 L
983.371 449.012 L
979.837 450.673 L
976.827 453.16 L
974.531 456.318 L
973.091 459.948 L
972.6 463.822 L
S
GR
GS
[0.75 0 0 0.75 730.75914 277.50356] CT
0 0 1 RC
10.0 ML
8 LW
N
0 -4 M
0 4 L
-4 0 M
4 0 L
-2.828 -2.828 M
2.828 2.828 L
-2.828 2.828 M
2.828 -2.828 L
S
GR
GS
[0.75 0 0 0.75 0 -0.25] CT
0 0 1 RC
1 LJ
8 LW
N
972.943 366.183 M
972.924 365.881 L
973.083 366.139 L
S
GR
GS
[0.75 0 0 0.75 0 -0.25] CT
0 0 1 RC
1 LJ
8 LW
N
974.346 370.338 M
972.924 365.881 L
S
GR
GS
[0.75 0 0 0.75 0 -0.25] CT
0 0 1 RC
1 LJ
8 LW
N
958.768 370.326 M
959.255 374.201 L
960.689 377.832 L
962.982 380.993 L
965.989 383.484 L
969.521 385.149 L
973.356 385.884 L
977.253 385.642 L
980.967 384.438 L
984.266 382.348 L
986.941 379.504 L
988.824 376.083 L
989.798 372.302 L
989.801 368.397 L
988.833 364.615 L
986.955 361.191 L
984.284 358.343 L
980.989 356.248 L
977.276 355.039 L
973.379 354.791 L
969.543 355.519 L
966.009 357.179 L
962.998 359.666 L
960.701 362.823 L
959.261 366.453 L
958.768 370.326 L
S
GR
GS
[0.75 0 0 0.75 0 -0.25] CT
1 GC
N
/f155623792{1451 326 M
1451 83 L
1173 83 L
1173 326 L
cp}def
f155623792
f
GR
GS
[0.75 0 0 0.75 915 85.99999] CT
/Helvetica-Bold 48 F
GS
[1 0 0 1 0 0] CT
0 19 moveto 
1 -1 scale
(LandMark) t 
GR
GR
GS
[0.75 0 0 0.75 897.75 86] CT
1 0 0 RC
N
f-1996900118
f
GR
GS
[0.75 0 0 0.75 897.75 86] CT
0 0 1 RC
10.0 ML
0.667 LW
N
0 -26.66 M
-23.088 13.33 L
23.088 13.33 L
cp
S
GR
GS
[0.75 0 0 0.75 915 146] CT
/Helvetica-Bold 48 F
GS
[1 0 0 1 0 0] CT
0 0 moveto 
1 -1 scale
(b[X) t 
GR
GR
GS
[0.75 0 0 0.75 973.5 164] CT
/Helvetica-Bold 38.4 F
GS
[1 0 0 1 0 0] CT
0 0 moveto 
1 -1 scale
(k) t 
GR
GR
GS
[0.75 0 0 0.75 990 146] CT
/Helvetica-Bold 48 F
GS
[1 0 0 1 0 0] CT
0 0 moveto 
1 -1 scale
(]) t 
GR
GR
GS
[0.75 0 0 0.75 0 -0.25] CT
0 0 1 RC
1 LJ
8 LW
N
1177 186.5 M
1217 186.5 L
S
GR
GS
[0.75 0 0 0.75 915 218] CT
/Helvetica-Bold 48 F
GS
[1 0 0 1 0 0] CT
0 0 moveto 
1 -1 scale
(b) t 
GR
GR
GS
[0.75 0 0 0.75 937.5 200] CT
/Helvetica-Bold 38.4 F
GS
[1 0 0 1 0 0] CT
0 0 moveto 
1 -1 scale
(-) t 
GR
GR
GS
[0.75 0 0 0.75 947.25 218] CT
/Helvetica-Bold 48 F
GS
[1 0 0 1 0 0] CT
0 0 moveto 
1 -1 scale
([X) t 
GR
GR
GS
[0.75 0 0 0.75 983.25 236] CT
/Helvetica-Bold 38.4 F
GS
[1 0 0 1 0 0] CT
0 0 moveto 
1 -1 scale
(k) t 
GR
GR
GS
[0.75 0 0 0.75 999.75 218] CT
/Helvetica-Bold 48 F
GS
[1 0 0 1 0 0] CT
0 0 moveto 
1 -1 scale
(]) t 
GR
GR
GS
[0.75 0 0 0.75 0 -0.25] CT
0 1 1 RC
1 LJ
8 LW
N
1177 276 M
1217 276 L
S
GR
GS
[0.75 0 0 0.75 0 -0.25] CT
0.149 GC
10.0 ML
0.667 LW
N
1173 326 M
1173 83 L
1451 83 L
1451 326 L
cp
S
GR
%%Trailer
%%Pages: 1
%%EOF
