%!PS-Adobe-3.0 EPSF-3.0
%%Creator: (MATLAB, The Mathworks, Inc. Version 9.10.0.1649659 \(R2021a\) Update 1. Operating System: Windows 10)
%%Title: (C:/Users/ohads/ANPL/papers/research/2022 ICRA/Figures/TestCase_1/fig_files/Robots_estimation_k_1_no_propagted.eps)
%%CreationDate: 2021-07-29T16:43:34
%%Pages: (atend)
%%BoundingBox:   295     9  1123   669
%%LanguageLevel: 3
%%EndComments
%%BeginProlog
%%BeginResource: procset (Apache XML Graphics Std ProcSet) 1.2 0
%%Version: 1.2 0
%%Copyright: (Copyright 2001-2003,2010 The Apache Software Foundation. License terms: http://www.apache.org/licenses/LICENSE-2.0)
/bd{bind def}bind def
/ld{load def}bd
/GR/grestore ld
/GS/gsave ld
/RM/rmoveto ld
/C/curveto ld
/t/show ld
/L/lineto ld
/ML/setmiterlimit ld
/CT/concat ld
/f/fill ld
/N/newpath ld
/S/stroke ld
/CC/setcmykcolor ld
/A/ashow ld
/cp/closepath ld
/RC/setrgbcolor ld
/LJ/setlinejoin ld
/GC/setgray ld
/LW/setlinewidth ld
/M/moveto ld
/re {4 2 roll M
1 index 0 rlineto
0 exch rlineto
neg 0 rlineto
cp } bd
/_ctm matrix def
/_tm matrix def
/BT { _ctm currentmatrix pop matrix _tm copy pop 0 0 moveto } bd
/ET { _ctm setmatrix } bd
/iTm { _ctm setmatrix _tm concat } bd
/Tm { _tm astore pop iTm 0 0 moveto } bd
/ux 0.0 def
/uy 0.0 def
/F {
  /Tp exch def
  /Tf exch def
  Tf findfont Tp scalefont setfont
  /cf Tf def  /cs Tp def
} bd
/ULS {currentpoint /uy exch def /ux exch def} bd
/ULE {
  /Tcx currentpoint pop def
  gsave
  newpath
  cf findfont cs scalefont dup
  /FontMatrix get 0 get /Ts exch def /FontInfo get dup
  /UnderlinePosition get Ts mul /To exch def
  /UnderlineThickness get Ts mul /Tt exch def
  ux uy To add moveto  Tcx uy To add lineto
  Tt setlinewidth stroke
  grestore
} bd
/OLE {
  /Tcx currentpoint pop def
  gsave
  newpath
  cf findfont cs scalefont dup
  /FontMatrix get 0 get /Ts exch def /FontInfo get dup
  /UnderlinePosition get Ts mul /To exch def
  /UnderlineThickness get Ts mul /Tt exch def
  ux uy To add cs add moveto Tcx uy To add cs add lineto
  Tt setlinewidth stroke
  grestore
} bd
/SOE {
  /Tcx currentpoint pop def
  gsave
  newpath
  cf findfont cs scalefont dup
  /FontMatrix get 0 get /Ts exch def /FontInfo get dup
  /UnderlinePosition get Ts mul /To exch def
  /UnderlineThickness get Ts mul /Tt exch def
  ux uy To add cs 10 mul 26 idiv add moveto Tcx uy To add cs 10 mul 26 idiv add lineto
  Tt setlinewidth stroke
  grestore
} bd
/QT {
/Y22 exch store
/X22 exch store
/Y21 exch store
/X21 exch store
currentpoint
/Y21 load 2 mul add 3 div exch
/X21 load 2 mul add 3 div exch
/X21 load 2 mul /X22 load add 3 div
/Y21 load 2 mul /Y22 load add 3 div
/X22 load /Y22 load curveto
} bd
/SSPD {
dup length /d exch dict def
{
/v exch def
/k exch def
currentpagedevice k known {
/cpdv currentpagedevice k get def
v cpdv ne {
/upd false def
/nullv v type /nulltype eq def
/nullcpdv cpdv type /nulltype eq def
nullv nullcpdv or
{
/upd true def
} {
/sametype v type cpdv type eq def
sametype {
v type /arraytype eq {
/vlen v length def
/cpdvlen cpdv length def
vlen cpdvlen eq {
0 1 vlen 1 sub {
/i exch def
/obj v i get def
/cpdobj cpdv i get def
obj cpdobj ne {
/upd true def
exit
} if
} for
} {
/upd true def
} ifelse
} {
v type /dicttype eq {
v {
/dv exch def
/dk exch def
/cpddv cpdv dk get def
dv cpddv ne {
/upd true def
exit
} if
} forall
} {
/upd true def
} ifelse
} ifelse
} if
} ifelse
upd true eq {
d k v put
} if
} if
} if
} forall
d length 0 gt {
d setpagedevice
} if
} bd
/RE { % /NewFontName [NewEncodingArray] /FontName RE -
  findfont dup length dict begin
  {
    1 index /FID ne
    {def} {pop pop} ifelse
  } forall
  /Encoding exch def
  /FontName 1 index def
  currentdict definefont pop
  end
} bind def
%%EndResource
%%BeginResource: procset (Apache XML Graphics EPS ProcSet) 1.0 0
%%Version: 1.0 0
%%Copyright: (Copyright 2002-2003 The Apache Software Foundation. License terms: http://www.apache.org/licenses/LICENSE-2.0)
/BeginEPSF { %def
/b4_Inc_state save def         % Save state for cleanup
/dict_count countdictstack def % Count objects on dict stack
/op_count count 1 sub def      % Count objects on operand stack
userdict begin                 % Push userdict on dict stack
/showpage { } def              % Redefine showpage, { } = null proc
0 setgray 0 setlinecap         % Prepare graphics state
1 setlinewidth 0 setlinejoin
10 setmiterlimit [ ] 0 setdash newpath
/languagelevel where           % If level not equal to 1 then
{pop languagelevel             % set strokeadjust and
1 ne                           % overprint to their defaults.
{false setstrokeadjust false setoverprint
} if
} if
} bd
/EndEPSF { %def
count op_count sub {pop} repeat            % Clean up stacks
countdictstack dict_count sub {end} repeat
b4_Inc_state restore
} bd
%%EndResource
%FOPBeginFontDict
%%IncludeResource: font Courier-Oblique
%%IncludeResource: font Courier-BoldOblique
%%IncludeResource: font Courier-Bold
%%IncludeResource: font ZapfDingbats
%%IncludeResource: font Symbol
%%IncludeResource: font Helvetica
%%IncludeResource: font Helvetica-Oblique
%%IncludeResource: font Helvetica-Bold
%%IncludeResource: font Helvetica-BoldOblique
%%IncludeResource: font Times-Roman
%%IncludeResource: font Times-Italic
%%IncludeResource: font Times-Bold
%%IncludeResource: font Times-BoldItalic
%%IncludeResource: font Courier
%FOPEndFontDict
%%BeginResource: encoding WinAnsiEncoding
/WinAnsiEncoding [
/.notdef /.notdef /.notdef /.notdef /.notdef
/.notdef /.notdef /.notdef /.notdef /.notdef
/.notdef /.notdef /.notdef /.notdef /.notdef
/.notdef /.notdef /.notdef /.notdef /.notdef
/.notdef /.notdef /.notdef /.notdef /.notdef
/.notdef /.notdef /.notdef /.notdef /.notdef
/.notdef /.notdef /space /exclam /quotedbl
/numbersign /dollar /percent /ampersand /quotesingle
/parenleft /parenright /asterisk /plus /comma
/hyphen /period /slash /zero /one
/two /three /four /five /six
/seven /eight /nine /colon /semicolon
/less /equal /greater /question /at
/A /B /C /D /E
/F /G /H /I /J
/K /L /M /N /O
/P /Q /R /S /T
/U /V /W /X /Y
/Z /bracketleft /backslash /bracketright /asciicircum
/underscore /quoteleft /a /b /c
/d /e /f /g /h
/i /j /k /l /m
/n /o /p /q /r
/s /t /u /v /w
/x /y /z /braceleft /bar
/braceright /asciitilde /bullet /Euro /bullet
/quotesinglbase /florin /quotedblbase /ellipsis /dagger
/daggerdbl /circumflex /perthousand /Scaron /guilsinglleft
/OE /bullet /Zcaron /bullet /bullet
/quoteleft /quoteright /quotedblleft /quotedblright /bullet
/endash /emdash /asciitilde /trademark /scaron
/guilsinglright /oe /bullet /zcaron /Ydieresis
/space /exclamdown /cent /sterling /currency
/yen /brokenbar /section /dieresis /copyright
/ordfeminine /guillemotleft /logicalnot /sfthyphen /registered
/macron /degree /plusminus /twosuperior /threesuperior
/acute /mu /paragraph /middot /cedilla
/onesuperior /ordmasculine /guillemotright /onequarter /onehalf
/threequarters /questiondown /Agrave /Aacute /Acircumflex
/Atilde /Adieresis /Aring /AE /Ccedilla
/Egrave /Eacute /Ecircumflex /Edieresis /Igrave
/Iacute /Icircumflex /Idieresis /Eth /Ntilde
/Ograve /Oacute /Ocircumflex /Otilde /Odieresis
/multiply /Oslash /Ugrave /Uacute /Ucircumflex
/Udieresis /Yacute /Thorn /germandbls /agrave
/aacute /acircumflex /atilde /adieresis /aring
/ae /ccedilla /egrave /eacute /ecircumflex
/edieresis /igrave /iacute /icircumflex /idieresis
/eth /ntilde /ograve /oacute /ocircumflex
/otilde /odieresis /divide /oslash /ugrave
/uacute /ucircumflex /udieresis /yacute /thorn
/ydieresis
] def
%%EndResource
%FOPBeginFontReencode
/Courier-Oblique findfont
dup length dict begin
  {1 index /FID ne {def} {pop pop} ifelse} forall
  /Encoding WinAnsiEncoding def
  currentdict
end
/Courier-Oblique exch definefont pop
/Courier-BoldOblique findfont
dup length dict begin
  {1 index /FID ne {def} {pop pop} ifelse} forall
  /Encoding WinAnsiEncoding def
  currentdict
end
/Courier-BoldOblique exch definefont pop
/Courier-Bold findfont
dup length dict begin
  {1 index /FID ne {def} {pop pop} ifelse} forall
  /Encoding WinAnsiEncoding def
  currentdict
end
/Courier-Bold exch definefont pop
/Helvetica findfont
dup length dict begin
  {1 index /FID ne {def} {pop pop} ifelse} forall
  /Encoding WinAnsiEncoding def
  currentdict
end
/Helvetica exch definefont pop
/Helvetica-Oblique findfont
dup length dict begin
  {1 index /FID ne {def} {pop pop} ifelse} forall
  /Encoding WinAnsiEncoding def
  currentdict
end
/Helvetica-Oblique exch definefont pop
/Helvetica-Bold findfont
dup length dict begin
  {1 index /FID ne {def} {pop pop} ifelse} forall
  /Encoding WinAnsiEncoding def
  currentdict
end
/Helvetica-Bold exch definefont pop
/Helvetica-BoldOblique findfont
dup length dict begin
  {1 index /FID ne {def} {pop pop} ifelse} forall
  /Encoding WinAnsiEncoding def
  currentdict
end
/Helvetica-BoldOblique exch definefont pop
/Times-Roman findfont
dup length dict begin
  {1 index /FID ne {def} {pop pop} ifelse} forall
  /Encoding WinAnsiEncoding def
  currentdict
end
/Times-Roman exch definefont pop
/Times-Italic findfont
dup length dict begin
  {1 index /FID ne {def} {pop pop} ifelse} forall
  /Encoding WinAnsiEncoding def
  currentdict
end
/Times-Italic exch definefont pop
/Times-Bold findfont
dup length dict begin
  {1 index /FID ne {def} {pop pop} ifelse} forall
  /Encoding WinAnsiEncoding def
  currentdict
end
/Times-Bold exch definefont pop
/Times-BoldItalic findfont
dup length dict begin
  {1 index /FID ne {def} {pop pop} ifelse} forall
  /Encoding WinAnsiEncoding def
  currentdict
end
/Times-BoldItalic exch definefont pop
/Courier findfont
dup length dict begin
  {1 index /FID ne {def} {pop pop} ifelse} forall
  /Encoding WinAnsiEncoding def
  currentdict
end
/Courier exch definefont pop
%FOPEndFontReencode
%%EndProlog
%%Page: 1 1
%%PageBoundingBox: 0 0 1440 722
%%BeginPageSetup
[1 0 0 -1 0 722] CT
%%EndPageSetup
GS
[0.75 0 0 0.75 0 -0.25] CT
1 GC
N
0 0 1920 963 re
f
GR
GS
[0.75 0 0 0.75 0 -0.25] CT
1 GC
N
0 0 1920 963 re
f
GR
GS
[0.75 0 0 0.75 0 -0.25] CT
1 GC
N
526.147 810 M
1461.853 810 L
1461.853 72 L
526.147 72 L
cp
f
GR
GS
[0.75 0 0 0.75 0 -0.25] CT
0.149 GC
2 setlinecap
1 LJ
0.667 LW
N
526.147 810 M
1461.853 810 L
S
GR
GS
[0.75 0 0 0.75 0 -0.25] CT
0.149 GC
2 setlinecap
1 LJ
0.667 LW
N
526.147 810 M
526.147 800.643 L
S
GR
GS
[0.75 0 0 0.75 0 -0.25] CT
0.149 GC
2 setlinecap
1 LJ
0.667 LW
N
760.074 810 M
760.074 800.643 L
S
GR
GS
[0.75 0 0 0.75 0 -0.25] CT
0.149 GC
2 setlinecap
1 LJ
0.667 LW
N
994 810 M
994 800.643 L
S
GR
GS
[0.75 0 0 0.75 0 -0.25] CT
0.149 GC
2 setlinecap
1 LJ
0.667 LW
N
1227.926 810 M
1227.926 800.643 L
S
GR
GS
[0.75 0 0 0.75 0 -0.25] CT
0.149 GC
2 setlinecap
1 LJ
0.667 LW
N
1461.853 810 M
1461.853 800.643 L
S
GR
GS
[0.75 0 0 0.75 394.61046 617.24998] CT
0.149 GC
/Helvetica 53.333 F
GS
[1 0 0 1 0 0] CT
-24 54 moveto 
1 -1 scale
(-5) t 
GR
GR
GS
[0.75 0 0 0.75 570.05521 617.24998] CT
0.149 GC
/Helvetica 53.333 F
GS
[1 0 0 1 0 0] CT
-15 54 moveto 
1 -1 scale
(0) t 
GR
GR
GS
[0.75 0 0 0.75 745.5 617.24998] CT
0.149 GC
/Helvetica 53.333 F
GS
[1 0 0 1 0 0] CT
-15 54 moveto 
1 -1 scale
(5) t 
GR
GR
GS
[0.75 0 0 0.75 920.94479 617.24998] CT
0.149 GC
/Helvetica 53.333 F
GS
[1 0 0 1 0 0] CT
-30 54 moveto 
1 -1 scale
(10) t 
GR
GR
GS
[0.75 0 0 0.75 1096.38959 617.24998] CT
0.149 GC
/Helvetica 53.333 F
GS
[1 0 0 1 0 0] CT
-30 54 moveto 
1 -1 scale
(15) t 
GR
GR
GS
[0.75 0 0 0.75 745.50032 667.75002] CT
0.149 GC
/Helvetica 58.667 F
GS
[1 0 0 1 0 0] CT
-34.5 59 moveto 
1 -1 scale
(Xs) t 
GR
GR
GS
[0.75 0 0 0.75 0 -0.25] CT
0.149 GC
2 setlinecap
1 LJ
0.667 LW
N
526.147 810 M
526.147 72 L
S
GR
GS
[0.75 0 0 0.75 0 -0.25] CT
0.149 GC
2 setlinecap
1 LJ
0.667 LW
N
526.147 657.044 M
535.504 657.044 L
S
GR
GS
[0.75 0 0 0.75 0 -0.25] CT
0.149 GC
2 setlinecap
1 LJ
0.667 LW
N
526.147 423.118 M
535.504 423.118 L
S
GR
GS
[0.75 0 0 0.75 0 -0.25] CT
0.149 GC
2 setlinecap
1 LJ
0.667 LW
N
526.147 189.191 M
535.504 189.191 L
S
GR
GS
[0.75 0 0 0.75 384.61043 492.53305] CT
0.149 GC
/Helvetica 53.333 F
GS
[1 0 0 1 0 0] CT
-30 21 moveto 
1 -1 scale
(0) t 
GR
GR
GS
[0.75 0 0 0.75 384.61043 317.08828] CT
0.149 GC
/Helvetica 53.333 F
GS
[1 0 0 1 0 0] CT
-30 21 moveto 
1 -1 scale
(5) t 
GR
GR
GS
[0.75 0 0 0.75 384.61043 141.64349] CT
0.149 GC
/Helvetica 53.333 F
GS
[1 0 0 1 0 0] CT
-60 21 moveto 
1 -1 scale
(10) t 
GR
GR
GS
[0 -0.75 0.75 0 336.61045 330.49973] CT
0.149 GC
/Helvetica 58.667 F
GS
[1 0 0 1 0 0] CT
-34.5 -13 moveto 
1 -1 scale
(Ys) t 
GR
GR
GS
[0.75 0 0 0.75 780.58896 457.44409] CT
1 0 0 RC
N
0 -35.547 M
-30.783 17.773 L
30.783 17.773 L
cp
f
GR
GS
[0.75 0 0 0.75 780.58896 457.44409] CT
0 0 1 RC
10.0 ML
1.333 LW
N
0 -35.547 M
-30.783 17.773 L
30.783 17.773 L
cp
S
GR
GS
[0.75 0 0 0.75 745.5 387.26617] CT
1 0 0 RC
N
0 -26.66 M
-23.088 13.33 L
23.088 13.33 L
cp
f
GR
GS
[0.75 0 0 0.75 745.5 387.26617] CT
0 0 1 RC
10.0 ML
1.333 LW
N
0 -26.66 M
-23.088 13.33 L
23.088 13.33 L
cp
S
GR
GS
[0.75 0 0 0.75 920.94479 246.91036] CT
1 0 0 RC
N
/f-166438322{0 -35.547 M
-30.783 17.773 L
30.783 17.773 L
cp}def
f-166438322
f
GR
GS
[0.75 0 0 0.75 920.94479 246.91036] CT
0 0 1 RC
10.0 ML
1.333 LW
N
0 -35.547 M
-30.783 17.773 L
30.783 17.773 L
cp
S
GR
GS
[0.75 0 0 0.75 640.23312 387.26617] CT
1 0 0 RC
N
f-166438322
f
GR
GS
[0.75 0 0 0.75 640.23312 387.26617] CT
0 0 1 RC
10.0 ML
1.333 LW
N
0 -35.547 M
-30.783 17.773 L
30.783 17.773 L
cp
S
GR
GS
[0.75 0 0 0.75 780.58896 281.99932] CT
1 0 0 RC
N
f-166438322
f
GR
GS
[0.75 0 0 0.75 780.58896 281.99932] CT
0 0 1 RC
10.0 ML
1.333 LW
N
0 -35.547 M
-30.783 17.773 L
30.783 17.773 L
cp
S
GR
GS
[0.75 0 0 0.75 745.5 317.08828] CT
1 0 0 RC
N
f-166438322
f
GR
GS
[0.75 0 0 0.75 745.5 317.08828] CT
0 0 1 RC
10.0 ML
1.333 LW
N
0 -35.547 M
-30.783 17.773 L
30.783 17.773 L
cp
S
GR
GS
[0.75 0 0 0.75 675.32208 352.17722] CT
1 0 0 RC
N
f-166438322
f
GR
GS
[0.75 0 0 0.75 675.32208 352.17722] CT
0 0 1 RC
10.0 ML
1.333 LW
N
0 -35.547 M
-30.783 17.773 L
30.783 17.773 L
cp
S
GR
GS
[0.75 0 0 0.75 815.67792 457.44409] CT
1 0 0 RC
N
f-166438322
f
GR
GS
[0.75 0 0 0.75 815.67792 457.44409] CT
0 0 1 RC
10.0 ML
1.333 LW
N
0 -35.547 M
-30.783 17.773 L
30.783 17.773 L
cp
S
GR
GS
[0.75 0 0 0.75 689.23723 375.00037] CT
1 0 0 RC
10.0 ML
0.667 LW
N
0 -5 M
0 5 L
-5 0 M
5 0 L
S
GR
GS
[0.75 0 0 0.75 689.23723 375.00037] CT
0.718 0.275 1 RC
10.0 ML
13.333 LW
N
-13.333 0 M
0 17.733 L
13.333 0 L
0 -17.733 L
cp
S
GR
GS
[0.75 0 0 0.75 704.3936 385.60637] CT
0 1 0 RC
10.0 ML
0.667 LW
N
0 -4 M
0 4 L
-4 0 M
4 0 L
-2.828 -2.828 M
2.828 2.828 L
-2.828 2.828 M
2.828 -2.828 L
S
GR
GS
[0.75 0 0 0.75 0 -0.25] CT
0 1 0 RC
1 LJ
0.667 LW
N
942.432 511.423 M
942.638 511.311 L
942.509 511.507 L
S
GR
GS
[0.75 0 0 0.75 0 -0.25] CT
0 1 0 RC
1 LJ
0.667 LW
N
939.191 514.475 M
942.638 511.311 L
S
GR
GS
[0.75 0 0 0.75 0 -0.25] CT
0 1 0 RC
1 LJ
13.333 LW
N
922.883 514.476 M
923.395 518.635 L
924.9 522.533 L
927.303 525.925 L
930.453 528.597 L
934.152 530.382 L
938.168 531.167 L
942.248 530.904 L
946.136 529.608 L
949.587 527.362 L
952.386 524.306 L
954.355 520.632 L
955.372 516.571 L
955.371 512.378 L
954.355 508.318 L
952.385 504.644 L
949.587 501.588 L
946.135 499.342 L
942.247 498.046 L
938.167 497.783 L
934.151 498.569 L
930.452 500.354 L
927.303 503.026 L
924.9 506.418 L
923.395 510.316 L
922.883 514.476 L
S
GR
GS
[0.75 0 0 0.75 672.155 317.79404] CT
0 0 1 RC
10.0 ML
0.667 LW
N
0 -4 M
0 4 L
-4 0 M
4 0 L
-2.828 -2.828 M
2.828 2.828 L
-2.828 2.828 M
2.828 -2.828 L
S
GR
GS
[0.75 0 0 0.75 0 -0.25] CT
0 0 1 RC
1 LJ
0.667 LW
N
899.447 421.007 M
899.653 420.895 L
899.524 421.091 L
S
GR
GS
[0.75 0 0 0.75 0 -0.25] CT
0 0 1 RC
1 LJ
0.667 LW
N
896.207 424.059 M
899.653 420.895 L
S
GR
GS
[0.75 0 0 0.75 0 -0.25] CT
0 0 1 RC
1 LJ
5.333 LW
N
879.898 424.059 M
880.41 419.9 L
881.915 416.002 L
884.318 412.61 L
887.468 409.937 L
891.167 408.152 L
895.182 407.367 L
899.262 407.63 L
903.15 408.925 L
906.602 411.171 L
909.4 414.228 L
911.37 417.901 L
912.387 421.962 L
912.387 426.154 L
911.37 430.215 L
909.401 433.889 L
906.603 436.945 L
903.151 439.192 L
899.263 440.488 L
895.183 440.751 L
891.167 439.965 L
887.469 438.18 L
884.319 435.508 L
881.916 432.117 L
880.411 428.219 L
879.898 424.059 L
S
GR
GS
[0.75 0 0 0.75 704.39374 216.07501] CT
0 0 1 RC
10.0 ML
0.667 LW
N
0 -4 M
0 4 L
-4 0 M
4 0 L
-2.828 -2.828 M
2.828 2.828 L
-2.828 2.828 M
2.828 -2.828 L
S
GR
GS
[0.75 0 0 0.75 0 -0.25] CT
0 0 1 RC
1 LJ
0.667 LW
N
942.432 285.381 M
942.638 285.269 L
942.509 285.465 L
S
GR
GS
[0.75 0 0 0.75 0 -0.25] CT
0 0 1 RC
1 LJ
0.667 LW
N
939.192 288.433 M
942.638 285.269 L
S
GR
GS
[0.75 0 0 0.75 0 -0.25] CT
0 0 1 RC
1 LJ
5.333 LW
N
922.883 288.434 M
923.396 292.593 L
924.901 296.491 L
927.304 299.883 L
930.453 302.555 L
934.153 304.34 L
938.168 305.126 L
942.248 304.862 L
946.136 303.567 L
949.588 301.32 L
952.386 298.264 L
954.355 294.59 L
955.372 290.529 L
955.372 286.337 L
954.355 282.276 L
952.385 278.602 L
949.587 275.546 L
946.135 273.3 L
942.247 272.004 L
938.167 271.741 L
934.152 272.527 L
930.453 274.312 L
927.303 276.985 L
924.9 280.376 L
923.395 284.274 L
922.883 288.434 L
S
GR
GS
[0.75 0 0 0.75 672.15504 249.98129] CT
0 0 1 RC
10.0 ML
0.667 LW
N
0 -4 M
0 4 L
-4 0 M
4 0 L
-2.828 -2.828 M
2.828 2.828 L
-2.828 2.828 M
2.828 -2.828 L
S
GR
GS
[0.75 0 0 0.75 0 -0.25] CT
0 0 1 RC
1 LJ
0.667 LW
N
899.447 330.59 M
899.653 330.478 L
899.524 330.674 L
S
GR
GS
[0.75 0 0 0.75 0 -0.25] CT
0 0 1 RC
1 LJ
0.667 LW
N
896.207 333.642 M
899.653 330.478 L
S
GR
GS
[0.75 0 0 0.75 0 -0.25] CT
0 0 1 RC
1 LJ
13.333 LW
N
879.898 333.642 M
880.411 337.802 L
881.916 341.7 L
884.319 345.091 L
887.469 347.764 L
891.168 349.548 L
895.183 350.334 L
899.263 350.071 L
903.151 348.775 L
906.603 346.528 L
909.401 343.472 L
911.37 339.798 L
912.387 335.737 L
912.387 331.545 L
911.37 327.484 L
909.4 323.811 L
906.602 320.754 L
903.15 318.508 L
899.262 317.213 L
895.182 316.95 L
891.167 317.735 L
887.468 319.52 L
884.318 322.193 L
881.915 325.585 L
880.41 329.483 L
879.898 333.642 L
S
GR
GS
[0.75 0 0 0.75 736.63239 385.60939] CT
0 0 1 RC
10.0 ML
0.667 LW
N
0 -4 M
0 4 L
-4 0 M
4 0 L
-2.828 -2.828 M
2.828 2.828 L
-2.828 2.828 M
2.828 -2.828 L
S
GR
GS
[0.75 0 0 0.75 0 -0.25] CT
0 0 1 RC
1 LJ
0.667 LW
N
985.417 511.427 M
985.623 511.315 L
985.494 511.511 L
S
GR
GS
[0.75 0 0 0.75 0 -0.25] CT
0 0 1 RC
1 LJ
0.667 LW
N
982.177 514.479 M
985.623 511.315 L
S
GR
GS
[0.75 0 0 0.75 0 -0.25] CT
0 0 1 RC
1 LJ
5.333 LW
N
965.868 514.48 M
966.38 510.32 L
967.885 506.422 L
970.288 503.03 L
973.437 500.358 L
977.136 498.573 L
981.152 497.787 L
985.232 498.05 L
989.12 499.346 L
992.572 501.592 L
995.37 504.648 L
997.34 508.322 L
998.357 512.383 L
998.357 516.575 L
997.34 520.636 L
995.371 524.31 L
992.572 527.366 L
989.121 529.612 L
985.233 530.908 L
981.153 531.171 L
977.137 530.386 L
973.438 528.601 L
970.288 525.929 L
967.885 522.537 L
966.38 518.639 L
965.868 514.48 L
S
GR
GS
[0.75 0 0 0.75 0 -0.25] CT
1 GC
N
/f-1561337746{1496 318 M
1496 72 L
1262 72 L
1262 318 L
cp}def
f-1561337746
f
GR
GS
[0.75 0 0 0.75 981.75 73.4502] CT
/Helvetica-Bold 38.667 F
GS
[1 0 0 1 0 0] CT
0 15 moveto 
1 -1 scale
(LandMark) t 
GR
GR
GS
[0.75 0 0 0.75 964.5 73.4502] CT
1 0 0 RC
N
/f1850665186{0 -25.771 M
-22.318 12.886 L
22.318 12.886 L
cp}def
f1850665186
f
GR
GS
[0.75 0 0 0.75 964.5 73.4502] CT
0 0 1 RC
10.0 ML
1.333 LW
N
0 -25.771 M
-22.318 12.886 L
22.318 12.886 L
cp
S
GR
GS
[0.75 0 0 0.75 981.75 131] CT
/Helvetica-Bold 38.667 F
GS
[1 0 0 1 0 0] CT
0 0 moveto 
1 -1 scale
(b) t 
GR
GR
GS
[0.75 0 0 0.75 999.75 116.75] CT
/Helvetica-Bold 30.933 F
GS
[1 0 0 1 0 0] CT
0 0 moveto 
1 -1 scale
(*) t 
GR
GR
GS
[0.75 0 0 0.75 1009.5 131] CT
/Helvetica-Bold 38.667 F
GS
[1 0 0 1 0 0] CT
0 0 moveto 
1 -1 scale
([X) t 
GR
GR
GS
[0.75 0 0 0.75 1038.75 145.25] CT
/Helvetica-Bold 30.933 F
GS
[1 0 0 1 0 0] CT
0 0 moveto 
1 -1 scale
(k) t 
GR
GR
GS
[0.75 0 0 0.75 1052.25 131] CT
/Helvetica-Bold 38.667 F
GS
[1 0 0 1 0 0] CT
0 0 moveto 
1 -1 scale
(]) t 
GR
GR
GS
[0.75 0 0 0.75 0 -0.25] CT
0 1 0 RC
1 LJ
13.333 LW
N
1266 161.914 M
1306 161.914 L
S
GR
GS
[0.75 0 0 0.75 981.75 168.92043] CT
/Helvetica-Bold 38.667 F
GS
[1 0 0 1 0 0] CT
0 15 moveto 
1 -1 scale
(GT) t 
GR
GR
GS
[0.75 0 0 0.75 964.5 168.92043] CT
0.718 0.275 1 RC
10.0 ML
13.333 LW
N
-13.333 0 M
0 17.733 L
13.333 0 L
0 -17.733 L
cp
S
GR
GS
[0.75 0 0 0.75 981.75 217.25] CT
/Helvetica-Bold 38.667 F
GS
[1 0 0 1 0 0] CT
0 0 moveto 
1 -1 scale
(b[X) t 
GR
GR
GS
[0.75 0 0 0.75 1029 231.5] CT
/Helvetica-Bold 30.933 F
GS
[1 0 0 1 0 0] CT
0 0 moveto 
1 -1 scale
(k) t 
GR
GR
GS
[0.75 0 0 0.75 1042.5 217.25] CT
/Helvetica-Bold 38.667 F
GS
[1 0 0 1 0 0] CT
0 0 moveto 
1 -1 scale
(]) t 
GR
GR
GS
[0.75 0 0 0.75 0 -0.25] CT
0 0 1 RC
1 LJ
13.333 LW
N
1266 283.146 M
1306 283.146 L
S
GR
GS
[0.75 0 0 0.75 0 -0.25] CT
0.149 GC
10.0 ML
0.667 LW
N
1262 318 M
1262 72 L
1496 72 L
1496 318 L
cp
S
GR
%%Trailer
%%Pages: 1
%%EOF
