\relax 
\providecommand\hyper@newdestlabel[2]{}
\@nameuse{bbl@beforestart}
\providecommand\HyperFirstAtBeginDocument{\AtBeginDocument}
\HyperFirstAtBeginDocument{\ifx\hyper@anchor\@undefined
\global\let\oldcontentsline\contentsline
\gdef\contentsline#1#2#3#4{\oldcontentsline{#1}{#2}{#3}}
\global\let\oldnewlabel\newlabel
\gdef\newlabel#1#2{\newlabelxx{#1}#2}
\gdef\newlabelxx#1#2#3#4#5#6{\oldnewlabel{#1}{{#2}{#3}}}
\AtEndDocument{\ifx\hyper@anchor\@undefined
\let\contentsline\oldcontentsline
\let\newlabel\oldnewlabel
\fi}
\fi}
\global\let\hyper@last\relax 
\gdef\HyperFirstAtBeginDocument#1{#1}
\providecommand\HyField@AuxAddToFields[1]{}
\providecommand\HyField@AuxAddToCoFields[2]{}
\@writefile{toc}{}
\@writefile{toc}{\save@tocdepth \setcounter {tocdepth}{2}}
\select@language{english}
\@writefile{toc}{\select@language{english}}
\@writefile{lof}{\select@language{english}}
\@writefile{lot}{\select@language{english}}
\@writefile{toc}{\contentsline {chapter}{List of Tables}{\relax }{chapter*.2}\protected@file@percent }
\@writefile{toc}{\contentsline {chapter}{Abstract}{1}{chapter*.3}\protected@file@percent }
\@writefile{cot}{\contentsline {chapter}{\IeC {\hebtav }\IeC {\hebqof }\IeC {\hebtsadi }\IeC {\hebyod }\IeC {\hebresh }}{1}{chapter*.3}\protected@file@percent }
\@writefile{toc}{\contentsline {chapter}{Abbreviations and Notations}{3}{chapter*.4}\protected@file@percent }
\@writefile{cot}{\contentsline {chapter}{\IeC {\hebresh }\IeC {\hebshin }\IeC {\hebyod }\IeC {\hebmem }\IeC {\hebtav } \IeC {\hebqof }\IeC {\hebyod }\IeC {\hebtsadi }\IeC {\hebvav }\IeC {\hebresh }\IeC {\hebyod }\IeC {\hebfinalmem } \IeC {\hebvav }\IeC {\hebsamekh }\IeC {\hebmem }\IeC {\heblamed }\IeC {\hebyod }\IeC {\hebfinalmem }}{3}{chapter*.4}\protected@file@percent }
\@input{main/intro.aux}
\@input{main/notations&formulation.aux}
\@input{main/approach.aux}
\@input{main/applications.aux}
\@input{main/alterntv_approaches.aux}
\@input{main/conclusion.aux}
\@input{main/appendix1.aux}
\@input{main/appendix2.aux}
