%!PS-Adobe-3.0 EPSF-3.0
%%Creator: (MATLAB, The Mathworks, Inc. Version 9.10.0.1649659 \(R2021a\) Update 1. Operating System: Windows 10)
%%Title: C:/Users/ohads/ANPL/Code/da_bsp_future_smoothing/TestCases/ChosenTestCase/TestCases_56/Figures/Robots_estimation_k_3.eps
%%CreationDate: 2021-07-08T14:31:48
%%Pages: (atend)
%%BoundingBox:     0     0  1440   722
%%LanguageLevel: 3
%%EndComments
%%BeginProlog
%%BeginResource: procset (Apache XML Graphics Std ProcSet) 1.2 0
%%Version: 1.2 0
%%Copyright: (Copyright 2001-2003,2010 The Apache Software Foundation. License terms: http://www.apache.org/licenses/LICENSE-2.0)
/bd{bind def}bind def
/ld{load def}bd
/GR/grestore ld
/GS/gsave ld
/RM/rmoveto ld
/C/curveto ld
/t/show ld
/L/lineto ld
/ML/setmiterlimit ld
/CT/concat ld
/f/fill ld
/N/newpath ld
/S/stroke ld
/CC/setcmykcolor ld
/A/ashow ld
/cp/closepath ld
/RC/setrgbcolor ld
/LJ/setlinejoin ld
/GC/setgray ld
/LW/setlinewidth ld
/M/moveto ld
/re {4 2 roll M
1 index 0 rlineto
0 exch rlineto
neg 0 rlineto
cp } bd
/_ctm matrix def
/_tm matrix def
/BT { _ctm currentmatrix pop matrix _tm copy pop 0 0 moveto } bd
/ET { _ctm setmatrix } bd
/iTm { _ctm setmatrix _tm concat } bd
/Tm { _tm astore pop iTm 0 0 moveto } bd
/ux 0.0 def
/uy 0.0 def
/F {
  /Tp exch def
  /Tf exch def
  Tf findfont Tp scalefont setfont
  /cf Tf def  /cs Tp def
} bd
/ULS {currentpoint /uy exch def /ux exch def} bd
/ULE {
  /Tcx currentpoint pop def
  gsave
  newpath
  cf findfont cs scalefont dup
  /FontMatrix get 0 get /Ts exch def /FontInfo get dup
  /UnderlinePosition get Ts mul /To exch def
  /UnderlineThickness get Ts mul /Tt exch def
  ux uy To add moveto  Tcx uy To add lineto
  Tt setlinewidth stroke
  grestore
} bd
/OLE {
  /Tcx currentpoint pop def
  gsave
  newpath
  cf findfont cs scalefont dup
  /FontMatrix get 0 get /Ts exch def /FontInfo get dup
  /UnderlinePosition get Ts mul /To exch def
  /UnderlineThickness get Ts mul /Tt exch def
  ux uy To add cs add moveto Tcx uy To add cs add lineto
  Tt setlinewidth stroke
  grestore
} bd
/SOE {
  /Tcx currentpoint pop def
  gsave
  newpath
  cf findfont cs scalefont dup
  /FontMatrix get 0 get /Ts exch def /FontInfo get dup
  /UnderlinePosition get Ts mul /To exch def
  /UnderlineThickness get Ts mul /Tt exch def
  ux uy To add cs 10 mul 26 idiv add moveto Tcx uy To add cs 10 mul 26 idiv add lineto
  Tt setlinewidth stroke
  grestore
} bd
/QT {
/Y22 exch store
/X22 exch store
/Y21 exch store
/X21 exch store
currentpoint
/Y21 load 2 mul add 3 div exch
/X21 load 2 mul add 3 div exch
/X21 load 2 mul /X22 load add 3 div
/Y21 load 2 mul /Y22 load add 3 div
/X22 load /Y22 load curveto
} bd
/SSPD {
dup length /d exch dict def
{
/v exch def
/k exch def
currentpagedevice k known {
/cpdv currentpagedevice k get def
v cpdv ne {
/upd false def
/nullv v type /nulltype eq def
/nullcpdv cpdv type /nulltype eq def
nullv nullcpdv or
{
/upd true def
} {
/sametype v type cpdv type eq def
sametype {
v type /arraytype eq {
/vlen v length def
/cpdvlen cpdv length def
vlen cpdvlen eq {
0 1 vlen 1 sub {
/i exch def
/obj v i get def
/cpdobj cpdv i get def
obj cpdobj ne {
/upd true def
exit
} if
} for
} {
/upd true def
} ifelse
} {
v type /dicttype eq {
v {
/dv exch def
/dk exch def
/cpddv cpdv dk get def
dv cpddv ne {
/upd true def
exit
} if
} forall
} {
/upd true def
} ifelse
} ifelse
} if
} ifelse
upd true eq {
d k v put
} if
} if
} if
} forall
d length 0 gt {
d setpagedevice
} if
} bd
/RE { % /NewFontName [NewEncodingArray] /FontName RE -
  findfont dup length dict begin
  {
    1 index /FID ne
    {def} {pop pop} ifelse
  } forall
  /Encoding exch def
  /FontName 1 index def
  currentdict definefont pop
  end
} bind def
%%EndResource
%%BeginResource: procset (Apache XML Graphics EPS ProcSet) 1.0 0
%%Version: 1.0 0
%%Copyright: (Copyright 2002-2003 The Apache Software Foundation. License terms: http://www.apache.org/licenses/LICENSE-2.0)
/BeginEPSF { %def
/b4_Inc_state save def         % Save state for cleanup
/dict_count countdictstack def % Count objects on dict stack
/op_count count 1 sub def      % Count objects on operand stack
userdict begin                 % Push userdict on dict stack
/showpage { } def              % Redefine showpage, { } = null proc
0 setgray 0 setlinecap         % Prepare graphics state
1 setlinewidth 0 setlinejoin
10 setmiterlimit [ ] 0 setdash newpath
/languagelevel where           % If level not equal to 1 then
{pop languagelevel             % set strokeadjust and
1 ne                           % overprint to their defaults.
{false setstrokeadjust false setoverprint
} if
} if
} bd
/EndEPSF { %def
count op_count sub {pop} repeat            % Clean up stacks
countdictstack dict_count sub {end} repeat
b4_Inc_state restore
} bd
%%EndResource
%FOPBeginFontDict
%%IncludeResource: font Courier-Oblique
%%IncludeResource: font Courier-BoldOblique
%%IncludeResource: font Courier-Bold
%%IncludeResource: font ZapfDingbats
%%IncludeResource: font Symbol
%%IncludeResource: font Helvetica
%%IncludeResource: font Helvetica-Oblique
%%IncludeResource: font Helvetica-Bold
%%IncludeResource: font Helvetica-BoldOblique
%%IncludeResource: font Times-Roman
%%IncludeResource: font Times-Italic
%%IncludeResource: font Times-Bold
%%IncludeResource: font Times-BoldItalic
%%IncludeResource: font Courier
%FOPEndFontDict
%%BeginResource: encoding WinAnsiEncoding
/WinAnsiEncoding [
/.notdef /.notdef /.notdef /.notdef /.notdef
/.notdef /.notdef /.notdef /.notdef /.notdef
/.notdef /.notdef /.notdef /.notdef /.notdef
/.notdef /.notdef /.notdef /.notdef /.notdef
/.notdef /.notdef /.notdef /.notdef /.notdef
/.notdef /.notdef /.notdef /.notdef /.notdef
/.notdef /.notdef /space /exclam /quotedbl
/numbersign /dollar /percent /ampersand /quotesingle
/parenleft /parenright /asterisk /plus /comma
/hyphen /period /slash /zero /one
/two /three /four /five /six
/seven /eight /nine /colon /semicolon
/less /equal /greater /question /at
/A /B /C /D /E
/F /G /H /I /J
/K /L /M /N /O
/P /Q /R /S /T
/U /V /W /X /Y
/Z /bracketleft /backslash /bracketright /asciicircum
/underscore /quoteleft /a /b /c
/d /e /f /g /h
/i /j /k /l /m
/n /o /p /q /r
/s /t /u /v /w
/x /y /z /braceleft /bar
/braceright /asciitilde /bullet /Euro /bullet
/quotesinglbase /florin /quotedblbase /ellipsis /dagger
/daggerdbl /circumflex /perthousand /Scaron /guilsinglleft
/OE /bullet /Zcaron /bullet /bullet
/quoteleft /quoteright /quotedblleft /quotedblright /bullet
/endash /emdash /asciitilde /trademark /scaron
/guilsinglright /oe /bullet /zcaron /Ydieresis
/space /exclamdown /cent /sterling /currency
/yen /brokenbar /section /dieresis /copyright
/ordfeminine /guillemotleft /logicalnot /sfthyphen /registered
/macron /degree /plusminus /twosuperior /threesuperior
/acute /mu /paragraph /middot /cedilla
/onesuperior /ordmasculine /guillemotright /onequarter /onehalf
/threequarters /questiondown /Agrave /Aacute /Acircumflex
/Atilde /Adieresis /Aring /AE /Ccedilla
/Egrave /Eacute /Ecircumflex /Edieresis /Igrave
/Iacute /Icircumflex /Idieresis /Eth /Ntilde
/Ograve /Oacute /Ocircumflex /Otilde /Odieresis
/multiply /Oslash /Ugrave /Uacute /Ucircumflex
/Udieresis /Yacute /Thorn /germandbls /agrave
/aacute /acircumflex /atilde /adieresis /aring
/ae /ccedilla /egrave /eacute /ecircumflex
/edieresis /igrave /iacute /icircumflex /idieresis
/eth /ntilde /ograve /oacute /ocircumflex
/otilde /odieresis /divide /oslash /ugrave
/uacute /ucircumflex /udieresis /yacute /thorn
/ydieresis
] def
%%EndResource
%FOPBeginFontReencode
/Courier-Oblique findfont
dup length dict begin
  {1 index /FID ne {def} {pop pop} ifelse} forall
  /Encoding WinAnsiEncoding def
  currentdict
end
/Courier-Oblique exch definefont pop
/Courier-BoldOblique findfont
dup length dict begin
  {1 index /FID ne {def} {pop pop} ifelse} forall
  /Encoding WinAnsiEncoding def
  currentdict
end
/Courier-BoldOblique exch definefont pop
/Courier-Bold findfont
dup length dict begin
  {1 index /FID ne {def} {pop pop} ifelse} forall
  /Encoding WinAnsiEncoding def
  currentdict
end
/Courier-Bold exch definefont pop
/Helvetica findfont
dup length dict begin
  {1 index /FID ne {def} {pop pop} ifelse} forall
  /Encoding WinAnsiEncoding def
  currentdict
end
/Helvetica exch definefont pop
/Helvetica-Oblique findfont
dup length dict begin
  {1 index /FID ne {def} {pop pop} ifelse} forall
  /Encoding WinAnsiEncoding def
  currentdict
end
/Helvetica-Oblique exch definefont pop
/Helvetica-Bold findfont
dup length dict begin
  {1 index /FID ne {def} {pop pop} ifelse} forall
  /Encoding WinAnsiEncoding def
  currentdict
end
/Helvetica-Bold exch definefont pop
/Helvetica-BoldOblique findfont
dup length dict begin
  {1 index /FID ne {def} {pop pop} ifelse} forall
  /Encoding WinAnsiEncoding def
  currentdict
end
/Helvetica-BoldOblique exch definefont pop
/Times-Roman findfont
dup length dict begin
  {1 index /FID ne {def} {pop pop} ifelse} forall
  /Encoding WinAnsiEncoding def
  currentdict
end
/Times-Roman exch definefont pop
/Times-Italic findfont
dup length dict begin
  {1 index /FID ne {def} {pop pop} ifelse} forall
  /Encoding WinAnsiEncoding def
  currentdict
end
/Times-Italic exch definefont pop
/Times-Bold findfont
dup length dict begin
  {1 index /FID ne {def} {pop pop} ifelse} forall
  /Encoding WinAnsiEncoding def
  currentdict
end
/Times-Bold exch definefont pop
/Times-BoldItalic findfont
dup length dict begin
  {1 index /FID ne {def} {pop pop} ifelse} forall
  /Encoding WinAnsiEncoding def
  currentdict
end
/Times-BoldItalic exch definefont pop
/Courier findfont
dup length dict begin
  {1 index /FID ne {def} {pop pop} ifelse} forall
  /Encoding WinAnsiEncoding def
  currentdict
end
/Courier exch definefont pop
%FOPEndFontReencode
%%EndProlog
%%Page: 1 1
%%PageBoundingBox: 0 0 1440 722
%%BeginPageSetup
[1 0 0 -1 0 722] CT
%%EndPageSetup
GS
[0.75 0 0 0.75 0 -0.25] CT
1 GC
N
0 0 1920 963 re
f
GR
GS
[0.75 0 0 0.75 0 -0.25] CT
1 GC
N
0 0 1920 963 re
f
GR
GS
[0.75 0 0 0.75 0 -0.25] CT
1 GC
N
496.352 857 M
1491.648 857 L
1491.648 72 L
496.352 72 L
cp
f
GR
GS
[0.75 0 0 0.75 0 -0.25] CT
0.149 GC
2 setlinecap
1 LJ
0.667 LW
N
496.352 857 M
1491.648 857 L
S
GR
GS
[0.75 0 0 0.75 0 -0.25] CT
0.149 GC
2 setlinecap
1 LJ
0.667 LW
N
496.352 857 M
496.352 847.047 L
S
GR
GS
[0.75 0 0 0.75 0 -0.25] CT
0.149 GC
2 setlinecap
1 LJ
0.667 LW
N
745.176 857 M
745.176 847.047 L
S
GR
GS
[0.75 0 0 0.75 0 -0.25] CT
0.149 GC
2 setlinecap
1 LJ
0.667 LW
N
994 857 M
994 847.047 L
S
GR
GS
[0.75 0 0 0.75 0 -0.25] CT
0.149 GC
2 setlinecap
1 LJ
0.667 LW
N
1242.824 857 M
1242.824 847.047 L
S
GR
GS
[0.75 0 0 0.75 0 -0.25] CT
0.149 GC
2 setlinecap
1 LJ
0.667 LW
N
1491.648 857 M
1491.648 847.047 L
S
GR
GS
[0.75 0 0 0.75 372.26381 649.49998] CT
0.149 GC
/Helvetica 33.333 F
GS
[1 0 0 1 0 0] CT
-15 34 moveto 
1 -1 scale
(-5) t 
GR
GR
GS
[0.75 0 0 0.75 558.88188 649.49998] CT
0.149 GC
/Helvetica 33.333 F
GS
[1 0 0 1 0 0] CT
-9.5 34 moveto 
1 -1 scale
(0) t 
GR
GR
GS
[0.75 0 0 0.75 745.5 649.49998] CT
0.149 GC
/Helvetica 33.333 F
GS
[1 0 0 1 0 0] CT
-9.5 34 moveto 
1 -1 scale
(5) t 
GR
GR
GS
[0.75 0 0 0.75 932.11807 649.49998] CT
0.149 GC
/Helvetica 33.333 F
GS
[1 0 0 1 0 0] CT
-19 34 moveto 
1 -1 scale
(10) t 
GR
GR
GS
[0.75 0 0 0.75 1118.73624 649.49998] CT
0.149 GC
/Helvetica 33.333 F
GS
[1 0 0 1 0 0] CT
-19 34 moveto 
1 -1 scale
(15) t 
GR
GR
GS
[0.75 0 0 0.75 745.50037 682.00002] CT
0.149 GC
/Helvetica 36.667 F
GS
[1 0 0 1 0 0] CT
-21.5 37 moveto 
1 -1 scale
(Xs) t 
GR
GR
GS
[0.75 0 0 0.75 0 -0.25] CT
0.149 GC
2 setlinecap
1 LJ
0.667 LW
N
496.352 857 M
496.352 72 L
S
GR
GS
[0.75 0 0 0.75 0 -0.25] CT
0.149 GC
2 setlinecap
1 LJ
0.667 LW
N
496.352 763.089 M
506.305 763.089 L
S
GR
GS
[0.75 0 0 0.75 0 -0.25] CT
0.149 GC
2 setlinecap
1 LJ
0.667 LW
N
496.352 663.559 M
506.305 663.559 L
S
GR
GS
[0.75 0 0 0.75 0 -0.25] CT
0.149 GC
2 setlinecap
1 LJ
0.667 LW
N
496.352 564.03 M
506.305 564.03 L
S
GR
GS
[0.75 0 0 0.75 0 -0.25] CT
0.149 GC
2 setlinecap
1 LJ
0.667 LW
N
496.352 464.5 M
506.305 464.5 L
S
GR
GS
[0.75 0 0 0.75 0 -0.25] CT
0.149 GC
2 setlinecap
1 LJ
0.667 LW
N
496.352 364.97 M
506.305 364.97 L
S
GR
GS
[0.75 0 0 0.75 0 -0.25] CT
0.149 GC
2 setlinecap
1 LJ
0.667 LW
N
496.352 265.441 M
506.305 265.441 L
S
GR
GS
[0.75 0 0 0.75 0 -0.25] CT
0.149 GC
2 setlinecap
1 LJ
0.667 LW
N
496.352 165.911 M
506.305 165.911 L
S
GR
GS
[0.75 0 0 0.75 365.2638 572.0667] CT
0.149 GC
/Helvetica 33.333 F
GS
[1 0 0 1 0 0] CT
-19 13 moveto 
1 -1 scale
(0) t 
GR
GR
GS
[0.75 0 0 0.75 365.2638 497.41949] CT
0.149 GC
/Helvetica 33.333 F
GS
[1 0 0 1 0 0] CT
-19 13 moveto 
1 -1 scale
(2) t 
GR
GR
GS
[0.75 0 0 0.75 365.2638 422.77225] CT
0.149 GC
/Helvetica 33.333 F
GS
[1 0 0 1 0 0] CT
-19 13 moveto 
1 -1 scale
(4) t 
GR
GR
GS
[0.75 0 0 0.75 365.2638 348.125] CT
0.149 GC
/Helvetica 33.333 F
GS
[1 0 0 1 0 0] CT
-19 13 moveto 
1 -1 scale
(6) t 
GR
GR
GS
[0.75 0 0 0.75 365.2638 273.47775] CT
0.149 GC
/Helvetica 33.333 F
GS
[1 0 0 1 0 0] CT
-19 13 moveto 
1 -1 scale
(8) t 
GR
GR
GS
[0.75 0 0 0.75 365.2638 198.83053] CT
0.149 GC
/Helvetica 33.333 F
GS
[1 0 0 1 0 0] CT
-38 13 moveto 
1 -1 scale
(10) t 
GR
GR
GS
[0.75 0 0 0.75 365.2638 124.18328] CT
0.149 GC
/Helvetica 33.333 F
GS
[1 0 0 1 0 0] CT
-38 13 moveto 
1 -1 scale
(12) t 
GR
GR
GS
[0 -0.75 0.75 0 333.7638 348.12473] CT
0.149 GC
/Helvetica 36.667 F
GS
[1 0 0 1 0 0] CT
-21.5 -9 moveto 
1 -1 scale
(Ys) t 
GR
GR
GS
[0.75 0 0 0.75 708.17638 310.80138] CT
1 0 0 RC
N
0 -26.66 M
-23.088 13.33 L
23.088 13.33 L
cp
f
GR
GS
[0.75 0 0 0.75 708.17638 310.80138] CT
0 0 1 RC
10.0 ML
0.667 LW
N
0 -26.66 M
-23.088 13.33 L
23.088 13.33 L
cp
S
GR
GS
[0.75 0 0 0.75 670.85275 273.47775] CT
1 0 0 RC
N
/f-1996900118{0 -26.66 M
-23.088 13.33 L
23.088 13.33 L
cp}def
f-1996900118
f
GR
GS
[0.75 0 0 0.75 670.85275 273.47775] CT
0 0 1 RC
10.0 ML
0.667 LW
N
0 -26.66 M
-23.088 13.33 L
23.088 13.33 L
cp
S
GR
GS
[0.75 0 0 0.75 820.14725 310.80138] CT
1 0 0 RC
N
f-1996900118
f
GR
GS
[0.75 0 0 0.75 820.14725 310.80138] CT
0 0 1 RC
10.0 ML
0.667 LW
N
0 -26.66 M
-23.088 13.33 L
23.088 13.33 L
cp
S
GR
GS
[0.75 0 0 0.75 745.5 460.09587] CT
1 0 0 RC
N
f-1996900118
f
GR
GS
[0.75 0 0 0.75 745.5 460.09587] CT
0 0 1 RC
10.0 ML
0.667 LW
N
0 -26.66 M
-23.088 13.33 L
23.088 13.33 L
cp
S
GR
GS
[0.75 0 0 0.75 745.5 236.15415] CT
1 0 0 RC
N
f-1996900118
f
GR
GS
[0.75 0 0 0.75 745.5 236.15415] CT
0 0 1 RC
10.0 ML
0.667 LW
N
0 -26.66 M
-23.088 13.33 L
23.088 13.33 L
cp
S
GR
GS
[0.75 0 0 0.75 708.17638 385.44862] CT
1 0 0 RC
N
f-1996900118
f
GR
GS
[0.75 0 0 0.75 708.17638 385.44862] CT
0 0 1 RC
10.0 ML
0.667 LW
N
0 -26.66 M
-23.088 13.33 L
23.088 13.33 L
cp
S
GR
GS
[0.75 0 0 0.75 857.47083 460.09587] CT
1 0 0 RC
N
f-1996900118
f
GR
GS
[0.75 0 0 0.75 857.47083 460.09587] CT
0 0 1 RC
10.0 ML
0.667 LW
N
0 -26.66 M
-23.088 13.33 L
23.088 13.33 L
cp
S
GR
GS
[0.75 0 0 0.75 782.82358 273.47775] CT
1 0 0 RC
N
f-1996900118
f
GR
GS
[0.75 0 0 0.75 782.82358 273.47775] CT
0 0 1 RC
10.0 ML
0.667 LW
N
0 -26.66 M
-23.088 13.33 L
23.088 13.33 L
cp
S
GR
GS
[0.75 0 0 0.75 752.00061 352.80753] CT
1 0 0 RC
10.0 ML
0.667 LW
N
0 -5 M
0 5 L
-5 0 M
5 0 L
S
GR
GS
[0.75 0 0 0.75 752.68025 379.94559] CT
0 1 1 RC
10.0 ML
0.667 LW
N
0 -4 M
0 4 L
-4 0 M
4 0 L
-2.828 -2.828 M
2.828 2.828 L
-2.828 2.828 M
2.828 -2.828 L
S
GR
GS
[0.75 0 0 0.75 0 -0.25] CT
0 1 1 RC
1 LJ
0.667 LW
N
1007.487 504.323 M
1007.756 504.231 L
1007.562 504.439 L
S
GR
GS
[0.75 0 0 0.75 0 -0.25] CT
0 1 1 RC
1 LJ
0.667 LW
N
1003.574 506.927 M
1007.756 504.231 L
S
GR
GS
[0.75 0 0 0.75 0 -0.25] CT
0 1 1 RC
1 LJ
10.667 LW
N
962.383 506.924 M
963.676 517.169 L
967.476 526.771 L
973.545 535.126 L
981.5 541.709 L
990.842 546.106 L
1000.984 548.042 L
1011.289 547.395 L
1021.109 544.204 L
1029.827 538.672 L
1036.896 531.144 L
1041.871 522.096 L
1044.439 512.094 L
1044.44 501.767 L
1041.873 491.765 L
1036.9 482.716 L
1029.832 475.187 L
1021.115 469.653 L
1011.295 466.462 L
1000.99 465.812 L
990.848 467.747 L
981.505 472.143 L
973.549 478.724 L
967.479 487.078 L
963.678 496.679 L
962.383 506.924 L
S
GR
GS
[0.75 0 0 0.75 721.32733 348.54012] CT
0 1 1 RC
10.0 ML
0.667 LW
N
0 -4 M
0 4 L
-4 0 M
4 0 L
-2.828 -2.828 M
2.828 2.828 L
-2.828 2.828 M
2.828 -2.828 L
S
GR
GS
[0.75 0 0 0.75 0 -0.25] CT
0 1 1 RC
1 LJ
0.667 LW
N
965.683 462.448 M
965.952 462.357 L
965.758 462.564 L
S
GR
GS
[0.75 0 0 0.75 0 -0.25] CT
0 1 1 RC
1 LJ
0.667 LW
N
961.77 465.053 M
965.952 462.357 L
S
GR
GS
[0.75 0 0 0.75 0 -0.25] CT
0 1 1 RC
1 LJ
10.667 LW
N
920.579 465.05 M
921.874 454.806 L
925.676 445.204 L
931.745 436.851 L
939.701 430.269 L
949.044 425.873 L
959.186 423.938 L
969.491 424.588 L
979.311 427.779 L
988.028 433.313 L
995.096 440.841 L
1000.069 449.891 L
1002.636 459.893 L
1002.635 470.22 L
1000.067 480.222 L
995.092 489.27 L
988.023 496.798 L
979.305 502.33 L
969.485 505.521 L
959.18 506.168 L
949.038 504.232 L
939.696 499.835 L
931.741 493.252 L
925.673 484.897 L
921.872 475.296 L
920.579 465.05 L
S
GR
GS
[0.75 0 0 0.75 784.03491 317.13721] CT
0 1 1 RC
10.0 ML
0.667 LW
N
0 -4 M
0 4 L
-4 0 M
4 0 L
-2.828 -2.828 M
2.828 2.828 L
-2.828 2.828 M
2.828 -2.828 L
S
GR
GS
[0.75 0 0 0.75 0 -0.25] CT
0 1 1 RC
1 LJ
0.667 LW
N
1049.293 420.578 M
1049.562 420.486 L
1049.368 420.694 L
S
GR
GS
[0.75 0 0 0.75 0 -0.25] CT
0 1 1 RC
1 LJ
0.667 LW
N
1045.38 423.183 M
1049.562 420.486 L
S
GR
GS
[0.75 0 0 0.75 0 -0.25] CT
0 1 1 RC
1 LJ
10.667 LW
N
1004.189 423.18 M
1005.482 433.425 L
1009.283 443.027 L
1015.351 451.381 L
1023.306 457.964 L
1032.648 462.362 L
1042.791 464.298 L
1053.095 463.65 L
1062.915 460.46 L
1071.634 454.927 L
1078.702 447.4 L
1083.677 438.351 L
1086.245 428.349 L
1086.246 418.023 L
1083.679 408.02 L
1078.706 398.971 L
1071.638 391.443 L
1062.921 385.909 L
1053.101 382.717 L
1042.797 382.068 L
1032.654 384.002 L
1023.311 388.398 L
1015.355 394.98 L
1009.286 403.334 L
1005.484 412.935 L
1004.189 423.18 L
S
GR
GS
[0.75 0 0 0.75 715.88416 342.82833] CT
0 1 1 RC
10.0 ML
0.667 LW
N
0 -4 M
0 4 L
-4 0 M
4 0 L
-2.828 -2.828 M
2.828 2.828 L
-2.828 2.828 M
2.828 -2.828 L
S
GR
GS
[0.75 0 0 0.75 0 -0.25] CT
0 1 1 RC
1 LJ
0.667 LW
N
958.425 454.833 M
958.695 454.741 L
958.5 454.949 L
S
GR
GS
[0.75 0 0 0.75 0 -0.25] CT
0 1 1 RC
1 LJ
0.667 LW
N
954.512 457.438 M
958.695 454.741 L
S
GR
GS
[0.75 0 0 0.75 0 -0.25] CT
0 1 1 RC
1 LJ
10.667 LW
N
913.321 457.435 M
914.615 467.68 L
918.415 477.281 L
924.483 485.636 L
932.438 492.219 L
941.781 496.617 L
951.923 498.552 L
962.227 497.905 L
972.048 494.715 L
980.766 489.182 L
987.834 481.655 L
992.809 472.606 L
995.378 462.604 L
995.379 452.278 L
992.812 442.275 L
987.838 433.226 L
980.771 425.698 L
972.053 420.164 L
962.234 416.972 L
951.929 416.323 L
941.787 418.257 L
932.444 422.653 L
924.488 429.235 L
918.418 437.589 L
914.616 447.19 L
913.321 457.435 L
S
GR
GS
[0.75 0 0 0.75 789.47617 305.71127] CT
0 1 1 RC
10.0 ML
0.667 LW
N
0 -4 M
0 4 L
-4 0 M
4 0 L
-2.828 -2.828 M
2.828 2.828 L
-2.828 2.828 M
2.828 -2.828 L
S
GR
GS
[0.75 0 0 0.75 0 -0.25] CT
0 1 1 RC
1 LJ
0.667 LW
N
1056.548 405.343 M
1056.818 405.252 L
1056.623 405.459 L
S
GR
GS
[0.75 0 0 0.75 0 -0.25] CT
0 1 1 RC
1 LJ
0.667 LW
N
1052.635 407.948 M
1056.818 405.252 L
S
GR
GS
[0.75 0 0 0.75 0 -0.25] CT
0 1 1 RC
1 LJ
10.667 LW
N
1011.444 407.945 M
1012.739 397.7 L
1016.541 388.099 L
1022.61 379.745 L
1030.566 373.164 L
1039.909 368.768 L
1050.052 366.833 L
1060.356 367.482 L
1070.176 370.674 L
1078.893 376.208 L
1085.961 383.736 L
1090.934 392.786 L
1093.501 402.788 L
1093.5 413.115 L
1090.932 423.117 L
1085.957 432.165 L
1078.888 439.693 L
1070.17 445.225 L
1060.35 448.415 L
1050.045 449.063 L
1039.903 447.127 L
1030.561 442.73 L
1022.606 436.147 L
1016.538 427.792 L
1012.737 418.19 L
1011.444 407.945 L
S
GR
GS
[0.75 0 0 0.75 752.00061 352.80753] CT
0.718 0.275 1 RC
10.0 ML
10.667 LW
N
-4.667 0 M
0 6.207 L
4.667 0 L
0 -6.207 L
cp
S
GR
GS
[0.75 0 0 0.75 752.68025 379.94559] CT
0 1 0 RC
10.0 ML
0.667 LW
N
0 -4 M
0 4 L
-4 0 M
4 0 L
-2.828 -2.828 M
2.828 2.828 L
-2.828 2.828 M
2.828 -2.828 L
S
GR
GS
[0.75 0 0 0.75 0 -0.25] CT
0 1 0 RC
1 LJ
0.667 LW
N
1007.487 504.323 M
1007.756 504.231 L
1007.562 504.439 L
S
GR
GS
[0.75 0 0 0.75 0 -0.25] CT
0 1 0 RC
1 LJ
0.667 LW
N
1003.574 506.927 M
1007.756 504.231 L
S
GR
GS
[0.75 0 0 0.75 0 -0.25] CT
0 1 0 RC
1 LJ
10.667 LW
N
987.004 506.893 M
987.516 511.015 L
989.037 514.88 L
991.472 518.245 L
994.666 520.899 L
998.421 522.675 L
1002.499 523.462 L
1006.645 523.21 L
1010.597 521.935 L
1014.109 519.716 L
1016.958 516.695 L
1018.967 513.059 L
1020.008 509.038 L
1020.017 504.885 L
1018.992 500.86 L
1016.999 497.216 L
1014.162 494.182 L
1010.66 491.949 L
1006.712 490.658 L
1002.568 490.388 L
998.486 491.158 L
994.724 492.919 L
991.519 495.56 L
989.071 498.915 L
987.534 502.774 L
987.004 506.893 L
S
GR
GS
[0.75 0 0 0.75 724.36052 336.40046] CT
0 0 1 RC
10.0 ML
0.667 LW
N
0 -4 M
0 4 L
-4 0 M
4 0 L
-2.828 -2.828 M
2.828 2.828 L
-2.828 2.828 M
2.828 -2.828 L
S
GR
GS
[0.75 0 0 0.75 0 -0.25] CT
0 0 1 RC
1 LJ
0.667 LW
N
969.727 446.262 M
969.997 446.171 L
969.802 446.378 L
S
GR
GS
[0.75 0 0 0.75 0 -0.25] CT
0 0 1 RC
1 LJ
0.667 LW
N
965.814 448.867 M
969.997 446.171 L
S
GR
GS
[0.75 0 0 0.75 0 -0.25] CT
0 0 1 RC
1 LJ
10.667 LW
N
949.245 448.848 M
949.77 444.728 L
951.304 440.868 L
953.749 437.51 L
956.952 434.867 L
960.712 433.103 L
964.793 432.329 L
968.938 432.595 L
972.886 433.883 L
976.391 436.113 L
979.23 439.144 L
981.227 442.786 L
982.255 446.81 L
982.25 450.963 L
981.212 454.985 L
979.207 458.622 L
976.361 461.647 L
972.851 463.868 L
968.9 465.147 L
964.754 465.403 L
960.675 464.62 L
956.919 462.847 L
953.722 460.196 L
951.285 456.833 L
949.761 452.969 L
949.245 448.848 L
S
GR
GS
[0.75 0 0 0.75 755.64377 430.25746] CT
0 0 1 RC
10.0 ML
0.667 LW
N
0 -4 M
0 4 L
-4 0 M
4 0 L
-2.828 -2.828 M
2.828 2.828 L
-2.828 2.828 M
2.828 -2.828 L
S
GR
GS
[0.75 0 0 0.75 0 -0.25] CT
0 0 1 RC
1 LJ
0.667 LW
N
1011.438 571.405 M
1011.708 571.314 L
1011.513 571.521 L
S
GR
GS
[0.75 0 0 0.75 0 -0.25] CT
0 0 1 RC
1 LJ
0.667 LW
N
1007.525 574.01 M
1011.708 571.314 L
S
GR
GS
[0.75 0 0 0.75 0 -0.25] CT
0 0 1 RC
1 LJ
10.667 LW
N
990.956 573.993 M
991.472 578.114 L
992.997 581.978 L
995.435 585.34 L
998.633 587.991 L
1002.389 589.763 L
1006.468 590.546 L
1010.613 590.289 L
1014.565 589.01 L
1018.074 586.788 L
1020.92 583.763 L
1022.924 580.125 L
1023.961 576.103 L
1023.966 571.95 L
1022.937 567.926 L
1020.94 564.284 L
1018.099 561.254 L
1014.595 559.025 L
1010.646 557.737 L
1006.501 557.472 L
1002.421 558.246 L
998.661 560.011 L
995.458 562.655 L
993.013 566.013 L
991.481 569.873 L
990.956 573.993 L
S
GR
GS
[0.75 0 0 0.75 750.57106 362.60606] CT
0 0 1 RC
10.0 ML
0.667 LW
N
0 -4 M
0 4 L
-4 0 M
4 0 L
-2.828 -2.828 M
2.828 2.828 L
-2.828 2.828 M
2.828 -2.828 L
S
GR
GS
[0.75 0 0 0.75 0 -0.25] CT
0 0 1 RC
1 LJ
0.667 LW
N
1004.675 481.203 M
1004.944 481.112 L
1004.75 481.319 L
S
GR
GS
[0.75 0 0 0.75 0 -0.25] CT
0 0 1 RC
1 LJ
0.667 LW
N
1000.761 483.808 M
1004.944 481.112 L
S
GR
GS
[0.75 0 0 0.75 0 -0.25] CT
0 0 1 RC
1 LJ
10.667 LW
N
984.192 483.792 M
984.717 479.672 L
986.25 475.811 L
988.694 472.454 L
991.897 469.809 L
995.657 468.045 L
999.737 467.27 L
1003.882 467.535 L
1007.831 468.822 L
1011.335 471.051 L
1014.176 474.082 L
1016.173 477.723 L
1017.202 481.747 L
1017.198 485.901 L
1016.161 489.923 L
1014.157 493.56 L
1011.311 496.585 L
1007.802 498.807 L
1003.85 500.087 L
999.705 500.344 L
995.626 499.562 L
991.87 497.79 L
988.672 495.139 L
986.234 491.776 L
984.709 487.913 L
984.192 483.792 L
S
GR
GS
[0.75 0 0 0.75 721.32733 348.54012] CT
0 0 1 RC
10.0 ML
0.667 LW
N
0 -4 M
0 4 L
-4 0 M
4 0 L
-2.828 -2.828 M
2.828 2.828 L
-2.828 2.828 M
2.828 -2.828 L
S
GR
GS
[0.75 0 0 0.75 0 -0.25] CT
0 0 1 RC
1 LJ
0.667 LW
N
965.683 462.448 M
965.952 462.357 L
965.758 462.564 L
S
GR
GS
[0.75 0 0 0.75 0 -0.25] CT
0 0 1 RC
1 LJ
0.667 LW
N
961.77 465.053 M
965.952 462.357 L
S
GR
GS
[0.75 0 0 0.75 0 -0.25] CT
0 0 1 RC
1 LJ
10.667 LW
N
945.201 465.026 M
945.714 469.148 L
947.237 473.012 L
949.673 476.376 L
952.869 479.029 L
956.624 480.804 L
960.702 481.589 L
964.848 481.335 L
968.8 480.058 L
972.31 477.838 L
975.159 474.815 L
977.165 471.179 L
978.205 467.157 L
978.212 463.004 L
977.185 458.979 L
975.191 455.336 L
972.352 452.304 L
968.849 450.073 L
964.901 448.783 L
960.757 448.515 L
956.676 449.286 L
952.915 451.049 L
949.71 453.691 L
947.263 457.047 L
945.728 460.906 L
945.201 465.026 L
S
GR
GS
[0.75 0 0 0.75 715.88416 342.82833] CT
0 0 1 RC
10.0 ML
0.667 LW
N
0 -4 M
0 4 L
-4 0 M
4 0 L
-2.828 -2.828 M
2.828 2.828 L
-2.828 2.828 M
2.828 -2.828 L
S
GR
GS
[0.75 0 0 0.75 0 -0.25] CT
0 0 1 RC
1 LJ
0.667 LW
N
958.425 454.833 M
958.695 454.741 L
958.5 454.949 L
S
GR
GS
[0.75 0 0 0.75 0 -0.25] CT
0 0 1 RC
1 LJ
0.667 LW
N
954.512 457.438 M
958.695 454.741 L
S
GR
GS
[0.75 0 0 0.75 0 -0.25] CT
0 0 1 RC
1 LJ
10.667 LW
N
937.943 457.403 M
938.472 453.283 L
940.009 449.425 L
942.458 446.07 L
945.663 443.429 L
949.425 441.668 L
953.507 440.899 L
957.651 441.168 L
961.599 442.46 L
965.101 444.693 L
967.937 447.727 L
969.931 451.37 L
970.955 455.396 L
970.946 459.549 L
969.905 463.57 L
967.896 467.205 L
965.047 470.227 L
961.536 472.445 L
957.583 473.72 L
953.437 473.972 L
949.359 473.186 L
945.605 471.409 L
942.41 468.755 L
939.976 465.39 L
938.455 461.525 L
937.943 457.403 L
S
GR
GS
[0.75 0 0 0.75 789.47617 305.71127] CT
0 0 1 RC
10.0 ML
0.667 LW
N
0 -4 M
0 4 L
-4 0 M
4 0 L
-2.828 -2.828 M
2.828 2.828 L
-2.828 2.828 M
2.828 -2.828 L
S
GR
GS
[0.75 0 0 0.75 0 -0.25] CT
0 0 1 RC
1 LJ
0.667 LW
N
1056.548 405.343 M
1056.818 405.252 L
1056.623 405.459 L
S
GR
GS
[0.75 0 0 0.75 0 -0.25] CT
0 0 1 RC
1 LJ
0.667 LW
N
1052.635 407.948 M
1056.818 405.252 L
S
GR
GS
[0.75 0 0 0.75 0 -0.25] CT
0 0 1 RC
1 LJ
10.667 LW
N
1036.066 407.914 M
1036.578 412.036 L
1038.099 415.901 L
1040.533 419.266 L
1043.728 421.92 L
1047.482 423.696 L
1051.56 424.483 L
1055.706 424.231 L
1059.659 422.955 L
1063.17 420.737 L
1066.02 417.715 L
1068.028 414.08 L
1069.069 410.059 L
1069.078 405.905 L
1068.053 401.88 L
1066.06 398.237 L
1063.223 395.203 L
1059.721 392.97 L
1055.773 391.679 L
1051.629 391.409 L
1047.547 392.179 L
1043.785 393.94 L
1040.58 396.581 L
1038.132 399.936 L
1036.595 403.795 L
1036.066 407.914 L
S
GR
GS
[0.75 0 0 0.75 824.16705 324.39204] CT
0 0 1 RC
10.0 ML
0.667 LW
N
0 -4 M
0 4 L
-4 0 M
4 0 L
-2.828 -2.828 M
2.828 2.828 L
-2.828 2.828 M
2.828 -2.828 L
S
GR
GS
[0.75 0 0 0.75 0 -0.25] CT
0 0 1 RC
1 LJ
0.667 LW
N
1102.803 430.251 M
1103.072 430.16 L
1102.877 430.367 L
S
GR
GS
[0.75 0 0 0.75 0 -0.25] CT
0 0 1 RC
1 LJ
0.667 LW
N
1098.889 432.856 M
1103.072 430.16 L
S
GR
GS
[0.75 0 0 0.75 0 -0.25] CT
0 0 1 RC
1 LJ
10.667 LW
N
1082.32 432.839 M
1082.845 428.719 L
1084.378 424.859 L
1086.823 421.501 L
1090.025 418.857 L
1093.785 417.092 L
1097.866 416.318 L
1102.011 416.583 L
1105.959 417.871 L
1109.464 420.1 L
1112.304 423.13 L
1114.301 426.772 L
1115.33 430.796 L
1115.326 434.949 L
1114.289 438.971 L
1112.284 442.609 L
1109.438 445.634 L
1105.929 447.856 L
1101.978 449.135 L
1097.832 449.392 L
1093.753 448.609 L
1089.997 446.837 L
1086.8 444.186 L
1084.362 440.824 L
1082.837 436.96 L
1082.32 432.839 L
S
GR
GS
[0.75 0 0 0.75 0 -0.25] CT
1 GC
N
/f-1345526906{1481 339 M
1481 83 L
1288 83 L
1288 339 L
cp}def
f-1345526906
f
GR
GS
[0.75 0 0 0.75 1001.25 77.75] CT
/Helvetica-Bold 30 F
GS
[1 0 0 1 0 0] CT
0 12 moveto 
1 -1 scale
(LandMark) t 
GR
GR
GS
[0.75 0 0 0.75 984 77.75] CT
1 0 0 RC
N
/f-1214359511{0 -19.995 M
-17.316 9.998 L
17.316 9.998 L
cp}def
f-1214359511
f
GR
GS
[0.75 0 0 0.75 984 77.75] CT
0 0 1 RC
10.0 ML
0.667 LW
N
0 -19.995 M
-17.316 9.998 L
17.316 9.998 L
cp
S
GR
GS
[0.75 0 0 0.75 1001.25 122.75] CT
/Helvetica-Bold 30 F
GS
[1 0 0 1 0 0] CT
0 0 moveto 
1 -1 scale
(b) t 
GR
GR
GS
[0.75 0 0 0.75 1015.5 111.5] CT
/Helvetica-Bold 24 F
GS
[1 0 0 1 0 0] CT
0 0 moveto 
1 -1 scale
(-) t 
GR
GR
GS
[0.75 0 0 0.75 1021.5 122.75] CT
/Helvetica-Bold 30 F
GS
[1 0 0 1 0 0] CT
0 0 moveto 
1 -1 scale
([X) t 
GR
GR
GS
[0.75 0 0 0.75 1044 134] CT
/Helvetica-Bold 24 F
GS
[1 0 0 1 0 0] CT
0 0 moveto 
1 -1 scale
(k) t 
GR
GR
GS
[0.75 0 0 0.75 1054.5 122.75] CT
/Helvetica-Bold 30 F
GS
[1 0 0 1 0 0] CT
0 0 moveto 
1 -1 scale
(]) t 
GR
GR
GS
[0.75 0 0 0.75 0 -0.25] CT
0 1 1 RC
1 LJ
10.667 LW
N
1292 154 M
1332 154 L
S
GR
GS
[0.75 0 0 0.75 1001.25 161.75] CT
/Helvetica-Bold 30 F
GS
[1 0 0 1 0 0] CT
0 0 moveto 
1 -1 scale
(b[X) t 
GR
GR
GS
[0.75 0 0 0.75 1038 173] CT
/Helvetica-Bold 24 F
GS
[1 0 0 1 0 0] CT
0 0 moveto 
1 -1 scale
(k) t 
GR
GR
GS
[0.75 0 0 0.75 1048.5 161.75] CT
/Helvetica-Bold 30 F
GS
[1 0 0 1 0 0] CT
0 0 moveto 
1 -1 scale
(]) t 
GR
GR
GS
[0.75 0 0 0.75 0 -0.25] CT
0 0 1 RC
1 LJ
10.667 LW
N
1292 211 M
1332 211 L
S
GR
GS
[0.75 0 0 0.75 1001.25 208.25] CT
/Helvetica-Bold 30 F
GS
[1 0 0 1 0 0] CT
0 0 moveto 
1 -1 scale
(b) t 
GR
GR
GS
[0.75 0 0 0.75 1015.5 197] CT
/Helvetica-Bold 24 F
GS
[1 0 0 1 0 0] CT
0 0 moveto 
1 -1 scale
(real) t 
GR
GR
GS
[0.75 0 0 0.75 1047.75 208.25] CT
/Helvetica-Bold 30 F
GS
[1 0 0 1 0 0] CT
0 0 moveto 
1 -1 scale
([X) t 
GR
GR
GS
[0.75 0 0 0.75 1070.25 219.5] CT
/Helvetica-Bold 24 F
GS
[1 0 0 1 0 0] CT
0 0 moveto 
1 -1 scale
(k) t 
GR
GR
GS
[0.75 0 0 0.75 1080.75 208.25] CT
/Helvetica-Bold 30 F
GS
[1 0 0 1 0 0] CT
0 0 moveto 
1 -1 scale
(]) t 
GR
GR
GS
[0.75 0 0 0.75 0 -0.25] CT
0 1 0 RC
1 LJ
10.667 LW
N
1292 268 M
1332 268 L
S
GR
GS
[0.75 0 0 0.75 1001.25 238.25] CT
/Helvetica-Bold 30 F
GS
[1 0 0 1 0 0] CT
0 12 moveto 
1 -1 scale
(GT) t 
GR
GR
GS
[0.75 0 0 0.75 984 238.25] CT
0.718 0.275 1 RC
10.0 ML
10.667 LW
N
-4.667 0 M
0 6.207 L
4.667 0 L
0 -6.207 L
cp
S
GR
GS
[0.75 0 0 0.75 0 -0.25] CT
0.149 GC
10.0 ML
0.667 LW
N
1288 339 M
1288 83 L
1481 83 L
1481 339 L
cp
S
GR
%%Trailer
%%Pages: 1
%%EOF
