%!PS-Adobe-3.0 EPSF-3.0
%%Creator: (MATLAB, The Mathworks, Inc. Version 9.10.0.1649659 \(R2021a\) Update 1. Operating System: Windows 10)
%%Title: C:/Users/ohads/ANPL/Code/da_bsp_future_smoothing/TestCases/ChosenTestCase/TestCases_56/Figures/Robots_estimation_k_10.eps
%%CreationDate: 2021-07-08T15:01:48
%%Pages: (atend)
%%BoundingBox:     0     0  1440   722
%%LanguageLevel: 3
%%EndComments
%%BeginProlog
%%BeginResource: procset (Apache XML Graphics Std ProcSet) 1.2 0
%%Version: 1.2 0
%%Copyright: (Copyright 2001-2003,2010 The Apache Software Foundation. License terms: http://www.apache.org/licenses/LICENSE-2.0)
/bd{bind def}bind def
/ld{load def}bd
/GR/grestore ld
/GS/gsave ld
/RM/rmoveto ld
/C/curveto ld
/t/show ld
/L/lineto ld
/ML/setmiterlimit ld
/CT/concat ld
/f/fill ld
/N/newpath ld
/S/stroke ld
/CC/setcmykcolor ld
/A/ashow ld
/cp/closepath ld
/RC/setrgbcolor ld
/LJ/setlinejoin ld
/GC/setgray ld
/LW/setlinewidth ld
/M/moveto ld
/re {4 2 roll M
1 index 0 rlineto
0 exch rlineto
neg 0 rlineto
cp } bd
/_ctm matrix def
/_tm matrix def
/BT { _ctm currentmatrix pop matrix _tm copy pop 0 0 moveto } bd
/ET { _ctm setmatrix } bd
/iTm { _ctm setmatrix _tm concat } bd
/Tm { _tm astore pop iTm 0 0 moveto } bd
/ux 0.0 def
/uy 0.0 def
/F {
  /Tp exch def
  /Tf exch def
  Tf findfont Tp scalefont setfont
  /cf Tf def  /cs Tp def
} bd
/ULS {currentpoint /uy exch def /ux exch def} bd
/ULE {
  /Tcx currentpoint pop def
  gsave
  newpath
  cf findfont cs scalefont dup
  /FontMatrix get 0 get /Ts exch def /FontInfo get dup
  /UnderlinePosition get Ts mul /To exch def
  /UnderlineThickness get Ts mul /Tt exch def
  ux uy To add moveto  Tcx uy To add lineto
  Tt setlinewidth stroke
  grestore
} bd
/OLE {
  /Tcx currentpoint pop def
  gsave
  newpath
  cf findfont cs scalefont dup
  /FontMatrix get 0 get /Ts exch def /FontInfo get dup
  /UnderlinePosition get Ts mul /To exch def
  /UnderlineThickness get Ts mul /Tt exch def
  ux uy To add cs add moveto Tcx uy To add cs add lineto
  Tt setlinewidth stroke
  grestore
} bd
/SOE {
  /Tcx currentpoint pop def
  gsave
  newpath
  cf findfont cs scalefont dup
  /FontMatrix get 0 get /Ts exch def /FontInfo get dup
  /UnderlinePosition get Ts mul /To exch def
  /UnderlineThickness get Ts mul /Tt exch def
  ux uy To add cs 10 mul 26 idiv add moveto Tcx uy To add cs 10 mul 26 idiv add lineto
  Tt setlinewidth stroke
  grestore
} bd
/QT {
/Y22 exch store
/X22 exch store
/Y21 exch store
/X21 exch store
currentpoint
/Y21 load 2 mul add 3 div exch
/X21 load 2 mul add 3 div exch
/X21 load 2 mul /X22 load add 3 div
/Y21 load 2 mul /Y22 load add 3 div
/X22 load /Y22 load curveto
} bd
/SSPD {
dup length /d exch dict def
{
/v exch def
/k exch def
currentpagedevice k known {
/cpdv currentpagedevice k get def
v cpdv ne {
/upd false def
/nullv v type /nulltype eq def
/nullcpdv cpdv type /nulltype eq def
nullv nullcpdv or
{
/upd true def
} {
/sametype v type cpdv type eq def
sametype {
v type /arraytype eq {
/vlen v length def
/cpdvlen cpdv length def
vlen cpdvlen eq {
0 1 vlen 1 sub {
/i exch def
/obj v i get def
/cpdobj cpdv i get def
obj cpdobj ne {
/upd true def
exit
} if
} for
} {
/upd true def
} ifelse
} {
v type /dicttype eq {
v {
/dv exch def
/dk exch def
/cpddv cpdv dk get def
dv cpddv ne {
/upd true def
exit
} if
} forall
} {
/upd true def
} ifelse
} ifelse
} if
} ifelse
upd true eq {
d k v put
} if
} if
} if
} forall
d length 0 gt {
d setpagedevice
} if
} bd
/RE { % /NewFontName [NewEncodingArray] /FontName RE -
  findfont dup length dict begin
  {
    1 index /FID ne
    {def} {pop pop} ifelse
  } forall
  /Encoding exch def
  /FontName 1 index def
  currentdict definefont pop
  end
} bind def
%%EndResource
%%BeginResource: procset (Apache XML Graphics EPS ProcSet) 1.0 0
%%Version: 1.0 0
%%Copyright: (Copyright 2002-2003 The Apache Software Foundation. License terms: http://www.apache.org/licenses/LICENSE-2.0)
/BeginEPSF { %def
/b4_Inc_state save def         % Save state for cleanup
/dict_count countdictstack def % Count objects on dict stack
/op_count count 1 sub def      % Count objects on operand stack
userdict begin                 % Push userdict on dict stack
/showpage { } def              % Redefine showpage, { } = null proc
0 setgray 0 setlinecap         % Prepare graphics state
1 setlinewidth 0 setlinejoin
10 setmiterlimit [ ] 0 setdash newpath
/languagelevel where           % If level not equal to 1 then
{pop languagelevel             % set strokeadjust and
1 ne                           % overprint to their defaults.
{false setstrokeadjust false setoverprint
} if
} if
} bd
/EndEPSF { %def
count op_count sub {pop} repeat            % Clean up stacks
countdictstack dict_count sub {end} repeat
b4_Inc_state restore
} bd
%%EndResource
%FOPBeginFontDict
%%IncludeResource: font Courier-Oblique
%%IncludeResource: font Courier-BoldOblique
%%IncludeResource: font Courier-Bold
%%IncludeResource: font ZapfDingbats
%%IncludeResource: font Symbol
%%IncludeResource: font Helvetica
%%IncludeResource: font Helvetica-Oblique
%%IncludeResource: font Helvetica-Bold
%%IncludeResource: font Helvetica-BoldOblique
%%IncludeResource: font Times-Roman
%%IncludeResource: font Times-Italic
%%IncludeResource: font Times-Bold
%%IncludeResource: font Times-BoldItalic
%%IncludeResource: font Courier
%FOPEndFontDict
%%BeginResource: encoding WinAnsiEncoding
/WinAnsiEncoding [
/.notdef /.notdef /.notdef /.notdef /.notdef
/.notdef /.notdef /.notdef /.notdef /.notdef
/.notdef /.notdef /.notdef /.notdef /.notdef
/.notdef /.notdef /.notdef /.notdef /.notdef
/.notdef /.notdef /.notdef /.notdef /.notdef
/.notdef /.notdef /.notdef /.notdef /.notdef
/.notdef /.notdef /space /exclam /quotedbl
/numbersign /dollar /percent /ampersand /quotesingle
/parenleft /parenright /asterisk /plus /comma
/hyphen /period /slash /zero /one
/two /three /four /five /six
/seven /eight /nine /colon /semicolon
/less /equal /greater /question /at
/A /B /C /D /E
/F /G /H /I /J
/K /L /M /N /O
/P /Q /R /S /T
/U /V /W /X /Y
/Z /bracketleft /backslash /bracketright /asciicircum
/underscore /quoteleft /a /b /c
/d /e /f /g /h
/i /j /k /l /m
/n /o /p /q /r
/s /t /u /v /w
/x /y /z /braceleft /bar
/braceright /asciitilde /bullet /Euro /bullet
/quotesinglbase /florin /quotedblbase /ellipsis /dagger
/daggerdbl /circumflex /perthousand /Scaron /guilsinglleft
/OE /bullet /Zcaron /bullet /bullet
/quoteleft /quoteright /quotedblleft /quotedblright /bullet
/endash /emdash /asciitilde /trademark /scaron
/guilsinglright /oe /bullet /zcaron /Ydieresis
/space /exclamdown /cent /sterling /currency
/yen /brokenbar /section /dieresis /copyright
/ordfeminine /guillemotleft /logicalnot /sfthyphen /registered
/macron /degree /plusminus /twosuperior /threesuperior
/acute /mu /paragraph /middot /cedilla
/onesuperior /ordmasculine /guillemotright /onequarter /onehalf
/threequarters /questiondown /Agrave /Aacute /Acircumflex
/Atilde /Adieresis /Aring /AE /Ccedilla
/Egrave /Eacute /Ecircumflex /Edieresis /Igrave
/Iacute /Icircumflex /Idieresis /Eth /Ntilde
/Ograve /Oacute /Ocircumflex /Otilde /Odieresis
/multiply /Oslash /Ugrave /Uacute /Ucircumflex
/Udieresis /Yacute /Thorn /germandbls /agrave
/aacute /acircumflex /atilde /adieresis /aring
/ae /ccedilla /egrave /eacute /ecircumflex
/edieresis /igrave /iacute /icircumflex /idieresis
/eth /ntilde /ograve /oacute /ocircumflex
/otilde /odieresis /divide /oslash /ugrave
/uacute /ucircumflex /udieresis /yacute /thorn
/ydieresis
] def
%%EndResource
%FOPBeginFontReencode
/Courier-Oblique findfont
dup length dict begin
  {1 index /FID ne {def} {pop pop} ifelse} forall
  /Encoding WinAnsiEncoding def
  currentdict
end
/Courier-Oblique exch definefont pop
/Courier-BoldOblique findfont
dup length dict begin
  {1 index /FID ne {def} {pop pop} ifelse} forall
  /Encoding WinAnsiEncoding def
  currentdict
end
/Courier-BoldOblique exch definefont pop
/Courier-Bold findfont
dup length dict begin
  {1 index /FID ne {def} {pop pop} ifelse} forall
  /Encoding WinAnsiEncoding def
  currentdict
end
/Courier-Bold exch definefont pop
/Helvetica findfont
dup length dict begin
  {1 index /FID ne {def} {pop pop} ifelse} forall
  /Encoding WinAnsiEncoding def
  currentdict
end
/Helvetica exch definefont pop
/Helvetica-Oblique findfont
dup length dict begin
  {1 index /FID ne {def} {pop pop} ifelse} forall
  /Encoding WinAnsiEncoding def
  currentdict
end
/Helvetica-Oblique exch definefont pop
/Helvetica-Bold findfont
dup length dict begin
  {1 index /FID ne {def} {pop pop} ifelse} forall
  /Encoding WinAnsiEncoding def
  currentdict
end
/Helvetica-Bold exch definefont pop
/Helvetica-BoldOblique findfont
dup length dict begin
  {1 index /FID ne {def} {pop pop} ifelse} forall
  /Encoding WinAnsiEncoding def
  currentdict
end
/Helvetica-BoldOblique exch definefont pop
/Times-Roman findfont
dup length dict begin
  {1 index /FID ne {def} {pop pop} ifelse} forall
  /Encoding WinAnsiEncoding def
  currentdict
end
/Times-Roman exch definefont pop
/Times-Italic findfont
dup length dict begin
  {1 index /FID ne {def} {pop pop} ifelse} forall
  /Encoding WinAnsiEncoding def
  currentdict
end
/Times-Italic exch definefont pop
/Times-Bold findfont
dup length dict begin
  {1 index /FID ne {def} {pop pop} ifelse} forall
  /Encoding WinAnsiEncoding def
  currentdict
end
/Times-Bold exch definefont pop
/Times-BoldItalic findfont
dup length dict begin
  {1 index /FID ne {def} {pop pop} ifelse} forall
  /Encoding WinAnsiEncoding def
  currentdict
end
/Times-BoldItalic exch definefont pop
/Courier findfont
dup length dict begin
  {1 index /FID ne {def} {pop pop} ifelse} forall
  /Encoding WinAnsiEncoding def
  currentdict
end
/Courier exch definefont pop
%FOPEndFontReencode
%%EndProlog
%%Page: 1 1
%%PageBoundingBox: 0 0 1440 722
%%BeginPageSetup
[1 0 0 -1 0 722] CT
%%EndPageSetup
GS
[0.75 0 0 0.75 0 -0.25] CT
1 GC
N
0 0 1920 963 re
f
GR
GS
[0.75 0 0 0.75 0 -0.25] CT
1 GC
N
0 0 1920 963 re
f
GR
GS
[0.75 0 0 0.75 0 -0.25] CT
1 GC
N
496.352 857 M
1491.648 857 L
1491.648 72 L
496.352 72 L
cp
f
GR
GS
[0.75 0 0 0.75 0 -0.25] CT
0.149 GC
2 setlinecap
1 LJ
0.667 LW
N
496.352 857 M
1491.648 857 L
S
GR
GS
[0.75 0 0 0.75 0 -0.25] CT
0.149 GC
2 setlinecap
1 LJ
0.667 LW
N
560.586 857 M
560.586 847.047 L
S
GR
GS
[0.75 0 0 0.75 0 -0.25] CT
0.149 GC
2 setlinecap
1 LJ
0.667 LW
N
765.45 857 M
765.45 847.047 L
S
GR
GS
[0.75 0 0 0.75 0 -0.25] CT
0.149 GC
2 setlinecap
1 LJ
0.667 LW
N
970.314 857 M
970.314 847.047 L
S
GR
GS
[0.75 0 0 0.75 0 -0.25] CT
0.149 GC
2 setlinecap
1 LJ
0.667 LW
N
1175.178 857 M
1175.178 847.047 L
S
GR
GS
[0.75 0 0 0.75 0 -0.25] CT
0.149 GC
2 setlinecap
1 LJ
0.667 LW
N
1380.042 857 M
1380.042 847.047 L
S
GR
GS
[0.75 0 0 0.75 420.43918 649.49998] CT
0.149 GC
/Helvetica 33.333 F
GS
[1 0 0 1 0 0] CT
-15 34 moveto 
1 -1 scale
(-5) t 
GR
GR
GS
[0.75 0 0 0.75 574.08723 649.49998] CT
0.149 GC
/Helvetica 33.333 F
GS
[1 0 0 1 0 0] CT
-9.5 34 moveto 
1 -1 scale
(0) t 
GR
GR
GS
[0.75 0 0 0.75 727.73534 649.49998] CT
0.149 GC
/Helvetica 33.333 F
GS
[1 0 0 1 0 0] CT
-9.5 34 moveto 
1 -1 scale
(5) t 
GR
GR
GS
[0.75 0 0 0.75 881.38339 649.49998] CT
0.149 GC
/Helvetica 33.333 F
GS
[1 0 0 1 0 0] CT
-19 34 moveto 
1 -1 scale
(10) t 
GR
GR
GS
[0.75 0 0 0.75 1035.03149 649.49998] CT
0.149 GC
/Helvetica 33.333 F
GS
[1 0 0 1 0 0] CT
-19 34 moveto 
1 -1 scale
(15) t 
GR
GR
GS
[0.75 0 0 0.75 745.50037 682.00002] CT
0.149 GC
/Helvetica 36.667 F
GS
[1 0 0 1 0 0] CT
-21.5 37 moveto 
1 -1 scale
(Xs) t 
GR
GR
GS
[0.75 0 0 0.75 0 -0.25] CT
0.149 GC
2 setlinecap
1 LJ
0.667 LW
N
496.352 857 M
496.352 72 L
S
GR
GS
[0.75 0 0 0.75 0 -0.25] CT
0.149 GC
2 setlinecap
1 LJ
0.667 LW
N
496.352 830.792 M
506.305 830.792 L
S
GR
GS
[0.75 0 0 0.75 0 -0.25] CT
0.149 GC
2 setlinecap
1 LJ
0.667 LW
N
496.352 748.847 M
506.305 748.847 L
S
GR
GS
[0.75 0 0 0.75 0 -0.25] CT
0.149 GC
2 setlinecap
1 LJ
0.667 LW
N
496.352 666.901 M
506.305 666.901 L
S
GR
GS
[0.75 0 0 0.75 0 -0.25] CT
0.149 GC
2 setlinecap
1 LJ
0.667 LW
N
496.352 584.955 M
506.305 584.955 L
S
GR
GS
[0.75 0 0 0.75 0 -0.25] CT
0.149 GC
2 setlinecap
1 LJ
0.667 LW
N
496.352 503.01 M
506.305 503.01 L
S
GR
GS
[0.75 0 0 0.75 0 -0.25] CT
0.149 GC
2 setlinecap
1 LJ
0.667 LW
N
496.352 421.064 M
506.305 421.064 L
S
GR
GS
[0.75 0 0 0.75 0 -0.25] CT
0.149 GC
2 setlinecap
1 LJ
0.667 LW
N
496.352 339.118 M
506.305 339.118 L
S
GR
GS
[0.75 0 0 0.75 0 -0.25] CT
0.149 GC
2 setlinecap
1 LJ
0.667 LW
N
496.352 257.173 M
506.305 257.173 L
S
GR
GS
[0.75 0 0 0.75 0 -0.25] CT
0.149 GC
2 setlinecap
1 LJ
0.667 LW
N
496.352 175.227 M
506.305 175.227 L
S
GR
GS
[0.75 0 0 0.75 0 -0.25] CT
0.149 GC
2 setlinecap
1 LJ
0.667 LW
N
496.352 93.282 M
506.305 93.282 L
S
GR
GS
[0.75 0 0 0.75 365.2638 622.84422] CT
0.149 GC
/Helvetica 33.333 F
GS
[1 0 0 1 0 0] CT
-19 13 moveto 
1 -1 scale
(0) t 
GR
GR
GS
[0.75 0 0 0.75 365.2638 561.38501] CT
0.149 GC
/Helvetica 33.333 F
GS
[1 0 0 1 0 0] CT
-19 13 moveto 
1 -1 scale
(2) t 
GR
GR
GS
[0.75 0 0 0.75 365.2638 499.92575] CT
0.149 GC
/Helvetica 33.333 F
GS
[1 0 0 1 0 0] CT
-19 13 moveto 
1 -1 scale
(4) t 
GR
GR
GS
[0.75 0 0 0.75 365.2638 438.46654] CT
0.149 GC
/Helvetica 33.333 F
GS
[1 0 0 1 0 0] CT
-19 13 moveto 
1 -1 scale
(6) t 
GR
GR
GS
[0.75 0 0 0.75 365.2638 377.0073] CT
0.149 GC
/Helvetica 33.333 F
GS
[1 0 0 1 0 0] CT
-19 13 moveto 
1 -1 scale
(8) t 
GR
GR
GS
[0.75 0 0 0.75 365.2638 315.54807] CT
0.149 GC
/Helvetica 33.333 F
GS
[1 0 0 1 0 0] CT
-38 13 moveto 
1 -1 scale
(10) t 
GR
GR
GS
[0.75 0 0 0.75 365.2638 254.08883] CT
0.149 GC
/Helvetica 33.333 F
GS
[1 0 0 1 0 0] CT
-38 13 moveto 
1 -1 scale
(12) t 
GR
GR
GS
[0.75 0 0 0.75 365.2638 192.62962] CT
0.149 GC
/Helvetica 33.333 F
GS
[1 0 0 1 0 0] CT
-38 13 moveto 
1 -1 scale
(14) t 
GR
GR
GS
[0.75 0 0 0.75 365.2638 131.17038] CT
0.149 GC
/Helvetica 33.333 F
GS
[1 0 0 1 0 0] CT
-38 13 moveto 
1 -1 scale
(16) t 
GR
GR
GS
[0.75 0 0 0.75 365.2638 69.71115] CT
0.149 GC
/Helvetica 33.333 F
GS
[1 0 0 1 0 0] CT
-38 13 moveto 
1 -1 scale
(18) t 
GR
GR
GS
[0 -0.75 0.75 0 333.7638 348.12473] CT
0.149 GC
/Helvetica 36.667 F
GS
[1 0 0 1 0 0] CT
-21.5 -9 moveto 
1 -1 scale
(Ys) t 
GR
GR
GS
[0.75 0 0 0.75 697.00571 407.73691] CT
1 0 0 RC
N
0 -26.66 M
-23.088 13.33 L
23.088 13.33 L
cp
f
GR
GS
[0.75 0 0 0.75 697.00571 407.73691] CT
0 0 1 RC
10.0 ML
0.667 LW
N
0 -26.66 M
-23.088 13.33 L
23.088 13.33 L
cp
S
GR
GS
[0.75 0 0 0.75 666.27608 377.0073] CT
1 0 0 RC
N
/f-1996900118{0 -26.66 M
-23.088 13.33 L
23.088 13.33 L
cp}def
f-1996900118
f
GR
GS
[0.75 0 0 0.75 666.27608 377.0073] CT
0 0 1 RC
10.0 ML
0.667 LW
N
0 -26.66 M
-23.088 13.33 L
23.088 13.33 L
cp
S
GR
GS
[0.75 0 0 0.75 789.19455 407.73691] CT
1 0 0 RC
N
f-1996900118
f
GR
GS
[0.75 0 0 0.75 789.19455 407.73691] CT
0 0 1 RC
10.0 ML
0.667 LW
N
0 -26.66 M
-23.088 13.33 L
23.088 13.33 L
cp
S
GR
GS
[0.75 0 0 0.75 727.73534 530.65538] CT
1 0 0 RC
N
f-1996900118
f
GR
GS
[0.75 0 0 0.75 727.73534 530.65538] CT
0 0 1 RC
10.0 ML
0.667 LW
N
0 -26.66 M
-23.088 13.33 L
23.088 13.33 L
cp
S
GR
GS
[0.75 0 0 0.75 727.73534 346.27769] CT
1 0 0 RC
N
f-1996900118
f
GR
GS
[0.75 0 0 0.75 727.73534 346.27769] CT
0 0 1 RC
10.0 ML
0.667 LW
N
0 -26.66 M
-23.088 13.33 L
23.088 13.33 L
cp
S
GR
GS
[0.75 0 0 0.75 697.00571 469.19612] CT
1 0 0 RC
N
f-1996900118
f
GR
GS
[0.75 0 0 0.75 697.00571 469.19612] CT
0 0 1 RC
10.0 ML
0.667 LW
N
0 -26.66 M
-23.088 13.33 L
23.088 13.33 L
cp
S
GR
GS
[0.75 0 0 0.75 819.92413 530.65538] CT
1 0 0 RC
N
f-1996900118
f
GR
GS
[0.75 0 0 0.75 819.92413 530.65538] CT
0 0 1 RC
10.0 ML
0.667 LW
N
0 -26.66 M
-23.088 13.33 L
23.088 13.33 L
cp
S
GR
GS
[0.75 0 0 0.75 758.46497 377.0073] CT
1 0 0 RC
N
f-1996900118
f
GR
GS
[0.75 0 0 0.75 758.46497 377.0073] CT
0 0 1 RC
10.0 ML
0.667 LW
N
0 -26.66 M
-23.088 13.33 L
23.088 13.33 L
cp
S
GR
GS
[0.75 0 0 0.75 685.89656 190.18938] CT
0 1 1 RC
10.0 ML
0.667 LW
N
0 -4 M
0 4 L
-4 0 M
4 0 L
-2.828 -2.828 M
2.828 2.828 L
-2.828 2.828 M
2.828 -2.828 L
S
GR
GS
[0.75 0 0 0.75 0 -0.25] CT
0 1 1 RC
1 LJ
0.667 LW
N
911.05 252.257 M
910.86 252.095 L
911.104 252.149 L
S
GR
GS
[0.75 0 0 0.75 0 -0.25] CT
0 1 1 RC
1 LJ
0.667 LW
N
914.529 253.919 M
910.86 252.095 L
S
GR
GS
[0.75 0 0 0.75 0 -0.25] CT
0 1 1 RC
1 LJ
0.667 LW
N
920.081 299.553 M
908.558 299.501 L
897.41 296.584 L
887.338 290.986 L
878.974 283.06 L
872.844 273.302 L
869.333 262.326 L
868.662 250.823 L
870.873 239.513 L
875.828 229.109 L
883.213 220.264 L
892.567 213.534 L
903.3 209.341 L
914.739 207.949 L
926.165 209.445 L
936.86 213.736 L
946.151 220.552 L
953.456 229.465 L
958.314 239.914 L
960.422 251.243 L
959.645 262.74 L
956.034 273.683 L
949.815 283.384 L
941.379 291.234 L
931.256 296.739 L
920.081 299.553 L
S
GR
GS
[0.75 0 0 0.75 660.13943 164.43373] CT
0 1 1 RC
10.0 ML
0.667 LW
N
0 -4 M
0 4 L
-4 0 M
4 0 L
-2.828 -2.828 M
2.828 2.828 L
-2.828 2.828 M
2.828 -2.828 L
S
GR
GS
[0.75 0 0 0.75 0 -0.25] CT
0 1 1 RC
1 LJ
0.667 LW
N
876.707 217.916 M
876.517 217.754 L
876.761 217.808 L
S
GR
GS
[0.75 0 0 0.75 0 -0.25] CT
0 1 1 RC
1 LJ
0.667 LW
N
880.186 219.578 M
876.517 217.754 L
S
GR
GS
[0.75 0 0 0.75 0 -0.25] CT
0 1 1 RC
1 LJ
0.667 LW
N
886.857 265.063 M
875.336 265.293 L
864.12 262.65 L
853.913 257.302 L
845.357 249.583 L
838.989 239.978 L
835.21 229.092 L
834.257 217.608 L
836.19 206.248 L
840.887 195.726 L
848.054 186.702 L
857.239 179.744 L
867.867 175.289 L
879.268 173.617 L
890.727 174.832 L
901.524 178.86 L
910.98 185.445 L
918.501 194.176 L
923.614 204.502 L
925.999 215.776 L
925.505 227.289 L
922.164 238.317 L
916.185 248.168 L
907.944 256.223 L
897.959 261.975 L
886.857 265.063 L
S
GR
GS
[0.75 0 0 0.75 655.972 160.26492] CT
0 1 1 RC
10.0 ML
0.667 LW
N
0 -4 M
0 4 L
-4 0 M
4 0 L
-2.828 -2.828 M
2.828 2.828 L
-2.828 2.828 M
2.828 -2.828 L
S
GR
GS
[0.75 0 0 0.75 0 -0.25] CT
0 1 1 RC
1 LJ
0.667 LW
N
871.15 212.358 M
870.96 212.196 L
871.204 212.25 L
S
GR
GS
[0.75 0 0 0.75 0 -0.25] CT
0 1 1 RC
1 LJ
0.667 LW
N
874.629 214.02 M
870.96 212.196 L
S
GR
GS
[0.75 0 0 0.75 0 -0.25] CT
0 1 1 RC
1 LJ
0.667 LW
N
920.275 208.558 M
917.482 197.378 L
911.997 187.244 L
904.165 178.792 L
894.476 172.554 L
883.54 168.921 L
872.045 168.122 L
860.711 170.207 L
850.253 175.044 L
841.326 182.331 L
834.491 191.609 L
830.179 202.295 L
828.659 213.718 L
830.029 225.159 L
834.2 235.901 L
840.912 245.268 L
849.742 252.672 L
860.136 257.646 L
871.441 259.88 L
882.946 259.232 L
893.929 255.743 L
903.699 249.633 L
911.642 241.285 L
917.26 231.224 L
920.199 220.081 L
920.275 208.558 L
S
GR
GS
[0.75 0 0 0.75 715.82085 130.34055] CT
0 1 1 RC
10.0 ML
0.667 LW
N
0 -4 M
0 4 L
-4 0 M
4 0 L
-2.828 -2.828 M
2.828 2.828 L
-2.828 2.828 M
2.828 -2.828 L
S
GR
GS
[0.75 0 0 0.75 0 -0.25] CT
0 1 1 RC
1 LJ
0.667 LW
N
950.949 172.459 M
950.759 172.297 L
951.003 172.35 L
S
GR
GS
[0.75 0 0 0.75 0 -0.25] CT
0 1 1 RC
1 LJ
0.667 LW
N
954.428 174.121 M
950.759 172.297 L
S
GR
GS
[0.75 0 0 0.75 0 -0.25] CT
0 1 1 RC
1 LJ
0.667 LW
N
960.088 219.742 M
948.565 219.716 L
937.41 216.826 L
927.324 211.252 L
918.942 203.345 L
912.789 193.602 L
909.252 182.634 L
908.554 171.132 L
910.739 159.818 L
915.668 149.402 L
923.033 140.54 L
932.371 133.787 L
943.094 129.569 L
954.53 128.15 L
965.959 129.62 L
976.664 133.885 L
985.971 140.679 L
993.297 149.575 L
998.18 160.012 L
1000.314 171.336 L
999.565 182.835 L
995.98 193.787 L
989.784 203.502 L
981.366 211.372 L
971.256 216.901 L
960.088 219.742 L
S
GR
GS
[0.75 0 0 0.75 719.98851 134.50916] CT
0 1 1 RC
10.0 ML
0.667 LW
N
0 -4 M
0 4 L
-4 0 M
4 0 L
-2.828 -2.828 M
2.828 2.828 L
-2.828 2.828 M
2.828 -2.828 L
S
GR
GS
[0.75 0 0 0.75 0 -0.25] CT
0 1 1 RC
1 LJ
0.667 LW
N
956.506 178.017 M
956.316 177.855 L
956.56 177.909 L
S
GR
GS
[0.75 0 0 0.75 0 -0.25] CT
0 1 1 RC
1 LJ
0.667 LW
N
959.985 179.679 M
956.316 177.855 L
S
GR
GS
[0.75 0 0 0.75 0 -0.25] CT
0 1 1 RC
1 LJ
0.667 LW
N
966.949 225.119 M
955.43 225.424 L
944.197 222.854 L
933.955 217.571 L
925.35 209.907 L
918.921 200.344 L
915.071 189.483 L
914.044 178.005 L
915.904 166.633 L
920.533 156.08 L
927.641 147.011 L
936.782 139.993 L
947.38 135.47 L
958.77 133.724 L
970.237 134.866 L
981.059 138.823 L
990.558 145.348 L
998.135 154.03 L
1003.315 164.323 L
1005.773 175.581 L
1005.353 187.097 L
1002.083 198.147 L
996.167 208.036 L
987.979 216.143 L
978.031 221.96 L
966.949 225.119 L
S
GR
GS
[0.75 0 0 0.75 745.74522 160.26495] CT
0 1 1 RC
10.0 ML
0.667 LW
N
0 -4 M
0 4 L
-4 0 M
4 0 L
-2.828 -2.828 M
2.828 2.828 L
-2.828 2.828 M
2.828 -2.828 L
S
GR
GS
[0.75 0 0 0.75 0 -0.25] CT
0 1 1 RC
1 LJ
0.667 LW
N
990.848 212.358 M
990.658 212.196 L
990.902 212.25 L
S
GR
GS
[0.75 0 0 0.75 0 -0.25] CT
0 1 1 RC
1 LJ
0.667 LW
N
994.327 214.02 M
990.658 212.196 L
S
GR
GS
[0.75 0 0 0.75 0 -0.25] CT
0 1 1 RC
1 LJ
0.667 LW
N
1039.939 208.285 M
1037.08 197.122 L
1031.534 187.021 L
1023.651 178.616 L
1013.925 172.436 L
1002.968 168.868 L
991.467 168.138 L
980.147 170.291 L
969.717 175.191 L
960.834 182.531 L
954.055 191.85 L
949.807 202.561 L
948.356 213.993 L
949.794 225.426 L
954.029 236.143 L
960.797 245.469 L
969.672 252.82 L
980.096 257.732 L
991.413 259.898 L
1002.914 259.182 L
1013.876 255.627 L
1023.609 249.458 L
1031.502 241.063 L
1037.06 230.968 L
1039.932 219.808 L
1039.939 208.285 L
S
GR
GS
[0.75 0 0 0.75 660.13953 164.46908] CT
0 0 1 RC
10.0 ML
0.667 LW
N
0 -4 M
0 4 L
-4 0 M
4 0 L
-2.828 -2.828 M
2.828 2.828 L
-2.828 2.828 M
2.828 -2.828 L
S
GR
GS
[0.75 0 0 0.75 0 -0.25] CT
0 1 1 RC
1 LJ
0.667 LW
N
876.707 217.964 M
876.517 217.802 L
876.761 217.855 L
S
GR
GS
[0.75 0 0 0.75 0 -0.25] CT
0 1 1 RC
1 LJ
0.667 LW
N
880.186 219.625 M
876.517 217.802 L
S
GR
GS
[0.75 0 0 0.75 0 -0.25] CT
0 1 1 RC
1 LJ
0.667 LW
N
887.216 265.056 M
875.697 265.377 L
864.46 262.823 L
854.212 257.555 L
845.595 249.904 L
839.152 240.35 L
835.287 229.494 L
834.243 218.018 L
836.086 206.643 L
840.7 196.084 L
847.795 187.004 L
856.926 179.974 L
867.517 175.435 L
878.905 173.672 L
890.373 174.798 L
901.202 178.739 L
910.709 185.25 L
918.299 193.921 L
923.494 204.207 L
925.968 215.462 L
925.565 226.978 L
922.311 238.032 L
916.41 247.93 L
908.233 256.049 L
898.293 261.88 L
887.216 265.056 L
S
GR
GS
[0.75 0 0 0.75 715.82094 130.37589] CT
0 1 1 RC
10.0 ML
0.667 LW
N
0 -4 M
0 4 L
-4 0 M
4 0 L
-2.828 -2.828 M
2.828 2.828 L
-2.828 2.828 M
2.828 -2.828 L
S
GR
GS
[0.75 0 0 0.75 0 -0.25] CT
0 1 1 RC
1 LJ
0.667 LW
N
950.949 172.506 M
950.759 172.344 L
951.003 172.398 L
S
GR
GS
[0.75 0 0 0.75 0 -0.25] CT
0 1 1 RC
1 LJ
0.667 LW
N
954.428 174.168 M
950.759 172.344 L
S
GR
GS
[0.75 0 0 0.75 0 -0.25] CT
0 1 1 RC
1 LJ
0.667 LW
N
1000.043 168.459 M
997.19 157.294 L
991.65 147.19 L
983.772 138.781 L
974.05 132.595 L
963.094 129.021 L
951.595 128.284 L
940.273 130.43 L
929.841 135.325 L
920.953 142.66 L
914.169 151.975 L
909.915 162.684 L
908.457 174.114 L
909.888 185.549 L
914.118 196.268 L
920.88 205.598 L
929.75 212.954 L
940.171 217.872 L
951.488 220.045 L
962.99 219.334 L
973.953 215.786 L
983.69 209.623 L
991.588 201.232 L
997.151 191.14 L
1000.03 179.982 L
1000.043 168.459 L
S
GR
GS
[0.75 0 0 0.75 715.81874 130.33762] CT
0 1 1 RC
10.0 ML
0.667 LW
N
0 -4 M
0 4 L
-4 0 M
4 0 L
-2.828 -2.828 M
2.828 2.828 L
-2.828 2.828 M
2.828 -2.828 L
S
GR
GS
[0.75 0 0 0.75 0 -0.25] CT
0 1 1 RC
1 LJ
0.667 LW
N
950.946 172.455 M
950.756 172.293 L
951 172.346 L
S
GR
GS
[0.75 0 0 0.75 0 -0.25] CT
0 1 1 RC
1 LJ
0.667 LW
N
954.425 174.117 M
950.756 172.293 L
S
GR
GS
[0.75 0 0 0.75 0 -0.25] CT
0 1 1 RC
1 LJ
0.667 LW
N
960.132 219.732 M
948.609 219.718 L
937.451 216.839 L
927.36 211.276 L
918.969 203.377 L
912.806 193.641 L
909.258 182.677 L
908.548 171.175 L
910.721 159.859 L
915.64 149.438 L
922.996 140.568 L
932.327 133.806 L
943.046 129.577 L
954.48 128.146 L
965.911 129.604 L
976.62 133.859 L
985.934 140.643 L
993.269 149.531 L
998.163 159.963 L
1000.309 171.285 L
999.571 182.785 L
995.997 193.74 L
989.811 203.462 L
981.401 211.34 L
971.297 216.88 L
960.132 219.732 L
S
GR
GS
[0.75 0 0 0.75 685.89478 190.18889] CT
0 1 1 RC
10.0 ML
0.667 LW
N
0 -4 M
0 4 L
-4 0 M
4 0 L
-2.828 -2.828 M
2.828 2.828 L
-2.828 2.828 M
2.828 -2.828 L
S
GR
GS
[0.75 0 0 0.75 0 -0.25] CT
0 1 1 RC
1 LJ
0.667 LW
N
911.047 252.257 M
910.857 252.095 L
911.101 252.148 L
S
GR
GS
[0.75 0 0 0.75 0 -0.25] CT
0 1 1 RC
1 LJ
0.667 LW
N
914.526 253.919 M
910.857 252.095 L
S
GR
GS
[0.75 0 0 0.75 0 -0.25] CT
0 1 1 RC
1 LJ
0.667 LW
N
921.292 299.389 M
909.771 299.643 L
898.55 297.024 L
888.332 291.696 L
879.76 283.995 L
873.372 274.404 L
869.571 263.526 L
868.594 252.044 L
870.503 240.68 L
875.178 230.148 L
882.326 221.109 L
891.497 214.132 L
902.115 209.655 L
913.513 207.959 L
924.975 209.151 L
935.78 213.156 L
945.249 219.722 L
952.789 228.437 L
957.924 238.752 L
960.332 250.021 L
959.862 261.535 L
956.543 272.57 L
950.585 282.434 L
942.361 290.505 L
932.387 296.278 L
921.292 299.389 L
S
GR
GS
[0.75 0 0 0.75 660.1393 164.43309] CT
0 1 1 RC
10.0 ML
0.667 LW
N
0 -4 M
0 4 L
-4 0 M
4 0 L
-2.828 -2.828 M
2.828 2.828 L
-2.828 2.828 M
2.828 -2.828 L
S
GR
GS
[0.75 0 0 0.75 0 -0.25] CT
0 1 1 RC
1 LJ
0.667 LW
N
876.707 217.916 M
876.517 217.754 L
876.761 217.807 L
S
GR
GS
[0.75 0 0 0.75 0 -0.25] CT
0 1 1 RC
1 LJ
0.667 LW
N
880.186 219.577 M
876.517 217.754 L
S
GR
GS
[0.75 0 0 0.75 0 -0.25] CT
0 1 1 RC
1 LJ
0.667 LW
N
887.185 265.012 M
875.666 265.326 L
864.431 262.764 L
854.185 257.489 L
845.574 249.832 L
839.137 240.274 L
835.28 229.415 L
834.244 217.939 L
836.095 206.565 L
840.716 196.009 L
847.818 186.934 L
856.953 179.91 L
867.547 175.378 L
878.937 173.624 L
890.404 174.757 L
901.229 178.706 L
910.733 185.223 L
918.317 193.899 L
923.504 204.189 L
925.971 215.445 L
925.56 226.961 L
922.298 238.013 L
916.39 247.907 L
908.207 256.021 L
898.264 261.844 L
887.185 265.012 L
S
GR
GS
[0.75 0 0 0.75 655.97127 160.26466] CT
0 1 1 RC
10.0 ML
0.667 LW
N
0 -4 M
0 4 L
-4 0 M
4 0 L
-2.828 -2.828 M
2.828 2.828 L
-2.828 2.828 M
2.828 -2.828 L
S
GR
GS
[0.75 0 0 0.75 0 -0.25] CT
0 1 1 RC
1 LJ
0.667 LW
N
871.149 212.358 M
870.959 212.196 L
871.203 212.249 L
S
GR
GS
[0.75 0 0 0.75 0 -0.25] CT
0 1 1 RC
1 LJ
0.667 LW
N
874.628 214.02 M
870.959 212.196 L
S
GR
GS
[0.75 0 0 0.75 0 -0.25] CT
0 1 1 RC
1 LJ
0.667 LW
N
920.14 207.535 M
917.097 196.421 L
911.386 186.412 L
903.366 178.138 L
893.54 172.119 L
882.525 168.732 L
871.014 168.191 L
859.731 170.529 L
849.383 175.601 L
840.622 183.086 L
833.998 192.515 L
829.926 203.295 L
828.663 214.749 L
830.289 226.157 L
834.7 236.802 L
841.62 246.016 L
850.615 253.22 L
861.118 257.96 L
872.47 259.94 L
883.958 259.034 L
894.859 255.299 L
904.49 248.971 L
912.244 240.447 L
917.634 230.262 L
920.322 219.057 L
920.14 207.535 L
S
GR
GS
[0.75 0 0 0.75 715.8203 130.34008] CT
0 1 1 RC
10.0 ML
0.667 LW
N
0 -4 M
0 4 L
-4 0 M
4 0 L
-2.828 -2.828 M
2.828 2.828 L
-2.828 2.828 M
2.828 -2.828 L
S
GR
GS
[0.75 0 0 0.75 0 -0.25] CT
0 1 1 RC
1 LJ
0.667 LW
N
950.948 172.458 M
950.758 172.296 L
951.002 172.35 L
S
GR
GS
[0.75 0 0 0.75 0 -0.25] CT
0 1 1 RC
1 LJ
0.667 LW
N
954.427 174.12 M
950.758 172.296 L
S
GR
GS
[0.75 0 0 0.75 0 -0.25] CT
0 1 1 RC
1 LJ
0.667 LW
N
960.134 219.735 M
948.611 219.722 L
937.453 216.842 L
927.361 211.279 L
918.971 203.381 L
912.808 193.644 L
909.26 182.68 L
908.55 171.178 L
910.723 159.862 L
915.642 149.441 L
922.998 140.571 L
932.329 133.809 L
943.048 129.58 L
954.482 128.149 L
965.913 129.607 L
976.622 133.862 L
985.936 140.647 L
993.271 149.534 L
998.165 159.967 L
1000.311 171.289 L
999.573 182.788 L
995.999 193.743 L
989.813 203.466 L
981.403 211.344 L
971.299 216.883 L
960.134 219.735 L
S
GR
GS
[0.75 0 0 0.75 719.98801 134.50869] CT
0 1 1 RC
10.0 ML
0.667 LW
N
0 -4 M
0 4 L
-4 0 M
4 0 L
-2.828 -2.828 M
2.828 2.828 L
-2.828 2.828 M
2.828 -2.828 L
S
GR
GS
[0.75 0 0 0.75 0 -0.25] CT
0 1 1 RC
1 LJ
0.667 LW
N
956.505 178.016 M
956.315 177.854 L
956.559 177.908 L
S
GR
GS
[0.75 0 0 0.75 0 -0.25] CT
0 1 1 RC
1 LJ
0.667 LW
N
959.984 179.678 M
956.315 177.854 L
S
GR
GS
[0.75 0 0 0.75 0 -0.25] CT
0 1 1 RC
1 LJ
0.667 LW
N
966.969 225.115 M
955.45 225.425 L
944.216 222.86 L
933.972 217.582 L
925.363 209.923 L
918.929 200.362 L
915.075 189.503 L
914.043 178.026 L
915.897 166.653 L
920.522 156.098 L
927.626 147.025 L
936.763 140.003 L
947.359 135.475 L
958.749 133.724 L
970.216 134.86 L
981.04 138.813 L
990.541 145.333 L
998.122 154.012 L
1003.307 164.303 L
1005.77 175.56 L
1005.356 187.076 L
1002.091 198.127 L
996.18 208.019 L
987.995 216.13 L
978.05 221.951 L
966.969 225.115 L
S
GR
GS
[0.75 0 0 0.75 745.74467 160.26451] CT
0 1 1 RC
10.0 ML
0.667 LW
N
0 -4 M
0 4 L
-4 0 M
4 0 L
-2.828 -2.828 M
2.828 2.828 L
-2.828 2.828 M
2.828 -2.828 L
S
GR
GS
[0.75 0 0 0.75 0 -0.25] CT
0 1 1 RC
1 LJ
0.667 LW
N
990.847 212.357 M
990.657 212.195 L
990.901 212.249 L
S
GR
GS
[0.75 0 0 0.75 0 -0.25] CT
0 1 1 RC
1 LJ
0.667 LW
N
994.326 214.019 M
990.657 212.195 L
S
GR
GS
[0.75 0 0 0.75 0 -0.25] CT
0 1 1 RC
1 LJ
0.667 LW
N
1000.11 259.625 M
988.587 259.63 L
977.424 256.77 L
967.323 251.224 L
958.919 243.339 L
952.74 233.613 L
949.174 222.655 L
948.445 211.155 L
950.598 199.835 L
955.5 189.406 L
962.841 180.523 L
972.16 173.746 L
982.872 169.498 L
994.304 168.048 L
1005.737 169.487 L
1016.453 173.724 L
1025.779 180.493 L
1033.129 189.368 L
1038.04 199.792 L
1040.205 211.111 L
1039.487 222.611 L
1035.931 233.573 L
1029.762 243.305 L
1021.365 251.197 L
1011.27 256.754 L
1000.11 259.625 L
S
GR
GS
[0.75 0 0 0.75 685.89574 190.18574] CT
0 1 1 RC
10.0 ML
0.667 LW
N
0 -4 M
0 4 L
-4 0 M
4 0 L
-2.828 -2.828 M
2.828 2.828 L
-2.828 2.828 M
2.828 -2.828 L
S
GR
GS
[0.75 0 0 0.75 0 -0.25] CT
0 1 1 RC
1 LJ
0.667 LW
N
911.049 252.252 M
910.859 252.09 L
911.103 252.144 L
S
GR
GS
[0.75 0 0 0.75 0 -0.25] CT
0 1 1 RC
1 LJ
0.667 LW
N
914.528 253.914 M
910.859 252.09 L
S
GR
GS
[0.75 0 0 0.75 0 -0.25] CT
0 1 1 RC
1 LJ
0.667 LW
N
921.293 299.385 M
909.773 299.639 L
898.551 297.02 L
888.333 291.692 L
879.761 283.991 L
873.374 274.4 L
869.572 263.522 L
868.595 252.04 L
870.504 240.676 L
875.18 230.143 L
882.327 221.105 L
891.498 214.128 L
902.117 209.651 L
913.514 207.955 L
924.976 209.147 L
935.781 213.151 L
945.251 219.718 L
952.79 228.432 L
957.925 238.748 L
960.333 250.017 L
959.863 261.531 L
956.545 272.566 L
950.586 282.429 L
942.362 290.501 L
932.389 296.274 L
921.293 299.385 L
S
GR
GS
[0.75 0 0 0.75 660.13271 164.43106] CT
0 1 1 RC
10.0 ML
0.667 LW
N
0 -4 M
0 4 L
-4 0 M
4 0 L
-2.828 -2.828 M
2.828 2.828 L
-2.828 2.828 M
2.828 -2.828 L
S
GR
GS
[0.75 0 0 0.75 0 -0.25] CT
0 1 1 RC
1 LJ
0.667 LW
N
876.698 217.913 M
876.508 217.751 L
876.752 217.805 L
S
GR
GS
[0.75 0 0 0.75 0 -0.25] CT
0 1 1 RC
1 LJ
0.667 LW
N
880.177 219.575 M
876.508 217.751 L
S
GR
GS
[0.75 0 0 0.75 0 -0.25] CT
0 1 1 RC
1 LJ
0.667 LW
N
925.613 212.585 M
922.447 201.505 L
916.626 191.56 L
908.513 183.376 L
898.621 177.466 L
887.57 174.202 L
876.054 173.789 L
864.797 176.253 L
854.506 181.439 L
845.829 189.021 L
839.31 198.523 L
835.358 209.348 L
834.223 220.815 L
835.975 232.204 L
840.505 242.8 L
847.527 251.937 L
856.601 259.04 L
867.156 263.663 L
878.529 265.516 L
890.006 264.482 L
900.866 260.627 L
910.425 254.192 L
918.084 245.582 L
923.361 235.338 L
925.924 224.104 L
925.613 212.585 L
S
GR
GS
[0.75 0 0 0.75 655.96404 160.26211] CT
0 0 1 RC
10.0 ML
0.667 LW
N
0 -4 M
0 4 L
-4 0 M
4 0 L
-2.828 -2.828 M
2.828 2.828 L
-2.828 2.828 M
2.828 -2.828 L
S
GR
GS
[0.75 0 0 0.75 0 -0.25] CT
0 0 1 RC
1 LJ
0.667 LW
N
871.14 212.354 M
870.95 212.192 L
871.193 212.246 L
S
GR
GS
[0.75 0 0 0.75 0 -0.25] CT
0 0 1 RC
1 LJ
0.667 LW
N
874.619 214.016 M
870.95 212.192 L
S
GR
GS
[0.75 0 0 0.75 0 -0.25] CT
0 1 1 RC
1 LJ
0.667 LW
N
920.13 207.532 M
917.088 196.417 L
911.377 186.409 L
903.356 178.135 L
893.53 172.115 L
882.515 168.729 L
871.005 168.188 L
859.721 170.526 L
849.374 175.597 L
840.612 183.082 L
833.988 192.511 L
829.916 203.291 L
828.654 214.745 L
830.279 226.153 L
834.69 236.799 L
841.611 246.013 L
850.605 253.216 L
861.108 257.957 L
872.46 259.936 L
883.948 259.03 L
894.849 255.296 L
904.48 248.968 L
912.234 240.444 L
917.624 230.259 L
920.313 219.054 L
920.13 207.532 L
S
GR
GS
[0.75 0 0 0.75 715.81824 130.33715] CT
0 1 1 RC
10.0 ML
0.667 LW
N
0 -4 M
0 4 L
-4 0 M
4 0 L
-2.828 -2.828 M
2.828 2.828 L
-2.828 2.828 M
2.828 -2.828 L
S
GR
GS
[0.75 0 0 0.75 0 -0.25] CT
0 1 1 RC
1 LJ
0.667 LW
N
950.945 172.454 M
950.755 172.292 L
950.999 172.346 L
S
GR
GS
[0.75 0 0 0.75 0 -0.25] CT
0 1 1 RC
1 LJ
0.667 LW
N
954.424 174.116 M
950.755 172.292 L
S
GR
GS
[0.75 0 0 0.75 0 -0.25] CT
0 1 1 RC
1 LJ
0.667 LW
N
1000.04 168.409 M
997.187 157.244 L
991.648 147.14 L
983.769 138.73 L
974.047 132.544 L
963.092 128.97 L
951.593 128.233 L
940.271 130.378 L
929.838 135.272 L
920.951 142.607 L
914.166 151.922 L
909.911 162.631 L
908.453 174.061 L
909.884 185.496 L
914.113 196.215 L
920.875 205.545 L
929.746 212.901 L
940.166 217.82 L
951.483 219.993 L
962.985 219.283 L
973.948 215.735 L
983.685 209.572 L
991.583 201.182 L
997.147 191.09 L
1000.026 179.932 L
1000.04 168.409 L
S
GR
GS
[0.75 0 0 0.75 719.98549 134.50587] CT
0 1 1 RC
10.0 ML
0.667 LW
N
0 -4 M
0 4 L
-4 0 M
4 0 L
-2.828 -2.828 M
2.828 2.828 L
-2.828 2.828 M
2.828 -2.828 L
S
GR
GS
[0.75 0 0 0.75 0 -0.25] CT
0 0 1 RC
1 LJ
0.667 LW
N
956.502 178.013 M
956.312 177.851 L
956.555 177.904 L
S
GR
GS
[0.75 0 0 0.75 0 -0.25] CT
0 0 1 RC
1 LJ
0.667 LW
N
959.981 179.674 M
956.312 177.851 L
S
GR
GS
[0.75 0 0 0.75 0 -0.25] CT
0 0 1 RC
1 LJ
10.667 LW
N
1005.418 172.689 M
1002.253 161.609 L
996.432 151.663 L
988.321 143.478 L
978.429 137.568 L
967.378 134.303 L
955.862 133.889 L
944.605 136.351 L
934.314 141.536 L
925.635 149.118 L
919.115 158.619 L
915.163 169.443 L
914.026 180.91 L
915.777 192.3 L
920.306 202.896 L
927.327 212.033 L
936.401 219.137 L
946.955 223.761 L
958.329 225.616 L
969.806 224.583 L
980.665 220.729 L
990.225 214.295 L
997.885 205.686 L
1003.163 195.442 L
1005.727 184.208 L
1005.418 172.689 L
S
GR
GS
[0.75 0 0 0.75 745.74261 160.2616] CT
0 0 1 RC
10.0 ML
0.667 LW
N
0 -4 M
0 4 L
-4 0 M
4 0 L
-2.828 -2.828 M
2.828 2.828 L
-2.828 2.828 M
2.828 -2.828 L
S
GR
GS
[0.75 0 0 0.75 0 -0.25] CT
0 0 1 RC
1 LJ
0.667 LW
N
990.844 212.354 M
990.655 212.192 L
990.898 212.245 L
S
GR
GS
[0.75 0 0 0.75 0 -0.25] CT
0 0 1 RC
1 LJ
0.667 LW
N
994.323 214.015 M
990.655 212.192 L
S
GR
GS
[0.75 0 0 0.75 0 -0.25] CT
0 0 1 RC
1 LJ
10.667 LW
N
1039.929 208.231 M
1037.058 197.071 L
1031.501 186.976 L
1023.609 178.58 L
1013.876 172.41 L
1002.915 168.855 L
991.414 168.137 L
980.096 170.302 L
969.672 175.213 L
960.797 182.563 L
954.028 191.889 L
949.791 202.605 L
948.353 214.038 L
949.803 225.47 L
954.05 236.182 L
960.828 245.501 L
969.71 252.842 L
980.139 257.743 L
991.46 259.897 L
1002.96 259.168 L
1013.917 255.602 L
1023.644 249.422 L
1031.528 241.018 L
1037.074 230.917 L
1039.935 219.755 L
1039.929 208.231 L
S
GR
GS
[0.75 0 0 0.75 715.8007 130.3195] CT
0 1 1 RC
10.0 ML
0.667 LW
N
0 -4 M
0 4 L
-4 0 M
4 0 L
-2.828 -2.828 M
2.828 2.828 L
-2.828 2.828 M
2.828 -2.828 L
S
GR
GS
[0.75 0 0 0.75 0 -0.25] CT
0 1 1 RC
1 LJ
0.667 LW
N
950.922 172.431 M
950.732 172.269 L
950.976 172.322 L
S
GR
GS
[0.75 0 0 0.75 0 -0.25] CT
0 1 1 RC
1 LJ
0.667 LW
N
954.401 174.093 M
950.732 172.269 L
S
GR
GS
[0.75 0 0 0.75 0 -0.25] CT
0 1 1 RC
1 LJ
0.667 LW
N
1000.016 168.382 M
997.163 157.218 L
991.622 147.113 L
983.744 138.704 L
974.021 132.519 L
963.066 128.946 L
951.566 128.209 L
940.244 130.356 L
929.812 135.251 L
920.925 142.586 L
914.141 151.901 L
909.887 162.61 L
908.43 174.041 L
909.862 185.475 L
914.092 196.194 L
920.854 205.524 L
929.725 212.88 L
940.146 217.798 L
951.463 219.97 L
962.964 219.259 L
973.928 215.71 L
983.664 209.547 L
991.562 201.155 L
997.125 191.064 L
1000.003 179.905 L
1000.016 168.382 L
S
GR
GS
[0.75 0 0 0.75 715.68993 130.21031] CT
0 1 1 RC
10.0 ML
0.667 LW
N
0 -4 M
0 4 L
-4 0 M
4 0 L
-2.828 -2.828 M
2.828 2.828 L
-2.828 2.828 M
2.828 -2.828 L
S
GR
GS
[0.75 0 0 0.75 0 -0.25] CT
0 1 1 RC
1 LJ
0.667 LW
N
950.774 172.285 M
950.584 172.123 L
950.828 172.177 L
S
GR
GS
[0.75 0 0 0.75 0 -0.25] CT
0 1 1 RC
1 LJ
0.667 LW
N
954.253 173.947 M
950.584 172.123 L
S
GR
GS
[0.75 0 0 0.75 0 -0.25] CT
0 1 1 RC
1 LJ
0.667 LW
N
999.867 168.232 M
997.013 157.068 L
991.472 146.964 L
983.592 138.556 L
973.869 132.371 L
962.914 128.799 L
951.414 128.064 L
940.092 130.212 L
929.661 135.107 L
920.774 142.444 L
913.991 151.759 L
909.738 162.469 L
908.282 173.9 L
909.715 185.334 L
913.946 196.052 L
920.71 205.382 L
929.581 212.736 L
940.003 217.653 L
951.32 219.824 L
962.821 219.113 L
973.784 215.563 L
983.52 209.398 L
991.417 201.006 L
996.979 190.914 L
999.856 179.755 L
999.867 168.232 L
S
GR
GS
[0.75 0 0 0.75 655.16341 159.46021] CT
0 0 1 RC
10.0 ML
0.667 LW
N
0 -4 M
0 4 L
-4 0 M
4 0 L
-2.828 -2.828 M
2.828 2.828 L
-2.828 2.828 M
2.828 -2.828 L
S
GR
GS
[0.75 0 0 0.75 0 -0.25] CT
0 0 1 RC
1 LJ
0.667 LW
N
870.072 211.285 M
869.882 211.123 L
870.126 211.177 L
S
GR
GS
[0.75 0 0 0.75 0 -0.25] CT
0 0 1 RC
1 LJ
0.667 LW
N
873.551 212.947 M
869.882 211.123 L
S
GR
GS
[0.75 0 0 0.75 0 -0.25] CT
0 0 1 RC
1 LJ
10.667 LW
N
880.009 258.462 M
868.487 258.638 L
857.283 255.943 L
847.102 250.547 L
838.582 242.788 L
832.26 233.154 L
828.532 222.25 L
827.632 210.762 L
829.618 199.411 L
834.365 188.911 L
841.574 179.92 L
850.792 173.006 L
861.44 168.6 L
872.849 166.981 L
884.302 168.251 L
895.08 172.329 L
904.505 178.959 L
911.985 187.724 L
917.05 198.075 L
919.382 209.36 L
918.834 220.87 L
915.441 231.882 L
909.416 241.705 L
901.137 249.721 L
891.125 255.426 L
880.009 258.462 L
S
GR
GS
[0.75 0 0 0.75 715.81801 130.33709] CT
0 1 1 RC
10.0 ML
0.667 LW
N
0 -4 M
0 4 L
-4 0 M
4 0 L
-2.828 -2.828 M
2.828 2.828 L
-2.828 2.828 M
2.828 -2.828 L
S
GR
GS
[0.75 0 0 0.75 0 -0.25] CT
0 1 1 RC
1 LJ
0.667 LW
N
950.945 172.454 M
950.755 172.292 L
950.999 172.346 L
S
GR
GS
[0.75 0 0 0.75 0 -0.25] CT
0 1 1 RC
1 LJ
0.667 LW
N
954.424 174.116 M
950.755 172.292 L
S
GR
GS
[0.75 0 0 0.75 0 -0.25] CT
0 1 1 RC
1 LJ
0.667 LW
N
1000.04 168.418 M
997.19 157.252 L
991.653 147.147 L
983.776 138.736 L
974.055 132.548 L
963.101 128.972 L
951.601 128.232 L
940.279 130.376 L
929.845 135.268 L
920.956 142.6 L
914.17 151.914 L
909.913 162.622 L
908.453 174.052 L
909.882 185.487 L
914.109 196.207 L
920.869 205.539 L
929.738 212.896 L
940.158 217.817 L
951.474 219.992 L
962.976 219.285 L
973.94 215.739 L
983.678 209.578 L
991.578 201.189 L
997.143 191.098 L
1000.024 179.941 L
1000.04 168.418 L
S
GR
GS
[0.75 0 0 0.75 685.90242 190.18217] CT
0 0 1 RC
10.0 ML
0.667 LW
N
0 -4 M
0 4 L
-4 0 M
4 0 L
-2.828 -2.828 M
2.828 2.828 L
-2.828 2.828 M
2.828 -2.828 L
S
GR
GS
[0.75 0 0 0.75 0 -0.25] CT
0 0 1 RC
1 LJ
0.667 LW
N
911.057 252.248 M
910.868 252.086 L
911.111 252.139 L
S
GR
GS
[0.75 0 0 0.75 0 -0.25] CT
0 0 1 RC
1 LJ
0.667 LW
N
914.537 253.91 M
910.868 252.086 L
S
GR
GS
[0.75 0 0 0.75 0 -0.25] CT
0 0 1 RC
1 LJ
10.667 LW
N
960.052 247.452 M
957.016 236.336 L
951.311 226.324 L
943.295 218.045 L
933.473 212.02 L
922.46 208.627 L
910.95 208.079 L
899.665 210.411 L
889.314 215.476 L
880.549 222.956 L
873.919 232.381 L
869.841 243.158 L
868.571 254.611 L
870.19 266.021 L
874.595 276.669 L
881.51 285.887 L
890.5 293.096 L
901 297.842 L
912.351 299.828 L
923.839 298.929 L
934.743 295.202 L
944.377 288.879 L
952.136 280.36 L
957.533 270.178 L
960.228 258.974 L
960.052 247.452 L
S
GR
GS
[0.75 0 0 0.75 660.14401 164.42699] CT
0 0 1 RC
10.0 ML
0.667 LW
N
0 -4 M
0 4 L
-4 0 M
4 0 L
-2.828 -2.828 M
2.828 2.828 L
-2.828 2.828 M
2.828 -2.828 L
S
GR
GS
[0.75 0 0 0.75 0 -0.25] CT
0 0 1 RC
1 LJ
0.667 LW
N
876.713 217.907 M
876.523 217.745 L
876.767 217.799 L
S
GR
GS
[0.75 0 0 0.75 0 -0.25] CT
0 0 1 RC
1 LJ
0.667 LW
N
880.192 219.569 M
876.523 217.745 L
S
GR
GS
[0.75 0 0 0.75 0 -0.25] CT
0 0 1 RC
1 LJ
10.667 LW
N
925.634 212.619 M
922.478 201.536 L
916.665 191.587 L
908.56 183.395 L
898.673 177.477 L
887.624 174.203 L
876.109 173.78 L
864.85 176.234 L
854.555 181.411 L
845.871 188.986 L
839.343 198.482 L
835.382 209.303 L
834.237 220.769 L
835.979 232.16 L
840.499 242.76 L
847.514 251.903 L
856.581 259.014 L
867.132 263.646 L
878.504 265.509 L
889.982 264.486 L
900.845 260.64 L
910.41 254.213 L
918.076 245.61 L
923.362 235.371 L
925.935 224.138 L
925.634 212.619 L
S
GR
GS
[0.75 0 0 0.75 715.82025 130.33427] CT
0 0 1 RC
10.0 ML
0.667 LW
N
0 -4 M
0 4 L
-4 0 M
4 0 L
-2.828 -2.828 M
2.828 2.828 L
-2.828 2.828 M
2.828 -2.828 L
S
GR
GS
[0.75 0 0 0.75 0 -0.25] CT
0 0 1 RC
1 LJ
0.667 LW
N
950.948 172.451 M
950.758 172.289 L
951.002 172.342 L
S
GR
GS
[0.75 0 0 0.75 0 -0.25] CT
0 0 1 RC
1 LJ
0.667 LW
N
954.427 174.112 M
950.758 172.289 L
S
GR
GS
[0.75 0 0 0.75 0 -0.25] CT
0 0 1 RC
1 LJ
10.667 LW
N
999.96 167.784 M
996.956 156.659 L
991.279 146.631 L
983.287 138.329 L
973.482 132.276 L
962.479 128.852 L
950.97 128.272 L
939.679 130.572 L
929.314 135.607 L
920.527 143.062 L
913.87 152.469 L
909.762 163.235 L
908.46 174.684 L
910.046 186.098 L
914.421 196.758 L
921.31 205.996 L
930.279 213.23 L
940.766 218.007 L
952.111 220.025 L
963.602 219.158 L
974.516 215.461 L
984.168 209.166 L
991.951 200.669 L
997.377 190.502 L
1000.104 179.306 L
999.96 167.784 L
S
GR
GS
[0.75 0 0 0.75 0 -0.25] CT
1 GC
N
/f2083693190{1481 177 M
1481 83 L
1288 83 L
1288 177 L
cp}def
f2083693190
f
GR
GS
[0.75 0 0 0.75 1001.25 77.66666] CT
/Helvetica-Bold 30 F
GS
[1 0 0 1 0 0] CT
0 12 moveto 
1 -1 scale
(LandMark) t 
GR
GR
GS
[0.75 0 0 0.75 984 77.66666] CT
1 0 0 RC
N
/f-1214359511{0 -19.995 M
-17.316 9.998 L
17.316 9.998 L
cp}def
f-1214359511
f
GR
GS
[0.75 0 0 0.75 984 77.66666] CT
0 0 1 RC
10.0 ML
0.667 LW
N
0 -19.995 M
-17.316 9.998 L
17.316 9.998 L
cp
S
GR
GS
[0.75 0 0 0.75 1001.25 115.25] CT
/Helvetica-Bold 30 F
GS
[1 0 0 1 0 0] CT
0 0 moveto 
1 -1 scale
(b[X) t 
GR
GR
GS
[0.75 0 0 0.75 1038 126.5] CT
/Helvetica-Bold 24 F
GS
[1 0 0 1 0 0] CT
0 0 moveto 
1 -1 scale
(k) t 
GR
GR
GS
[0.75 0 0 0.75 1048.5 115.25] CT
/Helvetica-Bold 30 F
GS
[1 0 0 1 0 0] CT
0 0 moveto 
1 -1 scale
(]) t 
GR
GR
GS
[0.75 0 0 0.75 0 -0.25] CT
0 0 1 RC
1 LJ
10.667 LW
N
1292 149.148 M
1332 149.148 L
S
GR
GS
[0.75 0 0 0.75 0 -0.25] CT
0.149 GC
10.0 ML
0.667 LW
N
1288 177 M
1288 83 L
1481 83 L
1481 177 L
cp
S
GR
%%Trailer
%%Pages: 1
%%EOF
