%!PS-Adobe-3.0 EPSF-3.0
%%Creator: (MATLAB, The Mathworks, Inc. Version 9.10.0.1649659 \(R2021a\) Update 1. Operating System: Windows 10)
%%Title: C:/Users/ohads/ANPL/Code/da_bsp_future_smoothing/TestCases/ChosenTestCase/TestCases_56/Figures/Robots_estimation_k_4.eps
%%CreationDate: 2021-07-05T23:43:14
%%Pages: (atend)
%%BoundingBox:    25     6   379   293
%%LanguageLevel: 3
%%EndComments
%%BeginProlog
%%BeginResource: procset (Apache XML Graphics Std ProcSet) 1.2 0
%%Version: 1.2 0
%%Copyright: (Copyright 2001-2003,2010 The Apache Software Foundation. License terms: http://www.apache.org/licenses/LICENSE-2.0)
/bd{bind def}bind def
/ld{load def}bd
/GR/grestore ld
/GS/gsave ld
/RM/rmoveto ld
/C/curveto ld
/t/show ld
/L/lineto ld
/ML/setmiterlimit ld
/CT/concat ld
/f/fill ld
/N/newpath ld
/S/stroke ld
/CC/setcmykcolor ld
/A/ashow ld
/cp/closepath ld
/RC/setrgbcolor ld
/LJ/setlinejoin ld
/GC/setgray ld
/LW/setlinewidth ld
/M/moveto ld
/re {4 2 roll M
1 index 0 rlineto
0 exch rlineto
neg 0 rlineto
cp } bd
/_ctm matrix def
/_tm matrix def
/BT { _ctm currentmatrix pop matrix _tm copy pop 0 0 moveto } bd
/ET { _ctm setmatrix } bd
/iTm { _ctm setmatrix _tm concat } bd
/Tm { _tm astore pop iTm 0 0 moveto } bd
/ux 0.0 def
/uy 0.0 def
/F {
  /Tp exch def
  /Tf exch def
  Tf findfont Tp scalefont setfont
  /cf Tf def  /cs Tp def
} bd
/ULS {currentpoint /uy exch def /ux exch def} bd
/ULE {
  /Tcx currentpoint pop def
  gsave
  newpath
  cf findfont cs scalefont dup
  /FontMatrix get 0 get /Ts exch def /FontInfo get dup
  /UnderlinePosition get Ts mul /To exch def
  /UnderlineThickness get Ts mul /Tt exch def
  ux uy To add moveto  Tcx uy To add lineto
  Tt setlinewidth stroke
  grestore
} bd
/OLE {
  /Tcx currentpoint pop def
  gsave
  newpath
  cf findfont cs scalefont dup
  /FontMatrix get 0 get /Ts exch def /FontInfo get dup
  /UnderlinePosition get Ts mul /To exch def
  /UnderlineThickness get Ts mul /Tt exch def
  ux uy To add cs add moveto Tcx uy To add cs add lineto
  Tt setlinewidth stroke
  grestore
} bd
/SOE {
  /Tcx currentpoint pop def
  gsave
  newpath
  cf findfont cs scalefont dup
  /FontMatrix get 0 get /Ts exch def /FontInfo get dup
  /UnderlinePosition get Ts mul /To exch def
  /UnderlineThickness get Ts mul /Tt exch def
  ux uy To add cs 10 mul 26 idiv add moveto Tcx uy To add cs 10 mul 26 idiv add lineto
  Tt setlinewidth stroke
  grestore
} bd
/QT {
/Y22 exch store
/X22 exch store
/Y21 exch store
/X21 exch store
currentpoint
/Y21 load 2 mul add 3 div exch
/X21 load 2 mul add 3 div exch
/X21 load 2 mul /X22 load add 3 div
/Y21 load 2 mul /Y22 load add 3 div
/X22 load /Y22 load curveto
} bd
/SSPD {
dup length /d exch dict def
{
/v exch def
/k exch def
currentpagedevice k known {
/cpdv currentpagedevice k get def
v cpdv ne {
/upd false def
/nullv v type /nulltype eq def
/nullcpdv cpdv type /nulltype eq def
nullv nullcpdv or
{
/upd true def
} {
/sametype v type cpdv type eq def
sametype {
v type /arraytype eq {
/vlen v length def
/cpdvlen cpdv length def
vlen cpdvlen eq {
0 1 vlen 1 sub {
/i exch def
/obj v i get def
/cpdobj cpdv i get def
obj cpdobj ne {
/upd true def
exit
} if
} for
} {
/upd true def
} ifelse
} {
v type /dicttype eq {
v {
/dv exch def
/dk exch def
/cpddv cpdv dk get def
dv cpddv ne {
/upd true def
exit
} if
} forall
} {
/upd true def
} ifelse
} ifelse
} if
} ifelse
upd true eq {
d k v put
} if
} if
} if
} forall
d length 0 gt {
d setpagedevice
} if
} bd
/RE { % /NewFontName [NewEncodingArray] /FontName RE -
  findfont dup length dict begin
  {
    1 index /FID ne
    {def} {pop pop} ifelse
  } forall
  /Encoding exch def
  /FontName 1 index def
  currentdict definefont pop
  end
} bind def
%%EndResource
%%BeginResource: procset (Apache XML Graphics EPS ProcSet) 1.0 0
%%Version: 1.0 0
%%Copyright: (Copyright 2002-2003 The Apache Software Foundation. License terms: http://www.apache.org/licenses/LICENSE-2.0)
/BeginEPSF { %def
/b4_Inc_state save def         % Save state for cleanup
/dict_count countdictstack def % Count objects on dict stack
/op_count count 1 sub def      % Count objects on operand stack
userdict begin                 % Push userdict on dict stack
/showpage { } def              % Redefine showpage, { } = null proc
0 setgray 0 setlinecap         % Prepare graphics state
1 setlinewidth 0 setlinejoin
10 setmiterlimit [ ] 0 setdash newpath
/languagelevel where           % If level not equal to 1 then
{pop languagelevel             % set strokeadjust and
1 ne                           % overprint to their defaults.
{false setstrokeadjust false setoverprint
} if
} if
} bd
/EndEPSF { %def
count op_count sub {pop} repeat            % Clean up stacks
countdictstack dict_count sub {end} repeat
b4_Inc_state restore
} bd
%%EndResource
%FOPBeginFontDict
%%IncludeResource: font Courier-Oblique
%%IncludeResource: font Courier-BoldOblique
%%IncludeResource: font Courier-Bold
%%IncludeResource: font ZapfDingbats
%%IncludeResource: font Symbol
%%IncludeResource: font Helvetica
%%IncludeResource: font Helvetica-Oblique
%%IncludeResource: font Helvetica-Bold
%%IncludeResource: font Helvetica-BoldOblique
%%IncludeResource: font Times-Roman
%%IncludeResource: font Times-Italic
%%IncludeResource: font Times-Bold
%%IncludeResource: font Times-BoldItalic
%%IncludeResource: font Courier
%FOPEndFontDict
%%BeginResource: encoding WinAnsiEncoding
/WinAnsiEncoding [
/.notdef /.notdef /.notdef /.notdef /.notdef
/.notdef /.notdef /.notdef /.notdef /.notdef
/.notdef /.notdef /.notdef /.notdef /.notdef
/.notdef /.notdef /.notdef /.notdef /.notdef
/.notdef /.notdef /.notdef /.notdef /.notdef
/.notdef /.notdef /.notdef /.notdef /.notdef
/.notdef /.notdef /space /exclam /quotedbl
/numbersign /dollar /percent /ampersand /quotesingle
/parenleft /parenright /asterisk /plus /comma
/hyphen /period /slash /zero /one
/two /three /four /five /six
/seven /eight /nine /colon /semicolon
/less /equal /greater /question /at
/A /B /C /D /E
/F /G /H /I /J
/K /L /M /N /O
/P /Q /R /S /T
/U /V /W /X /Y
/Z /bracketleft /backslash /bracketright /asciicircum
/underscore /quoteleft /a /b /c
/d /e /f /g /h
/i /j /k /l /m
/n /o /p /q /r
/s /t /u /v /w
/x /y /z /braceleft /bar
/braceright /asciitilde /bullet /Euro /bullet
/quotesinglbase /florin /quotedblbase /ellipsis /dagger
/daggerdbl /circumflex /perthousand /Scaron /guilsinglleft
/OE /bullet /Zcaron /bullet /bullet
/quoteleft /quoteright /quotedblleft /quotedblright /bullet
/endash /emdash /asciitilde /trademark /scaron
/guilsinglright /oe /bullet /zcaron /Ydieresis
/space /exclamdown /cent /sterling /currency
/yen /brokenbar /section /dieresis /copyright
/ordfeminine /guillemotleft /logicalnot /sfthyphen /registered
/macron /degree /plusminus /twosuperior /threesuperior
/acute /mu /paragraph /middot /cedilla
/onesuperior /ordmasculine /guillemotright /onequarter /onehalf
/threequarters /questiondown /Agrave /Aacute /Acircumflex
/Atilde /Adieresis /Aring /AE /Ccedilla
/Egrave /Eacute /Ecircumflex /Edieresis /Igrave
/Iacute /Icircumflex /Idieresis /Eth /Ntilde
/Ograve /Oacute /Ocircumflex /Otilde /Odieresis
/multiply /Oslash /Ugrave /Uacute /Ucircumflex
/Udieresis /Yacute /Thorn /germandbls /agrave
/aacute /acircumflex /atilde /adieresis /aring
/ae /ccedilla /egrave /eacute /ecircumflex
/edieresis /igrave /iacute /icircumflex /idieresis
/eth /ntilde /ograve /oacute /ocircumflex
/otilde /odieresis /divide /oslash /ugrave
/uacute /ucircumflex /udieresis /yacute /thorn
/ydieresis
] def
%%EndResource
%FOPBeginFontReencode
/Courier-Oblique findfont
dup length dict begin
  {1 index /FID ne {def} {pop pop} ifelse} forall
  /Encoding WinAnsiEncoding def
  currentdict
end
/Courier-Oblique exch definefont pop
/Courier-BoldOblique findfont
dup length dict begin
  {1 index /FID ne {def} {pop pop} ifelse} forall
  /Encoding WinAnsiEncoding def
  currentdict
end
/Courier-BoldOblique exch definefont pop
/Courier-Bold findfont
dup length dict begin
  {1 index /FID ne {def} {pop pop} ifelse} forall
  /Encoding WinAnsiEncoding def
  currentdict
end
/Courier-Bold exch definefont pop
/Helvetica findfont
dup length dict begin
  {1 index /FID ne {def} {pop pop} ifelse} forall
  /Encoding WinAnsiEncoding def
  currentdict
end
/Helvetica exch definefont pop
/Helvetica-Oblique findfont
dup length dict begin
  {1 index /FID ne {def} {pop pop} ifelse} forall
  /Encoding WinAnsiEncoding def
  currentdict
end
/Helvetica-Oblique exch definefont pop
/Helvetica-Bold findfont
dup length dict begin
  {1 index /FID ne {def} {pop pop} ifelse} forall
  /Encoding WinAnsiEncoding def
  currentdict
end
/Helvetica-Bold exch definefont pop
/Helvetica-BoldOblique findfont
dup length dict begin
  {1 index /FID ne {def} {pop pop} ifelse} forall
  /Encoding WinAnsiEncoding def
  currentdict
end
/Helvetica-BoldOblique exch definefont pop
/Times-Roman findfont
dup length dict begin
  {1 index /FID ne {def} {pop pop} ifelse} forall
  /Encoding WinAnsiEncoding def
  currentdict
end
/Times-Roman exch definefont pop
/Times-Italic findfont
dup length dict begin
  {1 index /FID ne {def} {pop pop} ifelse} forall
  /Encoding WinAnsiEncoding def
  currentdict
end
/Times-Italic exch definefont pop
/Times-Bold findfont
dup length dict begin
  {1 index /FID ne {def} {pop pop} ifelse} forall
  /Encoding WinAnsiEncoding def
  currentdict
end
/Times-Bold exch definefont pop
/Times-BoldItalic findfont
dup length dict begin
  {1 index /FID ne {def} {pop pop} ifelse} forall
  /Encoding WinAnsiEncoding def
  currentdict
end
/Times-BoldItalic exch definefont pop
/Courier findfont
dup length dict begin
  {1 index /FID ne {def} {pop pop} ifelse} forall
  /Encoding WinAnsiEncoding def
  currentdict
end
/Courier exch definefont pop
%FOPEndFontReencode
%%EndProlog
%%Page: 1 1
%%PageBoundingBox: 0 0 428 315
%%BeginPageSetup
[1 0 0 -1 0 315] CT
%%EndPageSetup
GS
[0.75 0 0 0.75 0 0] CT
1 GC
N
0 0 570 420 re
f
GR
GS
[0.75 0 0 0.75 0 0] CT
1 GC
N
0 0 570 420 re
f
GR
GS
[0.75 0 0 0.75 0 0] CT
1 GC
N
121.155 321 M
488.845 321 L
488.845 31 L
121.155 31 L
cp
f
GR
GS
[0.75 0 0 0.75 0 0] CT
0.149 GC
2 setlinecap
1 LJ
0.667 LW
N
121.155 321 M
488.845 321 L
S
GR
GS
[0.75 0 0 0.75 0 0] CT
0.149 GC
2 setlinecap
1 LJ
0.667 LW
N
121.155 321 M
121.155 317.323 L
S
GR
GS
[0.75 0 0 0.75 0 0] CT
0.149 GC
2 setlinecap
1 LJ
0.667 LW
N
213.078 321 M
213.078 317.323 L
S
GR
GS
[0.75 0 0 0.75 0 0] CT
0.149 GC
2 setlinecap
1 LJ
0.667 LW
N
305 321 M
305 317.323 L
S
GR
GS
[0.75 0 0 0.75 0 0] CT
0.149 GC
2 setlinecap
1 LJ
0.667 LW
N
396.922 321 M
396.922 317.323 L
S
GR
GS
[0.75 0 0 0.75 0 0] CT
0.149 GC
2 setlinecap
1 LJ
0.667 LW
N
488.845 321 M
488.845 317.323 L
S
GR
GS
[0.75 0 0 0.75 90.86656 247.75001] CT
0.149 GC
/Helvetica 33.333 F
GS
[1 0 0 1 0 0] CT
-15 34 moveto 
1 -1 scale
(-5) t 
GR
GR
GS
[0.75 0 0 0.75 159.80828 247.75001] CT
0.149 GC
/Helvetica 33.333 F
GS
[1 0 0 1 0 0] CT
-9.5 34 moveto 
1 -1 scale
(0) t 
GR
GR
GS
[0.75 0 0 0.75 228.75 247.75001] CT
0.149 GC
/Helvetica 33.333 F
GS
[1 0 0 1 0 0] CT
-9.5 34 moveto 
1 -1 scale
(5) t 
GR
GR
GS
[0.75 0 0 0.75 297.69173 247.75001] CT
0.149 GC
/Helvetica 33.333 F
GS
[1 0 0 1 0 0] CT
-19 34 moveto 
1 -1 scale
(10) t 
GR
GR
GS
[0.75 0 0 0.75 366.63343 247.75001] CT
0.149 GC
/Helvetica 33.333 F
GS
[1 0 0 1 0 0] CT
-19 34 moveto 
1 -1 scale
(15) t 
GR
GR
GS
[0.75 0 0 0.75 228.75014 280.24999] CT
0.149 GC
/Helvetica 36.667 F
GS
[1 0 0 1 0 0] CT
-21.5 37 moveto 
1 -1 scale
(Xs) t 
GR
GR
GS
[0.75 0 0 0.75 0 0] CT
0.149 GC
2 setlinecap
1 LJ
0.667 LW
N
121.155 321 M
121.155 31 L
S
GR
GS
[0.75 0 0 0.75 0 0] CT
0.149 GC
2 setlinecap
1 LJ
0.667 LW
N
121.155 290.813 M
124.832 290.813 L
S
GR
GS
[0.75 0 0 0.75 0 0] CT
0.149 GC
2 setlinecap
1 LJ
0.667 LW
N
121.155 198.891 M
124.832 198.891 L
S
GR
GS
[0.75 0 0 0.75 0 0] CT
0.149 GC
2 setlinecap
1 LJ
0.667 LW
N
121.155 106.969 M
124.832 106.969 L
S
GR
GS
[0.75 0 0 0.75 83.86656 218.11011] CT
0.149 GC
/Helvetica 33.333 F
GS
[1 0 0 1 0 0] CT
-19 13 moveto 
1 -1 scale
(0) t 
GR
GR
GS
[0.75 0 0 0.75 83.86656 149.16838] CT
0.149 GC
/Helvetica 33.333 F
GS
[1 0 0 1 0 0] CT
-19 13 moveto 
1 -1 scale
(5) t 
GR
GR
GS
[0.75 0 0 0.75 83.86656 80.22667] CT
0.149 GC
/Helvetica 33.333 F
GS
[1 0 0 1 0 0] CT
-38 13 moveto 
1 -1 scale
(10) t 
GR
GR
GS
[0 -0.75 0.75 0 52.36657 131.9999] CT
0.149 GC
/Helvetica 36.667 F
GS
[1 0 0 1 0 0] CT
-21.5 -9 moveto 
1 -1 scale
(Ys) t 
GR
GR
GS
[0.75 0 0 0.75 214.96165 121.5917] CT
1 0 0 RC
N
0 -26.66 M
-23.088 13.33 L
23.088 13.33 L
cp
f
GR
GS
[0.75 0 0 0.75 214.96165 121.5917] CT
0 0 1 RC
10.0 ML
0.667 LW
N
0 -26.66 M
-23.088 13.33 L
23.088 13.33 L
cp
S
GR
GS
[0.75 0 0 0.75 201.17331 107.80336] CT
1 0 0 RC
N
/f-1996900118{0 -26.66 M
-23.088 13.33 L
23.088 13.33 L
cp}def
f-1996900118
f
GR
GS
[0.75 0 0 0.75 201.17331 107.80336] CT
0 0 1 RC
10.0 ML
0.667 LW
N
0 -26.66 M
-23.088 13.33 L
23.088 13.33 L
cp
S
GR
GS
[0.75 0 0 0.75 256.32669 121.5917] CT
1 0 0 RC
N
f-1996900118
f
GR
GS
[0.75 0 0 0.75 256.32669 121.5917] CT
0 0 1 RC
10.0 ML
0.667 LW
N
0 -26.66 M
-23.088 13.33 L
23.088 13.33 L
cp
S
GR
GS
[0.75 0 0 0.75 228.75 176.74507] CT
1 0 0 RC
N
f-1996900118
f
GR
GS
[0.75 0 0 0.75 228.75 176.74507] CT
0 0 1 RC
10.0 ML
0.667 LW
N
0 -26.66 M
-23.088 13.33 L
23.088 13.33 L
cp
S
GR
GS
[0.75 0 0 0.75 228.75 94.01501] CT
1 0 0 RC
N
f-1996900118
f
GR
GS
[0.75 0 0 0.75 228.75 94.01501] CT
0 0 1 RC
10.0 ML
0.667 LW
N
0 -26.66 M
-23.088 13.33 L
23.088 13.33 L
cp
S
GR
GS
[0.75 0 0 0.75 214.96165 149.16838] CT
1 0 0 RC
N
f-1996900118
f
GR
GS
[0.75 0 0 0.75 214.96165 149.16838] CT
0 0 1 RC
10.0 ML
0.667 LW
N
0 -26.66 M
-23.088 13.33 L
23.088 13.33 L
cp
S
GR
GS
[0.75 0 0 0.75 270.11504 176.74507] CT
1 0 0 RC
N
f-1996900118
f
GR
GS
[0.75 0 0 0.75 270.11504 176.74507] CT
0 0 1 RC
10.0 ML
0.667 LW
N
0 -26.66 M
-23.088 13.33 L
23.088 13.33 L
cp
S
GR
GS
[0.75 0 0 0.75 242.53835 107.80336] CT
1 0 0 RC
N
f-1996900118
f
GR
GS
[0.75 0 0 0.75 242.53835 107.80336] CT
0 0 1 RC
10.0 ML
0.667 LW
N
0 -26.66 M
-23.088 13.33 L
23.088 13.33 L
cp
S
GR
GS
[0.75 0 0 0.75 252.12568 120.82068] CT
1 0 0 RC
10.0 ML
0.667 LW
N
0 -5 M
0 5 L
-5 0 M
5 0 L
S
GR
GS
[0.75 0 0 0.75 254.58002 132.19288] CT
0 1 1 RC
10.0 ML
0.667 LW
N
0 -4 M
0 4 L
-4 0 M
4 0 L
-2.828 -2.828 M
2.828 2.828 L
-2.828 2.828 M
2.828 -2.828 L
S
GR
GS
[0.75 0 0 0.75 0 0] CT
0 1 1 RC
1 LJ
0.667 LW
N
340.886 175.295 M
340.985 175.261 L
340.913 175.338 L
S
GR
GS
[0.75 0 0 0.75 0 0] CT
0 1 1 RC
1 LJ
0.667 LW
N
339.44 176.257 M
340.985 175.261 L
S
GR
GS
[0.75 0 0 0.75 0 0] CT
0 1 1 RC
1 LJ
0.667 LW
N
324.226 176.226 M
324.712 172.443 L
326.123 168.9 L
328.371 165.82 L
331.314 163.395 L
334.768 161.778 L
338.516 161.071 L
342.321 161.318 L
345.946 162.504 L
349.162 164.554 L
351.767 167.34 L
353.597 170.685 L
354.538 174.381 L
354.53 178.195 L
353.574 181.887 L
351.73 185.225 L
349.114 188 L
345.89 190.037 L
342.26 191.208 L
338.454 191.439 L
334.709 190.717 L
331.262 189.086 L
328.328 186.649 L
326.093 183.56 L
324.696 180.011 L
324.226 176.226 L
S
GR
GS
[0.75 0 0 0.75 244.11859 116.10713] CT
0 1 1 RC
10.0 ML
0.667 LW
N
0 -4 M
0 4 L
-4 0 M
4 0 L
-2.828 -2.828 M
2.828 2.828 L
-2.828 2.828 M
2.828 -2.828 L
S
GR
GS
[0.75 0 0 0.75 0 0] CT
0 1 1 RC
1 LJ
0.667 LW
N
326.937 153.847 M
327.037 153.813 L
326.965 153.89 L
S
GR
GS
[0.75 0 0 0.75 0 0] CT
0 1 1 RC
1 LJ
0.667 LW
N
325.491 154.81 M
327.037 153.813 L
S
GR
GS
[0.75 0 0 0.75 0 0] CT
0 1 1 RC
1 LJ
0.667 LW
N
310.277 154.798 M
310.758 151.015 L
312.165 147.47 L
314.408 144.386 L
317.349 141.958 L
320.801 140.336 L
324.547 139.625 L
328.353 139.867 L
331.979 141.048 L
335.198 143.094 L
337.807 145.876 L
339.641 149.219 L
340.587 152.914 L
340.584 156.727 L
339.633 160.421 L
337.793 163.761 L
335.181 166.539 L
331.959 168.581 L
328.331 169.756 L
324.525 169.993 L
320.779 169.276 L
317.33 167.649 L
314.393 165.216 L
312.154 162.129 L
310.752 158.582 L
310.277 154.798 L
S
GR
GS
[0.75 0 0 0.75 255.67548 150.78042] CT
0 1 1 RC
10.0 ML
0.667 LW
N
0 -4 M
0 4 L
-4 0 M
4 0 L
-2.828 -2.828 M
2.828 2.828 L
-2.828 2.828 M
2.828 -2.828 L
S
GR
GS
[0.75 0 0 0.75 0 0] CT
0 1 1 RC
1 LJ
0.667 LW
N
342.346 200.078 M
342.446 200.044 L
342.374 200.121 L
S
GR
GS
[0.75 0 0 0.75 0 0] CT
0 1 1 RC
1 LJ
0.667 LW
N
340.901 201.041 M
342.446 200.044 L
S
GR
GS
[0.75 0 0 0.75 0 0] CT
0 1 1 RC
1 LJ
0.667 LW
N
325.686 201.034 M
326.166 197.251 L
327.571 193.706 L
329.814 190.621 L
332.754 188.191 L
336.205 186.569 L
339.951 185.856 L
343.758 186.097 L
347.384 187.277 L
350.603 189.322 L
353.213 192.103 L
355.049 195.446 L
355.996 199.14 L
355.994 202.954 L
355.044 206.647 L
353.206 209.988 L
350.594 212.767 L
347.373 214.809 L
343.745 215.987 L
339.939 216.224 L
336.193 215.508 L
332.743 213.883 L
329.806 211.451 L
327.565 208.365 L
326.163 204.818 L
325.686 201.034 L
S
GR
GS
[0.75 0 0 0.75 253.80178 125.78866] CT
0 1 1 RC
10.0 ML
0.667 LW
N
0 -4 M
0 4 L
-4 0 M
4 0 L
-2.828 -2.828 M
2.828 2.828 L
-2.828 2.828 M
2.828 -2.828 L
S
GR
GS
[0.75 0 0 0.75 0 0] CT
0 1 1 RC
1 LJ
0.667 LW
N
339.848 166.756 M
339.948 166.722 L
339.876 166.799 L
S
GR
GS
[0.75 0 0 0.75 0 0] CT
0 1 1 RC
1 LJ
0.667 LW
N
338.402 167.718 M
339.948 166.722 L
S
GR
GS
[0.75 0 0 0.75 0 0] CT
0 1 1 RC
1 LJ
0.667 LW
N
323.188 167.709 M
323.668 163.926 L
325.074 160.381 L
327.318 157.297 L
330.258 154.868 L
333.709 153.246 L
337.456 152.533 L
341.262 152.775 L
344.888 153.956 L
348.107 156.001 L
350.716 158.783 L
352.551 162.126 L
353.498 165.82 L
353.496 169.634 L
352.545 173.327 L
350.706 176.668 L
348.093 179.447 L
344.872 181.488 L
341.245 182.665 L
337.438 182.902 L
333.692 182.185 L
330.243 180.559 L
327.306 178.127 L
325.066 175.04 L
323.664 171.493 L
323.188 167.709 L
S
GR
GS
[0.75 0 0 0.75 242.99712 120.5904] CT
0 1 1 RC
10.0 ML
0.667 LW
N
0 -4 M
0 4 L
-4 0 M
4 0 L
-2.828 -2.828 M
2.828 2.828 L
-2.828 2.828 M
2.828 -2.828 L
S
GR
GS
[0.75 0 0 0.75 0 0] CT
0 1 1 RC
1 LJ
0.667 LW
N
325.442 159.825 M
325.541 159.791 L
325.469 159.868 L
S
GR
GS
[0.75 0 0 0.75 0 0] CT
0 1 1 RC
1 LJ
0.667 LW
N
323.996 160.787 M
325.541 159.791 L
S
GR
GS
[0.75 0 0 0.75 0 0] CT
0 1 1 RC
1 LJ
0.667 LW
N
308.782 160.762 M
309.254 164.547 L
310.652 168.095 L
312.888 171.184 L
315.823 173.62 L
319.271 175.249 L
323.016 175.97 L
326.823 175.737 L
330.452 174.564 L
333.675 172.526 L
336.29 169.75 L
338.133 166.411 L
339.087 162.719 L
339.094 158.905 L
338.151 155.21 L
336.319 151.865 L
333.713 149.08 L
330.497 147.032 L
326.872 145.847 L
323.066 145.601 L
319.318 146.31 L
315.865 147.928 L
312.923 150.354 L
310.676 153.436 L
309.266 156.979 L
308.782 160.762 L
S
GR
GS
[0.75 0 0 0.75 240.98655 118.48076] CT
0 1 1 RC
10.0 ML
0.667 LW
N
0 -4 M
0 4 L
-4 0 M
4 0 L
-2.828 -2.828 M
2.828 2.828 L
-2.828 2.828 M
2.828 -2.828 L
S
GR
GS
[0.75 0 0 0.75 0 0] CT
0 1 1 RC
1 LJ
0.667 LW
N
322.761 157.012 M
322.861 156.978 L
322.789 157.055 L
S
GR
GS
[0.75 0 0 0.75 0 0] CT
0 1 1 RC
1 LJ
0.667 LW
N
321.315 157.974 M
322.861 156.978 L
S
GR
GS
[0.75 0 0 0.75 0 0] CT
0 1 1 RC
1 LJ
0.667 LW
N
306.101 157.943 M
306.571 161.728 L
307.968 165.276 L
310.203 168.366 L
313.137 170.803 L
316.584 172.434 L
320.329 173.157 L
324.135 172.925 L
327.765 171.754 L
330.989 169.717 L
333.606 166.942 L
335.45 163.604 L
336.406 159.912 L
336.414 156.099 L
335.473 152.403 L
333.642 149.057 L
331.038 146.272 L
327.822 144.221 L
324.197 143.035 L
320.391 142.788 L
316.644 143.495 L
313.19 145.112 L
310.246 147.537 L
307.998 150.617 L
306.587 154.16 L
306.101 157.943 L
S
GR
GS
[0.75 0 0 0.75 268.17341 104.76873] CT
0 1 1 RC
10.0 ML
0.667 LW
N
0 -4 M
0 4 L
-4 0 M
4 0 L
-2.828 -2.828 M
2.828 2.828 L
-2.828 2.828 M
2.828 -2.828 L
S
GR
GS
[0.75 0 0 0.75 0 0] CT
0 1 1 RC
1 LJ
0.667 LW
N
359.01 138.729 M
359.11 138.695 L
359.038 138.772 L
S
GR
GS
[0.75 0 0 0.75 0 0] CT
0 1 1 RC
1 LJ
0.667 LW
N
357.565 139.692 M
359.11 138.695 L
S
GR
GS
[0.75 0 0 0.75 0 0] CT
0 1 1 RC
1 LJ
0.667 LW
N
342.35 139.66 M
342.836 135.878 L
344.247 132.335 L
346.495 129.254 L
349.439 126.829 L
352.893 125.212 L
356.64 124.505 L
360.446 124.753 L
364.071 125.939 L
367.287 127.989 L
369.892 130.774 L
371.722 134.12 L
372.663 137.816 L
372.655 141.63 L
371.699 145.321 L
369.855 148.66 L
367.238 151.434 L
364.014 153.471 L
360.385 154.642 L
356.578 154.874 L
352.833 154.152 L
349.386 152.521 L
346.452 150.084 L
344.217 146.994 L
342.821 143.445 L
342.35 139.66 L
S
GR
GS
[0.75 0 0 0.75 280.98978 111.6709] CT
0 1 1 RC
10.0 ML
0.667 LW
N
0 -4 M
0 4 L
-4 0 M
4 0 L
-2.828 -2.828 M
2.828 2.828 L
-2.828 2.828 M
2.828 -2.828 L
S
GR
GS
[0.75 0 0 0.75 0 0] CT
0 1 1 RC
1 LJ
0.667 LW
N
376.099 147.932 M
376.198 147.898 L
376.126 147.975 L
S
GR
GS
[0.75 0 0 0.75 0 0] CT
0 1 1 RC
1 LJ
0.667 LW
N
374.653 148.895 M
376.198 147.898 L
S
GR
GS
[0.75 0 0 0.75 0 0] CT
0 1 1 RC
1 LJ
0.667 LW
N
359.439 148.887 M
359.915 152.67 L
361.317 156.217 L
363.557 159.304 L
366.494 161.736 L
369.944 163.362 L
373.69 164.078 L
377.496 163.841 L
381.124 162.664 L
384.345 160.622 L
386.957 157.844 L
388.796 154.503 L
389.746 150.809 L
389.748 146.996 L
388.802 143.301 L
386.966 139.958 L
384.357 137.177 L
381.138 135.132 L
377.512 133.951 L
373.706 133.71 L
369.959 134.422 L
366.508 136.044 L
363.568 138.474 L
361.325 141.558 L
359.919 145.103 L
359.439 148.887 L
S
GR
GS
[0.75 0 0 0.75 252.12568 120.82068] CT
1 0 0 RC
10.0 ML
0.667 LW
N
0 -5 M
0 5 L
-5 0 M
5 0 L
S
GR
GS
[0.75 0 0 0.75 256.46098 119.40518] CT
0 1 0 RC
10.0 ML
0.667 LW
N
0 -4 M
0 4 L
-4 0 M
4 0 L
-2.828 -2.828 M
2.828 2.828 L
-2.828 2.828 M
2.828 -2.828 L
S
GR
GS
[0.75 0 0 0.75 0 0] CT
0 1 0 RC
1 LJ
0.667 LW
N
343.394 158.245 M
343.493 158.211 L
343.421 158.287 L
S
GR
GS
[0.75 0 0 0.75 0 0] CT
0 1 0 RC
1 LJ
0.667 LW
N
341.948 159.207 M
343.493 158.211 L
S
GR
GS
[0.75 0 0 0.75 0 0] CT
0 1 0 RC
1 LJ
0.667 LW
N
335.828 159.285 M
336.039 160.805 L
336.622 162.224 L
337.54 163.454 L
338.735 164.417 L
340.131 165.052 L
341.642 165.32 L
343.172 165.204 L
344.625 164.712 L
345.91 163.873 L
346.945 162.741 L
347.667 161.387 L
348.03 159.896 L
348.01 158.362 L
347.61 156.881 L
346.854 155.546 L
345.789 154.441 L
344.483 153.636 L
343.018 153.18 L
341.486 153.103 L
339.982 153.41 L
338.602 154.081 L
337.433 155.074 L
336.547 156.327 L
336 157.761 L
335.828 159.285 L
S
GR
GS
[0.75 0 0 0.75 256.46086 142.51918] CT
0 0 1 RC
10.0 ML
0.667 LW
N
0 -4 M
0 4 L
-4 0 M
4 0 L
-2.828 -2.828 M
2.828 2.828 L
-2.828 2.828 M
2.828 -2.828 L
S
GR
GS
[0.75 0 0 0.75 0 0] CT
0 0 1 RC
1 LJ
0.667 LW
N
343.393 189.063 M
343.493 189.029 L
343.421 189.106 L
S
GR
GS
[0.75 0 0 0.75 0 0] CT
0 0 1 RC
1 LJ
0.667 LW
N
341.948 190.026 M
343.493 189.029 L
S
GR
GS
[0.75 0 0 0.75 0 0] CT
0 0 1 RC
1 LJ
0.667 LW
N
335.828 190.11 M
336.041 191.629 L
336.625 193.048 L
337.544 194.277 L
338.74 195.238 L
340.137 195.872 L
341.648 196.139 L
343.178 196.022 L
344.63 195.527 L
345.914 194.688 L
346.949 193.555 L
347.669 192.2 L
348.03 190.709 L
348.009 189.175 L
347.607 187.694 L
346.85 186.36 L
345.784 185.256 L
344.477 184.452 L
343.012 183.998 L
341.479 183.923 L
339.976 184.231 L
338.597 184.903 L
337.428 185.897 L
336.544 187.151 L
335.999 188.585 L
335.828 190.11 L
S
GR
GS
[0.75 0 0 0.75 254.59035 117.53514] CT
0 0 1 RC
10.0 ML
0.667 LW
N
0 -4 M
0 4 L
-4 0 M
4 0 L
-2.828 -2.828 M
2.828 2.828 L
-2.828 2.828 M
2.828 -2.828 L
S
GR
GS
[0.75 0 0 0.75 0 0] CT
0 0 1 RC
1 LJ
0.667 LW
N
340.899 155.751 M
340.999 155.717 L
340.927 155.794 L
S
GR
GS
[0.75 0 0 0.75 0 0] CT
0 0 1 RC
1 LJ
0.667 LW
N
339.454 156.714 M
340.999 155.717 L
S
GR
GS
[0.75 0 0 0.75 0 0] CT
0 0 1 RC
1 LJ
0.667 LW
N
333.333 156.768 M
333.512 155.244 L
334.064 153.812 L
334.955 152.563 L
336.128 151.575 L
337.511 150.909 L
339.015 150.608 L
340.548 150.691 L
342.011 151.152 L
343.314 151.963 L
344.374 153.072 L
345.125 154.41 L
345.519 155.893 L
345.533 157.427 L
345.165 158.916 L
344.437 160.267 L
343.397 161.395 L
342.109 162.229 L
340.654 162.716 L
339.123 162.826 L
337.614 162.551 L
336.22 161.91 L
335.029 160.943 L
334.116 159.71 L
333.539 158.288 L
333.333 156.768 L
S
GR
GS
[0.75 0 0 0.75 255.67548 150.78042] CT
0 0 1 RC
10.0 ML
0.667 LW
N
0 -4 M
0 4 L
-4 0 M
4 0 L
-2.828 -2.828 M
2.828 2.828 L
-2.828 2.828 M
2.828 -2.828 L
S
GR
GS
[0.75 0 0 0.75 0 0] CT
0 0 1 RC
1 LJ
0.667 LW
N
342.346 200.078 M
342.446 200.044 L
342.374 200.121 L
S
GR
GS
[0.75 0 0 0.75 0 0] CT
0 0 1 RC
1 LJ
0.667 LW
N
340.901 201.041 M
342.446 200.044 L
S
GR
GS
[0.75 0 0 0.75 0 0] CT
0 0 1 RC
1 LJ
0.667 LW
N
334.78 200.997 M
334.961 202.52 L
335.516 203.951 L
336.409 205.199 L
337.584 206.185 L
338.968 206.848 L
340.473 207.147 L
342.005 207.061 L
343.467 206.597 L
344.768 205.785 L
345.827 204.674 L
346.576 203.334 L
346.968 201.851 L
346.979 200.317 L
346.608 198.828 L
345.878 197.478 L
344.836 196.352 L
343.546 195.521 L
342.091 195.036 L
340.56 194.929 L
339.051 195.206 L
337.658 195.849 L
336.469 196.819 L
335.558 198.054 L
334.983 199.476 L
334.78 200.997 L
S
GR
GS
[0.75 0 0 0.75 253.80178 125.78866] CT
0 0 1 RC
10.0 ML
0.667 LW
N
0 -4 M
0 4 L
-4 0 M
4 0 L
-2.828 -2.828 M
2.828 2.828 L
-2.828 2.828 M
2.828 -2.828 L
S
GR
GS
[0.75 0 0 0.75 0 0] CT
0 0 1 RC
1 LJ
0.667 LW
N
339.848 166.756 M
339.948 166.722 L
339.876 166.799 L
S
GR
GS
[0.75 0 0 0.75 0 0] CT
0 0 1 RC
1 LJ
0.667 LW
N
338.402 167.718 M
339.948 166.722 L
S
GR
GS
[0.75 0 0 0.75 0 0] CT
0 0 1 RC
1 LJ
0.667 LW
N
332.282 167.622 M
332.45 169.147 L
332.993 170.582 L
333.875 171.837 L
335.041 172.834 L
336.419 173.509 L
337.922 173.82 L
339.454 173.748 L
340.921 173.297 L
342.229 172.495 L
343.297 171.394 L
344.057 170.061 L
344.462 168.581 L
344.486 167.047 L
344.128 165.555 L
343.41 164.199 L
342.378 163.064 L
341.096 162.222 L
339.644 161.725 L
338.115 161.604 L
336.603 161.868 L
335.205 162.499 L
334.007 163.458 L
333.086 164.685 L
332.499 166.103 L
332.282 167.622 L
S
GR
GS
[0.75 0 0 0.75 256.1575 142.21552] CT
0 0 1 RC
10.0 ML
0.667 LW
N
0 -4 M
0 4 L
-4 0 M
4 0 L
-2.828 -2.828 M
2.828 2.828 L
-2.828 2.828 M
2.828 -2.828 L
S
GR
GS
[0.75 0 0 0.75 0 0] CT
0 0 1 RC
1 LJ
0.667 LW
N
342.989 188.658 M
343.089 188.625 L
343.017 188.701 L
S
GR
GS
[0.75 0 0 0.75 0 0] CT
0 0 1 RC
1 LJ
0.667 LW
N
341.543 189.621 M
343.089 188.625 L
S
GR
GS
[0.75 0 0 0.75 0 0] CT
0 0 1 RC
1 LJ
0.667 LW
N
335.423 189.714 M
335.639 191.234 L
336.225 192.651 L
337.146 193.879 L
338.343 194.838 L
339.741 195.47 L
341.253 195.735 L
342.782 195.615 L
344.234 195.118 L
345.517 194.277 L
346.55 193.142 L
347.268 191.787 L
347.627 190.295 L
347.604 188.761 L
347.199 187.281 L
346.44 185.947 L
345.372 184.845 L
344.064 184.043 L
342.598 183.591 L
341.065 183.518 L
339.563 183.829 L
338.185 184.504 L
337.018 185.499 L
336.135 186.754 L
335.592 188.189 L
335.423 189.714 L
S
GR
GS
[0.75 0 0 0.75 254.28701 117.23133] CT
0 0 1 RC
10.0 ML
0.667 LW
N
0 -4 M
0 4 L
-4 0 M
4 0 L
-2.828 -2.828 M
2.828 2.828 L
-2.828 2.828 M
2.828 -2.828 L
S
GR
GS
[0.75 0 0 0.75 0 0] CT
0 0 1 RC
1 LJ
0.667 LW
N
340.495 155.346 M
340.595 155.312 L
340.523 155.389 L
S
GR
GS
[0.75 0 0 0.75 0 0] CT
0 0 1 RC
1 LJ
0.667 LW
N
339.049 156.308 M
340.595 155.312 L
S
GR
GS
[0.75 0 0 0.75 0 0] CT
0 0 1 RC
1 LJ
0.667 LW
N
332.929 156.364 M
333.107 154.84 L
333.659 153.408 L
334.55 152.159 L
335.723 151.17 L
337.105 150.504 L
338.61 150.203 L
340.142 150.286 L
341.605 150.747 L
342.908 151.557 L
343.969 152.666 L
344.72 154.004 L
345.115 155.486 L
345.129 157.021 L
344.761 158.51 L
344.034 159.861 L
342.993 160.989 L
341.705 161.823 L
340.251 162.31 L
338.72 162.421 L
337.211 162.147 L
335.816 161.506 L
334.625 160.539 L
333.712 159.306 L
333.135 157.884 L
332.929 156.364 L
S
GR
GS
[0.75 0 0 0.75 242.73035 105.67336] CT
0 0 1 RC
10.0 ML
0.667 LW
N
0 -4 M
0 4 L
-4 0 M
4 0 L
-2.828 -2.828 M
2.828 2.828 L
-2.828 2.828 M
2.828 -2.828 L
S
GR
GS
[0.75 0 0 0.75 0 0] CT
0 0 1 RC
1 LJ
0.667 LW
N
325.086 139.935 M
325.186 139.902 L
325.114 139.978 L
S
GR
GS
[0.75 0 0 0.75 0 0] CT
0 0 1 RC
1 LJ
0.667 LW
N
323.64 140.898 M
325.186 139.902 L
S
GR
GS
[0.75 0 0 0.75 0 0] CT
0 0 1 RC
1 LJ
0.667 LW
N
317.52 140.957 M
317.727 142.477 L
318.306 143.898 L
319.219 145.131 L
320.411 146.097 L
321.806 146.737 L
323.315 147.01 L
324.846 146.899 L
326.3 146.411 L
327.588 145.576 L
328.627 144.447 L
329.353 143.096 L
329.72 141.606 L
329.705 140.072 L
329.309 138.589 L
328.557 137.252 L
327.496 136.144 L
326.193 135.334 L
324.729 134.874 L
323.197 134.793 L
321.693 135.095 L
320.311 135.762 L
319.138 136.751 L
318.248 138.001 L
317.697 139.433 L
317.52 140.957 L
S
GR
GS
[0.75 0 0 0.75 254.23441 117.17584] CT
0 0 1 RC
10.0 ML
0.667 LW
N
0 -4 M
0 4 L
-4 0 M
4 0 L
-2.828 -2.828 M
2.828 2.828 L
-2.828 2.828 M
2.828 -2.828 L
S
GR
GS
[0.75 0 0 0.75 0 0] CT
0 0 1 RC
1 LJ
0.667 LW
N
340.425 155.272 M
340.524 155.238 L
340.452 155.315 L
S
GR
GS
[0.75 0 0 0.75 0 0] CT
0 0 1 RC
1 LJ
0.667 LW
N
338.979 156.234 M
340.524 155.238 L
S
GR
GS
[0.75 0 0 0.75 0 0] CT
0 0 1 RC
1 LJ
0.667 LW
N
332.859 156.299 M
333.067 157.819 L
333.647 159.24 L
334.562 160.471 L
335.754 161.437 L
337.149 162.075 L
338.659 162.347 L
340.19 162.234 L
341.644 161.745 L
342.93 160.909 L
343.969 159.78 L
344.694 158.427 L
345.06 156.937 L
345.043 155.403 L
344.646 153.921 L
343.893 152.585 L
342.831 151.477 L
341.527 150.669 L
340.063 150.21 L
338.53 150.13 L
337.026 150.433 L
335.645 151.101 L
334.473 152.092 L
333.585 153.343 L
333.035 154.775 L
332.859 156.299 L
S
GR
GS
[0.75 0 0 0.75 242.67778 105.61885] CT
0 0 1 RC
10.0 ML
0.667 LW
N
0 -4 M
0 4 L
-4 0 M
4 0 L
-2.828 -2.828 M
2.828 2.828 L
-2.828 2.828 M
2.828 -2.828 L
S
GR
GS
[0.75 0 0 0.75 0 0] CT
0 0 1 RC
1 LJ
0.667 LW
N
325.016 139.863 M
325.116 139.829 L
325.044 139.906 L
S
GR
GS
[0.75 0 0 0.75 0 0] CT
0 0 1 RC
1 LJ
0.667 LW
N
323.57 140.825 M
325.116 139.829 L
S
GR
GS
[0.75 0 0 0.75 0 0] CT
0 0 1 RC
1 LJ
0.667 LW
N
317.45 140.903 M
317.662 142.423 L
318.245 143.842 L
319.162 145.072 L
320.357 146.035 L
321.753 146.67 L
323.264 146.938 L
324.794 146.823 L
326.247 146.33 L
327.532 145.491 L
328.568 144.359 L
329.29 143.006 L
329.652 141.515 L
329.633 139.98 L
329.232 138.499 L
328.476 137.164 L
327.411 136.059 L
326.106 135.254 L
324.64 134.798 L
323.108 134.722 L
321.605 135.028 L
320.225 135.699 L
319.055 136.692 L
318.169 137.945 L
317.623 139.379 L
317.45 140.903 L
S
GR
GS
[0.75 0 0 0.75 258.68749 114.94646] CT
0 0 1 RC
10.0 ML
0.667 LW
N
0 -4 M
0 4 L
-4 0 M
4 0 L
-2.828 -2.828 M
2.828 2.828 L
-2.828 2.828 M
2.828 -2.828 L
S
GR
GS
[0.75 0 0 0.75 0 0] CT
0 0 1 RC
1 LJ
0.667 LW
N
346.362 152.3 M
346.462 152.266 L
346.39 152.342 L
S
GR
GS
[0.75 0 0 0.75 0 0] CT
0 0 1 RC
1 LJ
0.667 LW
N
344.917 153.262 M
346.462 152.266 L
S
GR
GS
[0.75 0 0 0.75 0 0] CT
0 0 1 RC
1 LJ
0.667 LW
N
338.796 153.351 M
339.011 154.87 L
339.596 156.289 L
340.516 157.517 L
341.713 158.477 L
343.11 159.11 L
344.621 159.376 L
346.151 159.257 L
347.603 158.762 L
348.887 157.921 L
349.921 156.787 L
350.64 155.432 L
351 153.941 L
350.977 152.406 L
350.574 150.926 L
349.816 149.592 L
348.749 148.489 L
347.442 147.686 L
345.976 147.233 L
344.443 147.159 L
342.941 147.469 L
341.562 148.142 L
340.394 149.137 L
339.51 150.392 L
338.966 151.826 L
338.796 153.351 L
S
GR
GS
[0.75 0 0 0.75 270.24415 91.83253] CT
0 0 1 RC
10.0 ML
0.667 LW
N
0 -4 M
0 4 L
-4 0 M
4 0 L
-2.828 -2.828 M
2.828 2.828 L
-2.828 2.828 M
2.828 -2.828 L
S
GR
GS
[0.75 0 0 0.75 0 0] CT
0 0 1 RC
1 LJ
0.667 LW
N
361.771 121.481 M
361.871 121.447 L
361.799 121.524 L
S
GR
GS
[0.75 0 0 0.75 0 0] CT
0 0 1 RC
1 LJ
0.667 LW
N
360.326 122.443 M
361.871 121.447 L
S
GR
GS
[0.75 0 0 0.75 0 0] CT
0 0 1 RC
1 LJ
0.667 LW
N
354.205 122.522 M
354.417 124.041 L
355 125.46 L
355.917 126.69 L
357.112 127.653 L
358.509 128.288 L
360.019 128.557 L
361.549 128.441 L
363.002 127.948 L
364.287 127.109 L
365.323 125.978 L
366.045 124.624 L
366.408 123.133 L
366.388 121.599 L
365.987 120.118 L
365.231 118.783 L
364.167 117.678 L
362.861 116.872 L
361.396 116.417 L
359.863 116.34 L
358.36 116.647 L
356.98 117.318 L
355.81 118.311 L
354.924 119.563 L
354.378 120.997 L
354.205 122.522 L
S
GR
GS
[0.75 0 0 0.75 281.80085 103.3895] CT
0 0 1 RC
10.0 ML
0.667 LW
N
0 -4 M
0 4 L
-4 0 M
4 0 L
-2.828 -2.828 M
2.828 2.828 L
-2.828 2.828 M
2.828 -2.828 L
S
GR
GS
[0.75 0 0 0.75 0 0] CT
0 0 1 RC
1 LJ
0.667 LW
N
377.18 136.89 M
377.28 136.857 L
377.208 136.933 L
S
GR
GS
[0.75 0 0 0.75 0 0] CT
0 0 1 RC
1 LJ
0.667 LW
N
375.734 137.853 M
377.28 136.857 L
S
GR
GS
[0.75 0 0 0.75 0 0] CT
0 0 1 RC
1 LJ
0.667 LW
N
369.614 137.917 M
369.79 136.393 L
370.34 134.961 L
371.229 133.71 L
372.4 132.72 L
373.782 132.052 L
375.286 131.748 L
376.818 131.828 L
378.282 132.287 L
379.586 133.095 L
380.648 134.203 L
381.401 135.539 L
381.799 137.021 L
381.815 138.556 L
381.449 140.046 L
380.724 141.398 L
379.686 142.527 L
378.399 143.363 L
376.945 143.853 L
375.415 143.965 L
373.905 143.694 L
372.509 143.055 L
371.317 142.09 L
370.402 140.858 L
369.822 139.437 L
369.614 137.917 L
S
GR
GS
[0.75 0 0 0.75 295.22809 116.8166] CT
0 0 1 RC
10.0 ML
0.667 LW
N
0 -4 M
0 4 L
-4 0 M
4 0 L
-2.828 -2.828 M
2.828 2.828 L
-2.828 2.828 M
2.828 -2.828 L
S
GR
GS
[0.75 0 0 0.75 0 0] CT
0 0 1 RC
1 LJ
0.667 LW
N
395.083 154.793 M
395.183 154.759 L
395.111 154.836 L
S
GR
GS
[0.75 0 0 0.75 0 0] CT
0 0 1 RC
1 LJ
0.667 LW
N
393.637 155.755 M
395.183 154.759 L
S
GR
GS
[0.75 0 0 0.75 0 0] CT
0 0 1 RC
1 LJ
0.667 LW
N
387.517 155.827 M
387.691 154.303 L
388.239 152.87 L
389.127 151.618 L
390.297 150.626 L
391.678 149.957 L
393.182 149.652 L
394.714 149.73 L
396.178 150.187 L
397.483 150.994 L
398.547 152.1 L
399.302 153.436 L
399.701 154.917 L
399.719 156.451 L
399.355 157.942 L
398.631 159.295 L
397.594 160.426 L
396.308 161.263 L
394.855 161.754 L
393.325 161.868 L
391.814 161.599 L
390.419 160.962 L
389.225 159.998 L
388.309 158.767 L
387.727 157.347 L
387.517 155.827 L
S
GR
GS
[0.75 0 0 0.75 280.98978 111.6709] CT
0 0 1 RC
10.0 ML
0.667 LW
N
0 -4 M
0 4 L
-4 0 M
4 0 L
-2.828 -2.828 M
2.828 2.828 L
-2.828 2.828 M
2.828 -2.828 L
S
GR
GS
[0.75 0 0 0.75 0 0] CT
0 0 1 RC
1 LJ
0.667 LW
N
376.099 147.932 M
376.198 147.898 L
376.126 147.975 L
S
GR
GS
[0.75 0 0 0.75 0 0] CT
0 0 1 RC
1 LJ
0.667 LW
N
374.653 148.895 M
376.198 147.898 L
S
GR
GS
[0.75 0 0 0.75 0 0] CT
0 0 1 RC
1 LJ
0.667 LW
N
368.533 148.799 M
368.749 147.28 L
369.336 145.862 L
370.257 144.635 L
371.454 143.676 L
372.853 143.044 L
374.364 142.78 L
375.894 142.901 L
377.345 143.398 L
378.628 144.24 L
379.661 145.374 L
380.379 146.73 L
380.737 148.222 L
380.713 149.756 L
380.308 151.236 L
379.548 152.569 L
378.481 153.671 L
377.172 154.473 L
375.706 154.924 L
374.173 154.997 L
372.671 154.686 L
371.293 154.011 L
370.126 153.014 L
369.244 151.759 L
368.701 150.324 L
368.533 148.799 L
S
GR
GS
[0.75 0 0 0.75 0 0] CT
1 GC
N
/f159554590{478 198 M
478 42 L
285 42 L
285 198 L
cp}def
f159554590
f
GR
GS
[0.75 0 0 0.75 249 47.25] CT
/Helvetica-Bold 30 F
GS
[1 0 0 1 0 0] CT
0 12 moveto 
1 -1 scale
(LandMark) t 
GR
GR
GS
[0.75 0 0 0.75 231.75 47.25] CT
1 0 0 RC
N
/f-1214359511{0 -19.995 M
-17.316 9.998 L
17.316 9.998 L
cp}def
f-1214359511
f
GR
GS
[0.75 0 0 0.75 231.75 47.25] CT
0 0 1 RC
10.0 ML
0.667 LW
N
0 -19.995 M
-17.316 9.998 L
17.316 9.998 L
cp
S
GR
GS
[0.75 0 0 0.75 249 92.25] CT
/Helvetica-Bold 30 F
GS
[1 0 0 1 0 0] CT
0 0 moveto 
1 -1 scale
(b) t 
GR
GR
GS
[0.75 0 0 0.75 263.25 81] CT
/Helvetica-Bold 24 F
GS
[1 0 0 1 0 0] CT
0 0 moveto 
1 -1 scale
(-) t 
GR
GR
GS
[0.75 0 0 0.75 269.25 92.25] CT
/Helvetica-Bold 30 F
GS
[1 0 0 1 0 0] CT
0 0 moveto 
1 -1 scale
([X) t 
GR
GR
GS
[0.75 0 0 0.75 291.75 103.5] CT
/Helvetica-Bold 24 F
GS
[1 0 0 1 0 0] CT
0 0 moveto 
1 -1 scale
(k) t 
GR
GR
GS
[0.75 0 0 0.75 302.25 92.25] CT
/Helvetica-Bold 30 F
GS
[1 0 0 1 0 0] CT
0 0 moveto 
1 -1 scale
(]) t 
GR
GR
GS
[0.75 0 0 0.75 0 0] CT
0 1 1 RC
1 LJ
0.667 LW
N
289 113 M
329 113 L
S
GR
GS
[0.75 0 0 0.75 0 0] CT
0 1 1 RC
1 LJ
0.667 LW
N
317 117.8 M
329 113 L
317 108.2 L
S
GR
GS
[0.75 0 0 0.75 249 131.25] CT
/Helvetica-Bold 30 F
GS
[1 0 0 1 0 0] CT
0 0 moveto 
1 -1 scale
(b[X) t 
GR
GR
GS
[0.75 0 0 0.75 285.75 142.5] CT
/Helvetica-Bold 24 F
GS
[1 0 0 1 0 0] CT
0 0 moveto 
1 -1 scale
(k) t 
GR
GR
GS
[0.75 0 0 0.75 296.25 131.25] CT
/Helvetica-Bold 30 F
GS
[1 0 0 1 0 0] CT
0 0 moveto 
1 -1 scale
(]) t 
GR
GR
GS
[0.75 0 0 0.75 0 0] CT
0 0 1 RC
1 LJ
0.667 LW
N
289 170 M
329 170 L
S
GR
GS
[0.75 0 0 0.75 0 0] CT
0.149 GC
10.0 ML
0.667 LW
N
285 198 M
285 42 L
478 42 L
478 198 L
cp
S
GR
%%Trailer
%%Pages: 1
%%EOF
