%!PS-Adobe-3.0 EPSF-3.0
%%Creator: (MATLAB, The Mathworks, Inc. Version 9.10.0.1649659 \(R2021a\) Update 1. Operating System: Windows 10)
%%Title: C:/Users/ohads/ANPL/Code/da_bsp_future_smoothing/TestCases/ChosenTestCase/TestCases_56/Figures/Robots_estimation_k_5.eps
%%CreationDate: 2021-07-08T14:52:56
%%Pages: (atend)
%%BoundingBox:     0     0  1440   722
%%LanguageLevel: 3
%%EndComments
%%BeginProlog
%%BeginResource: procset (Apache XML Graphics Std ProcSet) 1.2 0
%%Version: 1.2 0
%%Copyright: (Copyright 2001-2003,2010 The Apache Software Foundation. License terms: http://www.apache.org/licenses/LICENSE-2.0)
/bd{bind def}bind def
/ld{load def}bd
/GR/grestore ld
/GS/gsave ld
/RM/rmoveto ld
/C/curveto ld
/t/show ld
/L/lineto ld
/ML/setmiterlimit ld
/CT/concat ld
/f/fill ld
/N/newpath ld
/S/stroke ld
/CC/setcmykcolor ld
/A/ashow ld
/cp/closepath ld
/RC/setrgbcolor ld
/LJ/setlinejoin ld
/GC/setgray ld
/LW/setlinewidth ld
/M/moveto ld
/re {4 2 roll M
1 index 0 rlineto
0 exch rlineto
neg 0 rlineto
cp } bd
/_ctm matrix def
/_tm matrix def
/BT { _ctm currentmatrix pop matrix _tm copy pop 0 0 moveto } bd
/ET { _ctm setmatrix } bd
/iTm { _ctm setmatrix _tm concat } bd
/Tm { _tm astore pop iTm 0 0 moveto } bd
/ux 0.0 def
/uy 0.0 def
/F {
  /Tp exch def
  /Tf exch def
  Tf findfont Tp scalefont setfont
  /cf Tf def  /cs Tp def
} bd
/ULS {currentpoint /uy exch def /ux exch def} bd
/ULE {
  /Tcx currentpoint pop def
  gsave
  newpath
  cf findfont cs scalefont dup
  /FontMatrix get 0 get /Ts exch def /FontInfo get dup
  /UnderlinePosition get Ts mul /To exch def
  /UnderlineThickness get Ts mul /Tt exch def
  ux uy To add moveto  Tcx uy To add lineto
  Tt setlinewidth stroke
  grestore
} bd
/OLE {
  /Tcx currentpoint pop def
  gsave
  newpath
  cf findfont cs scalefont dup
  /FontMatrix get 0 get /Ts exch def /FontInfo get dup
  /UnderlinePosition get Ts mul /To exch def
  /UnderlineThickness get Ts mul /Tt exch def
  ux uy To add cs add moveto Tcx uy To add cs add lineto
  Tt setlinewidth stroke
  grestore
} bd
/SOE {
  /Tcx currentpoint pop def
  gsave
  newpath
  cf findfont cs scalefont dup
  /FontMatrix get 0 get /Ts exch def /FontInfo get dup
  /UnderlinePosition get Ts mul /To exch def
  /UnderlineThickness get Ts mul /Tt exch def
  ux uy To add cs 10 mul 26 idiv add moveto Tcx uy To add cs 10 mul 26 idiv add lineto
  Tt setlinewidth stroke
  grestore
} bd
/QT {
/Y22 exch store
/X22 exch store
/Y21 exch store
/X21 exch store
currentpoint
/Y21 load 2 mul add 3 div exch
/X21 load 2 mul add 3 div exch
/X21 load 2 mul /X22 load add 3 div
/Y21 load 2 mul /Y22 load add 3 div
/X22 load /Y22 load curveto
} bd
/SSPD {
dup length /d exch dict def
{
/v exch def
/k exch def
currentpagedevice k known {
/cpdv currentpagedevice k get def
v cpdv ne {
/upd false def
/nullv v type /nulltype eq def
/nullcpdv cpdv type /nulltype eq def
nullv nullcpdv or
{
/upd true def
} {
/sametype v type cpdv type eq def
sametype {
v type /arraytype eq {
/vlen v length def
/cpdvlen cpdv length def
vlen cpdvlen eq {
0 1 vlen 1 sub {
/i exch def
/obj v i get def
/cpdobj cpdv i get def
obj cpdobj ne {
/upd true def
exit
} if
} for
} {
/upd true def
} ifelse
} {
v type /dicttype eq {
v {
/dv exch def
/dk exch def
/cpddv cpdv dk get def
dv cpddv ne {
/upd true def
exit
} if
} forall
} {
/upd true def
} ifelse
} ifelse
} if
} ifelse
upd true eq {
d k v put
} if
} if
} if
} forall
d length 0 gt {
d setpagedevice
} if
} bd
/RE { % /NewFontName [NewEncodingArray] /FontName RE -
  findfont dup length dict begin
  {
    1 index /FID ne
    {def} {pop pop} ifelse
  } forall
  /Encoding exch def
  /FontName 1 index def
  currentdict definefont pop
  end
} bind def
%%EndResource
%%BeginResource: procset (Apache XML Graphics EPS ProcSet) 1.0 0
%%Version: 1.0 0
%%Copyright: (Copyright 2002-2003 The Apache Software Foundation. License terms: http://www.apache.org/licenses/LICENSE-2.0)
/BeginEPSF { %def
/b4_Inc_state save def         % Save state for cleanup
/dict_count countdictstack def % Count objects on dict stack
/op_count count 1 sub def      % Count objects on operand stack
userdict begin                 % Push userdict on dict stack
/showpage { } def              % Redefine showpage, { } = null proc
0 setgray 0 setlinecap         % Prepare graphics state
1 setlinewidth 0 setlinejoin
10 setmiterlimit [ ] 0 setdash newpath
/languagelevel where           % If level not equal to 1 then
{pop languagelevel             % set strokeadjust and
1 ne                           % overprint to their defaults.
{false setstrokeadjust false setoverprint
} if
} if
} bd
/EndEPSF { %def
count op_count sub {pop} repeat            % Clean up stacks
countdictstack dict_count sub {end} repeat
b4_Inc_state restore
} bd
%%EndResource
%FOPBeginFontDict
%%IncludeResource: font Courier-Oblique
%%IncludeResource: font Courier-BoldOblique
%%IncludeResource: font Courier-Bold
%%IncludeResource: font ZapfDingbats
%%IncludeResource: font Symbol
%%IncludeResource: font Helvetica
%%IncludeResource: font Helvetica-Oblique
%%IncludeResource: font Helvetica-Bold
%%IncludeResource: font Helvetica-BoldOblique
%%IncludeResource: font Times-Roman
%%IncludeResource: font Times-Italic
%%IncludeResource: font Times-Bold
%%IncludeResource: font Times-BoldItalic
%%IncludeResource: font Courier
%FOPEndFontDict
%%BeginResource: encoding WinAnsiEncoding
/WinAnsiEncoding [
/.notdef /.notdef /.notdef /.notdef /.notdef
/.notdef /.notdef /.notdef /.notdef /.notdef
/.notdef /.notdef /.notdef /.notdef /.notdef
/.notdef /.notdef /.notdef /.notdef /.notdef
/.notdef /.notdef /.notdef /.notdef /.notdef
/.notdef /.notdef /.notdef /.notdef /.notdef
/.notdef /.notdef /space /exclam /quotedbl
/numbersign /dollar /percent /ampersand /quotesingle
/parenleft /parenright /asterisk /plus /comma
/hyphen /period /slash /zero /one
/two /three /four /five /six
/seven /eight /nine /colon /semicolon
/less /equal /greater /question /at
/A /B /C /D /E
/F /G /H /I /J
/K /L /M /N /O
/P /Q /R /S /T
/U /V /W /X /Y
/Z /bracketleft /backslash /bracketright /asciicircum
/underscore /quoteleft /a /b /c
/d /e /f /g /h
/i /j /k /l /m
/n /o /p /q /r
/s /t /u /v /w
/x /y /z /braceleft /bar
/braceright /asciitilde /bullet /Euro /bullet
/quotesinglbase /florin /quotedblbase /ellipsis /dagger
/daggerdbl /circumflex /perthousand /Scaron /guilsinglleft
/OE /bullet /Zcaron /bullet /bullet
/quoteleft /quoteright /quotedblleft /quotedblright /bullet
/endash /emdash /asciitilde /trademark /scaron
/guilsinglright /oe /bullet /zcaron /Ydieresis
/space /exclamdown /cent /sterling /currency
/yen /brokenbar /section /dieresis /copyright
/ordfeminine /guillemotleft /logicalnot /sfthyphen /registered
/macron /degree /plusminus /twosuperior /threesuperior
/acute /mu /paragraph /middot /cedilla
/onesuperior /ordmasculine /guillemotright /onequarter /onehalf
/threequarters /questiondown /Agrave /Aacute /Acircumflex
/Atilde /Adieresis /Aring /AE /Ccedilla
/Egrave /Eacute /Ecircumflex /Edieresis /Igrave
/Iacute /Icircumflex /Idieresis /Eth /Ntilde
/Ograve /Oacute /Ocircumflex /Otilde /Odieresis
/multiply /Oslash /Ugrave /Uacute /Ucircumflex
/Udieresis /Yacute /Thorn /germandbls /agrave
/aacute /acircumflex /atilde /adieresis /aring
/ae /ccedilla /egrave /eacute /ecircumflex
/edieresis /igrave /iacute /icircumflex /idieresis
/eth /ntilde /ograve /oacute /ocircumflex
/otilde /odieresis /divide /oslash /ugrave
/uacute /ucircumflex /udieresis /yacute /thorn
/ydieresis
] def
%%EndResource
%FOPBeginFontReencode
/Courier-Oblique findfont
dup length dict begin
  {1 index /FID ne {def} {pop pop} ifelse} forall
  /Encoding WinAnsiEncoding def
  currentdict
end
/Courier-Oblique exch definefont pop
/Courier-BoldOblique findfont
dup length dict begin
  {1 index /FID ne {def} {pop pop} ifelse} forall
  /Encoding WinAnsiEncoding def
  currentdict
end
/Courier-BoldOblique exch definefont pop
/Courier-Bold findfont
dup length dict begin
  {1 index /FID ne {def} {pop pop} ifelse} forall
  /Encoding WinAnsiEncoding def
  currentdict
end
/Courier-Bold exch definefont pop
/Helvetica findfont
dup length dict begin
  {1 index /FID ne {def} {pop pop} ifelse} forall
  /Encoding WinAnsiEncoding def
  currentdict
end
/Helvetica exch definefont pop
/Helvetica-Oblique findfont
dup length dict begin
  {1 index /FID ne {def} {pop pop} ifelse} forall
  /Encoding WinAnsiEncoding def
  currentdict
end
/Helvetica-Oblique exch definefont pop
/Helvetica-Bold findfont
dup length dict begin
  {1 index /FID ne {def} {pop pop} ifelse} forall
  /Encoding WinAnsiEncoding def
  currentdict
end
/Helvetica-Bold exch definefont pop
/Helvetica-BoldOblique findfont
dup length dict begin
  {1 index /FID ne {def} {pop pop} ifelse} forall
  /Encoding WinAnsiEncoding def
  currentdict
end
/Helvetica-BoldOblique exch definefont pop
/Times-Roman findfont
dup length dict begin
  {1 index /FID ne {def} {pop pop} ifelse} forall
  /Encoding WinAnsiEncoding def
  currentdict
end
/Times-Roman exch definefont pop
/Times-Italic findfont
dup length dict begin
  {1 index /FID ne {def} {pop pop} ifelse} forall
  /Encoding WinAnsiEncoding def
  currentdict
end
/Times-Italic exch definefont pop
/Times-Bold findfont
dup length dict begin
  {1 index /FID ne {def} {pop pop} ifelse} forall
  /Encoding WinAnsiEncoding def
  currentdict
end
/Times-Bold exch definefont pop
/Times-BoldItalic findfont
dup length dict begin
  {1 index /FID ne {def} {pop pop} ifelse} forall
  /Encoding WinAnsiEncoding def
  currentdict
end
/Times-BoldItalic exch definefont pop
/Courier findfont
dup length dict begin
  {1 index /FID ne {def} {pop pop} ifelse} forall
  /Encoding WinAnsiEncoding def
  currentdict
end
/Courier exch definefont pop
%FOPEndFontReencode
%%EndProlog
%%Page: 1 1
%%PageBoundingBox: 0 0 1440 722
%%BeginPageSetup
[1 0 0 -1 0 722] CT
%%EndPageSetup
GS
[0.75 0 0 0.75 0 -0.25] CT
1 GC
N
0 0 1920 963 re
f
GR
GS
[0.75 0 0 0.75 0 -0.25] CT
1 GC
N
0 0 1920 963 re
f
GR
GS
[0.75 0 0 0.75 0 -0.25] CT
1 GC
N
496.352 857 M
1491.648 857 L
1491.648 72 L
496.352 72 L
cp
f
GR
GS
[0.75 0 0 0.75 0 -0.25] CT
0.149 GC
2 setlinecap
1 LJ
0.667 LW
N
496.352 857 M
1491.648 857 L
S
GR
GS
[0.75 0 0 0.75 0 -0.25] CT
0.149 GC
2 setlinecap
1 LJ
0.667 LW
N
544.518 857 M
544.518 847.047 L
S
GR
GS
[0.75 0 0 0.75 0 -0.25] CT
0.149 GC
2 setlinecap
1 LJ
0.667 LW
N
704.812 857 M
704.812 847.047 L
S
GR
GS
[0.75 0 0 0.75 0 -0.25] CT
0.149 GC
2 setlinecap
1 LJ
0.667 LW
N
865.105 857 M
865.105 847.047 L
S
GR
GS
[0.75 0 0 0.75 0 -0.25] CT
0.149 GC
2 setlinecap
1 LJ
0.667 LW
N
1025.399 857 M
1025.399 847.047 L
S
GR
GS
[0.75 0 0 0.75 0 -0.25] CT
0.149 GC
2 setlinecap
1 LJ
0.667 LW
N
1185.692 857 M
1185.692 847.047 L
S
GR
GS
[0.75 0 0 0.75 0 -0.25] CT
0.149 GC
2 setlinecap
1 LJ
0.667 LW
N
1345.986 857 M
1345.986 847.047 L
S
GR
GS
[0.75 0 0 0.75 408.38873 649.49998] CT
0.149 GC
/Helvetica 33.333 F
GS
[1 0 0 1 0 0] CT
-9.5 34 moveto 
1 -1 scale
(2) t 
GR
GR
GS
[0.75 0 0 0.75 528.60887 649.49998] CT
0.149 GC
/Helvetica 33.333 F
GS
[1 0 0 1 0 0] CT
-9.5 34 moveto 
1 -1 scale
(4) t 
GR
GR
GS
[0.75 0 0 0.75 648.82901 649.49998] CT
0.149 GC
/Helvetica 33.333 F
GS
[1 0 0 1 0 0] CT
-9.5 34 moveto 
1 -1 scale
(6) t 
GR
GR
GS
[0.75 0 0 0.75 769.0491 649.49998] CT
0.149 GC
/Helvetica 33.333 F
GS
[1 0 0 1 0 0] CT
-9.5 34 moveto 
1 -1 scale
(8) t 
GR
GR
GS
[0.75 0 0 0.75 889.26929 649.49998] CT
0.149 GC
/Helvetica 33.333 F
GS
[1 0 0 1 0 0] CT
-19 34 moveto 
1 -1 scale
(10) t 
GR
GR
GS
[0.75 0 0 0.75 1009.48938 649.49998] CT
0.149 GC
/Helvetica 33.333 F
GS
[1 0 0 1 0 0] CT
-19 34 moveto 
1 -1 scale
(12) t 
GR
GR
GS
[0.75 0 0 0.75 745.50037 682.00002] CT
0.149 GC
/Helvetica 36.667 F
GS
[1 0 0 1 0 0] CT
-21.5 37 moveto 
1 -1 scale
(Xs) t 
GR
GR
GS
[0.75 0 0 0.75 0 -0.25] CT
0.149 GC
2 setlinecap
1 LJ
0.667 LW
N
496.352 857 M
496.352 72 L
S
GR
GS
[0.75 0 0 0.75 0 -0.25] CT
0.149 GC
2 setlinecap
1 LJ
0.667 LW
N
496.352 803.248 M
506.305 803.248 L
S
GR
GS
[0.75 0 0 0.75 0 -0.25] CT
0.149 GC
2 setlinecap
1 LJ
0.667 LW
N
496.352 723.102 M
506.305 723.102 L
S
GR
GS
[0.75 0 0 0.75 0 -0.25] CT
0.149 GC
2 setlinecap
1 LJ
0.667 LW
N
496.352 642.955 M
506.305 642.955 L
S
GR
GS
[0.75 0 0 0.75 0 -0.25] CT
0.149 GC
2 setlinecap
1 LJ
0.667 LW
N
496.352 562.808 M
506.305 562.808 L
S
GR
GS
[0.75 0 0 0.75 0 -0.25] CT
0.149 GC
2 setlinecap
1 LJ
0.667 LW
N
496.352 482.661 M
506.305 482.661 L
S
GR
GS
[0.75 0 0 0.75 0 -0.25] CT
0.149 GC
2 setlinecap
1 LJ
0.667 LW
N
496.352 402.515 M
506.305 402.515 L
S
GR
GS
[0.75 0 0 0.75 0 -0.25] CT
0.149 GC
2 setlinecap
1 LJ
0.667 LW
N
496.352 322.368 M
506.305 322.368 L
S
GR
GS
[0.75 0 0 0.75 0 -0.25] CT
0.149 GC
2 setlinecap
1 LJ
0.667 LW
N
496.352 242.221 M
506.305 242.221 L
S
GR
GS
[0.75 0 0 0.75 0 -0.25] CT
0.149 GC
2 setlinecap
1 LJ
0.667 LW
N
496.352 162.074 M
506.305 162.074 L
S
GR
GS
[0.75 0 0 0.75 0 -0.25] CT
0.149 GC
2 setlinecap
1 LJ
0.667 LW
N
496.352 81.928 M
506.305 81.928 L
S
GR
GS
[0.75 0 0 0.75 365.2638 602.18636] CT
0.149 GC
/Helvetica 33.333 F
GS
[1 0 0 1 0 0] CT
-19 13 moveto 
1 -1 scale
(4) t 
GR
GR
GS
[0.75 0 0 0.75 365.2638 542.07626] CT
0.149 GC
/Helvetica 33.333 F
GS
[1 0 0 1 0 0] CT
-19 13 moveto 
1 -1 scale
(5) t 
GR
GR
GS
[0.75 0 0 0.75 365.2638 481.96622] CT
0.149 GC
/Helvetica 33.333 F
GS
[1 0 0 1 0 0] CT
-19 13 moveto 
1 -1 scale
(6) t 
GR
GR
GS
[0.75 0 0 0.75 365.2638 421.85617] CT
0.149 GC
/Helvetica 33.333 F
GS
[1 0 0 1 0 0] CT
-19 13 moveto 
1 -1 scale
(7) t 
GR
GR
GS
[0.75 0 0 0.75 365.2638 361.7461] CT
0.149 GC
/Helvetica 33.333 F
GS
[1 0 0 1 0 0] CT
-19 13 moveto 
1 -1 scale
(8) t 
GR
GR
GS
[0.75 0 0 0.75 365.2638 301.63603] CT
0.149 GC
/Helvetica 33.333 F
GS
[1 0 0 1 0 0] CT
-19 13 moveto 
1 -1 scale
(9) t 
GR
GR
GS
[0.75 0 0 0.75 365.2638 241.52596] CT
0.149 GC
/Helvetica 33.333 F
GS
[1 0 0 1 0 0] CT
-38 13 moveto 
1 -1 scale
(10) t 
GR
GR
GS
[0.75 0 0 0.75 365.2638 181.4159] CT
0.149 GC
/Helvetica 33.333 F
GS
[1 0 0 1 0 0] CT
-38 13 moveto 
1 -1 scale
(11) t 
GR
GR
GS
[0.75 0 0 0.75 365.2638 121.30584] CT
0.149 GC
/Helvetica 33.333 F
GS
[1 0 0 1 0 0] CT
-38 13 moveto 
1 -1 scale
(12) t 
GR
GR
GS
[0.75 0 0 0.75 365.2638 61.19578] CT
0.149 GC
/Helvetica 33.333 F
GS
[1 0 0 1 0 0] CT
-38 13 moveto 
1 -1 scale
(13) t 
GR
GR
GS
[0 -0.75 0.75 0 333.7638 348.1247] CT
0.149 GC
/Helvetica 36.667 F
GS
[1 0 0 1 0 0] CT
-21.5 -9 moveto 
1 -1 scale
(Ys) t 
GR
GR
GS
[0.75 0 0 0.75 528.60887 421.85617] CT
1 0 0 RC
N
0 -26.66 M
-23.088 13.33 L
23.088 13.33 L
cp
f
GR
GS
[0.75 0 0 0.75 528.60887 421.85617] CT
0 0 1 RC
10.0 ML
0.667 LW
N
0 -26.66 M
-23.088 13.33 L
23.088 13.33 L
cp
S
GR
GS
[0.75 0 0 0.75 468.49883 361.7461] CT
1 0 0 RC
N
/f-1996900118{0 -26.66 M
-23.088 13.33 L
23.088 13.33 L
cp}def
f-1996900118
f
GR
GS
[0.75 0 0 0.75 468.49883 361.7461] CT
0 0 1 RC
10.0 ML
0.667 LW
N
0 -26.66 M
-23.088 13.33 L
23.088 13.33 L
cp
S
GR
GS
[0.75 0 0 0.75 708.93906 421.85617] CT
1 0 0 RC
N
f-1996900118
f
GR
GS
[0.75 0 0 0.75 708.93906 421.85617] CT
0 0 1 RC
10.0 ML
0.667 LW
N
0 -26.66 M
-23.088 13.33 L
23.088 13.33 L
cp
S
GR
GS
[0.75 0 0 0.75 588.71892 301.63603] CT
1 0 0 RC
N
f-1996900118
f
GR
GS
[0.75 0 0 0.75 588.71892 301.63603] CT
0 0 1 RC
10.0 ML
0.667 LW
N
0 -26.66 M
-23.088 13.33 L
23.088 13.33 L
cp
S
GR
GS
[0.75 0 0 0.75 528.60887 542.07626] CT
1 0 0 RC
N
f-1996900118
f
GR
GS
[0.75 0 0 0.75 528.60887 542.07626] CT
0 0 1 RC
10.0 ML
0.667 LW
N
0 -26.66 M
-23.088 13.33 L
23.088 13.33 L
cp
S
GR
GS
[0.75 0 0 0.75 648.82901 361.7461] CT
1 0 0 RC
N
f-1996900118
f
GR
GS
[0.75 0 0 0.75 648.82901 361.7461] CT
0 0 1 RC
10.0 ML
0.667 LW
N
0 -26.66 M
-23.088 13.33 L
23.088 13.33 L
cp
S
GR
GS
[0.75 0 0 0.75 779.94708 378.05132] CT
1 0 0 RC
10.0 ML
0.667 LW
N
0 -5 M
0 5 L
-5 0 M
5 0 L
S
GR
GS
[0.75 0 0 0.75 810.56653 347.18274] CT
0 1 1 RC
10.0 ML
0.667 LW
N
0 -4 M
0 4 L
-4 0 M
4 0 L
-2.828 -2.828 M
2.828 2.828 L
-2.828 2.828 M
2.828 -2.828 L
S
GR
GS
[0.75 0 0 0.75 0 -0.25] CT
0 1 1 RC
1 LJ
0.667 LW
N
1082.04 455.858 M
1082.265 455.372 L
1082.295 455.907 L
S
GR
GS
[0.75 0 0 0.75 0 -0.25] CT
0 1 1 RC
1 LJ
0.667 LW
N
1080.755 463.244 M
1082.265 455.372 L
S
GR
GS
[0.75 0 0 0.75 0 -0.25] CT
0 1 1 RC
1 LJ
10.667 LW
N
1014.879 470.957 M
1018.867 487.097 L
1026.744 501.739 L
1038.014 513.962 L
1051.97 522.998 L
1067.734 528.279 L
1084.317 529.474 L
1100.676 526.507 L
1115.783 519.566 L
1128.689 509.085 L
1138.584 495.724 L
1144.845 480.322 L
1147.078 463.847 L
1145.145 447.335 L
1139.166 431.821 L
1129.516 418.282 L
1116.803 407.569 L
1101.825 400.353 L
1085.522 397.089 L
1068.921 397.982 L
1053.063 402.976 L
1038.945 411.756 L
1027.454 423.771 L
1019.312 438.267 L
1015.031 454.332 L
1014.879 470.957 L
S
GR
GS
[0.75 0 0 0.75 810.56735 447.94984] CT
0 1 1 RC
10.0 ML
0.667 LW
N
0 -4 M
0 4 L
-4 0 M
4 0 L
-2.828 -2.828 M
2.828 2.828 L
-2.828 2.828 M
2.828 -2.828 L
S
GR
GS
[0.75 0 0 0.75 0 -0.25] CT
0 1 1 RC
1 LJ
0.667 LW
N
1082.041 590.214 M
1082.266 589.729 L
1082.296 590.263 L
S
GR
GS
[0.75 0 0 0.75 0 -0.25] CT
0 1 1 RC
1 LJ
0.667 LW
N
1080.756 597.6 M
1082.266 589.729 L
S
GR
GS
[0.75 0 0 0.75 0 -0.25] CT
0 1 1 RC
1 LJ
0.667 LW
N
1014.747 604.076 M
1018.432 620.288 L
1026.032 635.075 L
1037.071 647.507 L
1050.855 656.803 L
1066.517 662.379 L
1083.075 663.885 L
1099.486 661.226 L
1114.721 654.569 L
1127.822 644.333 L
1137.965 631.16 L
1144.514 615.878 L
1147.057 599.448 L
1145.433 582.902 L
1139.746 567.279 L
1130.352 553.562 L
1117.842 542.611 L
1103.002 535.116 L
1086.764 531.547 L
1070.149 532.128 L
1054.2 536.823 L
1039.919 545.336 L
1028.205 557.134 L
1019.793 571.475 L
1015.211 587.456 L
1014.747 604.076 L
S
GR
GS
[0.75 0 0 0.75 802.41312 339.03285] CT
0 1 1 RC
10.0 ML
0.667 LW
N
0 -4 M
0 4 L
-4 0 M
4 0 L
-2.828 -2.828 M
2.828 2.828 L
-2.828 2.828 M
2.828 -2.828 L
S
GR
GS
[0.75 0 0 0.75 0 -0.25] CT
0 1 1 RC
1 LJ
0.667 LW
N
1071.169 444.992 M
1071.394 444.506 L
1071.424 445.041 L
S
GR
GS
[0.75 0 0 0.75 0 -0.25] CT
0 1 1 RC
1 LJ
0.667 LW
N
1069.884 452.377 M
1071.394 444.506 L
S
GR
GS
[0.75 0 0 0.75 0 -0.25] CT
0 1 1 RC
1 LJ
0.667 LW
N
1003.795 457.976 M
1007.264 474.236 L
1014.667 489.122 L
1025.54 501.7 L
1039.199 511.178 L
1054.786 516.962 L
1071.322 518.687 L
1087.768 516.247 L
1103.089 509.793 L
1116.325 499.731 L
1126.642 486.694 L
1133.393 471.5 L
1136.154 455.106 L
1134.75 438.539 L
1129.271 422.842 L
1120.06 409.001 L
1107.697 397.886 L
1092.958 390.194 L
1076.768 386.409 L
1060.147 386.77 L
1044.137 391.253 L
1029.745 399.576 L
1017.875 411.217 L
1009.272 425.445 L
1004.479 441.364 L
1003.795 457.976 L
S
GR
GS
[0.75 0 0 0.75 807.14465 483.96651] CT
0 1 1 RC
10.0 ML
0.667 LW
N
0 -4 M
0 4 L
-4 0 M
4 0 L
-2.828 -2.828 M
2.828 2.828 L
-2.828 2.828 M
2.828 -2.828 L
S
GR
GS
[0.75 0 0 0.75 0 -0.25] CT
0 1 1 RC
1 LJ
0.667 LW
N
1077.477 638.237 M
1077.703 637.751 L
1077.733 638.286 L
S
GR
GS
[0.75 0 0 0.75 0 -0.25] CT
0 1 1 RC
1 LJ
0.667 LW
N
1076.193 645.622 M
1077.703 637.751 L
S
GR
GS
[0.75 0 0 0.75 0 -0.25] CT
0 1 1 RC
1 LJ
10.667 LW
N
1010.029 650.259 M
1013.261 666.568 L
1020.447 681.56 L
1031.136 694.294 L
1044.656 703.971 L
1060.157 709.98 L
1076.666 711.946 L
1093.146 709.745 L
1108.56 703.514 L
1121.94 693.646 L
1132.446 680.76 L
1139.417 665.667 L
1142.416 649.314 L
1141.254 632.729 L
1136.003 616.954 L
1126.995 602.98 L
1114.794 591.686 L
1100.168 583.781 L
1084.036 579.761 L
1067.41 579.88 L
1051.337 584.13 L
1036.825 592.243 L
1024.787 603.71 L
1015.979 617.811 L
1010.955 633.659 L
1010.029 650.259 L
S
GR
GS
[0.75 0 0 0.75 798.9776 375.01736] CT
0 1 1 RC
10.0 ML
0.667 LW
N
0 -4 M
0 4 L
-4 0 M
4 0 L
-2.828 -2.828 M
2.828 2.828 L
-2.828 2.828 M
2.828 -2.828 L
S
GR
GS
[0.75 0 0 0.75 0 -0.25] CT
0 1 1 RC
1 LJ
0.667 LW
N
1066.588 492.971 M
1066.814 492.485 L
1066.843 493.02 L
S
GR
GS
[0.75 0 0 0.75 0 -0.25] CT
0 1 1 RC
1 LJ
0.667 LW
N
1065.303 500.356 M
1066.814 492.485 L
S
GR
GS
[0.75 0 0 0.75 0 -0.25] CT
0 1 1 RC
1 LJ
10.667 LW
N
999.065 503.771 M
1000.297 487.191 L
1005.614 471.438 L
1014.681 457.502 L
1026.929 446.259 L
1041.588 438.415 L
1057.737 434.464 L
1074.361 434.652 L
1090.417 438.969 L
1104.894 447.143 L
1116.884 458.661 L
1125.633 472.798 L
1130.591 488.667 L
1131.447 505.271 L
1128.147 521.566 L
1120.898 536.528 L
1110.156 549.217 L
1096.596 558.837 L
1081.069 564.781 L
1064.552 566.678 L
1048.082 564.408 L
1032.694 558.113 L
1019.355 548.188 L
1008.904 535.259 L
1001.996 520.136 L
999.065 503.771 L
S
GR
GS
[0.75 0 0 0.75 809.24496 446.62636] CT
0 1 1 RC
10.0 ML
0.667 LW
N
0 -4 M
0 4 L
-4 0 M
4 0 L
-2.828 -2.828 M
2.828 2.828 L
-2.828 2.828 M
2.828 -2.828 L
S
GR
GS
[0.75 0 0 0.75 0 -0.25] CT
0 1 1 RC
1 LJ
0.667 LW
N
1080.278 588.45 M
1080.503 587.964 L
1080.533 588.499 L
S
GR
GS
[0.75 0 0 0.75 0 -0.25] CT
0 1 1 RC
1 LJ
0.667 LW
N
1078.993 595.835 M
1080.503 587.964 L
S
GR
GS
[0.75 0 0 0.75 0 -0.25] CT
0 1 1 RC
1 LJ
10.667 LW
N
1012.97 602.166 M
1016.619 618.387 L
1024.187 633.19 L
1035.199 645.646 L
1048.962 654.973 L
1064.613 660.583 L
1081.167 662.125 L
1097.584 659.502 L
1112.833 652.879 L
1125.956 642.671 L
1136.129 629.52 L
1142.711 614.253 L
1145.289 597.829 L
1143.702 581.279 L
1138.049 565.644 L
1128.686 551.906 L
1116.2 540.928 L
1101.376 533.4 L
1085.146 529.795 L
1068.529 530.34 L
1052.57 535 L
1038.271 543.483 L
1026.531 555.255 L
1018.087 569.576 L
1013.47 585.548 L
1012.97 602.166 L
S
GR
GS
[0.75 0 0 0.75 801.09064 337.70829] CT
0 1 1 RC
10.0 ML
0.667 LW
N
0 -4 M
0 4 L
-4 0 M
4 0 L
-2.828 -2.828 M
2.828 2.828 L
-2.828 2.828 M
2.828 -2.828 L
S
GR
GS
[0.75 0 0 0.75 0 -0.25] CT
0 1 1 RC
1 LJ
0.667 LW
N
1069.405 443.226 M
1069.631 442.74 L
1069.661 443.275 L
S
GR
GS
[0.75 0 0 0.75 0 -0.25] CT
0 1 1 RC
1 LJ
0.667 LW
N
1068.121 450.611 M
1069.631 442.74 L
S
GR
GS
[0.75 0 0 0.75 0 -0.25] CT
0 1 1 RC
1 LJ
0.667 LW
N
1002.034 456.238 M
1002.711 439.626 L
1007.498 423.704 L
1016.094 409.473 L
1027.959 397.827 L
1042.347 389.498 L
1058.355 385.008 L
1074.977 384.64 L
1091.168 388.418 L
1105.911 396.104 L
1118.279 407.214 L
1127.495 421.051 L
1132.981 436.746 L
1134.392 453.311 L
1131.638 469.707 L
1124.894 484.904 L
1114.582 497.945 L
1101.351 508.012 L
1086.031 514.473 L
1069.587 516.921 L
1053.051 515.202 L
1037.461 509.425 L
1023.798 499.952 L
1012.919 487.379 L
1005.51 472.496 L
1002.034 456.238 L
S
GR
GS
[0.75 0 0 0.75 750.70683 287.31712] CT
0 1 1 RC
10.0 ML
0.667 LW
N
0 -4 M
0 4 L
-4 0 M
4 0 L
-2.828 -2.828 M
2.828 2.828 L
-2.828 2.828 M
2.828 -2.828 L
S
GR
GS
[0.75 0 0 0.75 0 -0.25] CT
0 1 1 RC
1 LJ
0.667 LW
N
1002.227 376.037 M
1002.452 375.552 L
1002.482 376.086 L
S
GR
GS
[0.75 0 0 0.75 0 -0.25] CT
0 1 1 RC
1 LJ
0.667 LW
N
1000.942 383.423 M
1002.452 375.552 L
S
GR
GS
[0.75 0 0 0.75 0 -0.25] CT
0 1 1 RC
1 LJ
0.667 LW
N
934.898 389.533 M
935.454 372.916 L
940.124 356.96 L
948.616 342.666 L
960.396 330.934 L
974.723 322.499 L
990.698 317.893 L
1007.316 317.404 L
1023.534 321.063 L
1038.333 328.641 L
1050.782 339.66 L
1060.099 353.43 L
1065.7 369.084 L
1067.231 385.639 L
1064.598 402.055 L
1057.964 417.3 L
1047.748 430.416 L
1034.591 440.58 L
1019.319 447.152 L
1002.893 449.72 L
986.344 448.122 L
970.713 442.459 L
956.981 433.087 L
946.011 420.594 L
938.493 405.765 L
934.898 389.533 L
S
GR
GS
[0.75 0 0 0.75 800.86102 337.46597] CT
0 1 1 RC
10.0 ML
0.667 LW
N
0 -4 M
0 4 L
-4 0 M
4 0 L
-2.828 -2.828 M
2.828 2.828 L
-2.828 2.828 M
2.828 -2.828 L
S
GR
GS
[0.75 0 0 0.75 0 -0.25] CT
0 1 1 RC
1 LJ
0.667 LW
N
1069.099 442.903 M
1069.325 442.417 L
1069.354 442.951 L
S
GR
GS
[0.75 0 0 0.75 0 -0.25] CT
0 1 1 RC
1 LJ
0.667 LW
N
1067.815 450.288 M
1069.325 442.417 L
S
GR
GS
[0.75 0 0 0.75 0 -0.25] CT
0 1 1 RC
1 LJ
10.667 LW
N
1001.773 456.424 M
1002.322 439.807 L
1006.986 423.849 L
1015.472 409.553 L
1027.247 397.815 L
1041.571 389.375 L
1057.544 384.762 L
1074.162 384.266 L
1090.382 387.919 L
1105.183 395.491 L
1117.637 406.506 L
1126.96 420.271 L
1132.566 435.923 L
1134.104 452.477 L
1131.477 468.894 L
1124.85 484.142 L
1114.639 497.262 L
1101.486 507.431 L
1086.217 514.01 L
1069.792 516.584 L
1053.243 514.993 L
1037.609 509.337 L
1023.873 499.97 L
1012.898 487.481 L
1005.374 472.655 L
1001.773 456.424 L
S
GR
GS
[0.75 0 0 0.75 750.47887 287.08146] CT
0 1 1 RC
10.0 ML
0.667 LW
N
0 -4 M
0 4 L
-4 0 M
4 0 L
-2.828 -2.828 M
2.828 2.828 L
-2.828 2.828 M
2.828 -2.828 L
S
GR
GS
[0.75 0 0 0.75 0 -0.25] CT
0 1 1 RC
1 LJ
0.667 LW
N
1001.923 375.723 M
1002.148 375.237 L
1002.178 375.772 L
S
GR
GS
[0.75 0 0 0.75 0 -0.25] CT
0 1 1 RC
1 LJ
0.667 LW
N
1000.638 383.109 M
1002.148 375.237 L
S
GR
GS
[0.75 0 0 0.75 0 -0.25] CT
0 1 1 RC
1 LJ
10.667 LW
N
934.763 390.822 M
938.75 406.962 L
946.627 421.604 L
957.897 433.826 L
971.853 442.862 L
987.617 448.144 L
1004.2 449.339 L
1020.559 446.372 L
1035.666 439.431 L
1048.572 428.95 L
1058.467 415.59 L
1064.728 400.188 L
1066.962 383.713 L
1065.028 367.2 L
1059.049 351.687 L
1049.4 338.148 L
1036.686 327.434 L
1021.708 320.218 L
1005.406 316.954 L
988.804 317.847 L
972.946 322.84 L
958.828 331.621 L
947.337 343.636 L
939.195 358.132 L
934.914 374.197 L
934.763 390.822 L
S
GR
GS
[0.75 0 0 0.75 820.27423 327.74701] CT
0 1 1 RC
10.0 ML
10.667 LW
N
0 -4 M
0 4 L
-4 0 M
4 0 L
-2.828 -2.828 M
2.828 2.828 L
-2.828 2.828 M
2.828 -2.828 L
S
GR
GS
[0.75 0 0 0.75 0 -0.25] CT
0 1 1 RC
1 LJ
0.667 LW
N
1094.984 429.944 M
1095.209 429.458 L
1095.239 429.993 L
S
GR
GS
[0.75 0 0 0.75 0 -0.25] CT
0 1 1 RC
1 LJ
0.667 LW
N
1093.699 437.329 M
1095.209 429.458 L
S
GR
GS
[0.75 0 0 0.75 0 -0.25] CT
0 1 1 RC
1 LJ
10.667 LW
N
1027.697 443.873 M
1031.397 460.081 L
1039.013 474.86 L
1050.064 487.281 L
1063.858 496.563 L
1079.526 502.123 L
1096.085 503.612 L
1112.494 500.937 L
1127.722 494.264 L
1140.812 484.014 L
1150.942 470.831 L
1157.475 455.543 L
1160.001 439.11 L
1158.361 422.565 L
1152.658 406.949 L
1143.25 393.241 L
1130.729 382.303 L
1115.881 374.823 L
1099.639 371.27 L
1083.024 371.868 L
1067.08 376.579 L
1052.809 385.108 L
1041.106 396.917 L
1032.708 411.266 L
1028.143 427.253 L
1027.697 443.873 L
S
GR
GS
[0.75 0 0 0.75 870.65405 226.98022] CT
0 1 1 RC
10.0 ML
0.667 LW
N
0 -4 M
0 4 L
-4 0 M
4 0 L
-2.828 -2.828 M
2.828 2.828 L
-2.828 2.828 M
2.828 -2.828 L
S
GR
GS
[0.75 0 0 0.75 0 -0.25] CT
0 1 1 RC
1 LJ
0.667 LW
N
1162.156 295.588 M
1162.382 295.102 L
1162.412 295.637 L
S
GR
GS
[0.75 0 0 0.75 0 -0.25] CT
0 1 1 RC
1 LJ
0.667 LW
N
1160.872 302.974 M
1162.382 295.102 L
S
GR
GS
[0.75 0 0 0.75 0 -0.25] CT
0 1 1 RC
1 LJ
10.667 LW
N
1094.996 310.686 M
1098.984 326.826 L
1106.86 341.468 L
1118.13 353.691 L
1132.086 362.727 L
1147.85 368.009 L
1164.433 369.204 L
1180.792 366.238 L
1195.899 359.296 L
1208.806 348.816 L
1218.7 335.455 L
1224.961 320.053 L
1227.195 303.578 L
1225.262 287.066 L
1219.283 271.552 L
1209.634 258.013 L
1196.921 247.299 L
1181.942 240.083 L
1165.64 236.819 L
1149.038 237.712 L
1133.18 242.705 L
1119.062 251.485 L
1107.571 263.5 L
1099.429 277.996 L
1095.148 294.061 L
1094.996 310.686 L
S
GR
GS
[0.75 0 0 0.75 921.03662 277.36462] CT
0 1 1 RC
10.0 ML
0.667 LW
N
0 -4 M
0 4 L
-4 0 M
4 0 L
-2.828 -2.828 M
2.828 2.828 L
-2.828 2.828 M
2.828 -2.828 L
S
GR
GS
[0.75 0 0 0.75 0 -0.25] CT
0 1 1 RC
1 LJ
0.667 LW
N
1229.333 362.767 M
1229.559 362.282 L
1229.589 362.816 L
S
GR
GS
[0.75 0 0 0.75 0 -0.25] CT
0 1 1 RC
1 LJ
0.667 LW
N
1228.049 370.153 M
1229.559 362.282 L
S
GR
GS
[0.75 0 0 0.75 0 -0.25] CT
0 1 1 RC
1 LJ
10.667 LW
N
1162.007 376.288 M
1165.608 392.519 L
1173.132 407.345 L
1184.107 419.834 L
1197.842 429.201 L
1213.476 434.858 L
1230.025 436.449 L
1246.45 433.875 L
1261.719 427.297 L
1274.873 417.128 L
1285.084 404.008 L
1291.711 388.76 L
1294.339 372.343 L
1292.801 355.789 L
1287.194 340.137 L
1277.871 326.371 L
1265.418 315.356 L
1250.617 307.784 L
1234.397 304.131 L
1217.779 304.627 L
1201.806 309.24 L
1187.482 317.68 L
1175.707 329.417 L
1167.221 343.713 L
1162.556 359.671 L
1162.007 376.288 L
S
GR
GS
[0.75 0 0 0.75 979.57205 335.89932] CT
0 1 1 RC
10.0 ML
0.667 LW
N
0 -4 M
0 4 L
-4 0 M
4 0 L
-2.828 -2.828 M
2.828 2.828 L
-2.828 2.828 M
2.828 -2.828 L
S
GR
GS
[0.75 0 0 0.75 0 -0.25] CT
0 1 1 RC
1 LJ
0.667 LW
N
1307.38 440.814 M
1307.606 440.328 L
1307.636 440.863 L
S
GR
GS
[0.75 0 0 0.75 0 -0.25] CT
0 1 1 RC
1 LJ
0.667 LW
N
1306.096 448.199 M
1307.606 440.328 L
S
GR
GS
[0.75 0 0 0.75 0 -0.25] CT
0 1 1 RC
1 LJ
10.667 LW
N
1240.043 454.208 M
1243.612 470.446 L
1251.108 485.286 L
1262.059 497.796 L
1275.776 507.189 L
1291.399 512.876 L
1307.945 514.499 L
1324.375 511.956 L
1339.657 505.407 L
1352.83 495.264 L
1363.066 482.163 L
1369.723 466.928 L
1372.381 450.516 L
1370.875 433.959 L
1365.299 418.297 L
1356.002 404.513 L
1343.57 393.474 L
1328.783 385.874 L
1312.571 382.19 L
1295.952 382.654 L
1279.97 387.236 L
1265.63 395.648 L
1253.832 407.363 L
1245.318 421.643 L
1240.624 437.592 L
1240.043 454.208 L
S
GR
GS
[0.75 0 0 0.75 917.50195 313.46913] CT
0 1 1 RC
10.0 ML
0.667 LW
N
0 -4 M
0 4 L
-4 0 M
4 0 L
-2.828 -2.828 M
2.828 2.828 L
-2.828 2.828 M
2.828 -2.828 L
S
GR
GS
[0.75 0 0 0.75 0 -0.25] CT
0 1 1 RC
1 LJ
0.667 LW
N
1224.621 410.907 M
1224.846 410.421 L
1224.876 410.956 L
S
GR
GS
[0.75 0 0 0.75 0 -0.25] CT
0 1 1 RC
1 LJ
0.667 LW
N
1223.336 418.292 M
1224.846 410.421 L
S
GR
GS
[0.75 0 0 0.75 0 -0.25] CT
0 1 1 RC
1 LJ
10.667 LW
N
1157.123 422.159 M
1160.165 438.504 L
1167.176 453.579 L
1177.716 466.437 L
1191.122 476.27 L
1206.552 482.46 L
1223.037 484.618 L
1239.541 482.608 L
1255.027 476.557 L
1268.521 466.846 L
1279.176 454.083 L
1286.323 439.072 L
1289.512 422.755 L
1288.542 406.157 L
1283.476 390.322 L
1274.631 376.245 L
1262.563 364.809 L
1248.03 356.734 L
1231.945 352.527 L
1215.319 352.452 L
1199.198 356.515 L
1184.592 364.458 L
1172.422 375.785 L
1163.45 389.782 L
1158.241 405.571 L
1157.123 422.159 L
S
GR
GS
[0.75 0 0 0.75 779.94708 378.05132] CT
0.718 0.275 1 RC
10.0 ML
10.667 LW
N
-5.333 0 M
0 7.093 L
5.333 0 L
0 -7.093 L
cp
S
GR
GS
[0.75 0 0 0.75 775.22534 358.83878] CT
0 1 0 RC
10.0 ML
0.667 LW
N
0 -4 M
0 4 L
-4 0 M
4 0 L
-2.828 -2.828 M
2.828 2.828 L
-2.828 2.828 M
2.828 -2.828 L
S
GR
GS
[0.75 0 0 0.75 0 -0.25] CT
0 1 0 RC
1 LJ
0.667 LW
N
1034.917 471.399 M
1035.143 470.914 L
1035.173 471.448 L
S
GR
GS
[0.75 0 0 0.75 0 -0.25] CT
0 1 0 RC
1 LJ
0.667 LW
N
1033.634 478.785 M
1035.143 470.914 L
S
GR
GS
[0.75 0 0 0.75 0 -0.25] CT
0 1 0 RC
1 LJ
10.667 LW
N
1007.712 485.118 M
1006.952 478.472 L
1007.868 471.846 L
1010.403 465.657 L
1014.397 460.292 L
1019.601 456.089 L
1025.686 453.312 L
1032.271 452.136 L
1038.941 452.634 L
1045.278 454.775 L
1050.883 458.425 L
1055.404 463.355 L
1058.557 469.254 L
1060.145 475.751 L
1060.067 482.44 L
1058.327 488.898 L
1055.036 494.722 L
1050.401 499.544 L
1044.712 503.061 L
1038.326 505.053 L
1031.646 505.395 L
1025.091 504.065 L
1019.073 501.146 L
1013.969 496.822 L
1010.101 491.365 L
1007.712 485.118 L
S
GR
GS
[0.75 0 0 0.75 875.98828 308.46239] CT
0 0 1 RC
10.0 ML
0.667 LW
N
0 -4 M
0 4 L
-4 0 M
4 0 L
-2.828 -2.828 M
2.828 2.828 L
-2.828 2.828 M
2.828 -2.828 L
S
GR
GS
[0.75 0 0 0.75 0 -0.25] CT
0 0 1 RC
1 LJ
0.667 LW
N
1169.268 404.231 M
1169.494 403.745 L
1169.523 404.28 L
S
GR
GS
[0.75 0 0 0.75 0 -0.25] CT
0 0 1 RC
1 LJ
0.667 LW
N
1167.984 411.617 M
1169.494 403.745 L
S
GR
GS
[0.75 0 0 0.75 0 -0.25] CT
0 0 1 RC
1 LJ
0.667 LW
N
1141.993 417.657 M
1141.307 411.004 L
1142.298 404.389 L
1144.902 398.228 L
1148.957 392.908 L
1154.208 388.764 L
1160.324 386.056 L
1166.921 384.954 L
1173.585 385.527 L
1179.897 387.739 L
1185.461 391.452 L
1189.927 396.432 L
1193.014 402.366 L
1194.528 408.881 L
1194.374 415.568 L
1192.562 422.007 L
1189.206 427.793 L
1184.517 432.562 L
1178.788 436.015 L
1172.381 437.936 L
1165.698 438.202 L
1159.158 436.798 L
1153.173 433.812 L
1148.118 429.431 L
1144.312 423.931 L
1141.993 417.657 L
S
GR
GS
[0.75 0 0 0.75 775.22635 375.14839] CT
0 0 1 RC
10.0 ML
0.667 LW
N
0 -4 M
0 4 L
-4 0 M
4 0 L
-2.828 -2.828 M
2.828 2.828 L
-2.828 2.828 M
2.828 -2.828 L
S
GR
GS
[0.75 0 0 0.75 0 -0.25] CT
0 0 1 RC
1 LJ
0.667 LW
N
1034.919 493.146 M
1035.144 492.66 L
1035.174 493.195 L
S
GR
GS
[0.75 0 0 0.75 0 -0.25] CT
0 0 1 RC
1 LJ
0.667 LW
N
1033.635 500.531 M
1035.144 492.66 L
S
GR
GS
[0.75 0 0 0.75 0 -0.25] CT
0 0 1 RC
1 LJ
10.667 LW
N
1007.575 506.267 M
1009.82 512.568 L
1013.562 518.112 L
1018.565 522.552 L
1024.515 525.608 L
1031.037 527.088 L
1037.724 526.9 L
1044.153 525.055 L
1049.921 521.669 L
1054.666 516.955 L
1058.09 511.208 L
1059.977 504.791 L
1060.209 498.106 L
1058.771 491.574 L
1055.754 485.604 L
1051.347 480.573 L
1045.827 476.795 L
1039.541 474.509 L
1032.884 473.858 L
1026.274 474.883 L
1020.127 477.519 L
1014.828 481.601 L
1010.711 486.873 L
1008.035 493.003 L
1006.967 499.606 L
1007.575 506.267 L
S
GR
GS
[0.75 0 0 0.75 775.22653 475.91408] CT
0 0 1 RC
10.0 ML
0.667 LW
N
0 -4 M
0 4 L
-4 0 M
4 0 L
-2.828 -2.828 M
2.828 2.828 L
-2.828 2.828 M
2.828 -2.828 L
S
GR
GS
[0.75 0 0 0.75 0 -0.25] CT
0 0 1 RC
1 LJ
0.667 LW
N
1034.919 627.5 M
1035.145 627.014 L
1035.174 627.549 L
S
GR
GS
[0.75 0 0 0.75 0 -0.25] CT
0 0 1 RC
1 LJ
0.667 LW
N
1033.635 634.885 M
1035.145 627.014 L
S
GR
GS
[0.75 0 0 0.75 0 -0.25] CT
0 0 1 RC
1 LJ
10.667 LW
N
1007.731 641.29 M
1006.952 634.647 L
1007.85 628.019 L
1010.368 621.822 L
1014.347 616.446 L
1019.539 612.228 L
1025.617 609.435 L
1032.198 608.24 L
1038.869 608.72 L
1045.212 610.843 L
1050.828 614.478 L
1055.363 619.394 L
1058.532 625.284 L
1060.138 631.778 L
1060.078 638.466 L
1058.357 644.93 L
1055.082 650.762 L
1050.46 655.597 L
1044.781 659.13 L
1038.401 661.141 L
1031.722 661.501 L
1025.163 660.189 L
1019.137 657.287 L
1014.021 652.977 L
1010.138 647.531 L
1007.731 641.29 L
S
GR
GS
[0.75 0 0 0.75 773.90652 357.52435] CT
0 0 1 RC
10.0 ML
0.667 LW
N
0 -4 M
0 4 L
-4 0 M
4 0 L
-2.828 -2.828 M
2.828 2.828 L
-2.828 2.828 M
2.828 -2.828 L
S
GR
GS
[0.75 0 0 0.75 0 -0.25] CT
0 0 1 RC
1 LJ
0.667 LW
N
1033.159 469.647 M
1033.385 469.161 L
1033.414 469.696 L
S
GR
GS
[0.75 0 0 0.75 0 -0.25] CT
0 0 1 RC
1 LJ
0.667 LW
N
1031.875 477.032 M
1033.385 469.161 L
S
GR
GS
[0.75 0 0 0.75 0 -0.25] CT
0 0 1 RC
1 LJ
0.667 LW
N
1005.927 483.254 M
1005.195 476.605 L
1006.139 469.983 L
1008.701 463.805 L
1012.718 458.457 L
1017.94 454.276 L
1024.037 451.526 L
1030.626 450.378 L
1037.294 450.904 L
1043.622 453.073 L
1049.211 456.747 L
1053.712 461.696 L
1056.84 467.608 L
1058.399 474.112 L
1058.292 480.8 L
1056.525 487.252 L
1053.209 493.061 L
1048.553 497.863 L
1042.849 501.356 L
1036.455 503.321 L
1029.774 503.634 L
1023.224 502.275 L
1017.218 499.331 L
1012.133 494.985 L
1008.289 489.512 L
1005.927 483.254 L
S
GR
GS
[0.75 0 0 0.75 807.14465 483.96651] CT
0 0 1 RC
10.0 ML
0.667 LW
N
0 -4 M
0 4 L
-4 0 M
4 0 L
-2.828 -2.828 M
2.828 2.828 L
-2.828 2.828 M
2.828 -2.828 L
S
GR
GS
[0.75 0 0 0.75 0 -0.25] CT
0 0 1 RC
1 LJ
0.667 LW
N
1077.477 638.237 M
1077.703 637.751 L
1077.733 638.286 L
S
GR
GS
[0.75 0 0 0.75 0 -0.25] CT
0 0 1 RC
1 LJ
0.667 LW
N
1076.193 645.622 M
1077.703 637.751 L
S
GR
GS
[0.75 0 0 0.75 0 -0.25] CT
0 0 1 RC
1 LJ
10.667 LW
N
1050.02 650.818 M
1049.55 644.146 L
1050.754 637.566 L
1053.556 631.493 L
1057.781 626.307 L
1063.163 622.335 L
1069.364 619.827 L
1075.993 618.939 L
1082.635 619.727 L
1088.873 622.143 L
1094.313 626.034 L
1098.615 631.156 L
1101.509 637.186 L
1102.811 643.747 L
1102.441 650.426 L
1100.422 656.803 L
1096.88 662.477 L
1092.038 667.092 L
1086.201 670.358 L
1079.735 672.07 L
1073.047 672.12 L
1066.556 670.505 L
1060.67 667.327 L
1055.76 662.784 L
1052.134 657.164 L
1050.02 650.818 L
S
GR
GS
[0.75 0 0 0.75 798.9776 375.01736] CT
0 0 1 RC
10.0 ML
0.667 LW
N
0 -4 M
0 4 L
-4 0 M
4 0 L
-2.828 -2.828 M
2.828 2.828 L
-2.828 2.828 M
2.828 -2.828 L
S
GR
GS
[0.75 0 0 0.75 0 -0.25] CT
0 0 1 RC
1 LJ
0.667 LW
N
1066.588 492.971 M
1066.814 492.485 L
1066.843 493.02 L
S
GR
GS
[0.75 0 0 0.75 0 -0.25] CT
0 0 1 RC
1 LJ
0.667 LW
N
1065.303 500.356 M
1066.814 492.485 L
S
GR
GS
[0.75 0 0 0.75 0 -0.25] CT
0 0 1 RC
1 LJ
10.667 LW
N
1038.964 504.634 M
1038.728 497.95 L
1040.162 491.416 L
1043.175 485.445 L
1047.578 480.41 L
1053.096 476.629 L
1059.38 474.338 L
1066.037 473.682 L
1072.647 474.703 L
1078.796 477.335 L
1084.098 481.414 L
1088.218 486.683 L
1090.899 492.811 L
1091.971 499.413 L
1091.368 506.075 L
1089.127 512.377 L
1085.389 517.924 L
1080.389 522.367 L
1074.441 525.427 L
1067.919 526.912 L
1061.233 526.728 L
1054.802 524.887 L
1049.032 521.505 L
1044.283 516.794 L
1040.856 511.05 L
1038.964 504.634 L
S
GR
GS
[0.75 0 0 0.75 773.69247 357.31003] CT
0 0 1 RC
10.0 ML
0.667 LW
N
0 -4 M
0 4 L
-4 0 M
4 0 L
-2.828 -2.828 M
2.828 2.828 L
-2.828 2.828 M
2.828 -2.828 L
S
GR
GS
[0.75 0 0 0.75 0 -0.25] CT
0 0 1 RC
1 LJ
0.667 LW
N
1032.874 469.361 M
1033.099 468.875 L
1033.129 469.41 L
S
GR
GS
[0.75 0 0 0.75 0 -0.25] CT
0 0 1 RC
1 LJ
0.667 LW
N
1031.59 476.747 M
1033.099 468.875 L
S
GR
GS
[0.75 0 0 0.75 0 -0.25] CT
0 0 1 RC
1 LJ
0.667 LW
N
1005.645 482.984 M
1008.011 489.24 L
1011.859 494.712 L
1016.947 499.054 L
1022.954 501.995 L
1029.505 503.349 L
1036.186 503.032 L
1042.578 501.063 L
1048.28 497.567 L
1052.934 492.762 L
1056.246 486.951 L
1058.009 480.498 L
1058.112 473.81 L
1056.548 467.307 L
1053.417 461.396 L
1048.914 456.451 L
1043.322 452.78 L
1036.993 450.615 L
1030.325 450.093 L
1023.736 451.245 L
1017.64 453.999 L
1012.422 458.183 L
1008.407 463.533 L
1005.849 469.713 L
1004.909 476.336 L
1005.645 482.984 L
S
GR
GS
[0.75 0 0 0.75 765.53847 349.15382] CT
0 0 1 RC
10.0 ML
0.667 LW
N
0 -4 M
0 4 L
-4 0 M
4 0 L
-2.828 -2.828 M
2.828 2.828 L
-2.828 2.828 M
2.828 -2.828 L
S
GR
GS
[0.75 0 0 0.75 0 -0.25] CT
0 0 1 RC
1 LJ
0.667 LW
N
1022.002 458.486 M
1022.227 458.001 L
1022.257 458.535 L
S
GR
GS
[0.75 0 0 0.75 0 -0.25] CT
0 0 1 RC
1 LJ
0.667 LW
N
1020.718 465.872 M
1022.227 458.001 L
S
GR
GS
[0.75 0 0 0.75 0 -0.25] CT
0 0 1 RC
1 LJ
10.667 LW
N
994.799 472.214 M
994.036 465.569 L
994.949 458.943 L
997.482 452.752 L
1001.475 447.386 L
1006.677 443.181 L
1012.761 440.402 L
1019.345 439.223 L
1026.016 439.719 L
1032.353 441.858 L
1037.959 445.506 L
1042.483 450.434 L
1045.638 456.331 L
1047.228 462.828 L
1047.152 469.517 L
1045.415 475.976 L
1042.126 481.8 L
1037.492 486.624 L
1031.804 490.144 L
1025.42 492.138 L
1018.74 492.482 L
1012.184 491.154 L
1006.165 488.238 L
1001.06 483.916 L
997.19 478.46 L
994.799 472.214 L
S
GR
GS
[0.75 0 0 0.75 715.15503 298.76471] CT
0 0 1 RC
10.0 ML
0.667 LW
N
0 -4 M
0 4 L
-4 0 M
4 0 L
-2.828 -2.828 M
2.828 2.828 L
-2.828 2.828 M
2.828 -2.828 L
S
GR
GS
[0.75 0 0 0.75 0 -0.25] CT
0 0 1 RC
1 LJ
0.667 LW
N
954.824 391.301 M
955.049 390.815 L
955.079 391.35 L
S
GR
GS
[0.75 0 0 0.75 0 -0.25] CT
0 0 1 RC
1 LJ
0.667 LW
N
953.54 398.686 M
955.049 390.815 L
S
GR
GS
[0.75 0 0 0.75 0 -0.25] CT
0 0 1 RC
1 LJ
0.667 LW
N
927.596 404.929 M
926.859 398.281 L
927.798 391.658 L
930.354 385.477 L
934.368 380.126 L
939.586 375.942 L
945.681 373.186 L
952.269 372.032 L
958.938 372.554 L
965.267 374.717 L
970.859 378.387 L
975.364 383.331 L
978.497 389.241 L
980.062 395.744 L
979.96 402.432 L
978.198 408.885 L
974.887 414.697 L
970.235 419.503 L
964.534 423.001 L
958.142 424.971 L
951.46 425.289 L
944.91 423.936 L
938.901 420.997 L
933.813 416.655 L
929.964 411.185 L
927.596 404.929 L
S
GR
GS
[0.75 0 0 0.75 773.65512 357.27041] CT
0 0 1 RC
10.0 ML
0.667 LW
N
0 -4 M
0 4 L
-4 0 M
4 0 L
-2.828 -2.828 M
2.828 2.828 L
-2.828 2.828 M
2.828 -2.828 L
S
GR
GS
[0.75 0 0 0.75 0 -0.25] CT
0 0 1 RC
1 LJ
0.667 LW
N
1032.824 469.308 M
1033.049 468.823 L
1033.079 469.357 L
S
GR
GS
[0.75 0 0 0.75 0 -0.25] CT
0 0 1 RC
1 LJ
0.667 LW
N
1031.54 476.694 M
1033.049 468.823 L
S
GR
GS
[0.75 0 0 0.75 0 -0.25] CT
0 0 1 RC
1 LJ
0.667 LW
N
1005.624 483.049 M
1008.019 489.295 L
1011.891 494.748 L
1016.999 499.068 L
1023.019 501.981 L
1029.576 503.306 L
1036.256 502.958 L
1042.639 500.96 L
1048.325 497.438 L
1052.957 492.612 L
1056.242 486.786 L
1057.976 480.325 L
1058.049 473.637 L
1056.456 467.141 L
1053.297 461.244 L
1048.771 456.319 L
1043.163 452.674 L
1036.824 450.538 L
1030.154 450.046 L
1023.57 451.228 L
1017.487 454.01 L
1012.288 458.217 L
1008.298 463.586 L
1005.768 469.778 L
1004.858 476.404 L
1005.624 483.049 L
S
GR
GS
[0.75 0 0 0.75 715.11909 298.73019] CT
0 0 1 RC
10.0 ML
0.667 LW
N
0 -4 M
0 4 L
-4 0 M
4 0 L
-2.828 -2.828 M
2.828 2.828 L
-2.828 2.828 M
2.828 -2.828 L
S
GR
GS
[0.75 0 0 0.75 0 -0.25] CT
0 0 1 RC
1 LJ
0.667 LW
N
954.776 391.255 M
955.001 390.769 L
955.031 391.304 L
S
GR
GS
[0.75 0 0 0.75 0 -0.25] CT
0 0 1 RC
1 LJ
0.667 LW
N
953.492 398.64 M
955.001 390.769 L
S
GR
GS
[0.75 0 0 0.75 0 -0.25] CT
0 0 1 RC
1 LJ
10.667 LW
N
927.57 404.973 M
929.959 411.22 L
933.827 416.677 L
938.931 421.001 L
944.949 423.92 L
951.504 425.25 L
958.184 424.909 L
964.57 422.916 L
970.259 419.399 L
974.895 414.577 L
978.185 408.754 L
979.925 402.295 L
980.003 395.607 L
978.416 389.109 L
975.263 383.21 L
970.741 378.281 L
965.136 374.631 L
958.799 372.489 L
952.129 371.991 L
945.544 373.167 L
939.459 375.944 L
934.256 380.147 L
930.261 385.512 L
927.726 391.701 L
926.81 398.327 L
927.57 404.973 L
S
GR
GS
[0.75 0 0 0.75 776.79794 355.69678] CT
0 0 1 RC
10.0 ML
0.667 LW
N
0 -4 M
0 4 L
-4 0 M
4 0 L
-2.828 -2.828 M
2.828 2.828 L
-2.828 2.828 M
2.828 -2.828 L
S
GR
GS
[0.75 0 0 0.75 0 -0.25] CT
0 0 1 RC
1 LJ
0.667 LW
N
1037.015 467.21 M
1037.24 466.724 L
1037.27 467.259 L
S
GR
GS
[0.75 0 0 0.75 0 -0.25] CT
0 0 1 RC
1 LJ
0.667 LW
N
1035.731 474.596 M
1037.24 466.724 L
S
GR
GS
[0.75 0 0 0.75 0 -0.25] CT
0 0 1 RC
1 LJ
10.667 LW
N
1009.823 480.987 M
1012.227 487.229 L
1016.107 492.678 L
1021.22 496.99 L
1027.245 499.895 L
1033.803 501.21 L
1040.483 500.853 L
1046.863 498.846 L
1052.545 495.316 L
1057.169 490.484 L
1060.447 484.653 L
1062.172 478.19 L
1062.235 471.502 L
1060.633 465.008 L
1057.466 459.116 L
1052.933 454.197 L
1047.32 450.56 L
1040.978 448.433 L
1034.307 447.95 L
1027.725 449.141 L
1021.646 451.931 L
1016.452 456.146 L
1012.47 461.52 L
1009.949 467.716 L
1009.048 474.343 L
1009.823 480.987 L
S
GR
GS
[0.75 0 0 0.75 827.17776 254.93157] CT
0 0 1 RC
10.0 ML
0.667 LW
N
0 -4 M
0 4 L
-4 0 M
4 0 L
-2.828 -2.828 M
2.828 2.828 L
-2.828 2.828 M
2.828 -2.828 L
S
GR
GS
[0.75 0 0 0.75 0 -0.25] CT
0 0 1 RC
1 LJ
0.667 LW
N
1104.188 332.857 M
1104.413 332.371 L
1104.443 332.906 L
S
GR
GS
[0.75 0 0 0.75 0 -0.25] CT
0 0 1 RC
1 LJ
0.667 LW
N
1102.904 340.242 M
1104.413 332.371 L
S
GR
GS
[0.75 0 0 0.75 0 -0.25] CT
0 0 1 RC
1 LJ
10.667 LW
N
1076.858 346.045 M
1079.12 352.34 L
1082.876 357.875 L
1087.89 362.302 L
1093.848 365.342 L
1100.374 366.806 L
1107.06 366.6 L
1113.484 364.739 L
1119.244 361.338 L
1123.977 356.611 L
1127.386 350.856 L
1129.256 344.435 L
1129.471 337.749 L
1128.016 331.22 L
1124.984 325.259 L
1120.564 320.238 L
1115.034 316.475 L
1108.743 314.205 L
1102.084 313.571 L
1095.477 314.613 L
1089.336 317.265 L
1084.048 321.361 L
1079.945 326.643 L
1077.284 332.78 L
1076.234 339.386 L
1076.858 346.045 L
S
GR
GS
[0.75 0 0 0.75 877.56006 305.3189] CT
0 0 1 RC
10.0 ML
0.667 LW
N
0 -4 M
0 4 L
-4 0 M
4 0 L
-2.828 -2.828 M
2.828 2.828 L
-2.828 2.828 M
2.828 -2.828 L
S
GR
GS
[0.75 0 0 0.75 0 -0.25] CT
0 0 1 RC
1 LJ
0.667 LW
N
1171.364 400.04 M
1171.589 399.554 L
1171.619 400.089 L
S
GR
GS
[0.75 0 0 0.75 0 -0.25] CT
0 0 1 RC
1 LJ
0.667 LW
N
1170.08 407.425 M
1171.589 399.554 L
S
GR
GS
[0.75 0 0 0.75 0 -0.25] CT
0 0 1 RC
1 LJ
10.667 LW
N
1144.109 413.552 M
1143.401 406.901 L
1144.37 400.283 L
1146.954 394.113 L
1150.991 388.78 L
1156.227 384.619 L
1162.334 381.89 L
1168.928 380.766 L
1175.594 381.317 L
1181.914 383.509 L
1187.49 387.203 L
1191.972 392.168 L
1195.078 398.091 L
1196.614 404.601 L
1196.483 411.289 L
1194.693 417.734 L
1191.356 423.531 L
1186.682 428.316 L
1180.965 431.788 L
1174.564 433.73 L
1167.882 434.018 L
1161.338 432.636 L
1155.342 429.67 L
1150.273 425.306 L
1146.449 419.819 L
1144.109 413.552 L
S
GR
GS
[0.75 0 0 0.75 835.33163 238.62164] CT
0 0 1 RC
10.0 ML
0.667 LW
N
0 -4 M
0 4 L
-4 0 M
4 0 L
-2.828 -2.828 M
2.828 2.828 L
-2.828 2.828 M
2.828 -2.828 L
S
GR
GS
[0.75 0 0 0.75 0 -0.25] CT
0 0 1 RC
1 LJ
0.667 LW
N
1115.059 311.11 M
1115.285 310.624 L
1115.314 311.159 L
S
GR
GS
[0.75 0 0 0.75 0 -0.25] CT
0 0 1 RC
1 LJ
0.667 LW
N
1113.776 318.496 M
1115.285 310.624 L
S
GR
GS
[0.75 0 0 0.75 0 -0.25] CT
0 0 1 RC
1 LJ
10.667 LW
N
1087.854 324.828 M
1087.093 318.183 L
1088.009 311.557 L
1090.544 305.367 L
1094.539 300.002 L
1099.743 295.799 L
1105.828 293.022 L
1112.412 291.846 L
1119.083 292.344 L
1125.419 294.486 L
1131.025 298.136 L
1135.546 303.065 L
1138.699 308.964 L
1140.287 315.462 L
1140.208 322.15 L
1138.469 328.609 L
1135.178 334.432 L
1130.542 339.254 L
1124.853 342.772 L
1118.468 344.764 L
1111.788 345.105 L
1105.233 343.775 L
1099.214 340.856 L
1094.111 336.533 L
1090.243 331.076 L
1087.854 324.828 L
S
GR
GS
[0.75 0 0 0.75 885.71548 289.00603] CT
0 0 1 RC
10.0 ML
0.667 LW
N
0 -4 M
0 4 L
-4 0 M
4 0 L
-2.828 -2.828 M
2.828 2.828 L
-2.828 2.828 M
2.828 -2.828 L
S
GR
GS
[0.75 0 0 0.75 0 -0.25] CT
0 0 1 RC
1 LJ
0.667 LW
N
1182.238 378.289 M
1182.463 377.803 L
1182.493 378.338 L
S
GR
GS
[0.75 0 0 0.75 0 -0.25] CT
0 0 1 RC
1 LJ
0.667 LW
N
1180.954 385.675 M
1182.463 377.803 L
S
GR
GS
[0.75 0 0 0.75 0 -0.25] CT
0 0 1 RC
1 LJ
9.333 LW
N
1155.08 392.201 M
1157.516 398.43 L
1161.425 403.858 L
1166.56 408.144 L
1172.6 411.017 L
1179.165 412.299 L
1185.843 411.907 L
1192.213 409.867 L
1197.875 406.307 L
1202.475 401.451 L
1205.722 395.603 L
1207.413 389.132 L
1207.442 382.443 L
1205.806 375.957 L
1202.608 370.082 L
1198.05 365.187 L
1192.418 361.579 L
1186.065 359.485 L
1179.392 359.036 L
1172.816 360.262 L
1166.752 363.084 L
1161.58 367.326 L
1157.625 372.72 L
1155.137 378.929 L
1154.27 385.561 L
1155.08 392.201 L
S
GR
GS
[0.75 0 0 0.75 944.25256 347.54394] CT
0 0 1 RC
10.0 ML
0.667 LW
N
0 -4 M
0 4 L
-4 0 M
4 0 L
-2.828 -2.828 M
2.828 2.828 L
-2.828 2.828 M
2.828 -2.828 L
S
GR
GS
[0.75 0 0 0.75 0 -0.25] CT
0 0 1 RC
1 LJ
0.667 LW
N
1260.287 456.34 M
1260.513 455.854 L
1260.542 456.389 L
S
GR
GS
[0.75 0 0 0.75 0 -0.25] CT
0 0 1 RC
1 LJ
0.667 LW
N
1259.003 463.725 M
1260.513 455.854 L
S
GR
GS
[0.75 0 0 0.75 0 -0.25] CT
0 0 1 RC
1 LJ
0.667 LW
N
1233.192 470.494 M
1235.686 476.7 L
1239.646 482.091 L
1244.821 486.328 L
1250.888 489.145 L
1257.465 490.365 L
1264.138 489.911 L
1270.489 487.811 L
1276.118 484.198 L
1280.672 479.299 L
1283.864 473.421 L
1285.494 466.934 L
1285.459 460.245 L
1283.763 453.775 L
1280.51 447.93 L
1275.906 443.078 L
1270.241 439.523 L
1263.869 437.489 L
1257.191 437.103 L
1250.627 438.39 L
1244.59 441.269 L
1239.458 445.559 L
1235.554 450.991 L
1233.124 457.222 L
1232.32 463.862 L
1233.192 470.494 L
S
GR
GS
[0.75 0 0 0.75 893.86798 297.16178] CT
0 0 1 RC
10.0 ML
0.667 LW
N
0 -4 M
0 4 L
-4 0 M
4 0 L
-2.828 -2.828 M
2.828 2.828 L
-2.828 2.828 M
2.828 -2.828 L
S
GR
GS
[0.75 0 0 0.75 0 -0.25] CT
0 0 1 RC
1 LJ
0.667 LW
N
1193.108 389.163 M
1193.333 388.678 L
1193.363 389.212 L
S
GR
GS
[0.75 0 0 0.75 0 -0.25] CT
0 0 1 RC
1 LJ
0.667 LW
N
1191.824 396.549 M
1193.333 388.678 L
S
GR
GS
[0.75 0 0 0.75 0 -0.25] CT
0 0 1 RC
1 LJ
10.667 LW
N
1165.908 402.904 M
1168.302 409.15 L
1172.175 414.603 L
1177.282 418.923 L
1183.303 421.836 L
1189.86 423.161 L
1196.54 422.813 L
1202.923 420.815 L
1208.609 417.293 L
1213.241 412.467 L
1216.526 406.641 L
1218.26 400.18 L
1218.332 393.492 L
1216.739 386.996 L
1213.581 381.1 L
1209.055 376.174 L
1203.447 372.529 L
1197.108 370.393 L
1190.438 369.901 L
1183.854 371.083 L
1177.771 373.865 L
1172.571 378.073 L
1168.581 383.441 L
1166.052 389.633 L
1165.141 396.26 L
1165.908 402.904 L
S
GR
GS
[0.75 0 0 0.75 953.72287 357.01566] CT
0 0 1 RC
10.0 ML
0.667 LW
N
0 -4 M
0 4 L
-4 0 M
4 0 L
-2.828 -2.828 M
2.828 2.828 L
-2.828 2.828 M
2.828 -2.828 L
S
GR
GS
[0.75 0 0 0.75 0 -0.25] CT
0 0 1 RC
1 LJ
0.667 LW
N
1272.914 468.969 M
1273.14 468.483 L
1273.169 469.018 L
S
GR
GS
[0.75 0 0 0.75 0 -0.25] CT
0 0 1 RC
1 LJ
0.667 LW
N
1271.63 476.354 M
1273.14 468.483 L
S
GR
GS
[0.75 0 0 0.75 0 -0.25] CT
0 0 1 RC
1 LJ
10.667 LW
N
1245.721 482.738 M
1244.948 476.094 L
1245.851 469.466 L
1248.374 463.271 L
1252.358 457.899 L
1257.553 453.686 L
1263.633 450.897 L
1270.215 449.708 L
1276.886 450.193 L
1283.227 452.322 L
1288.839 455.961 L
1293.37 460.881 L
1296.535 466.774 L
1298.135 473.268 L
1298.07 479.957 L
1296.344 486.419 L
1293.064 492.249 L
1288.438 497.08 L
1282.756 500.608 L
1276.374 502.613 L
1269.695 502.968 L
1263.137 501.651 L
1257.113 498.744 L
1252.001 494.43 L
1248.123 488.98 L
1245.721 482.738 L
S
GR
GS
[0.75 0 0 0.75 945.56836 348.86037] CT
0 0 1 RC
10.0 ML
0.667 LW
N
0 -4 M
0 4 L
-4 0 M
4 0 L
-2.828 -2.828 M
2.828 2.828 L
-2.828 2.828 M
2.828 -2.828 L
S
GR
GS
[0.75 0 0 0.75 0 -0.25] CT
0 0 1 RC
1 LJ
0.667 LW
N
1262.042 458.095 M
1262.267 457.609 L
1262.297 458.144 L
S
GR
GS
[0.75 0 0 0.75 0 -0.25] CT
0 0 1 RC
1 LJ
0.667 LW
N
1260.758 465.48 M
1262.267 457.609 L
S
GR
GS
[0.75 0 0 0.75 0 -0.25] CT
0 0 1 RC
1 LJ
10.667 LW
N
1234.915 472.128 M
1234.074 465.492 L
1234.909 458.856 L
1237.369 452.636 L
1241.298 447.223 L
1246.45 442.957 L
1252.501 440.106 L
1259.071 438.85 L
1265.746 439.267 L
1272.109 441.331 L
1277.758 444.913 L
1282.339 449.786 L
1285.564 455.647 L
1287.23 462.124 L
1287.233 468.813 L
1285.572 475.293 L
1282.353 481.155 L
1277.776 486.033 L
1272.13 489.62 L
1265.77 491.69 L
1259.094 492.113 L
1252.523 490.862 L
1246.47 488.017 L
1241.314 483.756 L
1237.38 478.346 L
1234.915 472.128 L
S
GR
GS
[0.75 0 0 0.75 917.50195 313.46913] CT
0 0 1 RC
10.0 ML
0.667 LW
N
0 -4 M
0 4 L
-4 0 M
4 0 L
-2.828 -2.828 M
2.828 2.828 L
-2.828 2.828 M
2.828 -2.828 L
S
GR
GS
[0.75 0 0 0.75 0 -0.25] CT
0 0 1 RC
1 LJ
0.667 LW
N
1224.621 410.907 M
1224.846 410.421 L
1224.876 410.956 L
S
GR
GS
[0.75 0 0 0.75 0 -0.25] CT
0 0 1 RC
1 LJ
0.667 LW
N
1223.336 418.292 M
1224.846 410.421 L
S
GR
GS
[0.75 0 0 0.75 0 -0.25] CT
0 0 1 RC
1 LJ
10.667 LW
N
1197.032 422.782 M
1198.975 429.182 L
1202.449 434.898 L
1207.235 439.571 L
1213.032 442.907 L
1219.478 444.696 L
1226.165 444.826 L
1232.675 443.289 L
1238.598 440.181 L
1243.562 435.698 L
1247.255 430.121 L
1249.445 423.801 L
1249.995 417.135 L
1248.87 410.541 L
1246.14 404.435 L
1241.977 399.199 L
1236.643 395.163 L
1230.473 392.58 L
1223.855 391.613 L
1217.204 392.322 L
1210.938 394.663 L
1205.451 398.489 L
1201.088 403.559 L
1198.123 409.555 L
1196.742 416.099 L
1197.032 422.782 L
S
GR
GS
[0.75 0 0 0.75 0 -0.25] CT
1 GC
N
/f2129313638{1481 239 M
1481 83 L
1288 83 L
1288 239 L
cp}def
f2129313638
f
GR
GS
[0.75 0 0 0.75 1001.25 77.75] CT
/Helvetica-Bold 30 F
GS
[1 0 0 1 0 0] CT
0 12 moveto 
1 -1 scale
(LandMark) t 
GR
GR
GS
[0.75 0 0 0.75 984 77.75] CT
1 0 0 RC
N
/f-1214359511{0 -19.995 M
-17.316 9.998 L
17.316 9.998 L
cp}def
f-1214359511
f
GR
GS
[0.75 0 0 0.75 984 77.75] CT
0 0 1 RC
10.0 ML
0.667 LW
N
0 -19.995 M
-17.316 9.998 L
17.316 9.998 L
cp
S
GR
GS
[0.75 0 0 0.75 1001.25 122.75] CT
/Helvetica-Bold 30 F
GS
[1 0 0 1 0 0] CT
0 0 moveto 
1 -1 scale
(b) t 
GR
GR
GS
[0.75 0 0 0.75 1015.5 111.5] CT
/Helvetica-Bold 24 F
GS
[1 0 0 1 0 0] CT
0 0 moveto 
1 -1 scale
(-) t 
GR
GR
GS
[0.75 0 0 0.75 1021.5 122.75] CT
/Helvetica-Bold 30 F
GS
[1 0 0 1 0 0] CT
0 0 moveto 
1 -1 scale
([X) t 
GR
GR
GS
[0.75 0 0 0.75 1044 134] CT
/Helvetica-Bold 24 F
GS
[1 0 0 1 0 0] CT
0 0 moveto 
1 -1 scale
(k) t 
GR
GR
GS
[0.75 0 0 0.75 1054.5 122.75] CT
/Helvetica-Bold 30 F
GS
[1 0 0 1 0 0] CT
0 0 moveto 
1 -1 scale
(]) t 
GR
GR
GS
[0.75 0 0 0.75 0 -0.25] CT
0 1 1 RC
1 LJ
10.667 LW
N
1292 154 M
1332 154 L
S
GR
GS
[0.75 0 0 0.75 1001.25 161.75] CT
/Helvetica-Bold 30 F
GS
[1 0 0 1 0 0] CT
0 0 moveto 
1 -1 scale
(b[X) t 
GR
GR
GS
[0.75 0 0 0.75 1038 173] CT
/Helvetica-Bold 24 F
GS
[1 0 0 1 0 0] CT
0 0 moveto 
1 -1 scale
(k) t 
GR
GR
GS
[0.75 0 0 0.75 1048.5 161.75] CT
/Helvetica-Bold 30 F
GS
[1 0 0 1 0 0] CT
0 0 moveto 
1 -1 scale
(]) t 
GR
GR
GS
[0.75 0 0 0.75 0 -0.25] CT
0 0 1 RC
1 LJ
10.667 LW
N
1292 211 M
1332 211 L
S
GR
GS
[0.75 0 0 0.75 0 -0.25] CT
0.149 GC
10.0 ML
0.667 LW
N
1288 239 M
1288 83 L
1481 83 L
1481 239 L
cp
S
GR
%%Trailer
%%Pages: 1
%%EOF
