%!PS-Adobe-3.0 EPSF-3.0
%%Creator: (MATLAB, The Mathworks, Inc. Version 9.10.0.1649659 \(R2021a\) Update 1. Operating System: Windows 10)
%%Title: C:/Users/ohads/ANPL/Code/da_bsp_future_smoothing/TestCases/ChosenTestCase/TestCases_56/Figures/Robots_estimation_k_9.eps
%%CreationDate: 2021-07-05T23:43:43
%%Pages: (atend)
%%BoundingBox:    25     6   379   293
%%LanguageLevel: 3
%%EndComments
%%BeginProlog
%%BeginResource: procset (Apache XML Graphics Std ProcSet) 1.2 0
%%Version: 1.2 0
%%Copyright: (Copyright 2001-2003,2010 The Apache Software Foundation. License terms: http://www.apache.org/licenses/LICENSE-2.0)
/bd{bind def}bind def
/ld{load def}bd
/GR/grestore ld
/GS/gsave ld
/RM/rmoveto ld
/C/curveto ld
/t/show ld
/L/lineto ld
/ML/setmiterlimit ld
/CT/concat ld
/f/fill ld
/N/newpath ld
/S/stroke ld
/CC/setcmykcolor ld
/A/ashow ld
/cp/closepath ld
/RC/setrgbcolor ld
/LJ/setlinejoin ld
/GC/setgray ld
/LW/setlinewidth ld
/M/moveto ld
/re {4 2 roll M
1 index 0 rlineto
0 exch rlineto
neg 0 rlineto
cp } bd
/_ctm matrix def
/_tm matrix def
/BT { _ctm currentmatrix pop matrix _tm copy pop 0 0 moveto } bd
/ET { _ctm setmatrix } bd
/iTm { _ctm setmatrix _tm concat } bd
/Tm { _tm astore pop iTm 0 0 moveto } bd
/ux 0.0 def
/uy 0.0 def
/F {
  /Tp exch def
  /Tf exch def
  Tf findfont Tp scalefont setfont
  /cf Tf def  /cs Tp def
} bd
/ULS {currentpoint /uy exch def /ux exch def} bd
/ULE {
  /Tcx currentpoint pop def
  gsave
  newpath
  cf findfont cs scalefont dup
  /FontMatrix get 0 get /Ts exch def /FontInfo get dup
  /UnderlinePosition get Ts mul /To exch def
  /UnderlineThickness get Ts mul /Tt exch def
  ux uy To add moveto  Tcx uy To add lineto
  Tt setlinewidth stroke
  grestore
} bd
/OLE {
  /Tcx currentpoint pop def
  gsave
  newpath
  cf findfont cs scalefont dup
  /FontMatrix get 0 get /Ts exch def /FontInfo get dup
  /UnderlinePosition get Ts mul /To exch def
  /UnderlineThickness get Ts mul /Tt exch def
  ux uy To add cs add moveto Tcx uy To add cs add lineto
  Tt setlinewidth stroke
  grestore
} bd
/SOE {
  /Tcx currentpoint pop def
  gsave
  newpath
  cf findfont cs scalefont dup
  /FontMatrix get 0 get /Ts exch def /FontInfo get dup
  /UnderlinePosition get Ts mul /To exch def
  /UnderlineThickness get Ts mul /Tt exch def
  ux uy To add cs 10 mul 26 idiv add moveto Tcx uy To add cs 10 mul 26 idiv add lineto
  Tt setlinewidth stroke
  grestore
} bd
/QT {
/Y22 exch store
/X22 exch store
/Y21 exch store
/X21 exch store
currentpoint
/Y21 load 2 mul add 3 div exch
/X21 load 2 mul add 3 div exch
/X21 load 2 mul /X22 load add 3 div
/Y21 load 2 mul /Y22 load add 3 div
/X22 load /Y22 load curveto
} bd
/SSPD {
dup length /d exch dict def
{
/v exch def
/k exch def
currentpagedevice k known {
/cpdv currentpagedevice k get def
v cpdv ne {
/upd false def
/nullv v type /nulltype eq def
/nullcpdv cpdv type /nulltype eq def
nullv nullcpdv or
{
/upd true def
} {
/sametype v type cpdv type eq def
sametype {
v type /arraytype eq {
/vlen v length def
/cpdvlen cpdv length def
vlen cpdvlen eq {
0 1 vlen 1 sub {
/i exch def
/obj v i get def
/cpdobj cpdv i get def
obj cpdobj ne {
/upd true def
exit
} if
} for
} {
/upd true def
} ifelse
} {
v type /dicttype eq {
v {
/dv exch def
/dk exch def
/cpddv cpdv dk get def
dv cpddv ne {
/upd true def
exit
} if
} forall
} {
/upd true def
} ifelse
} ifelse
} if
} ifelse
upd true eq {
d k v put
} if
} if
} if
} forall
d length 0 gt {
d setpagedevice
} if
} bd
/RE { % /NewFontName [NewEncodingArray] /FontName RE -
  findfont dup length dict begin
  {
    1 index /FID ne
    {def} {pop pop} ifelse
  } forall
  /Encoding exch def
  /FontName 1 index def
  currentdict definefont pop
  end
} bind def
%%EndResource
%%BeginResource: procset (Apache XML Graphics EPS ProcSet) 1.0 0
%%Version: 1.0 0
%%Copyright: (Copyright 2002-2003 The Apache Software Foundation. License terms: http://www.apache.org/licenses/LICENSE-2.0)
/BeginEPSF { %def
/b4_Inc_state save def         % Save state for cleanup
/dict_count countdictstack def % Count objects on dict stack
/op_count count 1 sub def      % Count objects on operand stack
userdict begin                 % Push userdict on dict stack
/showpage { } def              % Redefine showpage, { } = null proc
0 setgray 0 setlinecap         % Prepare graphics state
1 setlinewidth 0 setlinejoin
10 setmiterlimit [ ] 0 setdash newpath
/languagelevel where           % If level not equal to 1 then
{pop languagelevel             % set strokeadjust and
1 ne                           % overprint to their defaults.
{false setstrokeadjust false setoverprint
} if
} if
} bd
/EndEPSF { %def
count op_count sub {pop} repeat            % Clean up stacks
countdictstack dict_count sub {end} repeat
b4_Inc_state restore
} bd
%%EndResource
%FOPBeginFontDict
%%IncludeResource: font Courier-Oblique
%%IncludeResource: font Courier-BoldOblique
%%IncludeResource: font Courier-Bold
%%IncludeResource: font ZapfDingbats
%%IncludeResource: font Symbol
%%IncludeResource: font Helvetica
%%IncludeResource: font Helvetica-Oblique
%%IncludeResource: font Helvetica-Bold
%%IncludeResource: font Helvetica-BoldOblique
%%IncludeResource: font Times-Roman
%%IncludeResource: font Times-Italic
%%IncludeResource: font Times-Bold
%%IncludeResource: font Times-BoldItalic
%%IncludeResource: font Courier
%FOPEndFontDict
%%BeginResource: encoding WinAnsiEncoding
/WinAnsiEncoding [
/.notdef /.notdef /.notdef /.notdef /.notdef
/.notdef /.notdef /.notdef /.notdef /.notdef
/.notdef /.notdef /.notdef /.notdef /.notdef
/.notdef /.notdef /.notdef /.notdef /.notdef
/.notdef /.notdef /.notdef /.notdef /.notdef
/.notdef /.notdef /.notdef /.notdef /.notdef
/.notdef /.notdef /space /exclam /quotedbl
/numbersign /dollar /percent /ampersand /quotesingle
/parenleft /parenright /asterisk /plus /comma
/hyphen /period /slash /zero /one
/two /three /four /five /six
/seven /eight /nine /colon /semicolon
/less /equal /greater /question /at
/A /B /C /D /E
/F /G /H /I /J
/K /L /M /N /O
/P /Q /R /S /T
/U /V /W /X /Y
/Z /bracketleft /backslash /bracketright /asciicircum
/underscore /quoteleft /a /b /c
/d /e /f /g /h
/i /j /k /l /m
/n /o /p /q /r
/s /t /u /v /w
/x /y /z /braceleft /bar
/braceright /asciitilde /bullet /Euro /bullet
/quotesinglbase /florin /quotedblbase /ellipsis /dagger
/daggerdbl /circumflex /perthousand /Scaron /guilsinglleft
/OE /bullet /Zcaron /bullet /bullet
/quoteleft /quoteright /quotedblleft /quotedblright /bullet
/endash /emdash /asciitilde /trademark /scaron
/guilsinglright /oe /bullet /zcaron /Ydieresis
/space /exclamdown /cent /sterling /currency
/yen /brokenbar /section /dieresis /copyright
/ordfeminine /guillemotleft /logicalnot /sfthyphen /registered
/macron /degree /plusminus /twosuperior /threesuperior
/acute /mu /paragraph /middot /cedilla
/onesuperior /ordmasculine /guillemotright /onequarter /onehalf
/threequarters /questiondown /Agrave /Aacute /Acircumflex
/Atilde /Adieresis /Aring /AE /Ccedilla
/Egrave /Eacute /Ecircumflex /Edieresis /Igrave
/Iacute /Icircumflex /Idieresis /Eth /Ntilde
/Ograve /Oacute /Ocircumflex /Otilde /Odieresis
/multiply /Oslash /Ugrave /Uacute /Ucircumflex
/Udieresis /Yacute /Thorn /germandbls /agrave
/aacute /acircumflex /atilde /adieresis /aring
/ae /ccedilla /egrave /eacute /ecircumflex
/edieresis /igrave /iacute /icircumflex /idieresis
/eth /ntilde /ograve /oacute /ocircumflex
/otilde /odieresis /divide /oslash /ugrave
/uacute /ucircumflex /udieresis /yacute /thorn
/ydieresis
] def
%%EndResource
%FOPBeginFontReencode
/Courier-Oblique findfont
dup length dict begin
  {1 index /FID ne {def} {pop pop} ifelse} forall
  /Encoding WinAnsiEncoding def
  currentdict
end
/Courier-Oblique exch definefont pop
/Courier-BoldOblique findfont
dup length dict begin
  {1 index /FID ne {def} {pop pop} ifelse} forall
  /Encoding WinAnsiEncoding def
  currentdict
end
/Courier-BoldOblique exch definefont pop
/Courier-Bold findfont
dup length dict begin
  {1 index /FID ne {def} {pop pop} ifelse} forall
  /Encoding WinAnsiEncoding def
  currentdict
end
/Courier-Bold exch definefont pop
/Helvetica findfont
dup length dict begin
  {1 index /FID ne {def} {pop pop} ifelse} forall
  /Encoding WinAnsiEncoding def
  currentdict
end
/Helvetica exch definefont pop
/Helvetica-Oblique findfont
dup length dict begin
  {1 index /FID ne {def} {pop pop} ifelse} forall
  /Encoding WinAnsiEncoding def
  currentdict
end
/Helvetica-Oblique exch definefont pop
/Helvetica-Bold findfont
dup length dict begin
  {1 index /FID ne {def} {pop pop} ifelse} forall
  /Encoding WinAnsiEncoding def
  currentdict
end
/Helvetica-Bold exch definefont pop
/Helvetica-BoldOblique findfont
dup length dict begin
  {1 index /FID ne {def} {pop pop} ifelse} forall
  /Encoding WinAnsiEncoding def
  currentdict
end
/Helvetica-BoldOblique exch definefont pop
/Times-Roman findfont
dup length dict begin
  {1 index /FID ne {def} {pop pop} ifelse} forall
  /Encoding WinAnsiEncoding def
  currentdict
end
/Times-Roman exch definefont pop
/Times-Italic findfont
dup length dict begin
  {1 index /FID ne {def} {pop pop} ifelse} forall
  /Encoding WinAnsiEncoding def
  currentdict
end
/Times-Italic exch definefont pop
/Times-Bold findfont
dup length dict begin
  {1 index /FID ne {def} {pop pop} ifelse} forall
  /Encoding WinAnsiEncoding def
  currentdict
end
/Times-Bold exch definefont pop
/Times-BoldItalic findfont
dup length dict begin
  {1 index /FID ne {def} {pop pop} ifelse} forall
  /Encoding WinAnsiEncoding def
  currentdict
end
/Times-BoldItalic exch definefont pop
/Courier findfont
dup length dict begin
  {1 index /FID ne {def} {pop pop} ifelse} forall
  /Encoding WinAnsiEncoding def
  currentdict
end
/Courier exch definefont pop
%FOPEndFontReencode
%%EndProlog
%%Page: 1 1
%%PageBoundingBox: 0 0 428 315
%%BeginPageSetup
[1 0 0 -1 0 315] CT
%%EndPageSetup
GS
[0.75 0 0 0.75 0 0] CT
1 GC
N
0 0 570 420 re
f
GR
GS
[0.75 0 0 0.75 0 0] CT
1 GC
N
0 0 570 420 re
f
GR
GS
[0.75 0 0 0.75 0 0] CT
1 GC
N
121.155 321 M
488.845 321 L
488.845 31 L
121.155 31 L
cp
f
GR
GS
[0.75 0 0 0.75 0 0] CT
0.149 GC
2 setlinecap
1 LJ
0.667 LW
N
121.155 321 M
488.845 321 L
S
GR
GS
[0.75 0 0 0.75 0 0] CT
0.149 GC
2 setlinecap
1 LJ
0.667 LW
N
121.155 321 M
121.155 317.323 L
S
GR
GS
[0.75 0 0 0.75 0 0] CT
0.149 GC
2 setlinecap
1 LJ
0.667 LW
N
213.078 321 M
213.078 317.323 L
S
GR
GS
[0.75 0 0 0.75 0 0] CT
0.149 GC
2 setlinecap
1 LJ
0.667 LW
N
305 321 M
305 317.323 L
S
GR
GS
[0.75 0 0 0.75 0 0] CT
0.149 GC
2 setlinecap
1 LJ
0.667 LW
N
396.922 321 M
396.922 317.323 L
S
GR
GS
[0.75 0 0 0.75 0 0] CT
0.149 GC
2 setlinecap
1 LJ
0.667 LW
N
488.845 321 M
488.845 317.323 L
S
GR
GS
[0.75 0 0 0.75 90.86656 247.75001] CT
0.149 GC
/Helvetica 33.333 F
GS
[1 0 0 1 0 0] CT
-15 34 moveto 
1 -1 scale
(-5) t 
GR
GR
GS
[0.75 0 0 0.75 159.80828 247.75001] CT
0.149 GC
/Helvetica 33.333 F
GS
[1 0 0 1 0 0] CT
-9.5 34 moveto 
1 -1 scale
(0) t 
GR
GR
GS
[0.75 0 0 0.75 228.75 247.75001] CT
0.149 GC
/Helvetica 33.333 F
GS
[1 0 0 1 0 0] CT
-9.5 34 moveto 
1 -1 scale
(5) t 
GR
GR
GS
[0.75 0 0 0.75 297.69173 247.75001] CT
0.149 GC
/Helvetica 33.333 F
GS
[1 0 0 1 0 0] CT
-19 34 moveto 
1 -1 scale
(10) t 
GR
GR
GS
[0.75 0 0 0.75 366.63343 247.75001] CT
0.149 GC
/Helvetica 33.333 F
GS
[1 0 0 1 0 0] CT
-19 34 moveto 
1 -1 scale
(15) t 
GR
GR
GS
[0.75 0 0 0.75 228.75014 280.24999] CT
0.149 GC
/Helvetica 36.667 F
GS
[1 0 0 1 0 0] CT
-21.5 37 moveto 
1 -1 scale
(Xs) t 
GR
GR
GS
[0.75 0 0 0.75 0 0] CT
0.149 GC
2 setlinecap
1 LJ
0.667 LW
N
121.155 321 M
121.155 31 L
S
GR
GS
[0.75 0 0 0.75 0 0] CT
0.149 GC
2 setlinecap
1 LJ
0.667 LW
N
121.155 258.438 M
124.832 258.438 L
S
GR
GS
[0.75 0 0 0.75 0 0] CT
0.149 GC
2 setlinecap
1 LJ
0.667 LW
N
121.155 166.515 M
124.832 166.515 L
S
GR
GS
[0.75 0 0 0.75 0 0] CT
0.149 GC
2 setlinecap
1 LJ
0.667 LW
N
121.155 74.593 M
124.832 74.593 L
S
GR
GS
[0.75 0 0 0.75 83.86656 193.82824] CT
0.149 GC
/Helvetica 33.333 F
GS
[1 0 0 1 0 0] CT
-19 13 moveto 
1 -1 scale
(5) t 
GR
GR
GS
[0.75 0 0 0.75 83.86656 124.88652] CT
0.149 GC
/Helvetica 33.333 F
GS
[1 0 0 1 0 0] CT
-38 13 moveto 
1 -1 scale
(10) t 
GR
GR
GS
[0.75 0 0 0.75 83.86656 55.94481] CT
0.149 GC
/Helvetica 33.333 F
GS
[1 0 0 1 0 0] CT
-38 13 moveto 
1 -1 scale
(15) t 
GR
GR
GS
[0 -0.75 0.75 0 52.36657 131.9999] CT
0.149 GC
/Helvetica 36.667 F
GS
[1 0 0 1 0 0] CT
-21.5 -9 moveto 
1 -1 scale
(Ys) t 
GR
GR
GS
[0.75 0 0 0.75 214.96165 166.25156] CT
1 0 0 RC
N
0 -26.66 M
-23.088 13.33 L
23.088 13.33 L
cp
f
GR
GS
[0.75 0 0 0.75 214.96165 166.25156] CT
0 0 1 RC
10.0 ML
0.667 LW
N
0 -26.66 M
-23.088 13.33 L
23.088 13.33 L
cp
S
GR
GS
[0.75 0 0 0.75 201.17331 152.46321] CT
1 0 0 RC
N
/f-1996900118{0 -26.66 M
-23.088 13.33 L
23.088 13.33 L
cp}def
f-1996900118
f
GR
GS
[0.75 0 0 0.75 201.17331 152.46321] CT
0 0 1 RC
10.0 ML
0.667 LW
N
0 -26.66 M
-23.088 13.33 L
23.088 13.33 L
cp
S
GR
GS
[0.75 0 0 0.75 256.32669 166.25156] CT
1 0 0 RC
N
f-1996900118
f
GR
GS
[0.75 0 0 0.75 256.32669 166.25156] CT
0 0 1 RC
10.0 ML
0.667 LW
N
0 -26.66 M
-23.088 13.33 L
23.088 13.33 L
cp
S
GR
GS
[0.75 0 0 0.75 228.75 221.40493] CT
1 0 0 RC
N
f-1996900118
f
GR
GS
[0.75 0 0 0.75 228.75 221.40493] CT
0 0 1 RC
10.0 ML
0.667 LW
N
0 -26.66 M
-23.088 13.33 L
23.088 13.33 L
cp
S
GR
GS
[0.75 0 0 0.75 228.75 138.67487] CT
1 0 0 RC
N
f-1996900118
f
GR
GS
[0.75 0 0 0.75 228.75 138.67487] CT
0 0 1 RC
10.0 ML
0.667 LW
N
0 -26.66 M
-23.088 13.33 L
23.088 13.33 L
cp
S
GR
GS
[0.75 0 0 0.75 214.96165 193.82824] CT
1 0 0 RC
N
f-1996900118
f
GR
GS
[0.75 0 0 0.75 214.96165 193.82824] CT
0 0 1 RC
10.0 ML
0.667 LW
N
0 -26.66 M
-23.088 13.33 L
23.088 13.33 L
cp
S
GR
GS
[0.75 0 0 0.75 270.11504 221.40493] CT
1 0 0 RC
N
f-1996900118
f
GR
GS
[0.75 0 0 0.75 270.11504 221.40493] CT
0 0 1 RC
10.0 ML
0.667 LW
N
0 -26.66 M
-23.088 13.33 L
23.088 13.33 L
cp
S
GR
GS
[0.75 0 0 0.75 242.53835 152.46321] CT
1 0 0 RC
N
f-1996900118
f
GR
GS
[0.75 0 0 0.75 242.53835 152.46321] CT
0 0 1 RC
10.0 ML
0.667 LW
N
0 -26.66 M
-23.088 13.33 L
23.088 13.33 L
cp
S
GR
GS
[0.75 0 0 0.75 258.01994 46.06908] CT
1 0 0 RC
10.0 ML
0.667 LW
N
0 -5 M
0 5 L
-5 0 M
5 0 L
S
GR
GS
[0.75 0 0 0.75 234.67069 80.91401] CT
0 1 1 RC
10.0 ML
0.667 LW
N
0 -4 M
0 4 L
-4 0 M
4 0 L
-2.828 -2.828 M
2.828 2.828 L
-2.828 2.828 M
2.828 -2.828 L
S
GR
GS
[0.75 0 0 0.75 0 0] CT
0 1 1 RC
1 LJ
0.667 LW
N
311.333 107.14 M
311.248 107.067 L
311.357 107.091 L
S
GR
GS
[0.75 0 0 0.75 0 0] CT
0 1 1 RC
1 LJ
0.667 LW
N
312.894 107.885 M
311.248 107.067 L
S
GR
GS
[0.75 0 0 0.75 0 0] CT
0 1 1 RC
1 LJ
0.667 LW
N
327.747 111.183 M
328.1 107.386 L
327.498 103.62 L
325.979 100.122 L
323.637 97.112 L
320.62 94.779 L
317.118 93.269 L
313.351 92.678 L
309.554 93.042 L
305.968 94.339 L
302.817 96.487 L
300.299 99.352 L
298.572 102.752 L
297.746 106.475 L
297.871 110.287 L
298.94 113.947 L
300.886 117.227 L
303.586 119.92 L
306.872 121.857 L
310.536 122.916 L
314.348 123.03 L
318.068 122.193 L
321.464 120.457 L
324.321 117.93 L
326.46 114.773 L
327.747 111.183 L
S
GR
GS
[0.75 0 0 0.75 223.11356 69.35734] CT
0 1 1 RC
10.0 ML
0.667 LW
N
0 -4 M
0 4 L
-4 0 M
4 0 L
-2.828 -2.828 M
2.828 2.828 L
-2.828 2.828 M
2.828 -2.828 L
S
GR
GS
[0.75 0 0 0.75 0 0] CT
0 1 1 RC
1 LJ
0.667 LW
N
295.924 91.731 M
295.839 91.658 L
295.948 91.682 L
S
GR
GS
[0.75 0 0 0.75 0 0] CT
0 1 1 RC
1 LJ
0.667 LW
N
297.485 92.476 M
295.839 91.658 L
S
GR
GS
[0.75 0 0 0.75 0 0] CT
0 1 1 RC
1 LJ
0.667 LW
N
312.326 95.825 M
312.692 92.029 L
312.103 88.261 L
310.596 84.758 L
308.264 81.74 L
305.256 79.397 L
301.759 77.875 L
297.993 77.271 L
294.196 77.622 L
290.605 78.907 L
287.446 81.044 L
284.919 83.9 L
283.18 87.294 L
282.341 91.014 L
282.453 94.826 L
283.51 98.491 L
285.445 101.777 L
288.136 104.479 L
291.414 106.427 L
295.075 107.498 L
298.886 107.626 L
302.61 106.801 L
306.011 105.077 L
308.877 102.561 L
311.027 99.411 L
312.326 95.825 L
S
GR
GS
[0.75 0 0 0.75 221.24359 67.48693] CT
0 1 1 RC
10.0 ML
0.667 LW
N
0 -4 M
0 4 L
-4 0 M
4 0 L
-2.828 -2.828 M
2.828 2.828 L
-2.828 2.828 M
2.828 -2.828 L
S
GR
GS
[0.75 0 0 0.75 0 0] CT
0 1 1 RC
1 LJ
0.667 LW
N
293.43 89.237 M
293.345 89.164 L
293.455 89.188 L
S
GR
GS
[0.75 0 0 0.75 0 0] CT
0 1 1 RC
1 LJ
0.667 LW
N
294.991 89.983 M
293.345 89.164 L
S
GR
GS
[0.75 0 0 0.75 0 0] CT
0 1 1 RC
1 LJ
0.667 LW
N
309.838 93.308 M
310.198 89.512 L
309.604 85.745 L
308.091 82.244 L
305.755 79.23 L
302.742 76.891 L
299.243 75.374 L
295.477 74.776 L
291.68 75.133 L
288.091 76.423 L
284.936 78.565 L
282.412 81.425 L
280.679 84.822 L
279.845 88.544 L
279.963 92.355 L
281.026 96.018 L
282.965 99.302 L
285.661 102 L
288.943 103.943 L
292.604 105.008 L
296.416 105.13 L
300.138 104.3 L
303.537 102.57 L
306.399 100.049 L
308.544 96.896 L
309.838 93.308 L
S
GR
GS
[0.75 0 0 0.75 248.0977 54.05988] CT
0 1 1 RC
10.0 ML
0.667 LW
N
0 -4 M
0 4 L
-4 0 M
4 0 L
-2.828 -2.828 M
2.828 2.828 L
-2.828 2.828 M
2.828 -2.828 L
S
GR
GS
[0.75 0 0 0.75 0 0] CT
0 1 1 RC
1 LJ
0.667 LW
N
329.236 71.334 M
329.151 71.261 L
329.26 71.285 L
S
GR
GS
[0.75 0 0 0.75 0 0] CT
0 1 1 RC
1 LJ
0.667 LW
N
330.797 72.08 M
329.151 71.261 L
S
GR
GS
[0.75 0 0 0.75 0 0] CT
0 1 1 RC
1 LJ
0.667 LW
N
327.526 86.938 M
323.934 85.658 L
320.773 83.525 L
318.241 80.672 L
316.499 77.28 L
315.655 73.561 L
315.762 69.749 L
316.814 66.083 L
318.745 62.794 L
321.433 60.089 L
324.709 58.137 L
328.368 57.061 L
332.179 56.929 L
335.904 57.748 L
339.308 59.469 L
342.176 61.981 L
344.33 65.129 L
345.634 68.713 L
346.005 72.508 L
345.421 76.277 L
343.918 79.782 L
341.59 82.803 L
338.584 85.15 L
335.089 86.676 L
331.324 87.285 L
327.526 86.938 L
S
GR
GS
[0.75 0 0 0.75 249.96778 55.93021] CT
0 1 1 RC
10.0 ML
0.667 LW
N
0 -4 M
0 4 L
-4 0 M
4 0 L
-2.828 -2.828 M
2.828 2.828 L
-2.828 2.828 M
2.828 -2.828 L
S
GR
GS
[0.75 0 0 0.75 0 0] CT
0 1 1 RC
1 LJ
0.667 LW
N
331.729 73.828 M
331.644 73.755 L
331.754 73.779 L
S
GR
GS
[0.75 0 0 0.75 0 0] CT
0 1 1 RC
1 LJ
0.667 LW
N
333.29 74.574 M
331.644 73.755 L
S
GR
GS
[0.75 0 0 0.75 0 0] CT
0 1 1 RC
1 LJ
0.667 LW
N
348.15 77.84 M
348.495 74.042 L
347.885 70.277 L
346.358 66.783 L
344.01 63.778 L
340.989 61.451 L
337.483 59.949 L
333.714 59.365 L
329.919 59.738 L
326.335 61.042 L
323.189 63.197 L
320.677 66.067 L
318.957 69.471 L
318.139 73.195 L
318.272 77.007 L
319.349 80.665 L
321.302 83.941 L
324.008 86.628 L
327.298 88.558 L
330.964 89.609 L
334.776 89.715 L
338.495 88.87 L
341.887 87.127 L
344.738 84.594 L
346.871 81.433 L
348.15 77.84 L
S
GR
GS
[0.75 0 0 0.75 261.52473 67.48694] CT
0 1 1 RC
10.0 ML
0.667 LW
N
0 -4 M
0 4 L
-4 0 M
4 0 L
-2.828 -2.828 M
2.828 2.828 L
-2.828 2.828 M
2.828 -2.828 L
S
GR
GS
[0.75 0 0 0.75 0 0] CT
0 1 1 RC
1 LJ
0.667 LW
N
347.139 89.237 M
347.053 89.164 L
347.163 89.188 L
S
GR
GS
[0.75 0 0 0.75 0 0] CT
0 1 1 RC
1 LJ
0.667 LW
N
348.7 89.983 M
347.053 89.164 L
S
GR
GS
[0.75 0 0 0.75 0 0] CT
0 1 1 RC
1 LJ
0.667 LW
N
363.566 93.215 M
363.903 89.417 L
363.285 85.653 L
361.75 82.162 L
359.395 79.162 L
356.368 76.842 L
352.86 75.348 L
349.089 74.773 L
345.295 75.154 L
341.714 76.467 L
338.572 78.629 L
336.067 81.504 L
334.355 84.912 L
333.545 88.639 L
333.687 92.45 L
334.772 96.106 L
336.732 99.377 L
339.445 102.058 L
342.738 103.98 L
346.407 105.023 L
350.219 105.121 L
353.936 104.267 L
357.324 102.516 L
360.17 99.978 L
362.295 96.811 L
363.566 93.215 L
S
GR
GS
[0.75 0 0 0.75 223.1136 69.37321] CT
0 1 1 RC
10.0 ML
0.667 LW
N
0 -4 M
0 4 L
-4 0 M
4 0 L
-2.828 -2.828 M
2.828 2.828 L
-2.828 2.828 M
2.828 -2.828 L
S
GR
GS
[0.75 0 0 0.75 0 0] CT
0 1 1 RC
1 LJ
0.667 LW
N
295.924 91.752 M
295.839 91.679 L
295.948 91.703 L
S
GR
GS
[0.75 0 0 0.75 0 0] CT
0 1 1 RC
1 LJ
0.667 LW
N
297.485 92.498 M
295.839 91.679 L
S
GR
GS
[0.75 0 0 0.75 0 0] CT
0 1 1 RC
1 LJ
0.667 LW
N
312.324 95.855 M
312.693 92.059 L
312.106 88.29 L
310.6 84.787 L
308.27 81.767 L
305.263 79.422 L
301.767 77.898 L
298.002 77.292 L
294.204 77.641 L
290.613 78.924 L
287.453 81.06 L
284.923 83.914 L
283.183 87.307 L
282.342 91.027 L
282.452 94.839 L
283.506 98.504 L
285.439 101.792 L
288.129 104.495 L
291.407 106.445 L
295.066 107.518 L
298.878 107.648 L
302.602 106.825 L
306.004 105.103 L
308.871 102.588 L
311.023 99.439 L
312.324 95.855 L
S
GR
GS
[0.75 0 0 0.75 248.09772 54.07577] CT
0 1 1 RC
10.0 ML
0.667 LW
N
0 -4 M
0 4 L
-4 0 M
4 0 L
-2.828 -2.828 M
2.828 2.828 L
-2.828 2.828 M
2.828 -2.828 L
S
GR
GS
[0.75 0 0 0.75 0 0] CT
0 1 1 RC
1 LJ
0.667 LW
N
329.236 71.355 M
329.151 71.283 L
329.26 71.307 L
S
GR
GS
[0.75 0 0 0.75 0 0] CT
0 1 1 RC
1 LJ
0.667 LW
N
330.797 72.101 M
329.151 71.283 L
S
GR
GS
[0.75 0 0 0.75 0 0] CT
0 1 1 RC
1 LJ
0.667 LW
N
345.656 75.37 M
346.002 71.573 L
345.393 67.808 L
343.867 64.313 L
341.519 61.307 L
338.498 58.98 L
334.993 57.477 L
331.224 56.893 L
327.429 57.264 L
323.845 58.568 L
320.698 60.722 L
318.185 63.591 L
316.465 66.995 L
315.646 70.72 L
315.778 74.531 L
316.854 78.19 L
318.806 81.466 L
321.512 84.154 L
324.801 86.084 L
328.467 87.136 L
332.279 87.243 L
335.998 86.399 L
339.39 84.656 L
342.243 82.124 L
344.376 78.963 L
345.656 75.37 L
S
GR
GS
[0.75 0 0 0.75 248.09672 54.05867] CT
0 1 1 RC
10.0 ML
0.667 LW
N
0 -4 M
0 4 L
-4 0 M
4 0 L
-2.828 -2.828 M
2.828 2.828 L
-2.828 2.828 M
2.828 -2.828 L
S
GR
GS
[0.75 0 0 0.75 0 0] CT
0 1 1 RC
1 LJ
0.667 LW
N
329.235 71.333 M
329.149 71.26 L
329.259 71.284 L
S
GR
GS
[0.75 0 0 0.75 0 0] CT
0 1 1 RC
1 LJ
0.667 LW
N
330.796 72.078 M
329.149 71.26 L
S
GR
GS
[0.75 0 0 0.75 0 0] CT
0 1 1 RC
1 LJ
0.667 LW
N
345.654 75.347 M
346.001 71.549 L
345.391 67.785 L
343.865 64.29 L
341.518 61.284 L
338.496 58.957 L
334.991 57.454 L
331.223 56.87 L
327.427 57.242 L
323.843 58.546 L
320.696 60.7 L
318.184 63.569 L
316.464 66.973 L
315.644 70.697 L
315.777 74.509 L
316.853 78.167 L
318.805 81.443 L
321.511 84.131 L
324.8 86.061 L
328.466 87.113 L
332.278 87.22 L
335.997 86.376 L
339.389 84.633 L
342.242 82.101 L
344.375 78.94 L
345.654 75.347 L
S
GR
GS
[0.75 0 0 0.75 234.66996 80.91365] CT
0 1 1 RC
10.0 ML
0.667 LW
N
0 -4 M
0 4 L
-4 0 M
4 0 L
-2.828 -2.828 M
2.828 2.828 L
-2.828 2.828 M
2.828 -2.828 L
S
GR
GS
[0.75 0 0 0.75 0 0] CT
0 1 1 RC
1 LJ
0.667 LW
N
311.332 107.139 M
311.247 107.066 L
311.356 107.091 L
S
GR
GS
[0.75 0 0 0.75 0 0] CT
0 1 1 RC
1 LJ
0.667 LW
N
312.893 107.885 M
311.247 107.066 L
S
GR
GS
[0.75 0 0 0.75 0 0] CT
0 1 1 RC
1 LJ
0.667 LW
N
327.746 111.183 M
328.099 107.385 L
327.497 103.619 L
325.978 100.122 L
323.636 97.111 L
320.619 94.778 L
317.117 93.269 L
313.349 92.678 L
309.553 93.042 L
305.967 94.339 L
302.816 96.487 L
300.298 99.351 L
298.571 102.752 L
297.745 106.475 L
297.87 110.286 L
298.939 113.947 L
300.885 117.227 L
303.586 119.92 L
306.871 121.856 L
310.535 122.915 L
314.347 123.029 L
318.067 122.192 L
321.463 120.456 L
324.32 117.93 L
326.459 114.773 L
327.746 111.183 L
S
GR
GS
[0.75 0 0 0.75 223.11351 69.35707] CT
0 1 1 RC
10.0 ML
0.667 LW
N
0 -4 M
0 4 L
-4 0 M
4 0 L
-2.828 -2.828 M
2.828 2.828 L
-2.828 2.828 M
2.828 -2.828 L
S
GR
GS
[0.75 0 0 0.75 0 0] CT
0 1 1 RC
1 LJ
0.667 LW
N
295.924 91.73 M
295.838 91.658 L
295.948 91.682 L
S
GR
GS
[0.75 0 0 0.75 0 0] CT
0 1 1 RC
1 LJ
0.667 LW
N
297.485 92.476 M
295.838 91.658 L
S
GR
GS
[0.75 0 0 0.75 0 0] CT
0 1 1 RC
1 LJ
0.667 LW
N
312.331 95.801 M
312.691 92.004 L
312.096 88.237 L
310.583 84.736 L
308.247 81.722 L
305.234 79.384 L
301.735 77.868 L
297.968 77.27 L
294.171 77.627 L
290.583 78.918 L
287.428 81.06 L
284.905 83.92 L
283.172 87.317 L
282.339 91.039 L
282.457 94.85 L
283.52 98.513 L
285.46 101.796 L
288.155 104.494 L
291.437 106.437 L
295.099 107.502 L
298.911 107.623 L
302.633 106.793 L
306.031 105.063 L
308.893 102.542 L
311.038 99.388 L
312.331 95.801 L
S
GR
GS
[0.75 0 0 0.75 221.24329 67.48674] CT
0 1 1 RC
10.0 ML
0.667 LW
N
0 -4 M
0 4 L
-4 0 M
4 0 L
-2.828 -2.828 M
2.828 2.828 L
-2.828 2.828 M
2.828 -2.828 L
S
GR
GS
[0.75 0 0 0.75 0 0] CT
0 1 1 RC
1 LJ
0.667 LW
N
293.43 89.237 M
293.345 89.164 L
293.454 89.188 L
S
GR
GS
[0.75 0 0 0.75 0 0] CT
0 1 1 RC
1 LJ
0.667 LW
N
294.991 89.982 M
293.345 89.164 L
S
GR
GS
[0.75 0 0 0.75 0 0] CT
0 1 1 RC
1 LJ
0.667 LW
N
291.67 104.83 M
288.082 103.537 L
284.928 101.393 L
282.407 98.532 L
280.676 95.134 L
279.844 91.412 L
279.964 87.6 L
281.029 83.938 L
282.971 80.656 L
285.668 77.96 L
288.951 76.019 L
292.613 74.955 L
296.425 74.836 L
300.146 75.668 L
303.544 77.4 L
306.405 79.922 L
308.548 83.077 L
309.839 86.665 L
310.198 90.462 L
309.601 94.229 L
308.086 97.729 L
305.748 100.742 L
302.734 103.079 L
299.234 104.593 L
295.467 105.189 L
291.67 104.83 L
S
GR
GS
[0.75 0 0 0.75 248.09745 54.05967] CT
0 1 1 RC
10.0 ML
0.667 LW
N
0 -4 M
0 4 L
-4 0 M
4 0 L
-2.828 -2.828 M
2.828 2.828 L
-2.828 2.828 M
2.828 -2.828 L
S
GR
GS
[0.75 0 0 0.75 0 0] CT
0 1 1 RC
1 LJ
0.667 LW
N
329.236 71.334 M
329.15 71.261 L
329.26 71.285 L
S
GR
GS
[0.75 0 0 0.75 0 0] CT
0 1 1 RC
1 LJ
0.667 LW
N
330.797 72.08 M
329.15 71.261 L
S
GR
GS
[0.75 0 0 0.75 0 0] CT
0 1 1 RC
1 LJ
0.667 LW
N
345.655 75.349 M
346.002 71.551 L
345.392 67.786 L
343.866 64.291 L
341.519 61.286 L
338.497 58.958 L
334.992 57.455 L
331.224 56.871 L
327.428 57.243 L
323.844 58.547 L
320.697 60.701 L
318.185 63.57 L
316.465 66.974 L
315.645 70.698 L
315.778 74.51 L
316.854 78.168 L
318.806 81.445 L
321.512 84.132 L
324.801 86.063 L
328.467 87.114 L
332.279 87.221 L
335.998 86.377 L
339.39 84.634 L
342.242 82.103 L
344.376 78.941 L
345.655 75.349 L
S
GR
GS
[0.75 0 0 0.75 249.96755 55.92999] CT
0 1 1 RC
10.0 ML
0.667 LW
N
0 -4 M
0 4 L
-4 0 M
4 0 L
-2.828 -2.828 M
2.828 2.828 L
-2.828 2.828 M
2.828 -2.828 L
S
GR
GS
[0.75 0 0 0.75 0 0] CT
0 1 1 RC
1 LJ
0.667 LW
N
331.729 73.828 M
331.644 73.755 L
331.753 73.779 L
S
GR
GS
[0.75 0 0 0.75 0 0] CT
0 1 1 RC
1 LJ
0.667 LW
N
333.29 74.573 M
331.644 73.755 L
S
GR
GS
[0.75 0 0 0.75 0 0] CT
0 1 1 RC
1 LJ
0.667 LW
N
330.025 89.433 M
326.432 88.154 L
323.27 86.022 L
320.738 83.17 L
318.994 79.779 L
318.149 76.06 L
318.255 72.248 L
319.305 68.582 L
321.235 65.292 L
323.922 62.586 L
327.197 60.632 L
330.856 59.555 L
334.667 59.422 L
338.392 60.24 L
341.796 61.959 L
344.666 64.471 L
346.821 67.617 L
348.126 71.201 L
348.498 74.996 L
347.915 78.765 L
346.413 82.271 L
344.087 85.292 L
341.082 87.641 L
337.587 89.168 L
333.823 89.778 L
330.025 89.433 L
S
GR
GS
[0.75 0 0 0.75 261.52451 67.48673] CT
0 1 1 RC
10.0 ML
0.667 LW
N
0 -4 M
0 4 L
-4 0 M
4 0 L
-2.828 -2.828 M
2.828 2.828 L
-2.828 2.828 M
2.828 -2.828 L
S
GR
GS
[0.75 0 0 0.75 0 0] CT
0 1 1 RC
1 LJ
0.667 LW
N
347.138 89.237 M
347.053 89.164 L
347.162 89.188 L
S
GR
GS
[0.75 0 0 0.75 0 0] CT
0 1 1 RC
1 LJ
0.667 LW
N
348.699 89.982 M
347.053 89.164 L
S
GR
GS
[0.75 0 0 0.75 0 0] CT
0 1 1 RC
1 LJ
0.667 LW
N
345.469 104.85 M
341.873 103.579 L
338.706 101.455 L
336.167 98.609 L
334.416 95.221 L
333.561 91.505 L
333.659 87.692 L
334.701 84.024 L
336.622 80.729 L
339.303 78.017 L
342.574 76.056 L
346.23 74.97 L
350.041 74.827 L
353.767 75.637 L
357.176 77.348 L
360.051 79.853 L
362.214 82.994 L
363.527 86.575 L
363.909 90.369 L
363.335 94.14 L
361.841 97.649 L
359.521 100.676 L
356.522 103.031 L
353.031 104.567 L
349.268 105.186 L
345.469 104.85 L
S
GR
GS
[0.75 0 0 0.75 234.67017 80.91269] CT
0 1 1 RC
10.0 ML
0.667 LW
N
0 -4 M
0 4 L
-4 0 M
4 0 L
-2.828 -2.828 M
2.828 2.828 L
-2.828 2.828 M
2.828 -2.828 L
S
GR
GS
[0.75 0 0 0.75 0 0] CT
0 1 1 RC
1 LJ
0.667 LW
N
311.333 107.138 M
311.247 107.065 L
311.357 107.089 L
S
GR
GS
[0.75 0 0 0.75 0 0] CT
0 1 1 RC
1 LJ
0.667 LW
N
312.894 107.884 M
311.247 107.065 L
S
GR
GS
[0.75 0 0 0.75 0 0] CT
0 1 1 RC
1 LJ
0.667 LW
N
327.746 111.181 M
328.1 107.384 L
327.498 103.618 L
325.978 100.12 L
323.636 97.11 L
320.619 94.777 L
317.117 93.267 L
313.35 92.676 L
309.553 93.041 L
305.967 94.338 L
302.816 96.486 L
300.298 99.35 L
298.571 102.751 L
297.745 106.474 L
297.87 110.285 L
298.939 113.946 L
300.885 117.226 L
303.586 119.919 L
306.871 121.855 L
310.535 122.914 L
314.347 123.028 L
318.068 122.191 L
321.463 120.455 L
324.32 117.929 L
326.459 114.771 L
327.746 111.181 L
S
GR
GS
[0.75 0 0 0.75 223.11081 69.35564] CT
0 1 1 RC
10.0 ML
0.667 LW
N
0 -4 M
0 4 L
-4 0 M
4 0 L
-2.828 -2.828 M
2.828 2.828 L
-2.828 2.828 M
2.828 -2.828 L
S
GR
GS
[0.75 0 0 0.75 0 0] CT
0 1 1 RC
1 LJ
0.667 LW
N
295.92 91.729 M
295.835 91.656 L
295.944 91.68 L
S
GR
GS
[0.75 0 0 0.75 0 0] CT
0 1 1 RC
1 LJ
0.667 LW
N
297.481 92.474 M
295.835 91.656 L
S
GR
GS
[0.75 0 0 0.75 0 0] CT
0 1 1 RC
1 LJ
0.667 LW
N
312.327 95.801 M
312.688 92.005 L
312.093 88.238 L
310.581 84.737 L
308.245 81.722 L
305.233 79.383 L
301.734 77.866 L
297.967 77.268 L
294.17 77.625 L
290.581 78.915 L
287.426 81.056 L
284.902 83.916 L
283.169 87.313 L
282.335 91.034 L
282.453 94.846 L
283.515 98.509 L
285.454 101.792 L
288.15 104.491 L
291.431 106.434 L
295.093 107.5 L
298.905 107.622 L
302.627 106.792 L
306.026 105.062 L
308.888 102.542 L
311.033 99.389 L
312.327 95.801 L
S
GR
GS
[0.75 0 0 0.75 221.24027 67.48508] CT
0 1 1 RC
10.0 ML
0.667 LW
N
0 -4 M
0 4 L
-4 0 M
4 0 L
-2.828 -2.828 M
2.828 2.828 L
-2.828 2.828 M
2.828 -2.828 L
S
GR
GS
[0.75 0 0 0.75 0 0] CT
0 1 1 RC
1 LJ
0.667 LW
N
293.426 89.234 M
293.341 89.162 L
293.45 89.186 L
S
GR
GS
[0.75 0 0 0.75 0 0] CT
0 1 1 RC
1 LJ
0.667 LW
N
294.987 89.98 M
293.341 89.162 L
S
GR
GS
[0.75 0 0 0.75 0 0] CT
0 1 1 RC
1 LJ
0.667 LW
N
309.834 93.301 M
310.194 89.504 L
309.598 85.737 L
308.084 82.237 L
305.746 79.223 L
302.733 76.886 L
299.234 75.371 L
295.467 74.774 L
291.67 75.132 L
288.082 76.423 L
284.927 78.566 L
282.405 81.427 L
280.673 84.825 L
279.841 88.546 L
279.96 92.358 L
281.023 96.021 L
282.964 99.303 L
285.661 102 L
288.943 103.942 L
292.605 105.007 L
296.417 105.127 L
300.139 104.296 L
303.537 102.565 L
306.398 100.043 L
308.542 96.889 L
309.834 93.301 L
S
GR
GS
[0.75 0 0 0.75 248.09649 54.05846] CT
0 1 1 RC
10.0 ML
0.667 LW
N
0 -4 M
0 4 L
-4 0 M
4 0 L
-2.828 -2.828 M
2.828 2.828 L
-2.828 2.828 M
2.828 -2.828 L
S
GR
GS
[0.75 0 0 0.75 0 0] CT
0 1 1 RC
1 LJ
0.667 LW
N
329.234 71.332 M
329.149 71.26 L
329.258 71.284 L
S
GR
GS
[0.75 0 0 0.75 0 0] CT
0 1 1 RC
1 LJ
0.667 LW
N
330.795 72.078 M
329.149 71.26 L
S
GR
GS
[0.75 0 0 0.75 0 0] CT
0 1 1 RC
1 LJ
0.667 LW
N
345.654 75.347 M
346 71.549 L
345.391 67.784 L
343.865 64.289 L
341.517 61.284 L
338.496 58.957 L
334.991 57.454 L
331.222 56.87 L
327.427 57.241 L
323.843 58.545 L
320.696 60.699 L
318.183 63.569 L
316.463 66.972 L
315.644 70.697 L
315.777 74.508 L
316.853 78.167 L
318.805 81.443 L
321.511 84.131 L
324.8 86.061 L
328.466 87.113 L
332.278 87.22 L
335.997 86.375 L
339.389 84.633 L
342.241 82.101 L
344.374 78.94 L
345.654 75.347 L
S
GR
GS
[0.75 0 0 0.75 249.96641 55.92875] CT
0 1 1 RC
10.0 ML
0.667 LW
N
0 -4 M
0 4 L
-4 0 M
4 0 L
-2.828 -2.828 M
2.828 2.828 L
-2.828 2.828 M
2.828 -2.828 L
S
GR
GS
[0.75 0 0 0.75 0 0] CT
0 1 1 RC
1 LJ
0.667 LW
N
331.728 73.826 M
331.642 73.753 L
331.752 73.777 L
S
GR
GS
[0.75 0 0 0.75 0 0] CT
0 1 1 RC
1 LJ
0.667 LW
N
333.289 74.572 M
331.642 73.753 L
S
GR
GS
[0.75 0 0 0.75 0 0] CT
0 1 1 RC
1 LJ
0.667 LW
N
348.148 77.837 M
348.493 74.039 L
347.883 70.274 L
346.356 66.78 L
344.007 63.775 L
340.986 61.448 L
337.48 59.946 L
333.711 59.363 L
329.916 59.736 L
326.332 61.041 L
323.186 63.196 L
320.674 66.066 L
318.955 69.47 L
318.137 73.195 L
318.27 77.006 L
319.348 80.665 L
321.301 83.94 L
324.007 86.627 L
327.297 88.556 L
330.963 89.607 L
334.775 89.713 L
338.494 88.868 L
341.886 87.124 L
344.737 84.591 L
346.869 81.429 L
348.148 77.837 L
S
GR
GS
[0.75 0 0 0.75 261.52352 67.48551] CT
0 1 1 RC
10.0 ML
0.667 LW
N
0 -4 M
0 4 L
-4 0 M
4 0 L
-2.828 -2.828 M
2.828 2.828 L
-2.828 2.828 M
2.828 -2.828 L
S
GR
GS
[0.75 0 0 0.75 0 0] CT
0 1 1 RC
1 LJ
0.667 LW
N
347.137 89.235 M
347.052 89.162 L
347.161 89.186 L
S
GR
GS
[0.75 0 0 0.75 0 0] CT
0 1 1 RC
1 LJ
0.667 LW
N
348.698 89.981 M
347.052 89.162 L
S
GR
GS
[0.75 0 0 0.75 0 0] CT
0 1 1 RC
1 LJ
0.667 LW
N
345.468 104.848 M
341.872 103.578 L
338.705 101.453 L
336.166 98.608 L
334.414 95.22 L
333.56 91.503 L
333.657 87.691 L
334.699 84.022 L
336.621 80.728 L
339.301 78.015 L
342.572 76.054 L
346.228 74.968 L
350.039 74.826 L
353.766 75.635 L
357.174 77.346 L
360.05 79.851 L
362.212 82.993 L
363.526 86.573 L
363.907 90.368 L
363.333 94.138 L
361.84 97.647 L
359.52 100.674 L
356.521 103.03 L
353.03 104.565 L
349.267 105.184 L
345.468 104.848 L
S
GR
GS
[0.75 0 0 0.75 248.08862 54.05053] CT
0 1 1 RC
10.0 ML
0.667 LW
N
0 -4 M
0 4 L
-4 0 M
4 0 L
-2.828 -2.828 M
2.828 2.828 L
-2.828 2.828 M
2.828 -2.828 L
S
GR
GS
[0.75 0 0 0.75 0 0] CT
0 1 1 RC
1 LJ
0.667 LW
N
329.224 71.322 M
329.139 71.249 L
329.248 71.273 L
S
GR
GS
[0.75 0 0 0.75 0 0] CT
0 1 1 RC
1 LJ
0.667 LW
N
330.785 72.067 M
329.139 71.249 L
S
GR
GS
[0.75 0 0 0.75 0 0] CT
0 1 1 RC
1 LJ
0.667 LW
N
345.644 75.335 M
345.99 71.537 L
345.38 67.772 L
343.853 64.278 L
341.506 61.272 L
338.484 58.945 L
334.979 57.443 L
331.21 56.859 L
327.415 57.231 L
323.831 58.535 L
320.684 60.69 L
318.172 63.559 L
316.452 66.963 L
315.633 70.688 L
315.766 74.499 L
316.843 78.158 L
318.796 81.434 L
321.502 84.121 L
324.791 86.051 L
328.457 87.102 L
332.269 87.209 L
335.988 86.364 L
339.38 84.621 L
342.232 82.089 L
344.365 78.928 L
345.644 75.335 L
S
GR
GS
[0.75 0 0 0.75 248.03899 54.00138] CT
0 1 1 RC
10.0 ML
0.667 LW
N
0 -4 M
0 4 L
-4 0 M
4 0 L
-2.828 -2.828 M
2.828 2.828 L
-2.828 2.828 M
2.828 -2.828 L
S
GR
GS
[0.75 0 0 0.75 0 0] CT
0 1 1 RC
1 LJ
0.667 LW
N
329.158 71.256 M
329.072 71.183 L
329.182 71.208 L
S
GR
GS
[0.75 0 0 0.75 0 0] CT
0 1 1 RC
1 LJ
0.667 LW
N
330.719 72.002 M
329.072 71.183 L
S
GR
GS
[0.75 0 0 0.75 0 0] CT
0 1 1 RC
1 LJ
0.667 LW
N
345.579 75.263 M
345.923 71.465 L
345.312 67.7 L
343.784 64.206 L
341.435 61.202 L
338.412 58.876 L
334.906 57.375 L
331.137 56.793 L
327.342 57.167 L
323.759 58.473 L
320.613 60.629 L
318.102 63.499 L
316.384 66.904 L
315.567 70.629 L
315.701 74.441 L
316.779 78.099 L
318.734 81.374 L
321.441 84.06 L
324.731 85.988 L
328.397 87.038 L
332.21 87.143 L
335.928 86.296 L
339.319 84.552 L
342.17 82.018 L
344.301 78.856 L
345.579 75.263 L
S
GR
GS
[0.75 0 0 0.75 220.88097 67.12543] CT
0 1 1 RC
10.0 ML
0.667 LW
N
0 -4 M
0 4 L
-4 0 M
4 0 L
-2.828 -2.828 M
2.828 2.828 L
-2.828 2.828 M
2.828 -2.828 L
S
GR
GS
[0.75 0 0 0.75 0 0] CT
0 1 1 RC
1 LJ
0.667 LW
N
292.947 88.755 M
292.862 88.682 L
292.971 88.706 L
S
GR
GS
[0.75 0 0 0.75 0 0] CT
0 1 1 RC
1 LJ
0.667 LW
N
294.508 89.501 M
292.862 88.682 L
S
GR
GS
[0.75 0 0 0.75 0 0] CT
0 1 1 RC
1 LJ
0.667 LW
N
291.211 104.353 M
287.621 103.067 L
284.463 100.928 L
281.937 98.071 L
280.201 94.675 L
279.363 90.955 L
279.478 87.143 L
280.536 83.479 L
282.473 80.193 L
285.165 77.493 L
288.445 75.547 L
292.106 74.477 L
295.918 74.352 L
299.641 75.178 L
303.041 76.905 L
305.906 79.423 L
308.054 82.574 L
309.351 86.16 L
309.715 89.956 L
309.124 93.724 L
307.615 97.226 L
305.282 100.243 L
302.272 102.585 L
298.774 104.104 L
295.008 104.707 L
291.211 104.353 L
S
GR
GS
[0.75 0 0 0.75 248.0964 54.0584] CT
0 1 1 RC
10.0 ML
0.667 LW
N
0 -4 M
0 4 L
-4 0 M
4 0 L
-2.828 -2.828 M
2.828 2.828 L
-2.828 2.828 M
2.828 -2.828 L
S
GR
GS
[0.75 0 0 0.75 0 0] CT
0 1 1 RC
1 LJ
0.667 LW
N
329.234 71.332 M
329.149 71.259 L
329.258 71.284 L
S
GR
GS
[0.75 0 0 0.75 0 0] CT
0 1 1 RC
1 LJ
0.667 LW
N
330.795 72.078 M
329.149 71.259 L
S
GR
GS
[0.75 0 0 0.75 0 0] CT
0 1 1 RC
1 LJ
0.667 LW
N
327.526 86.937 M
323.933 85.657 L
320.772 83.524 L
318.24 80.671 L
316.498 77.279 L
315.653 73.56 L
315.76 69.748 L
316.812 66.082 L
318.743 62.793 L
321.43 60.088 L
324.706 58.135 L
328.365 57.059 L
332.176 56.927 L
335.901 57.746 L
339.305 59.466 L
342.174 61.979 L
344.328 65.126 L
345.632 68.709 L
346.003 72.505 L
345.419 76.274 L
343.916 79.779 L
341.589 82.8 L
338.584 85.147 L
335.089 86.674 L
331.324 87.283 L
327.526 86.937 L
S
GR
GS
[0.75 0 0 0.75 234.67319 80.91104] CT
0 1 1 RC
10.0 ML
0.667 LW
N
0 -4 M
0 4 L
-4 0 M
4 0 L
-2.828 -2.828 M
2.828 2.828 L
-2.828 2.828 M
2.828 -2.828 L
S
GR
GS
[0.75 0 0 0.75 0 0] CT
0 1 1 RC
1 LJ
0.667 LW
N
311.337 107.136 M
311.251 107.063 L
311.361 107.087 L
S
GR
GS
[0.75 0 0 0.75 0 0] CT
0 1 1 RC
1 LJ
0.667 LW
N
312.898 107.881 M
311.251 107.063 L
S
GR
GS
[0.75 0 0 0.75 0 0] CT
0 1 1 RC
1 LJ
0.667 LW
N
327.75 111.179 M
328.104 107.381 L
327.501 103.615 L
325.982 100.118 L
323.64 97.108 L
320.623 94.775 L
317.121 93.265 L
313.353 92.674 L
309.557 93.038 L
305.971 94.336 L
302.82 96.484 L
300.302 99.348 L
298.575 102.749 L
297.749 106.472 L
297.874 110.283 L
298.944 113.944 L
300.89 117.224 L
303.59 119.917 L
306.876 121.853 L
310.539 122.912 L
314.351 123.026 L
318.072 122.189 L
321.468 120.452 L
324.325 117.926 L
326.464 114.769 L
327.75 111.179 L
S
GR
GS
[0.75 0 0 0.75 223.11557 69.35443] CT
0 1 1 RC
10.0 ML
0.667 LW
N
0 -4 M
0 4 L
-4 0 M
4 0 L
-2.828 -2.828 M
2.828 2.828 L
-2.828 2.828 M
2.828 -2.828 L
S
GR
GS
[0.75 0 0 0.75 0 0] CT
0 1 1 RC
1 LJ
0.667 LW
N
295.926 91.727 M
295.841 91.654 L
295.951 91.678 L
S
GR
GS
[0.75 0 0 0.75 0 0] CT
0 1 1 RC
1 LJ
0.667 LW
N
297.487 92.473 M
295.841 91.654 L
S
GR
GS
[0.75 0 0 0.75 0 0] CT
0 1 1 RC
1 LJ
0.667 LW
N
312.327 95.828 M
312.695 92.032 L
312.108 88.264 L
310.602 84.76 L
308.272 81.741 L
305.264 79.396 L
301.768 77.873 L
298.003 77.267 L
294.205 77.617 L
290.614 78.9 L
287.454 81.035 L
284.925 83.89 L
283.185 87.284 L
282.344 91.003 L
282.455 94.816 L
283.51 98.48 L
285.443 101.768 L
288.133 104.471 L
291.411 106.421 L
295.07 107.494 L
298.882 107.623 L
302.606 106.8 L
306.008 105.077 L
308.875 102.562 L
311.026 99.413 L
312.327 95.828 L
S
GR
GS
[0.75 0 0 0.75 248.09763 54.05664] CT
0 1 1 RC
10.0 ML
0.667 LW
N
0 -4 M
0 4 L
-4 0 M
4 0 L
-2.828 -2.828 M
2.828 2.828 L
-2.828 2.828 M
2.828 -2.828 L
S
GR
GS
[0.75 0 0 0.75 0 0] CT
0 1 1 RC
1 LJ
0.667 LW
N
329.236 71.33 M
329.151 71.257 L
329.26 71.281 L
S
GR
GS
[0.75 0 0 0.75 0 0] CT
0 1 1 RC
1 LJ
0.667 LW
N
330.797 72.076 M
329.151 71.257 L
S
GR
GS
[0.75 0 0 0.75 0 0] CT
0 1 1 RC
1 LJ
0.667 LW
N
327.519 86.932 M
323.927 85.651 L
320.767 83.516 L
318.237 80.662 L
316.496 77.269 L
315.654 73.549 L
315.763 69.737 L
316.817 66.072 L
318.749 62.784 L
321.439 60.08 L
324.716 58.129 L
328.375 57.055 L
332.187 56.925 L
335.911 57.747 L
339.314 59.468 L
342.181 61.983 L
344.334 65.131 L
345.635 68.715 L
346.005 72.511 L
345.419 76.28 L
343.914 79.784 L
341.585 82.804 L
338.578 85.149 L
335.082 86.674 L
331.317 87.281 L
327.519 86.932 L
S
GR
GS
[0.75 0 0 0.75 0 0] CT
1 GC
N
/f159554590{478 198 M
478 42 L
285 42 L
285 198 L
cp}def
f159554590
f
GR
GS
[0.75 0 0 0.75 249 47.25] CT
/Helvetica-Bold 30 F
GS
[1 0 0 1 0 0] CT
0 12 moveto 
1 -1 scale
(LandMark) t 
GR
GR
GS
[0.75 0 0 0.75 231.75 47.25] CT
1 0 0 RC
N
/f-1214359511{0 -19.995 M
-17.316 9.998 L
17.316 9.998 L
cp}def
f-1214359511
f
GR
GS
[0.75 0 0 0.75 231.75 47.25] CT
0 0 1 RC
10.0 ML
0.667 LW
N
0 -19.995 M
-17.316 9.998 L
17.316 9.998 L
cp
S
GR
GS
[0.75 0 0 0.75 249 92.25] CT
/Helvetica-Bold 30 F
GS
[1 0 0 1 0 0] CT
0 0 moveto 
1 -1 scale
(b) t 
GR
GR
GS
[0.75 0 0 0.75 263.25 81] CT
/Helvetica-Bold 24 F
GS
[1 0 0 1 0 0] CT
0 0 moveto 
1 -1 scale
(-) t 
GR
GR
GS
[0.75 0 0 0.75 269.25 92.25] CT
/Helvetica-Bold 30 F
GS
[1 0 0 1 0 0] CT
0 0 moveto 
1 -1 scale
([X) t 
GR
GR
GS
[0.75 0 0 0.75 291.75 103.5] CT
/Helvetica-Bold 24 F
GS
[1 0 0 1 0 0] CT
0 0 moveto 
1 -1 scale
(k) t 
GR
GR
GS
[0.75 0 0 0.75 302.25 92.25] CT
/Helvetica-Bold 30 F
GS
[1 0 0 1 0 0] CT
0 0 moveto 
1 -1 scale
(]) t 
GR
GR
GS
[0.75 0 0 0.75 0 0] CT
0 1 1 RC
1 LJ
0.667 LW
N
289 113 M
329 113 L
S
GR
GS
[0.75 0 0 0.75 0 0] CT
0 1 1 RC
1 LJ
0.667 LW
N
317 117.8 M
329 113 L
317 108.2 L
S
GR
GS
[0.75 0 0 0.75 249 131.25] CT
/Helvetica-Bold 30 F
GS
[1 0 0 1 0 0] CT
0 0 moveto 
1 -1 scale
(b[X) t 
GR
GR
GS
[0.75 0 0 0.75 285.75 142.5] CT
/Helvetica-Bold 24 F
GS
[1 0 0 1 0 0] CT
0 0 moveto 
1 -1 scale
(k) t 
GR
GR
GS
[0.75 0 0 0.75 296.25 131.25] CT
/Helvetica-Bold 30 F
GS
[1 0 0 1 0 0] CT
0 0 moveto 
1 -1 scale
(]) t 
GR
GR
GS
[0.75 0 0 0.75 0 0] CT
0 1 1 RC
1 LJ
0.667 LW
N
289 170 M
329 170 L
S
GR
GS
[0.75 0 0 0.75 0 0] CT
0.149 GC
10.0 ML
0.667 LW
N
285 198 M
285 42 L
478 42 L
478 198 L
cp
S
GR
%%Trailer
%%Pages: 1
%%EOF
