%!PS-Adobe-3.0 EPSF-3.0
%%Creator: (MATLAB, The Mathworks, Inc. Version 9.10.0.1649659 \(R2021a\) Update 1. Operating System: Windows 10)
%%Title: C:/Users/ohads/ANPL/Code/da_bsp_future_smoothing/TestCases/ChosenTestCase/TestCases_56/Figures/Robots_estimation_k_7.eps
%%CreationDate: 2021-07-05T23:43:31
%%Pages: (atend)
%%BoundingBox:    25     6   379   293
%%LanguageLevel: 3
%%EndComments
%%BeginProlog
%%BeginResource: procset (Apache XML Graphics Std ProcSet) 1.2 0
%%Version: 1.2 0
%%Copyright: (Copyright 2001-2003,2010 The Apache Software Foundation. License terms: http://www.apache.org/licenses/LICENSE-2.0)
/bd{bind def}bind def
/ld{load def}bd
/GR/grestore ld
/GS/gsave ld
/RM/rmoveto ld
/C/curveto ld
/t/show ld
/L/lineto ld
/ML/setmiterlimit ld
/CT/concat ld
/f/fill ld
/N/newpath ld
/S/stroke ld
/CC/setcmykcolor ld
/A/ashow ld
/cp/closepath ld
/RC/setrgbcolor ld
/LJ/setlinejoin ld
/GC/setgray ld
/LW/setlinewidth ld
/M/moveto ld
/re {4 2 roll M
1 index 0 rlineto
0 exch rlineto
neg 0 rlineto
cp } bd
/_ctm matrix def
/_tm matrix def
/BT { _ctm currentmatrix pop matrix _tm copy pop 0 0 moveto } bd
/ET { _ctm setmatrix } bd
/iTm { _ctm setmatrix _tm concat } bd
/Tm { _tm astore pop iTm 0 0 moveto } bd
/ux 0.0 def
/uy 0.0 def
/F {
  /Tp exch def
  /Tf exch def
  Tf findfont Tp scalefont setfont
  /cf Tf def  /cs Tp def
} bd
/ULS {currentpoint /uy exch def /ux exch def} bd
/ULE {
  /Tcx currentpoint pop def
  gsave
  newpath
  cf findfont cs scalefont dup
  /FontMatrix get 0 get /Ts exch def /FontInfo get dup
  /UnderlinePosition get Ts mul /To exch def
  /UnderlineThickness get Ts mul /Tt exch def
  ux uy To add moveto  Tcx uy To add lineto
  Tt setlinewidth stroke
  grestore
} bd
/OLE {
  /Tcx currentpoint pop def
  gsave
  newpath
  cf findfont cs scalefont dup
  /FontMatrix get 0 get /Ts exch def /FontInfo get dup
  /UnderlinePosition get Ts mul /To exch def
  /UnderlineThickness get Ts mul /Tt exch def
  ux uy To add cs add moveto Tcx uy To add cs add lineto
  Tt setlinewidth stroke
  grestore
} bd
/SOE {
  /Tcx currentpoint pop def
  gsave
  newpath
  cf findfont cs scalefont dup
  /FontMatrix get 0 get /Ts exch def /FontInfo get dup
  /UnderlinePosition get Ts mul /To exch def
  /UnderlineThickness get Ts mul /Tt exch def
  ux uy To add cs 10 mul 26 idiv add moveto Tcx uy To add cs 10 mul 26 idiv add lineto
  Tt setlinewidth stroke
  grestore
} bd
/QT {
/Y22 exch store
/X22 exch store
/Y21 exch store
/X21 exch store
currentpoint
/Y21 load 2 mul add 3 div exch
/X21 load 2 mul add 3 div exch
/X21 load 2 mul /X22 load add 3 div
/Y21 load 2 mul /Y22 load add 3 div
/X22 load /Y22 load curveto
} bd
/SSPD {
dup length /d exch dict def
{
/v exch def
/k exch def
currentpagedevice k known {
/cpdv currentpagedevice k get def
v cpdv ne {
/upd false def
/nullv v type /nulltype eq def
/nullcpdv cpdv type /nulltype eq def
nullv nullcpdv or
{
/upd true def
} {
/sametype v type cpdv type eq def
sametype {
v type /arraytype eq {
/vlen v length def
/cpdvlen cpdv length def
vlen cpdvlen eq {
0 1 vlen 1 sub {
/i exch def
/obj v i get def
/cpdobj cpdv i get def
obj cpdobj ne {
/upd true def
exit
} if
} for
} {
/upd true def
} ifelse
} {
v type /dicttype eq {
v {
/dv exch def
/dk exch def
/cpddv cpdv dk get def
dv cpddv ne {
/upd true def
exit
} if
} forall
} {
/upd true def
} ifelse
} ifelse
} if
} ifelse
upd true eq {
d k v put
} if
} if
} if
} forall
d length 0 gt {
d setpagedevice
} if
} bd
/RE { % /NewFontName [NewEncodingArray] /FontName RE -
  findfont dup length dict begin
  {
    1 index /FID ne
    {def} {pop pop} ifelse
  } forall
  /Encoding exch def
  /FontName 1 index def
  currentdict definefont pop
  end
} bind def
%%EndResource
%%BeginResource: procset (Apache XML Graphics EPS ProcSet) 1.0 0
%%Version: 1.0 0
%%Copyright: (Copyright 2002-2003 The Apache Software Foundation. License terms: http://www.apache.org/licenses/LICENSE-2.0)
/BeginEPSF { %def
/b4_Inc_state save def         % Save state for cleanup
/dict_count countdictstack def % Count objects on dict stack
/op_count count 1 sub def      % Count objects on operand stack
userdict begin                 % Push userdict on dict stack
/showpage { } def              % Redefine showpage, { } = null proc
0 setgray 0 setlinecap         % Prepare graphics state
1 setlinewidth 0 setlinejoin
10 setmiterlimit [ ] 0 setdash newpath
/languagelevel where           % If level not equal to 1 then
{pop languagelevel             % set strokeadjust and
1 ne                           % overprint to their defaults.
{false setstrokeadjust false setoverprint
} if
} if
} bd
/EndEPSF { %def
count op_count sub {pop} repeat            % Clean up stacks
countdictstack dict_count sub {end} repeat
b4_Inc_state restore
} bd
%%EndResource
%FOPBeginFontDict
%%IncludeResource: font Courier-Oblique
%%IncludeResource: font Courier-BoldOblique
%%IncludeResource: font Courier-Bold
%%IncludeResource: font ZapfDingbats
%%IncludeResource: font Symbol
%%IncludeResource: font Helvetica
%%IncludeResource: font Helvetica-Oblique
%%IncludeResource: font Helvetica-Bold
%%IncludeResource: font Helvetica-BoldOblique
%%IncludeResource: font Times-Roman
%%IncludeResource: font Times-Italic
%%IncludeResource: font Times-Bold
%%IncludeResource: font Times-BoldItalic
%%IncludeResource: font Courier
%FOPEndFontDict
%%BeginResource: encoding WinAnsiEncoding
/WinAnsiEncoding [
/.notdef /.notdef /.notdef /.notdef /.notdef
/.notdef /.notdef /.notdef /.notdef /.notdef
/.notdef /.notdef /.notdef /.notdef /.notdef
/.notdef /.notdef /.notdef /.notdef /.notdef
/.notdef /.notdef /.notdef /.notdef /.notdef
/.notdef /.notdef /.notdef /.notdef /.notdef
/.notdef /.notdef /space /exclam /quotedbl
/numbersign /dollar /percent /ampersand /quotesingle
/parenleft /parenright /asterisk /plus /comma
/hyphen /period /slash /zero /one
/two /three /four /five /six
/seven /eight /nine /colon /semicolon
/less /equal /greater /question /at
/A /B /C /D /E
/F /G /H /I /J
/K /L /M /N /O
/P /Q /R /S /T
/U /V /W /X /Y
/Z /bracketleft /backslash /bracketright /asciicircum
/underscore /quoteleft /a /b /c
/d /e /f /g /h
/i /j /k /l /m
/n /o /p /q /r
/s /t /u /v /w
/x /y /z /braceleft /bar
/braceright /asciitilde /bullet /Euro /bullet
/quotesinglbase /florin /quotedblbase /ellipsis /dagger
/daggerdbl /circumflex /perthousand /Scaron /guilsinglleft
/OE /bullet /Zcaron /bullet /bullet
/quoteleft /quoteright /quotedblleft /quotedblright /bullet
/endash /emdash /asciitilde /trademark /scaron
/guilsinglright /oe /bullet /zcaron /Ydieresis
/space /exclamdown /cent /sterling /currency
/yen /brokenbar /section /dieresis /copyright
/ordfeminine /guillemotleft /logicalnot /sfthyphen /registered
/macron /degree /plusminus /twosuperior /threesuperior
/acute /mu /paragraph /middot /cedilla
/onesuperior /ordmasculine /guillemotright /onequarter /onehalf
/threequarters /questiondown /Agrave /Aacute /Acircumflex
/Atilde /Adieresis /Aring /AE /Ccedilla
/Egrave /Eacute /Ecircumflex /Edieresis /Igrave
/Iacute /Icircumflex /Idieresis /Eth /Ntilde
/Ograve /Oacute /Ocircumflex /Otilde /Odieresis
/multiply /Oslash /Ugrave /Uacute /Ucircumflex
/Udieresis /Yacute /Thorn /germandbls /agrave
/aacute /acircumflex /atilde /adieresis /aring
/ae /ccedilla /egrave /eacute /ecircumflex
/edieresis /igrave /iacute /icircumflex /idieresis
/eth /ntilde /ograve /oacute /ocircumflex
/otilde /odieresis /divide /oslash /ugrave
/uacute /ucircumflex /udieresis /yacute /thorn
/ydieresis
] def
%%EndResource
%FOPBeginFontReencode
/Courier-Oblique findfont
dup length dict begin
  {1 index /FID ne {def} {pop pop} ifelse} forall
  /Encoding WinAnsiEncoding def
  currentdict
end
/Courier-Oblique exch definefont pop
/Courier-BoldOblique findfont
dup length dict begin
  {1 index /FID ne {def} {pop pop} ifelse} forall
  /Encoding WinAnsiEncoding def
  currentdict
end
/Courier-BoldOblique exch definefont pop
/Courier-Bold findfont
dup length dict begin
  {1 index /FID ne {def} {pop pop} ifelse} forall
  /Encoding WinAnsiEncoding def
  currentdict
end
/Courier-Bold exch definefont pop
/Helvetica findfont
dup length dict begin
  {1 index /FID ne {def} {pop pop} ifelse} forall
  /Encoding WinAnsiEncoding def
  currentdict
end
/Helvetica exch definefont pop
/Helvetica-Oblique findfont
dup length dict begin
  {1 index /FID ne {def} {pop pop} ifelse} forall
  /Encoding WinAnsiEncoding def
  currentdict
end
/Helvetica-Oblique exch definefont pop
/Helvetica-Bold findfont
dup length dict begin
  {1 index /FID ne {def} {pop pop} ifelse} forall
  /Encoding WinAnsiEncoding def
  currentdict
end
/Helvetica-Bold exch definefont pop
/Helvetica-BoldOblique findfont
dup length dict begin
  {1 index /FID ne {def} {pop pop} ifelse} forall
  /Encoding WinAnsiEncoding def
  currentdict
end
/Helvetica-BoldOblique exch definefont pop
/Times-Roman findfont
dup length dict begin
  {1 index /FID ne {def} {pop pop} ifelse} forall
  /Encoding WinAnsiEncoding def
  currentdict
end
/Times-Roman exch definefont pop
/Times-Italic findfont
dup length dict begin
  {1 index /FID ne {def} {pop pop} ifelse} forall
  /Encoding WinAnsiEncoding def
  currentdict
end
/Times-Italic exch definefont pop
/Times-Bold findfont
dup length dict begin
  {1 index /FID ne {def} {pop pop} ifelse} forall
  /Encoding WinAnsiEncoding def
  currentdict
end
/Times-Bold exch definefont pop
/Times-BoldItalic findfont
dup length dict begin
  {1 index /FID ne {def} {pop pop} ifelse} forall
  /Encoding WinAnsiEncoding def
  currentdict
end
/Times-BoldItalic exch definefont pop
/Courier findfont
dup length dict begin
  {1 index /FID ne {def} {pop pop} ifelse} forall
  /Encoding WinAnsiEncoding def
  currentdict
end
/Courier exch definefont pop
%FOPEndFontReencode
%%EndProlog
%%Page: 1 1
%%PageBoundingBox: 0 0 428 315
%%BeginPageSetup
[1 0 0 -1 0 315] CT
%%EndPageSetup
GS
[0.75 0 0 0.75 0 0] CT
1 GC
N
0 0 570 420 re
f
GR
GS
[0.75 0 0 0.75 0 0] CT
1 GC
N
0 0 570 420 re
f
GR
GS
[0.75 0 0 0.75 0 0] CT
1 GC
N
121.155 321 M
488.845 321 L
488.845 31 L
121.155 31 L
cp
f
GR
GS
[0.75 0 0 0.75 0 0] CT
0.149 GC
2 setlinecap
1 LJ
0.667 LW
N
121.155 321 M
488.845 321 L
S
GR
GS
[0.75 0 0 0.75 0 0] CT
0.149 GC
2 setlinecap
1 LJ
0.667 LW
N
121.155 321 M
121.155 317.323 L
S
GR
GS
[0.75 0 0 0.75 0 0] CT
0.149 GC
2 setlinecap
1 LJ
0.667 LW
N
213.078 321 M
213.078 317.323 L
S
GR
GS
[0.75 0 0 0.75 0 0] CT
0.149 GC
2 setlinecap
1 LJ
0.667 LW
N
305 321 M
305 317.323 L
S
GR
GS
[0.75 0 0 0.75 0 0] CT
0.149 GC
2 setlinecap
1 LJ
0.667 LW
N
396.922 321 M
396.922 317.323 L
S
GR
GS
[0.75 0 0 0.75 0 0] CT
0.149 GC
2 setlinecap
1 LJ
0.667 LW
N
488.845 321 M
488.845 317.323 L
S
GR
GS
[0.75 0 0 0.75 90.86656 247.75001] CT
0.149 GC
/Helvetica 33.333 F
GS
[1 0 0 1 0 0] CT
-15 34 moveto 
1 -1 scale
(-5) t 
GR
GR
GS
[0.75 0 0 0.75 159.80828 247.75001] CT
0.149 GC
/Helvetica 33.333 F
GS
[1 0 0 1 0 0] CT
-9.5 34 moveto 
1 -1 scale
(0) t 
GR
GR
GS
[0.75 0 0 0.75 228.75 247.75001] CT
0.149 GC
/Helvetica 33.333 F
GS
[1 0 0 1 0 0] CT
-9.5 34 moveto 
1 -1 scale
(5) t 
GR
GR
GS
[0.75 0 0 0.75 297.69173 247.75001] CT
0.149 GC
/Helvetica 33.333 F
GS
[1 0 0 1 0 0] CT
-19 34 moveto 
1 -1 scale
(10) t 
GR
GR
GS
[0.75 0 0 0.75 366.63343 247.75001] CT
0.149 GC
/Helvetica 33.333 F
GS
[1 0 0 1 0 0] CT
-19 34 moveto 
1 -1 scale
(15) t 
GR
GR
GS
[0.75 0 0 0.75 228.75014 280.24999] CT
0.149 GC
/Helvetica 36.667 F
GS
[1 0 0 1 0 0] CT
-21.5 37 moveto 
1 -1 scale
(Xs) t 
GR
GR
GS
[0.75 0 0 0.75 0 0] CT
0.149 GC
2 setlinecap
1 LJ
0.667 LW
N
121.155 321 M
121.155 31 L
S
GR
GS
[0.75 0 0 0.75 0 0] CT
0.149 GC
2 setlinecap
1 LJ
0.667 LW
N
121.155 239.312 M
124.832 239.312 L
S
GR
GS
[0.75 0 0 0.75 0 0] CT
0.149 GC
2 setlinecap
1 LJ
0.667 LW
N
121.155 147.39 M
124.832 147.39 L
S
GR
GS
[0.75 0 0 0.75 0 0] CT
0.149 GC
2 setlinecap
1 LJ
0.667 LW
N
121.155 55.467 M
124.832 55.467 L
S
GR
GS
[0.75 0 0 0.75 83.86656 179.48395] CT
0.149 GC
/Helvetica 33.333 F
GS
[1 0 0 1 0 0] CT
-19 13 moveto 
1 -1 scale
(5) t 
GR
GR
GS
[0.75 0 0 0.75 83.86656 110.54222] CT
0.149 GC
/Helvetica 33.333 F
GS
[1 0 0 1 0 0] CT
-38 13 moveto 
1 -1 scale
(10) t 
GR
GR
GS
[0.75 0 0 0.75 83.86656 41.60051] CT
0.149 GC
/Helvetica 33.333 F
GS
[1 0 0 1 0 0] CT
-38 13 moveto 
1 -1 scale
(15) t 
GR
GR
GS
[0 -0.75 0.75 0 52.36657 131.9999] CT
0.149 GC
/Helvetica 36.667 F
GS
[1 0 0 1 0 0] CT
-21.5 -9 moveto 
1 -1 scale
(Ys) t 
GR
GR
GS
[0.75 0 0 0.75 214.96165 151.90726] CT
1 0 0 RC
N
0 -26.66 M
-23.088 13.33 L
23.088 13.33 L
cp
f
GR
GS
[0.75 0 0 0.75 214.96165 151.90726] CT
0 0 1 RC
10.0 ML
0.667 LW
N
0 -26.66 M
-23.088 13.33 L
23.088 13.33 L
cp
S
GR
GS
[0.75 0 0 0.75 201.17331 138.11892] CT
1 0 0 RC
N
/f-1996900118{0 -26.66 M
-23.088 13.33 L
23.088 13.33 L
cp}def
f-1996900118
f
GR
GS
[0.75 0 0 0.75 201.17331 138.11892] CT
0 0 1 RC
10.0 ML
0.667 LW
N
0 -26.66 M
-23.088 13.33 L
23.088 13.33 L
cp
S
GR
GS
[0.75 0 0 0.75 256.32669 151.90726] CT
1 0 0 RC
N
f-1996900118
f
GR
GS
[0.75 0 0 0.75 256.32669 151.90726] CT
0 0 1 RC
10.0 ML
0.667 LW
N
0 -26.66 M
-23.088 13.33 L
23.088 13.33 L
cp
S
GR
GS
[0.75 0 0 0.75 228.75 207.06063] CT
1 0 0 RC
N
f-1996900118
f
GR
GS
[0.75 0 0 0.75 228.75 207.06063] CT
0 0 1 RC
10.0 ML
0.667 LW
N
0 -26.66 M
-23.088 13.33 L
23.088 13.33 L
cp
S
GR
GS
[0.75 0 0 0.75 228.75 124.33057] CT
1 0 0 RC
N
f-1996900118
f
GR
GS
[0.75 0 0 0.75 228.75 124.33057] CT
0 0 1 RC
10.0 ML
0.667 LW
N
0 -26.66 M
-23.088 13.33 L
23.088 13.33 L
cp
S
GR
GS
[0.75 0 0 0.75 214.96165 179.48395] CT
1 0 0 RC
N
f-1996900118
f
GR
GS
[0.75 0 0 0.75 214.96165 179.48395] CT
0 0 1 RC
10.0 ML
0.667 LW
N
0 -26.66 M
-23.088 13.33 L
23.088 13.33 L
cp
S
GR
GS
[0.75 0 0 0.75 270.11504 207.06063] CT
1 0 0 RC
N
f-1996900118
f
GR
GS
[0.75 0 0 0.75 270.11504 207.06063] CT
0 0 1 RC
10.0 ML
0.667 LW
N
0 -26.66 M
-23.088 13.33 L
23.088 13.33 L
cp
S
GR
GS
[0.75 0 0 0.75 242.53835 138.11892] CT
1 0 0 RC
N
f-1996900118
f
GR
GS
[0.75 0 0 0.75 242.53835 138.11892] CT
0 0 1 RC
10.0 ML
0.667 LW
N
0 -26.66 M
-23.088 13.33 L
23.088 13.33 L
cp
S
GR
GS
[0.75 0 0 0.75 264.96137 81.42589] CT
1 0 0 RC
10.0 ML
0.667 LW
N
0 -5 M
0 5 L
-5 0 M
5 0 L
S
GR
GS
[0.75 0 0 0.75 255.28734 93.02129] CT
0 1 1 RC
10.0 ML
0.667 LW
N
0 -4 M
0 4 L
-4 0 M
4 0 L
-2.828 -2.828 M
2.828 2.828 L
-2.828 2.828 M
2.828 -2.828 L
S
GR
GS
[0.75 0 0 0.75 0 0] CT
0 1 1 RC
1 LJ
0.667 LW
N
339.789 122.41 M
339.778 122.292 L
339.843 122.391 L
S
GR
GS
[0.75 0 0 0.75 0 0] CT
0 1 1 RC
1 LJ
0.667 LW
N
340.383 124.028 M
339.778 122.292 L
S
GR
GS
[0.75 0 0 0.75 0 0] CT
0 1 1 RC
1 LJ
0.667 LW
N
339.948 139.236 M
336.18 138.65 L
332.675 137.146 L
329.655 134.817 L
327.309 131.81 L
325.785 128.314 L
325.178 124.549 L
325.526 120.751 L
326.808 117.159 L
328.943 113.999 L
331.796 111.469 L
335.189 109.728 L
338.909 108.886 L
342.721 108.995 L
346.386 110.049 L
349.674 111.981 L
352.378 114.67 L
354.329 117.947 L
355.403 121.606 L
355.534 125.418 L
354.712 129.142 L
352.99 132.545 L
350.476 135.412 L
347.328 137.565 L
343.744 138.867 L
339.948 139.236 L
S
GR
GS
[0.75 0 0 0.75 242.2153 82.05266] CT
0 1 1 RC
10.0 ML
0.667 LW
N
0 -4 M
0 4 L
-4 0 M
4 0 L
-2.828 -2.828 M
2.828 2.828 L
-2.828 2.828 M
2.828 -2.828 L
S
GR
GS
[0.75 0 0 0.75 0 0] CT
0 1 1 RC
1 LJ
0.667 LW
N
322.36 107.785 M
322.349 107.667 L
322.414 107.766 L
S
GR
GS
[0.75 0 0 0.75 0 0] CT
0 1 1 RC
1 LJ
0.667 LW
N
322.954 109.404 M
322.349 107.667 L
S
GR
GS
[0.75 0 0 0.75 0 0] CT
0 1 1 RC
1 LJ
0.667 LW
N
322.636 124.614 M
318.863 124.058 L
315.348 122.58 L
312.31 120.274 L
309.941 117.286 L
308.389 113.802 L
307.753 110.042 L
308.072 106.241 L
309.326 102.64 L
311.436 99.463 L
314.27 96.911 L
317.649 95.144 L
321.362 94.273 L
325.175 94.352 L
328.848 95.378 L
332.151 97.284 L
334.876 99.952 L
336.852 103.214 L
337.955 106.865 L
338.115 110.675 L
337.322 114.406 L
335.627 117.822 L
333.135 120.709 L
330.003 122.886 L
326.429 124.215 L
322.636 124.614 L
S
GR
GS
[0.75 0 0 0.75 255.28775 96.76239] CT
0 1 1 RC
10.0 ML
0.667 LW
N
0 -4 M
0 4 L
-4 0 M
4 0 L
-2.828 -2.828 M
2.828 2.828 L
-2.828 2.828 M
2.828 -2.828 L
S
GR
GS
[0.75 0 0 0.75 0 0] CT
0 1 1 RC
1 LJ
0.667 LW
N
339.789 127.398 M
339.779 127.28 L
339.844 127.379 L
S
GR
GS
[0.75 0 0 0.75 0 0] CT
0 1 1 RC
1 LJ
0.667 LW
N
340.384 129.017 M
339.779 127.28 L
S
GR
GS
[0.75 0 0 0.75 0 0] CT
0 1 1 RC
1 LJ
0.667 LW
N
340.388 144.231 M
336.605 143.754 L
333.058 142.351 L
329.972 140.11 L
327.54 137.173 L
325.916 133.722 L
325.2 129.976 L
325.438 126.17 L
326.616 122.543 L
328.658 119.322 L
331.437 116.711 L
334.779 114.872 L
338.472 113.923 L
342.286 113.922 L
345.98 114.869 L
349.323 116.705 L
352.103 119.315 L
354.148 122.534 L
355.327 126.161 L
355.568 129.967 L
354.855 133.714 L
353.232 137.165 L
350.802 140.104 L
347.717 142.347 L
344.172 143.752 L
340.388 144.231 L
S
GR
GS
[0.75 0 0 0.75 254.98592 92.71937] CT
0 1 1 RC
10.0 ML
0.667 LW
N
0 -4 M
0 4 L
-4 0 M
4 0 L
-2.828 -2.828 M
2.828 2.828 L
-2.828 2.828 M
2.828 -2.828 L
S
GR
GS
[0.75 0 0 0.75 0 0] CT
0 1 1 RC
1 LJ
0.667 LW
N
339.387 122.007 M
339.376 121.89 L
339.441 121.988 L
S
GR
GS
[0.75 0 0 0.75 0 0] CT
0 1 1 RC
1 LJ
0.667 LW
N
339.981 123.626 M
339.376 121.89 L
S
GR
GS
[0.75 0 0 0.75 0 0] CT
0 1 1 RC
1 LJ
0.667 LW
N
340.017 138.84 M
336.233 138.371 L
332.684 136.976 L
329.593 134.741 L
327.155 131.809 L
325.523 128.362 L
324.799 124.617 L
325.03 120.811 L
326.2 117.181 L
328.235 113.956 L
331.009 111.339 L
334.347 109.493 L
338.038 108.536 L
341.852 108.527 L
345.548 109.467 L
348.895 111.296 L
351.681 113.9 L
353.732 117.115 L
354.919 120.739 L
355.168 124.545 L
354.462 128.293 L
352.846 131.747 L
350.422 134.692 L
347.342 136.941 L
343.8 138.353 L
340.017 138.84 L
S
GR
GS
[0.75 0 0 0.75 253.76408 93.60151] CT
0 1 1 RC
10.0 ML
0.667 LW
N
0 -4 M
0 4 L
-4 0 M
4 0 L
-2.828 -2.828 M
2.828 2.828 L
-2.828 2.828 M
2.828 -2.828 L
S
GR
GS
[0.75 0 0 0.75 0 0] CT
0 1 1 RC
1 LJ
0.667 LW
N
337.758 123.184 M
337.747 123.066 L
337.812 123.165 L
S
GR
GS
[0.75 0 0 0.75 0 0] CT
0 1 1 RC
1 LJ
0.667 LW
N
338.352 124.802 M
337.747 123.066 L
S
GR
GS
[0.75 0 0 0.75 0 0] CT
0 1 1 RC
1 LJ
0.667 LW
N
353.562 124.451 M
352.997 120.679 L
351.512 117.167 L
349.199 114.134 L
346.205 111.771 L
342.718 110.228 L
338.956 109.6 L
335.157 109.927 L
331.558 111.189 L
328.386 113.306 L
325.84 116.146 L
324.081 119.53 L
323.218 123.244 L
323.306 127.057 L
324.339 130.728 L
326.253 134.027 L
328.928 136.746 L
332.194 138.714 L
335.847 139.809 L
339.658 139.96 L
343.387 139.159 L
346.799 137.456 L
349.68 134.958 L
351.85 131.822 L
353.172 128.244 L
353.562 124.451 L
S
GR
GS
[0.75 0 0 0.75 254.93676 92.67022] CT
0 1 1 RC
10.0 ML
0.667 LW
N
0 -4 M
0 4 L
-4 0 M
4 0 L
-2.828 -2.828 M
2.828 2.828 L
-2.828 2.828 M
2.828 -2.828 L
S
GR
GS
[0.75 0 0 0.75 0 0] CT
0 1 1 RC
1 LJ
0.667 LW
N
339.322 121.942 M
339.311 121.824 L
339.376 121.923 L
S
GR
GS
[0.75 0 0 0.75 0 0] CT
0 1 1 RC
1 LJ
0.667 LW
N
339.916 123.56 M
339.311 121.824 L
S
GR
GS
[0.75 0 0 0.75 0 0] CT
0 1 1 RC
1 LJ
0.667 LW
N
339.964 138.774 M
336.179 138.308 L
332.629 136.916 L
329.536 134.684 L
327.096 131.753 L
325.461 128.308 L
324.735 124.564 L
324.962 120.757 L
326.129 117.126 L
328.162 113.9 L
330.934 111.28 L
334.27 109.432 L
337.961 108.472 L
341.775 108.46 L
345.471 109.397 L
348.819 111.223 L
351.608 113.825 L
353.661 117.039 L
354.851 120.662 L
355.103 124.467 L
354.4 128.216 L
352.787 131.672 L
350.366 134.618 L
347.287 136.869 L
343.746 138.284 L
339.964 138.774 L
S
GR
GS
[0.75 0 0 0.75 242.15884 81.99577] CT
0 1 1 RC
10.0 ML
0.667 LW
N
0 -4 M
0 4 L
-4 0 M
4 0 L
-2.828 -2.828 M
2.828 2.828 L
-2.828 2.828 M
2.828 -2.828 L
S
GR
GS
[0.75 0 0 0.75 0 0] CT
0 1 1 RC
1 LJ
0.667 LW
N
322.284 107.709 M
322.274 107.592 L
322.338 107.69 L
S
GR
GS
[0.75 0 0 0.75 0 0] CT
0 1 1 RC
1 LJ
0.667 LW
N
322.878 109.328 M
322.274 107.592 L
S
GR
GS
[0.75 0 0 0.75 0 0] CT
0 1 1 RC
1 LJ
0.667 LW
N
338.093 109.305 M
337.609 105.522 L
336.2 101.978 L
333.954 98.896 L
331.012 96.47 L
327.558 94.851 L
323.811 94.142 L
320.005 94.387 L
316.38 95.571 L
313.163 97.619 L
310.557 100.403 L
308.724 103.748 L
307.781 107.443 L
307.787 111.257 L
308.741 114.949 L
310.583 118.289 L
313.198 121.065 L
316.421 123.104 L
320.05 124.277 L
323.856 124.51 L
327.601 123.79 L
331.05 122.161 L
333.985 119.726 L
336.222 116.637 L
337.62 113.089 L
338.093 109.305 L
S
GR
GS
[0.75 0 0 0.75 253.06657 90.79924] CT
0 1 1 RC
10.0 ML
0.667 LW
N
0 -4 M
0 4 L
-4 0 M
4 0 L
-2.828 -2.828 M
2.828 2.828 L
-2.828 2.828 M
2.828 -2.828 L
S
GR
GS
[0.75 0 0 0.75 0 0] CT
0 1 1 RC
1 LJ
0.667 LW
N
336.828 119.447 M
336.817 119.33 L
336.882 119.428 L
S
GR
GS
[0.75 0 0 0.75 0 0] CT
0 1 1 RC
1 LJ
0.667 LW
N
337.422 121.066 M
336.817 119.33 L
S
GR
GS
[0.75 0 0 0.75 0 0] CT
0 1 1 RC
1 LJ
0.667 LW
N
337.965 136.27 M
334.167 135.928 L
330.573 134.651 L
327.41 132.521 L
324.876 129.671 L
323.13 126.281 L
322.282 122.563 L
322.385 118.75 L
323.433 115.083 L
325.361 111.793 L
328.046 109.084 L
331.32 107.129 L
334.977 106.049 L
338.789 105.913 L
342.514 106.729 L
345.92 108.446 L
348.791 110.955 L
350.948 114.1 L
352.255 117.683 L
352.631 121.478 L
352.05 125.247 L
350.551 128.754 L
348.226 131.777 L
345.223 134.128 L
341.729 135.657 L
337.965 136.27 L
S
GR
GS
[0.75 0 0 0.75 251.54146 91.37928] CT
0 1 1 RC
10.0 ML
0.667 LW
N
0 -4 M
0 4 L
-4 0 M
4 0 L
-2.828 -2.828 M
2.828 2.828 L
-2.828 2.828 M
2.828 -2.828 L
S
GR
GS
[0.75 0 0 0.75 0 0] CT
0 1 1 RC
1 LJ
0.667 LW
N
334.794 120.221 M
334.784 120.103 L
334.849 120.202 L
S
GR
GS
[0.75 0 0 0.75 0 0] CT
0 1 1 RC
1 LJ
0.667 LW
N
335.389 121.839 M
334.784 120.103 L
S
GR
GS
[0.75 0 0 0.75 0 0] CT
0 1 1 RC
1 LJ
0.667 LW
N
350.59 121.224 M
349.96 117.463 L
348.414 113.977 L
346.049 110.985 L
343.015 108.674 L
339.501 107.191 L
335.729 106.629 L
331.936 107.022 L
328.36 108.346 L
325.225 110.518 L
322.729 113.401 L
321.028 116.815 L
320.23 120.544 L
320.384 124.354 L
321.481 128.007 L
323.452 131.272 L
326.172 133.944 L
329.472 135.856 L
333.144 136.887 L
336.957 136.972 L
340.671 136.107 L
344.053 134.345 L
346.891 131.797 L
349.006 128.624 L
350.266 125.024 L
350.59 121.224 L
S
GR
GS
[0.75 0 0 0.75 228.42792 68.26572] CT
0 1 1 RC
10.0 ML
0.667 LW
N
0 -4 M
0 4 L
-4 0 M
4 0 L
-2.828 -2.828 M
2.828 2.828 L
-2.828 2.828 M
2.828 -2.828 L
S
GR
GS
[0.75 0 0 0.75 0 0] CT
0 1 1 RC
1 LJ
0.667 LW
N
303.976 89.402 M
303.966 89.285 L
304.03 89.384 L
S
GR
GS
[0.75 0 0 0.75 0 0] CT
0 1 1 RC
1 LJ
0.667 LW
N
304.571 91.021 M
303.966 89.285 L
S
GR
GS
[0.75 0 0 0.75 0 0] CT
0 1 1 RC
1 LJ
0.667 LW
N
304.509 106.235 M
300.727 105.742 L
297.187 104.323 L
294.111 102.069 L
291.692 99.121 L
290.082 95.664 L
289.383 91.915 L
289.638 88.109 L
290.831 84.487 L
292.887 81.276 L
295.678 78.676 L
299.027 76.853 L
302.725 75.919 L
306.539 75.935 L
310.229 76.898 L
313.563 78.749 L
316.333 81.371 L
318.363 84.599 L
319.527 88.231 L
319.751 92.038 L
319.021 95.781 L
317.383 99.225 L
314.94 102.154 L
311.846 104.383 L
308.294 105.772 L
304.509 106.235 L
S
GR
GS
[0.75 0 0 0.75 241.50723 79.24151] CT
0 1 1 RC
10.0 ML
0.667 LW
N
0 -4 M
0 4 L
-4 0 M
4 0 L
-2.828 -2.828 M
2.828 2.828 L
-2.828 2.828 M
2.828 -2.828 L
S
GR
GS
[0.75 0 0 0.75 0 0] CT
0 1 1 RC
1 LJ
0.667 LW
N
321.415 104.037 M
321.405 103.919 L
321.47 104.018 L
S
GR
GS
[0.75 0 0 0.75 0 0] CT
0 1 1 RC
1 LJ
0.667 LW
N
322.01 105.655 M
321.405 103.919 L
S
GR
GS
[0.75 0 0 0.75 0 0] CT
0 1 1 RC
1 LJ
0.667 LW
N
337.223 105.782 M
336.777 101.994 L
335.402 98.437 L
333.186 95.333 L
330.268 92.878 L
326.831 91.225 L
323.091 90.48 L
319.283 90.688 L
315.646 91.836 L
312.409 93.853 L
309.776 96.611 L
307.911 99.937 L
306.932 103.623 L
306.9 107.437 L
307.818 111.138 L
309.627 114.495 L
312.215 117.297 L
315.418 119.367 L
319.035 120.576 L
322.839 120.847 L
326.591 120.163 L
330.055 118.568 L
333.013 116.162 L
335.281 113.095 L
336.714 109.561 L
337.223 105.782 L
S
GR
GS
[0.75 0 0 0.75 254.92804 92.6612] CT
0 1 1 RC
10.0 ML
0.667 LW
N
0 -4 M
0 4 L
-4 0 M
4 0 L
-2.828 -2.828 M
2.828 2.828 L
-2.828 2.828 M
2.828 -2.828 L
S
GR
GS
[0.75 0 0 0.75 0 0] CT
0 1 1 RC
1 LJ
0.667 LW
N
339.31 121.93 M
339.299 121.812 L
339.364 121.911 L
S
GR
GS
[0.75 0 0 0.75 0 0] CT
0 1 1 RC
1 LJ
0.667 LW
N
339.904 123.548 M
339.299 121.812 L
S
GR
GS
[0.75 0 0 0.75 0 0] CT
0 1 1 RC
1 LJ
0.667 LW
N
339.88 138.762 M
336.097 138.278 L
332.553 136.869 L
329.472 134.622 L
327.045 131.68 L
325.427 128.227 L
324.718 124.479 L
324.964 120.674 L
326.148 117.049 L
328.197 113.832 L
330.981 111.226 L
334.326 109.394 L
338.021 108.451 L
341.835 108.457 L
345.527 109.411 L
348.866 111.254 L
351.642 113.869 L
353.68 117.092 L
354.853 120.721 L
355.087 124.528 L
354.366 128.273 L
352.737 131.721 L
350.301 134.655 L
347.212 136.892 L
343.664 138.29 L
339.88 138.762 L
S
GR
GS
[0.75 0 0 0.75 241.49986 79.23328] CT
0 1 1 RC
10.0 ML
0.667 LW
N
0 -4 M
0 4 L
-4 0 M
4 0 L
-2.828 -2.828 M
2.828 2.828 L
-2.828 2.828 M
2.828 -2.828 L
S
GR
GS
[0.75 0 0 0.75 0 0] CT
0 1 1 RC
1 LJ
0.667 LW
N
321.406 104.026 M
321.395 103.908 L
321.46 104.007 L
S
GR
GS
[0.75 0 0 0.75 0 0] CT
0 1 1 RC
1 LJ
0.667 LW
N
322 105.644 M
321.395 103.908 L
S
GR
GS
[0.75 0 0 0.75 0 0] CT
0 1 1 RC
1 LJ
0.667 LW
N
321.564 120.852 M
317.796 120.266 L
314.292 118.761 L
311.272 116.432 L
308.926 113.426 L
307.402 109.93 L
306.795 106.165 L
307.143 102.367 L
308.425 98.775 L
310.559 95.615 L
313.413 93.085 L
316.806 91.344 L
320.526 90.502 L
324.338 90.611 L
328.003 91.665 L
331.291 93.597 L
333.995 96.286 L
335.946 99.563 L
337.02 103.222 L
337.15 107.034 L
336.329 110.758 L
334.607 114.161 L
332.093 117.029 L
328.945 119.181 L
325.36 120.483 L
321.564 120.852 L
S
GR
GS
[0.75 0 0 0.75 255.64897 92.30023] CT
0 1 1 RC
10.0 ML
0.667 LW
N
0 -4 M
0 4 L
-4 0 M
4 0 L
-2.828 -2.828 M
2.828 2.828 L
-2.828 2.828 M
2.828 -2.828 L
S
GR
GS
[0.75 0 0 0.75 0 0] CT
0 1 1 RC
1 LJ
0.667 LW
N
340.271 121.448 M
340.26 121.331 L
340.325 121.43 L
S
GR
GS
[0.75 0 0 0.75 0 0] CT
0 1 1 RC
1 LJ
0.667 LW
N
340.865 123.067 M
340.26 121.331 L
S
GR
GS
[0.75 0 0 0.75 0 0] CT
0 1 1 RC
1 LJ
0.667 LW
N
356.078 123.265 M
355.649 119.475 L
354.292 115.912 L
352.091 112.797 L
349.184 110.328 L
345.755 108.66 L
342.018 107.897 L
338.209 108.086 L
334.567 109.218 L
331.321 111.219 L
328.674 113.965 L
326.794 117.283 L
325.797 120.964 L
325.748 124.777 L
326.648 128.483 L
328.441 131.849 L
331.016 134.662 L
334.209 136.748 L
337.82 137.973 L
341.623 138.262 L
345.378 137.596 L
348.85 136.018 L
351.819 133.625 L
354.101 130.569 L
355.551 127.042 L
356.078 123.265 L
S
GR
GS
[0.75 0 0 0.75 264.96137 81.42589] CT
1 0 0 RC
10.0 ML
0.667 LW
N
0 -5 M
0 5 L
-5 0 M
5 0 L
S
GR
GS
[0.75 0 0 0.75 250.04391 107.6158] CT
0 0 1 RC
10.0 ML
0.667 LW
N
0 -4 M
0 4 L
-4 0 M
4 0 L
-2.828 -2.828 M
2.828 2.828 L
-2.828 2.828 M
2.828 -2.828 L
S
GR
GS
[0.75 0 0 0.75 0 0] CT
0 0 1 RC
1 LJ
0.667 LW
N
332.798 141.869 M
332.787 141.752 L
332.852 141.85 L
S
GR
GS
[0.75 0 0 0.75 0 0] CT
0 0 1 RC
1 LJ
0.667 LW
N
333.392 143.488 M
332.787 141.752 L
S
GR
GS
[0.75 0 0 0.75 0 0] CT
0 0 1 RC
1 LJ
0.667 LW
N
329.87 148.494 M
328.736 147.461 L
327.894 146.178 L
327.398 144.726 L
327.278 143.197 L
327.542 141.685 L
328.174 140.287 L
329.134 139.09 L
330.362 138.169 L
331.779 137.583 L
333.299 137.368 L
334.824 137.537 L
336.259 138.08 L
337.513 138.962 L
338.509 140.13 L
339.184 141.508 L
339.494 143.01 L
339.421 144.543 L
338.969 146.009 L
338.167 147.317 L
337.065 148.384 L
335.732 149.144 L
334.251 149.548 L
332.717 149.571 L
331.226 149.212 L
329.87 148.494 L
S
GR
GS
[0.75 0 0 0.75 238.48727 96.05914] CT
0 0 1 RC
10.0 ML
0.667 LW
N
0 -4 M
0 4 L
-4 0 M
4 0 L
-2.828 -2.828 M
2.828 2.828 L
-2.828 2.828 M
2.828 -2.828 L
S
GR
GS
[0.75 0 0 0.75 0 0] CT
0 0 1 RC
1 LJ
0.667 LW
N
317.389 126.46 M
317.378 126.343 L
317.443 126.442 L
S
GR
GS
[0.75 0 0 0.75 0 0] CT
0 0 1 RC
1 LJ
0.667 LW
N
317.983 128.079 M
317.378 126.343 L
S
GR
GS
[0.75 0 0 0.75 0 0] CT
0 0 1 RC
1 LJ
0.667 LW
N
314.257 132.935 M
313.167 131.856 L
312.379 130.54 L
311.943 129.069 L
311.886 127.535 L
312.213 126.036 L
312.902 124.665 L
313.911 123.509 L
315.175 122.64 L
316.616 122.113 L
318.143 121.96 L
319.659 122.192 L
321.071 122.794 L
322.288 123.728 L
323.235 124.935 L
323.852 126.34 L
324.1 127.854 L
323.964 129.382 L
323.452 130.829 L
322.596 132.102 L
321.45 133.123 L
320.087 133.827 L
318.592 134.169 L
317.058 134.129 L
315.582 133.709 L
314.257 132.935 L
S
GR
GS
[0.75 0 0 0.75 261.60049 84.50273] CT
0 1 0 RC
10.0 ML
0.667 LW
N
0 -4 M
0 4 L
-4 0 M
4 0 L
-2.828 -2.828 M
2.828 2.828 L
-2.828 2.828 M
2.828 -2.828 L
S
GR
GS
[0.75 0 0 0.75 0 0] CT
0 1 0 RC
1 LJ
0.667 LW
N
348.206 111.052 M
348.196 110.934 L
348.261 111.033 L
S
GR
GS
[0.75 0 0 0.75 0 0] CT
0 1 0 RC
1 LJ
0.667 LW
N
348.801 112.67 M
348.196 110.934 L
S
GR
GS
[0.75 0 0 0.75 0 0] CT
0 1 0 RC
1 LJ
0.667 LW
N
353.755 116.265 M
354.493 114.92 L
354.874 113.433 L
354.873 111.899 L
354.49 110.413 L
353.75 109.069 L
352.699 107.951 L
351.403 107.13 L
349.943 106.657 L
348.412 106.562 L
346.905 106.85 L
345.517 107.505 L
344.336 108.483 L
343.435 109.725 L
342.871 111.152 L
342.68 112.675 L
342.873 114.197 L
343.439 115.623 L
344.342 116.863 L
345.524 117.841 L
346.913 118.493 L
348.421 118.779 L
349.952 118.682 L
351.411 118.207 L
352.706 117.384 L
353.755 116.265 L
S
GR
GS
[0.75 0 0 0.75 273.15724 96.05915] CT
0 0 1 RC
10.0 ML
0.667 LW
N
0 -4 M
0 4 L
-4 0 M
4 0 L
-2.828 -2.828 M
2.828 2.828 L
-2.828 2.828 M
2.828 -2.828 L
S
GR
GS
[0.75 0 0 0.75 0 0] CT
0 0 1 RC
1 LJ
0.667 LW
N
363.615 126.46 M
363.605 126.343 L
363.67 126.442 L
S
GR
GS
[0.75 0 0 0.75 0 0] CT
0 0 1 RC
1 LJ
0.667 LW
N
364.21 128.079 M
363.605 126.343 L
S
GR
GS
[0.75 0 0 0.75 0 0] CT
0 0 1 RC
1 LJ
0.667 LW
N
360.745 133.125 M
359.599 132.104 L
358.742 130.831 L
358.23 129.385 L
358.093 127.857 L
358.34 126.343 L
358.956 124.938 L
359.903 123.73 L
361.119 122.795 L
362.53 122.193 L
364.047 121.96 L
365.574 122.112 L
367.015 122.639 L
368.28 123.507 L
369.289 124.663 L
369.979 126.033 L
370.306 127.532 L
370.25 129.066 L
369.815 130.537 L
369.028 131.854 L
367.938 132.933 L
366.613 133.708 L
365.138 134.129 L
363.604 134.17 L
362.108 133.828 L
360.745 133.125 L
S
GR
GS
[0.75 0 0 0.75 236.61685 94.18888] CT
0 0 1 RC
10.0 ML
0.667 LW
N
0 -4 M
0 4 L
-4 0 M
4 0 L
-2.828 -2.828 M
2.828 2.828 L
-2.828 2.828 M
2.828 -2.828 L
S
GR
GS
[0.75 0 0 0.75 0 0] CT
0 0 1 RC
1 LJ
0.667 LW
N
314.895 123.967 M
314.884 123.849 L
314.949 123.948 L
S
GR
GS
[0.75 0 0 0.75 0 0] CT
0 0 1 RC
1 LJ
0.667 LW
N
315.489 125.585 M
314.884 123.849 L
S
GR
GS
[0.75 0 0 0.75 0 0] CT
0 0 1 RC
1 LJ
0.667 LW
N
320.425 129.204 M
321.17 127.863 L
321.558 126.379 L
321.565 124.844 L
321.19 123.357 L
320.457 122.009 L
319.411 120.886 L
318.119 120.058 L
316.662 119.578 L
315.131 119.475 L
313.623 119.756 L
312.232 120.403 L
311.045 121.376 L
310.138 122.613 L
309.567 124.037 L
309.368 125.559 L
309.554 127.082 L
310.113 128.511 L
311.009 129.756 L
312.187 130.739 L
313.573 131.398 L
315.078 131.692 L
316.61 131.603 L
318.071 131.135 L
319.37 130.318 L
320.425 129.204 L
S
GR
GS
[0.75 0 0 0.75 250.04391 107.71393] CT
0 0 1 RC
10.0 ML
0.667 LW
N
0 -4 M
0 4 L
-4 0 M
4 0 L
-2.828 -2.828 M
2.828 2.828 L
-2.828 2.828 M
2.828 -2.828 L
S
GR
GS
[0.75 0 0 0.75 0 0] CT
0 0 1 RC
1 LJ
0.667 LW
N
332.798 142 M
332.787 141.882 L
332.852 141.981 L
S
GR
GS
[0.75 0 0 0.75 0 0] CT
0 0 1 RC
1 LJ
0.667 LW
N
333.392 143.619 M
332.787 141.882 L
S
GR
GS
[0.75 0 0 0.75 0 0] CT
0 0 1 RC
1 LJ
0.667 LW
N
338.406 147.13 M
339.121 145.772 L
339.477 144.28 L
339.45 142.746 L
339.043 141.266 L
338.28 139.935 L
337.211 138.835 L
335.901 138.036 L
334.434 137.587 L
332.901 137.517 L
331.399 137.831 L
330.023 138.508 L
328.858 139.507 L
327.978 140.764 L
327.438 142.2 L
327.272 143.725 L
327.491 145.244 L
328.08 146.66 L
329.004 147.886 L
330.203 148.843 L
331.602 149.472 L
333.114 149.733 L
334.643 149.61 L
336.094 149.111 L
337.375 148.266 L
338.406 147.13 L
S
GR
GS
[0.75 0 0 0.75 261.60052 84.60067] CT
0 0 1 RC
10.0 ML
0.667 LW
N
0 -4 M
0 4 L
-4 0 M
4 0 L
-2.828 -2.828 M
2.828 2.828 L
-2.828 2.828 M
2.828 -2.828 L
S
GR
GS
[0.75 0 0 0.75 0 0] CT
0 0 1 RC
1 LJ
0.667 LW
N
348.206 111.182 M
348.196 111.065 L
348.261 111.164 L
S
GR
GS
[0.75 0 0 0.75 0 0] CT
0 0 1 RC
1 LJ
0.667 LW
N
348.801 112.801 M
348.196 111.065 L
S
GR
GS
[0.75 0 0 0.75 0 0] CT
0 0 1 RC
1 LJ
0.667 LW
N
345.194 117.746 M
344.077 116.694 L
343.257 115.397 L
342.786 113.937 L
342.693 112.405 L
342.983 110.898 L
343.639 109.511 L
344.619 108.331 L
345.862 107.432 L
347.29 106.869 L
348.812 106.68 L
350.334 106.875 L
351.76 107.443 L
352.999 108.347 L
353.975 109.531 L
354.626 110.92 L
354.91 112.428 L
354.811 113.959 L
354.334 115.417 L
353.51 116.711 L
352.389 117.76 L
351.043 118.496 L
349.556 118.875 L
348.022 118.872 L
346.537 118.488 L
345.194 117.746 L
S
GR
GS
[0.75 0 0 0.75 261.59276 84.49496] CT
0 0 1 RC
10.0 ML
0.667 LW
N
0 -4 M
0 4 L
-4 0 M
4 0 L
-2.828 -2.828 M
2.828 2.828 L
-2.828 2.828 M
2.828 -2.828 L
S
GR
GS
[0.75 0 0 0.75 0 0] CT
0 0 1 RC
1 LJ
0.667 LW
N
348.196 111.041 M
348.186 110.924 L
348.25 111.023 L
S
GR
GS
[0.75 0 0 0.75 0 0] CT
0 0 1 RC
1 LJ
0.667 LW
N
348.79 112.66 M
348.186 110.924 L
S
GR
GS
[0.75 0 0 0.75 0 0] CT
0 0 1 RC
1 LJ
0.667 LW
N
353.739 116.263 M
354.479 114.919 L
354.862 113.433 L
354.864 111.899 L
354.484 110.412 L
353.746 109.067 L
352.697 107.948 L
351.402 107.124 L
349.943 106.649 L
348.412 106.551 L
346.905 106.837 L
345.516 107.489 L
344.332 108.466 L
343.429 109.706 L
342.863 111.132 L
342.669 112.654 L
342.86 114.176 L
343.424 115.603 L
344.324 116.846 L
345.506 117.825 L
346.893 118.479 L
348.4 118.768 L
349.931 118.674 L
351.391 118.201 L
352.687 117.38 L
353.739 116.263 L
S
GR
GS
[0.75 0 0 0.75 250.04244 107.61451] CT
0 0 1 RC
10.0 ML
0.667 LW
N
0 -4 M
0 4 L
-4 0 M
4 0 L
-2.828 -2.828 M
2.828 2.828 L
-2.828 2.828 M
2.828 -2.828 L
S
GR
GS
[0.75 0 0 0.75 0 0] CT
0 0 1 RC
1 LJ
0.667 LW
N
332.796 141.868 M
332.785 141.75 L
332.85 141.849 L
S
GR
GS
[0.75 0 0 0.75 0 0] CT
0 0 1 RC
1 LJ
0.667 LW
N
333.39 143.486 M
332.785 141.75 L
S
GR
GS
[0.75 0 0 0.75 0 0] CT
0 0 1 RC
1 LJ
0.667 LW
N
329.877 148.498 M
328.74 147.467 L
327.897 146.186 L
327.398 144.735 L
327.275 143.205 L
327.537 141.693 L
328.167 140.294 L
329.125 139.096 L
330.351 138.173 L
331.767 137.584 L
333.286 137.366 L
334.811 137.532 L
336.247 138.073 L
337.504 138.954 L
338.502 140.119 L
339.178 141.496 L
339.491 142.998 L
339.421 144.531 L
338.972 145.998 L
338.172 147.307 L
337.071 148.376 L
335.739 149.138 L
334.26 149.545 L
332.726 149.571 L
331.233 149.214 L
329.877 148.498 L
S
GR
GS
[0.75 0 0 0.75 238.48595 96.05809] CT
0 0 1 RC
10.0 ML
0.667 LW
N
0 -4 M
0 4 L
-4 0 M
4 0 L
-2.828 -2.828 M
2.828 2.828 L
-2.828 2.828 M
2.828 -2.828 L
S
GR
GS
[0.75 0 0 0.75 0 0] CT
0 0 1 RC
1 LJ
0.667 LW
N
317.387 126.459 M
317.376 126.341 L
317.441 126.44 L
S
GR
GS
[0.75 0 0 0.75 0 0] CT
0 0 1 RC
1 LJ
0.667 LW
N
317.981 128.077 M
317.376 126.341 L
S
GR
GS
[0.75 0 0 0.75 0 0] CT
0 0 1 RC
1 LJ
0.667 LW
N
322.913 131.703 M
323.66 130.362 L
324.049 128.879 L
324.058 127.344 L
323.685 125.856 L
322.953 124.507 L
321.909 123.383 L
320.618 122.554 L
319.162 122.071 L
317.631 121.967 L
316.122 122.246 L
314.73 122.891 L
313.543 123.863 L
312.634 125.099 L
312.061 126.522 L
311.86 128.043 L
312.044 129.566 L
312.601 130.996 L
313.496 132.242 L
314.673 133.227 L
316.057 133.888 L
317.563 134.184 L
319.095 134.096 L
320.556 133.63 L
321.856 132.815 L
322.913 131.703 L
S
GR
GS
[0.75 0 0 0.75 261.59917 84.5013] CT
0 0 1 RC
10.0 ML
0.667 LW
N
0 -4 M
0 4 L
-4 0 M
4 0 L
-2.828 -2.828 M
2.828 2.828 L
-2.828 2.828 M
2.828 -2.828 L
S
GR
GS
[0.75 0 0 0.75 0 0] CT
0 0 1 RC
1 LJ
0.667 LW
N
348.205 111.05 M
348.194 110.932 L
348.259 111.031 L
S
GR
GS
[0.75 0 0 0.75 0 0] CT
0 0 1 RC
1 LJ
0.667 LW
N
348.799 112.668 M
348.194 110.932 L
S
GR
GS
[0.75 0 0 0.75 0 0] CT
0 0 1 RC
1 LJ
0.667 LW
N
345.195 117.616 M
344.078 116.565 L
343.258 115.268 L
342.785 113.808 L
342.691 112.277 L
342.98 110.77 L
343.635 109.383 L
344.614 108.202 L
345.856 107.301 L
347.284 106.738 L
348.806 106.547 L
350.328 106.742 L
351.754 107.308 L
352.994 108.211 L
353.971 109.395 L
354.622 110.784 L
354.908 112.291 L
354.81 113.822 L
354.334 115.281 L
353.511 116.575 L
352.391 117.624 L
351.046 118.362 L
349.559 118.742 L
348.025 118.74 L
346.539 118.357 L
345.195 117.616 L
S
GR
GS
[0.75 0 0 0.75 273.15573 96.05791] CT
0 0 1 RC
10.0 ML
0.667 LW
N
0 -4 M
0 4 L
-4 0 M
4 0 L
-2.828 -2.828 M
2.828 2.828 L
-2.828 2.828 M
2.828 -2.828 L
S
GR
GS
[0.75 0 0 0.75 0 0] CT
0 0 1 RC
1 LJ
0.667 LW
N
363.613 126.459 M
363.603 126.341 L
363.668 126.44 L
S
GR
GS
[0.75 0 0 0.75 0 0] CT
0 0 1 RC
1 LJ
0.667 LW
N
364.208 128.077 M
363.603 126.341 L
S
GR
GS
[0.75 0 0 0.75 0 0] CT
0 0 1 RC
1 LJ
0.667 LW
N
369.253 131.543 M
369.956 130.179 L
370.298 128.684 L
370.258 127.15 L
369.837 125.674 L
369.063 124.35 L
367.983 123.259 L
366.666 122.472 L
365.195 122.036 L
363.662 121.981 L
362.163 122.308 L
360.792 122.998 L
359.636 124.007 L
358.768 125.271 L
358.241 126.712 L
358.089 128.239 L
358.321 129.756 L
358.924 131.167 L
359.858 132.384 L
361.066 133.33 L
362.471 133.947 L
363.985 134.194 L
365.513 134.057 L
366.959 133.545 L
368.233 132.689 L
369.253 131.543 L
S
GR
GS
[0.75 0 0 0.75 250.03535 107.60712] CT
0 0 1 RC
10.0 ML
0.667 LW
N
0 -4 M
0 4 L
-4 0 M
4 0 L
-2.828 -2.828 M
2.828 2.828 L
-2.828 2.828 M
2.828 -2.828 L
S
GR
GS
[0.75 0 0 0.75 0 0] CT
0 0 1 RC
1 LJ
0.667 LW
N
332.786 141.858 M
332.776 141.74 L
332.84 141.839 L
S
GR
GS
[0.75 0 0 0.75 0 0] CT
0 0 1 RC
1 LJ
0.667 LW
N
333.38 143.476 M
332.776 141.74 L
S
GR
GS
[0.75 0 0 0.75 0 0] CT
0 0 1 RC
1 LJ
0.667 LW
N
329.867 148.488 M
328.731 147.457 L
327.887 146.176 L
327.388 144.725 L
327.266 143.196 L
327.528 141.684 L
328.157 140.285 L
329.115 139.086 L
330.341 138.163 L
331.758 137.574 L
333.277 137.356 L
334.802 137.523 L
336.238 138.063 L
337.494 138.944 L
338.492 140.109 L
339.169 141.486 L
339.482 142.988 L
339.412 144.521 L
338.962 145.988 L
338.162 147.297 L
337.062 148.366 L
335.73 149.128 L
334.251 149.535 L
332.716 149.561 L
331.224 149.205 L
329.867 148.488 L
S
GR
GS
[0.75 0 0 0.75 238.47739 96.04931] CT
0 0 1 RC
10.0 ML
0.667 LW
N
0 -4 M
0 4 L
-4 0 M
4 0 L
-2.828 -2.828 M
2.828 2.828 L
-2.828 2.828 M
2.828 -2.828 L
S
GR
GS
[0.75 0 0 0.75 0 0] CT
0 0 1 RC
1 LJ
0.667 LW
N
317.376 126.447 M
317.365 126.33 L
317.43 126.428 L
S
GR
GS
[0.75 0 0 0.75 0 0] CT
0 0 1 RC
1 LJ
0.667 LW
N
317.97 128.066 M
317.365 126.33 L
S
GR
GS
[0.75 0 0 0.75 0 0] CT
0 0 1 RC
1 LJ
0.667 LW
N
322.902 131.691 M
323.648 130.351 L
324.038 128.867 L
324.047 127.333 L
323.673 125.844 L
322.942 124.496 L
321.898 123.371 L
320.607 122.542 L
319.15 122.06 L
317.62 121.955 L
316.111 122.234 L
314.719 122.879 L
313.531 123.851 L
312.623 125.087 L
312.05 126.511 L
311.849 128.032 L
312.033 129.555 L
312.59 130.985 L
313.485 132.231 L
314.661 133.215 L
316.046 133.876 L
317.551 134.172 L
319.083 134.085 L
320.545 133.619 L
321.845 132.804 L
322.902 131.691 L
S
GR
GS
[0.75 0 0 0.75 261.59141 84.49363] CT
0 0 1 RC
10.0 ML
0.667 LW
N
0 -4 M
0 4 L
-4 0 M
4 0 L
-2.828 -2.828 M
2.828 2.828 L
-2.828 2.828 M
2.828 -2.828 L
S
GR
GS
[0.75 0 0 0.75 0 0] CT
0 0 1 RC
1 LJ
0.667 LW
N
348.194 111.04 M
348.184 110.922 L
348.248 111.021 L
S
GR
GS
[0.75 0 0 0.75 0 0] CT
0 0 1 RC
1 LJ
0.667 LW
N
348.789 112.658 M
348.184 110.922 L
S
GR
GS
[0.75 0 0 0.75 0 0] CT
0 0 1 RC
1 LJ
0.667 LW
N
345.186 117.607 M
344.069 116.555 L
343.248 115.259 L
342.775 113.799 L
342.68 112.268 L
342.969 110.761 L
343.624 109.373 L
344.603 108.192 L
345.845 107.292 L
347.272 106.728 L
348.794 106.537 L
350.316 106.731 L
351.742 107.297 L
352.983 108.2 L
353.96 109.383 L
354.612 110.772 L
354.898 112.28 L
354.8 113.811 L
354.324 115.27 L
353.501 116.564 L
352.382 117.614 L
351.036 118.351 L
349.55 118.732 L
348.016 118.73 L
346.53 118.347 L
345.186 117.607 L
S
GR
GS
[0.75 0 0 0.75 273.14818 96.05001] CT
0 0 1 RC
10.0 ML
0.667 LW
N
0 -4 M
0 4 L
-4 0 M
4 0 L
-2.828 -2.828 M
2.828 2.828 L
-2.828 2.828 M
2.828 -2.828 L
S
GR
GS
[0.75 0 0 0.75 0 0] CT
0 0 1 RC
1 LJ
0.667 LW
N
363.603 126.448 M
363.593 126.331 L
363.657 126.429 L
S
GR
GS
[0.75 0 0 0.75 0 0] CT
0 0 1 RC
1 LJ
0.667 LW
N
364.198 128.067 M
363.593 126.331 L
S
GR
GS
[0.75 0 0 0.75 0 0] CT
0 0 1 RC
1 LJ
0.667 LW
N
369.244 131.531 M
369.947 130.168 L
370.289 128.672 L
370.248 127.138 L
369.827 125.663 L
369.052 124.338 L
367.972 123.248 L
366.655 122.461 L
365.184 122.026 L
363.651 121.97 L
362.152 122.298 L
360.781 122.988 L
359.626 123.997 L
358.757 125.262 L
358.231 126.703 L
358.079 128.23 L
358.312 129.746 L
358.914 131.157 L
359.849 132.374 L
361.057 133.32 L
362.462 133.936 L
363.976 134.184 L
365.504 134.046 L
366.95 133.534 L
368.223 132.677 L
369.244 131.531 L
S
GR
GS
[0.75 0 0 0.75 236.60699 94.17912] CT
0 0 1 RC
10.0 ML
0.667 LW
N
0 -4 M
0 4 L
-4 0 M
4 0 L
-2.828 -2.828 M
2.828 2.828 L
-2.828 2.828 M
2.828 -2.828 L
S
GR
GS
[0.75 0 0 0.75 0 0] CT
0 0 1 RC
1 LJ
0.667 LW
N
314.882 123.954 M
314.871 123.836 L
314.936 123.935 L
S
GR
GS
[0.75 0 0 0.75 0 0] CT
0 0 1 RC
1 LJ
0.667 LW
N
315.476 125.572 M
314.871 123.836 L
S
GR
GS
[0.75 0 0 0.75 0 0] CT
0 0 1 RC
1 LJ
0.667 LW
N
320.457 129.129 M
321.185 127.778 L
321.555 126.289 L
321.542 124.755 L
321.148 123.272 L
320.398 121.934 L
319.339 120.824 L
318.036 120.012 L
316.573 119.55 L
315.041 119.467 L
313.537 119.767 L
312.154 120.431 L
310.98 121.419 L
310.088 122.668 L
309.535 124.099 L
309.355 125.623 L
309.56 127.143 L
310.137 128.565 L
311.049 129.799 L
312.239 130.767 L
313.633 131.409 L
315.142 131.684 L
316.673 131.575 L
318.128 131.089 L
319.416 130.256 L
320.457 129.129 L
S
GR
GS
[0.75 0 0 0.75 261.54247 84.44452] CT
0 0 1 RC
10.0 ML
0.667 LW
N
0 -4 M
0 4 L
-4 0 M
4 0 L
-2.828 -2.828 M
2.828 2.828 L
-2.828 2.828 M
2.828 -2.828 L
S
GR
GS
[0.75 0 0 0.75 0 0] CT
0 0 1 RC
1 LJ
0.667 LW
N
348.129 110.974 M
348.118 110.857 L
348.183 110.955 L
S
GR
GS
[0.75 0 0 0.75 0 0] CT
0 0 1 RC
1 LJ
0.667 LW
N
348.723 112.593 M
348.118 110.857 L
S
GR
GS
[0.75 0 0 0.75 0 0] CT
0 0 1 RC
1 LJ
0.667 LW
N
353.676 116.189 M
354.415 114.844 L
354.796 113.358 L
354.796 111.824 L
354.414 110.338 L
353.674 108.994 L
352.624 107.875 L
351.328 107.054 L
349.869 106.58 L
348.337 106.484 L
346.83 106.772 L
345.442 107.425 L
344.26 108.404 L
343.359 109.645 L
342.794 111.072 L
342.602 112.594 L
342.795 114.116 L
343.36 115.543 L
344.262 116.784 L
345.445 117.762 L
346.833 118.415 L
348.341 118.702 L
349.872 118.605 L
351.331 118.13 L
352.626 117.308 L
353.676 116.189 L
S
GR
GS
[0.75 0 0 0.75 261.23932 84.14151] CT
0 0 1 RC
10.0 ML
0.667 LW
N
0 -4 M
0 4 L
-4 0 M
4 0 L
-2.828 -2.828 M
2.828 2.828 L
-2.828 2.828 M
2.828 -2.828 L
S
GR
GS
[0.75 0 0 0.75 0 0] CT
0 0 1 RC
1 LJ
0.667 LW
N
347.725 110.57 M
347.714 110.453 L
347.779 110.551 L
S
GR
GS
[0.75 0 0 0.75 0 0] CT
0 0 1 RC
1 LJ
0.667 LW
N
348.319 112.189 M
347.714 110.453 L
S
GR
GS
[0.75 0 0 0.75 0 0] CT
0 0 1 RC
1 LJ
0.667 LW
N
353.293 115.756 M
354.024 114.407 L
354.396 112.919 L
354.387 111.384 L
353.996 109.901 L
353.249 108.561 L
352.192 107.449 L
350.891 106.634 L
349.429 106.169 L
347.897 106.082 L
346.392 106.379 L
345.008 107.041 L
343.832 108.026 L
342.937 109.273 L
342.381 110.703 L
342.198 112.226 L
342.4 113.747 L
342.974 115.17 L
343.883 116.406 L
345.071 117.377 L
346.463 118.022 L
347.972 118.3 L
349.503 118.194 L
350.959 117.711 L
352.25 116.881 L
353.293 115.756 L
S
GR
GS
[0.75 0 0 0.75 236.25556 93.82752] CT
0 0 1 RC
10.0 ML
0.667 LW
N
0 -4 M
0 4 L
-4 0 M
4 0 L
-2.828 -2.828 M
2.828 2.828 L
-2.828 2.828 M
2.828 -2.828 L
S
GR
GS
[0.75 0 0 0.75 0 0] CT
0 0 1 RC
1 LJ
0.667 LW
N
314.413 123.485 M
314.403 123.367 L
314.467 123.466 L
S
GR
GS
[0.75 0 0 0.75 0 0] CT
0 0 1 RC
1 LJ
0.667 LW
N
315.007 125.103 M
314.403 123.367 L
S
GR
GS
[0.75 0 0 0.75 0 0] CT
0 0 1 RC
1 LJ
0.667 LW
N
320.019 128.618 M
320.735 127.261 L
321.092 125.769 L
321.066 124.235 L
320.66 122.756 L
319.899 121.424 L
318.83 120.323 L
317.521 119.522 L
316.054 119.073 L
314.521 119.002 L
313.019 119.314 L
311.642 119.991 L
310.476 120.988 L
309.595 122.244 L
309.054 123.68 L
308.887 125.205 L
309.105 126.724 L
309.694 128.141 L
310.616 129.367 L
311.814 130.325 L
313.213 130.955 L
314.725 131.218 L
316.254 131.096 L
317.706 130.597 L
318.987 129.754 L
320.019 128.618 L
S
GR
GS
[0.75 0 0 0.75 259.36899 82.27107] CT
0 0 1 RC
10.0 ML
0.667 LW
N
0 -4 M
0 4 L
-4 0 M
4 0 L
-2.828 -2.828 M
2.828 2.828 L
-2.828 2.828 M
2.828 -2.828 L
S
GR
GS
[0.75 0 0 0.75 0 0] CT
0 0 1 RC
1 LJ
0.667 LW
N
345.231 108.076 M
345.22 107.959 L
345.285 108.057 L
S
GR
GS
[0.75 0 0 0.75 0 0] CT
0 0 1 RC
1 LJ
0.667 LW
N
345.825 109.695 M
345.22 107.959 L
S
GR
GS
[0.75 0 0 0.75 0 0] CT
0 0 1 RC
1 LJ
0.667 LW
N
342.36 114.74 M
341.214 113.72 L
340.358 112.447 L
339.845 111 L
339.708 109.472 L
339.956 107.958 L
340.572 106.553 L
341.519 105.345 L
342.736 104.411 L
344.147 103.809 L
345.663 103.576 L
347.19 103.728 L
348.631 104.255 L
349.896 105.124 L
350.905 106.279 L
351.595 107.65 L
351.922 109.149 L
351.866 110.682 L
351.431 112.153 L
350.643 113.47 L
349.553 114.55 L
348.228 115.324 L
346.753 115.745 L
345.219 115.786 L
343.723 115.443 L
342.36 114.74 L
S
GR
GS
[0.75 0 0 0.75 261.59118 84.49323] CT
0 0 1 RC
10.0 ML
0.667 LW
N
0 -4 M
0 4 L
-4 0 M
4 0 L
-2.828 -2.828 M
2.828 2.828 L
-2.828 2.828 M
2.828 -2.828 L
S
GR
GS
[0.75 0 0 0.75 0 0] CT
0 0 1 RC
1 LJ
0.667 LW
N
348.194 111.039 M
348.183 110.922 L
348.248 111.02 L
S
GR
GS
[0.75 0 0 0.75 0 0] CT
0 0 1 RC
1 LJ
0.667 LW
N
348.788 112.658 M
348.183 110.922 L
S
GR
GS
[0.75 0 0 0.75 0 0] CT
0 0 1 RC
1 LJ
0.667 LW
N
353.738 116.258 M
354.478 114.914 L
354.86 113.428 L
354.861 111.894 L
354.481 110.407 L
353.742 109.063 L
352.692 107.944 L
351.397 107.121 L
349.938 106.646 L
348.407 106.549 L
346.9 106.835 L
345.511 107.488 L
344.329 108.465 L
343.426 109.706 L
342.86 111.132 L
342.667 112.654 L
342.859 114.177 L
343.423 115.604 L
344.324 116.845 L
345.506 117.824 L
346.894 118.478 L
348.401 118.766 L
349.932 118.671 L
351.391 118.197 L
352.687 117.376 L
353.738 116.258 L
S
GR
GS
[0.75 0 0 0.75 236.25563 93.82748] CT
0 0 1 RC
10.0 ML
0.667 LW
N
0 -4 M
0 4 L
-4 0 M
4 0 L
-2.828 -2.828 M
2.828 2.828 L
-2.828 2.828 M
2.828 -2.828 L
S
GR
GS
[0.75 0 0 0.75 0 0] CT
0 0 1 RC
1 LJ
0.667 LW
N
314.413 123.485 M
314.403 123.367 L
314.467 123.466 L
S
GR
GS
[0.75 0 0 0.75 0 0] CT
0 0 1 RC
1 LJ
0.667 LW
N
315.008 125.103 M
314.403 123.367 L
S
GR
GS
[0.75 0 0 0.75 0 0] CT
0 0 1 RC
1 LJ
0.667 LW
N
320.014 128.625 M
320.732 127.27 L
321.091 125.778 L
321.068 124.244 L
320.664 122.764 L
319.904 121.43 L
318.837 120.328 L
317.529 119.526 L
316.063 119.074 L
314.53 119.001 L
313.028 119.311 L
311.649 119.986 L
310.482 120.982 L
309.599 122.237 L
309.056 123.672 L
308.887 125.197 L
309.103 126.716 L
309.689 128.133 L
310.61 129.361 L
311.807 130.321 L
313.205 130.953 L
314.716 131.217 L
316.246 131.098 L
317.698 130.601 L
318.981 129.76 L
320.014 128.625 L
S
GR
GS
[0.75 0 0 0.75 250.05412 107.59734] CT
0 0 1 RC
10.0 ML
0.667 LW
N
0 -4 M
0 4 L
-4 0 M
4 0 L
-2.828 -2.828 M
2.828 2.828 L
-2.828 2.828 M
2.828 -2.828 L
S
GR
GS
[0.75 0 0 0.75 0 0] CT
0 0 1 RC
1 LJ
0.667 LW
N
332.811 141.845 M
332.801 141.727 L
332.865 141.826 L
S
GR
GS
[0.75 0 0 0.75 0 0] CT
0 0 1 RC
1 LJ
0.667 LW
N
333.405 143.463 M
332.801 141.727 L
S
GR
GS
[0.75 0 0 0.75 0 0] CT
0 0 1 RC
1 LJ
0.667 LW
N
338.418 146.977 M
339.134 145.62 L
339.49 144.127 L
339.464 142.593 L
339.058 141.114 L
338.296 139.782 L
337.227 138.682 L
335.918 137.881 L
334.451 137.432 L
332.918 137.362 L
331.416 137.675 L
330.039 138.351 L
328.873 139.349 L
327.993 140.605 L
327.452 142.041 L
327.285 143.567 L
327.503 145.085 L
328.092 146.502 L
329.015 147.728 L
330.214 148.686 L
331.613 149.316 L
333.124 149.578 L
334.654 149.455 L
336.105 148.957 L
337.386 148.113 L
338.418 146.977 L
S
GR
GS
[0.75 0 0 0.75 238.49686 96.04033] CT
0 0 1 RC
10.0 ML
0.667 LW
N
0 -4 M
0 4 L
-4 0 M
4 0 L
-2.828 -2.828 M
2.828 2.828 L
-2.828 2.828 M
2.828 -2.828 L
S
GR
GS
[0.75 0 0 0.75 0 0] CT
0 0 1 RC
1 LJ
0.667 LW
N
317.402 126.435 M
317.391 126.318 L
317.456 126.416 L
S
GR
GS
[0.75 0 0 0.75 0 0] CT
0 0 1 RC
1 LJ
0.667 LW
N
317.996 128.054 M
317.391 126.318 L
S
GR
GS
[0.75 0 0 0.75 0 0] CT
0 0 1 RC
1 LJ
0.667 LW
N
314.259 132.902 M
313.171 131.82 L
312.386 130.502 L
311.953 129.03 L
311.9 127.497 L
312.23 125.998 L
312.923 124.629 L
313.934 123.475 L
315.2 122.609 L
316.642 122.085 L
318.169 121.935 L
319.685 122.171 L
321.095 122.775 L
322.31 123.712 L
323.255 124.921 L
323.868 126.328 L
324.113 127.842 L
323.973 129.37 L
323.458 130.815 L
322.6 132.087 L
321.452 133.105 L
320.087 133.806 L
318.591 134.146 L
317.057 134.102 L
315.583 133.679 L
314.259 132.902 L
S
GR
GS
[0.75 0 0 0.75 261.60924 84.48336] CT
0 0 1 RC
10.0 ML
0.667 LW
N
0 -4 M
0 4 L
-4 0 M
4 0 L
-2.828 -2.828 M
2.828 2.828 L
-2.828 2.828 M
2.828 -2.828 L
S
GR
GS
[0.75 0 0 0.75 0 0] CT
0 0 1 RC
1 LJ
0.667 LW
N
348.218 111.026 M
348.207 110.908 L
348.272 111.007 L
S
GR
GS
[0.75 0 0 0.75 0 0] CT
0 0 1 RC
1 LJ
0.667 LW
N
348.812 112.644 M
348.207 110.908 L
S
GR
GS
[0.75 0 0 0.75 0 0] CT
0 0 1 RC
1 LJ
0.667 LW
N
353.798 116.195 M
354.524 114.844 L
354.892 113.354 L
354.877 111.82 L
354.482 110.338 L
353.73 109 L
352.669 107.892 L
351.366 107.082 L
349.903 106.621 L
348.37 106.54 L
346.866 106.841 L
345.484 107.508 L
344.311 108.497 L
343.421 109.746 L
342.87 111.178 L
342.692 112.702 L
342.898 114.223 L
343.477 115.644 L
344.39 116.876 L
345.581 117.843 L
346.976 118.483 L
348.486 118.757 L
350.016 118.646 L
351.471 118.158 L
352.758 117.324 L
353.798 116.195 L
S
GR
GS
[0.75 0 0 0.75 0 0] CT
1 GC
N
/f159554590{478 198 M
478 42 L
285 42 L
285 198 L
cp}def
f159554590
f
GR
GS
[0.75 0 0 0.75 249 47.25] CT
/Helvetica-Bold 30 F
GS
[1 0 0 1 0 0] CT
0 12 moveto 
1 -1 scale
(LandMark) t 
GR
GR
GS
[0.75 0 0 0.75 231.75 47.25] CT
1 0 0 RC
N
/f-1214359511{0 -19.995 M
-17.316 9.998 L
17.316 9.998 L
cp}def
f-1214359511
f
GR
GS
[0.75 0 0 0.75 231.75 47.25] CT
0 0 1 RC
10.0 ML
0.667 LW
N
0 -19.995 M
-17.316 9.998 L
17.316 9.998 L
cp
S
GR
GS
[0.75 0 0 0.75 249 92.25] CT
/Helvetica-Bold 30 F
GS
[1 0 0 1 0 0] CT
0 0 moveto 
1 -1 scale
(b) t 
GR
GR
GS
[0.75 0 0 0.75 263.25 81] CT
/Helvetica-Bold 24 F
GS
[1 0 0 1 0 0] CT
0 0 moveto 
1 -1 scale
(-) t 
GR
GR
GS
[0.75 0 0 0.75 269.25 92.25] CT
/Helvetica-Bold 30 F
GS
[1 0 0 1 0 0] CT
0 0 moveto 
1 -1 scale
([X) t 
GR
GR
GS
[0.75 0 0 0.75 291.75 103.5] CT
/Helvetica-Bold 24 F
GS
[1 0 0 1 0 0] CT
0 0 moveto 
1 -1 scale
(k) t 
GR
GR
GS
[0.75 0 0 0.75 302.25 92.25] CT
/Helvetica-Bold 30 F
GS
[1 0 0 1 0 0] CT
0 0 moveto 
1 -1 scale
(]) t 
GR
GR
GS
[0.75 0 0 0.75 0 0] CT
0 1 1 RC
1 LJ
0.667 LW
N
289 113 M
329 113 L
S
GR
GS
[0.75 0 0 0.75 0 0] CT
0 1 1 RC
1 LJ
0.667 LW
N
317 117.8 M
329 113 L
317 108.2 L
S
GR
GS
[0.75 0 0 0.75 249 131.25] CT
/Helvetica-Bold 30 F
GS
[1 0 0 1 0 0] CT
0 0 moveto 
1 -1 scale
(b[X) t 
GR
GR
GS
[0.75 0 0 0.75 285.75 142.5] CT
/Helvetica-Bold 24 F
GS
[1 0 0 1 0 0] CT
0 0 moveto 
1 -1 scale
(k) t 
GR
GR
GS
[0.75 0 0 0.75 296.25 131.25] CT
/Helvetica-Bold 30 F
GS
[1 0 0 1 0 0] CT
0 0 moveto 
1 -1 scale
(]) t 
GR
GR
GS
[0.75 0 0 0.75 0 0] CT
0 0 1 RC
1 LJ
0.667 LW
N
289 170 M
329 170 L
S
GR
GS
[0.75 0 0 0.75 0 0] CT
0.149 GC
10.0 ML
0.667 LW
N
285 198 M
285 42 L
478 42 L
478 198 L
cp
S
GR
%%Trailer
%%Pages: 1
%%EOF
