%!PS-Adobe-3.0 EPSF-3.0
%%Creator: (MATLAB, The Mathworks, Inc. Version 9.10.0.1649659 \(R2021a\) Update 1. Operating System: Windows 10)
%%Title: C:/Users/ohads/ANPL/Code/da_bsp_future_smoothing/TestCases/ChosenTestCase/TestCases_56/Figures/Robots_estimation_k_8.eps
%%CreationDate: 2021-07-05T23:43:37
%%Pages: (atend)
%%BoundingBox:    25     6   379   293
%%LanguageLevel: 3
%%EndComments
%%BeginProlog
%%BeginResource: procset (Apache XML Graphics Std ProcSet) 1.2 0
%%Version: 1.2 0
%%Copyright: (Copyright 2001-2003,2010 The Apache Software Foundation. License terms: http://www.apache.org/licenses/LICENSE-2.0)
/bd{bind def}bind def
/ld{load def}bd
/GR/grestore ld
/GS/gsave ld
/RM/rmoveto ld
/C/curveto ld
/t/show ld
/L/lineto ld
/ML/setmiterlimit ld
/CT/concat ld
/f/fill ld
/N/newpath ld
/S/stroke ld
/CC/setcmykcolor ld
/A/ashow ld
/cp/closepath ld
/RC/setrgbcolor ld
/LJ/setlinejoin ld
/GC/setgray ld
/LW/setlinewidth ld
/M/moveto ld
/re {4 2 roll M
1 index 0 rlineto
0 exch rlineto
neg 0 rlineto
cp } bd
/_ctm matrix def
/_tm matrix def
/BT { _ctm currentmatrix pop matrix _tm copy pop 0 0 moveto } bd
/ET { _ctm setmatrix } bd
/iTm { _ctm setmatrix _tm concat } bd
/Tm { _tm astore pop iTm 0 0 moveto } bd
/ux 0.0 def
/uy 0.0 def
/F {
  /Tp exch def
  /Tf exch def
  Tf findfont Tp scalefont setfont
  /cf Tf def  /cs Tp def
} bd
/ULS {currentpoint /uy exch def /ux exch def} bd
/ULE {
  /Tcx currentpoint pop def
  gsave
  newpath
  cf findfont cs scalefont dup
  /FontMatrix get 0 get /Ts exch def /FontInfo get dup
  /UnderlinePosition get Ts mul /To exch def
  /UnderlineThickness get Ts mul /Tt exch def
  ux uy To add moveto  Tcx uy To add lineto
  Tt setlinewidth stroke
  grestore
} bd
/OLE {
  /Tcx currentpoint pop def
  gsave
  newpath
  cf findfont cs scalefont dup
  /FontMatrix get 0 get /Ts exch def /FontInfo get dup
  /UnderlinePosition get Ts mul /To exch def
  /UnderlineThickness get Ts mul /Tt exch def
  ux uy To add cs add moveto Tcx uy To add cs add lineto
  Tt setlinewidth stroke
  grestore
} bd
/SOE {
  /Tcx currentpoint pop def
  gsave
  newpath
  cf findfont cs scalefont dup
  /FontMatrix get 0 get /Ts exch def /FontInfo get dup
  /UnderlinePosition get Ts mul /To exch def
  /UnderlineThickness get Ts mul /Tt exch def
  ux uy To add cs 10 mul 26 idiv add moveto Tcx uy To add cs 10 mul 26 idiv add lineto
  Tt setlinewidth stroke
  grestore
} bd
/QT {
/Y22 exch store
/X22 exch store
/Y21 exch store
/X21 exch store
currentpoint
/Y21 load 2 mul add 3 div exch
/X21 load 2 mul add 3 div exch
/X21 load 2 mul /X22 load add 3 div
/Y21 load 2 mul /Y22 load add 3 div
/X22 load /Y22 load curveto
} bd
/SSPD {
dup length /d exch dict def
{
/v exch def
/k exch def
currentpagedevice k known {
/cpdv currentpagedevice k get def
v cpdv ne {
/upd false def
/nullv v type /nulltype eq def
/nullcpdv cpdv type /nulltype eq def
nullv nullcpdv or
{
/upd true def
} {
/sametype v type cpdv type eq def
sametype {
v type /arraytype eq {
/vlen v length def
/cpdvlen cpdv length def
vlen cpdvlen eq {
0 1 vlen 1 sub {
/i exch def
/obj v i get def
/cpdobj cpdv i get def
obj cpdobj ne {
/upd true def
exit
} if
} for
} {
/upd true def
} ifelse
} {
v type /dicttype eq {
v {
/dv exch def
/dk exch def
/cpddv cpdv dk get def
dv cpddv ne {
/upd true def
exit
} if
} forall
} {
/upd true def
} ifelse
} ifelse
} if
} ifelse
upd true eq {
d k v put
} if
} if
} if
} forall
d length 0 gt {
d setpagedevice
} if
} bd
/RE { % /NewFontName [NewEncodingArray] /FontName RE -
  findfont dup length dict begin
  {
    1 index /FID ne
    {def} {pop pop} ifelse
  } forall
  /Encoding exch def
  /FontName 1 index def
  currentdict definefont pop
  end
} bind def
%%EndResource
%%BeginResource: procset (Apache XML Graphics EPS ProcSet) 1.0 0
%%Version: 1.0 0
%%Copyright: (Copyright 2002-2003 The Apache Software Foundation. License terms: http://www.apache.org/licenses/LICENSE-2.0)
/BeginEPSF { %def
/b4_Inc_state save def         % Save state for cleanup
/dict_count countdictstack def % Count objects on dict stack
/op_count count 1 sub def      % Count objects on operand stack
userdict begin                 % Push userdict on dict stack
/showpage { } def              % Redefine showpage, { } = null proc
0 setgray 0 setlinecap         % Prepare graphics state
1 setlinewidth 0 setlinejoin
10 setmiterlimit [ ] 0 setdash newpath
/languagelevel where           % If level not equal to 1 then
{pop languagelevel             % set strokeadjust and
1 ne                           % overprint to their defaults.
{false setstrokeadjust false setoverprint
} if
} if
} bd
/EndEPSF { %def
count op_count sub {pop} repeat            % Clean up stacks
countdictstack dict_count sub {end} repeat
b4_Inc_state restore
} bd
%%EndResource
%FOPBeginFontDict
%%IncludeResource: font Courier-Oblique
%%IncludeResource: font Courier-BoldOblique
%%IncludeResource: font Courier-Bold
%%IncludeResource: font ZapfDingbats
%%IncludeResource: font Symbol
%%IncludeResource: font Helvetica
%%IncludeResource: font Helvetica-Oblique
%%IncludeResource: font Helvetica-Bold
%%IncludeResource: font Helvetica-BoldOblique
%%IncludeResource: font Times-Roman
%%IncludeResource: font Times-Italic
%%IncludeResource: font Times-Bold
%%IncludeResource: font Times-BoldItalic
%%IncludeResource: font Courier
%FOPEndFontDict
%%BeginResource: encoding WinAnsiEncoding
/WinAnsiEncoding [
/.notdef /.notdef /.notdef /.notdef /.notdef
/.notdef /.notdef /.notdef /.notdef /.notdef
/.notdef /.notdef /.notdef /.notdef /.notdef
/.notdef /.notdef /.notdef /.notdef /.notdef
/.notdef /.notdef /.notdef /.notdef /.notdef
/.notdef /.notdef /.notdef /.notdef /.notdef
/.notdef /.notdef /space /exclam /quotedbl
/numbersign /dollar /percent /ampersand /quotesingle
/parenleft /parenright /asterisk /plus /comma
/hyphen /period /slash /zero /one
/two /three /four /five /six
/seven /eight /nine /colon /semicolon
/less /equal /greater /question /at
/A /B /C /D /E
/F /G /H /I /J
/K /L /M /N /O
/P /Q /R /S /T
/U /V /W /X /Y
/Z /bracketleft /backslash /bracketright /asciicircum
/underscore /quoteleft /a /b /c
/d /e /f /g /h
/i /j /k /l /m
/n /o /p /q /r
/s /t /u /v /w
/x /y /z /braceleft /bar
/braceright /asciitilde /bullet /Euro /bullet
/quotesinglbase /florin /quotedblbase /ellipsis /dagger
/daggerdbl /circumflex /perthousand /Scaron /guilsinglleft
/OE /bullet /Zcaron /bullet /bullet
/quoteleft /quoteright /quotedblleft /quotedblright /bullet
/endash /emdash /asciitilde /trademark /scaron
/guilsinglright /oe /bullet /zcaron /Ydieresis
/space /exclamdown /cent /sterling /currency
/yen /brokenbar /section /dieresis /copyright
/ordfeminine /guillemotleft /logicalnot /sfthyphen /registered
/macron /degree /plusminus /twosuperior /threesuperior
/acute /mu /paragraph /middot /cedilla
/onesuperior /ordmasculine /guillemotright /onequarter /onehalf
/threequarters /questiondown /Agrave /Aacute /Acircumflex
/Atilde /Adieresis /Aring /AE /Ccedilla
/Egrave /Eacute /Ecircumflex /Edieresis /Igrave
/Iacute /Icircumflex /Idieresis /Eth /Ntilde
/Ograve /Oacute /Ocircumflex /Otilde /Odieresis
/multiply /Oslash /Ugrave /Uacute /Ucircumflex
/Udieresis /Yacute /Thorn /germandbls /agrave
/aacute /acircumflex /atilde /adieresis /aring
/ae /ccedilla /egrave /eacute /ecircumflex
/edieresis /igrave /iacute /icircumflex /idieresis
/eth /ntilde /ograve /oacute /ocircumflex
/otilde /odieresis /divide /oslash /ugrave
/uacute /ucircumflex /udieresis /yacute /thorn
/ydieresis
] def
%%EndResource
%FOPBeginFontReencode
/Courier-Oblique findfont
dup length dict begin
  {1 index /FID ne {def} {pop pop} ifelse} forall
  /Encoding WinAnsiEncoding def
  currentdict
end
/Courier-Oblique exch definefont pop
/Courier-BoldOblique findfont
dup length dict begin
  {1 index /FID ne {def} {pop pop} ifelse} forall
  /Encoding WinAnsiEncoding def
  currentdict
end
/Courier-BoldOblique exch definefont pop
/Courier-Bold findfont
dup length dict begin
  {1 index /FID ne {def} {pop pop} ifelse} forall
  /Encoding WinAnsiEncoding def
  currentdict
end
/Courier-Bold exch definefont pop
/Helvetica findfont
dup length dict begin
  {1 index /FID ne {def} {pop pop} ifelse} forall
  /Encoding WinAnsiEncoding def
  currentdict
end
/Helvetica exch definefont pop
/Helvetica-Oblique findfont
dup length dict begin
  {1 index /FID ne {def} {pop pop} ifelse} forall
  /Encoding WinAnsiEncoding def
  currentdict
end
/Helvetica-Oblique exch definefont pop
/Helvetica-Bold findfont
dup length dict begin
  {1 index /FID ne {def} {pop pop} ifelse} forall
  /Encoding WinAnsiEncoding def
  currentdict
end
/Helvetica-Bold exch definefont pop
/Helvetica-BoldOblique findfont
dup length dict begin
  {1 index /FID ne {def} {pop pop} ifelse} forall
  /Encoding WinAnsiEncoding def
  currentdict
end
/Helvetica-BoldOblique exch definefont pop
/Times-Roman findfont
dup length dict begin
  {1 index /FID ne {def} {pop pop} ifelse} forall
  /Encoding WinAnsiEncoding def
  currentdict
end
/Times-Roman exch definefont pop
/Times-Italic findfont
dup length dict begin
  {1 index /FID ne {def} {pop pop} ifelse} forall
  /Encoding WinAnsiEncoding def
  currentdict
end
/Times-Italic exch definefont pop
/Times-Bold findfont
dup length dict begin
  {1 index /FID ne {def} {pop pop} ifelse} forall
  /Encoding WinAnsiEncoding def
  currentdict
end
/Times-Bold exch definefont pop
/Times-BoldItalic findfont
dup length dict begin
  {1 index /FID ne {def} {pop pop} ifelse} forall
  /Encoding WinAnsiEncoding def
  currentdict
end
/Times-BoldItalic exch definefont pop
/Courier findfont
dup length dict begin
  {1 index /FID ne {def} {pop pop} ifelse} forall
  /Encoding WinAnsiEncoding def
  currentdict
end
/Courier exch definefont pop
%FOPEndFontReencode
%%EndProlog
%%Page: 1 1
%%PageBoundingBox: 0 0 428 315
%%BeginPageSetup
[1 0 0 -1 0 315] CT
%%EndPageSetup
GS
[0.75 0 0 0.75 0 0] CT
1 GC
N
0 0 570 420 re
f
GR
GS
[0.75 0 0 0.75 0 0] CT
1 GC
N
0 0 570 420 re
f
GR
GS
[0.75 0 0 0.75 0 0] CT
1 GC
N
121.155 321 M
488.845 321 L
488.845 31 L
121.155 31 L
cp
f
GR
GS
[0.75 0 0 0.75 0 0] CT
0.149 GC
2 setlinecap
1 LJ
0.667 LW
N
121.155 321 M
488.845 321 L
S
GR
GS
[0.75 0 0 0.75 0 0] CT
0.149 GC
2 setlinecap
1 LJ
0.667 LW
N
121.155 321 M
121.155 317.323 L
S
GR
GS
[0.75 0 0 0.75 0 0] CT
0.149 GC
2 setlinecap
1 LJ
0.667 LW
N
213.078 321 M
213.078 317.323 L
S
GR
GS
[0.75 0 0 0.75 0 0] CT
0.149 GC
2 setlinecap
1 LJ
0.667 LW
N
305 321 M
305 317.323 L
S
GR
GS
[0.75 0 0 0.75 0 0] CT
0.149 GC
2 setlinecap
1 LJ
0.667 LW
N
396.922 321 M
396.922 317.323 L
S
GR
GS
[0.75 0 0 0.75 0 0] CT
0.149 GC
2 setlinecap
1 LJ
0.667 LW
N
488.845 321 M
488.845 317.323 L
S
GR
GS
[0.75 0 0 0.75 90.86656 247.75001] CT
0.149 GC
/Helvetica 33.333 F
GS
[1 0 0 1 0 0] CT
-15 34 moveto 
1 -1 scale
(-5) t 
GR
GR
GS
[0.75 0 0 0.75 159.80828 247.75001] CT
0.149 GC
/Helvetica 33.333 F
GS
[1 0 0 1 0 0] CT
-9.5 34 moveto 
1 -1 scale
(0) t 
GR
GR
GS
[0.75 0 0 0.75 228.75 247.75001] CT
0.149 GC
/Helvetica 33.333 F
GS
[1 0 0 1 0 0] CT
-9.5 34 moveto 
1 -1 scale
(5) t 
GR
GR
GS
[0.75 0 0 0.75 297.69173 247.75001] CT
0.149 GC
/Helvetica 33.333 F
GS
[1 0 0 1 0 0] CT
-19 34 moveto 
1 -1 scale
(10) t 
GR
GR
GS
[0.75 0 0 0.75 366.63343 247.75001] CT
0.149 GC
/Helvetica 33.333 F
GS
[1 0 0 1 0 0] CT
-19 34 moveto 
1 -1 scale
(15) t 
GR
GR
GS
[0.75 0 0 0.75 228.75014 280.24999] CT
0.149 GC
/Helvetica 36.667 F
GS
[1 0 0 1 0 0] CT
-21.5 37 moveto 
1 -1 scale
(Xs) t 
GR
GR
GS
[0.75 0 0 0.75 0 0] CT
0.149 GC
2 setlinecap
1 LJ
0.667 LW
N
121.155 321 M
121.155 31 L
S
GR
GS
[0.75 0 0 0.75 0 0] CT
0.149 GC
2 setlinecap
1 LJ
0.667 LW
N
121.155 247.347 M
124.832 247.347 L
S
GR
GS
[0.75 0 0 0.75 0 0] CT
0.149 GC
2 setlinecap
1 LJ
0.667 LW
N
121.155 155.425 M
124.832 155.425 L
S
GR
GS
[0.75 0 0 0.75 0 0] CT
0.149 GC
2 setlinecap
1 LJ
0.667 LW
N
121.155 63.503 M
124.832 63.503 L
S
GR
GS
[0.75 0 0 0.75 83.86656 185.5104] CT
0.149 GC
/Helvetica 33.333 F
GS
[1 0 0 1 0 0] CT
-19 13 moveto 
1 -1 scale
(5) t 
GR
GR
GS
[0.75 0 0 0.75 83.86656 116.56868] CT
0.149 GC
/Helvetica 33.333 F
GS
[1 0 0 1 0 0] CT
-38 13 moveto 
1 -1 scale
(10) t 
GR
GR
GS
[0.75 0 0 0.75 83.86656 47.62696] CT
0.149 GC
/Helvetica 33.333 F
GS
[1 0 0 1 0 0] CT
-38 13 moveto 
1 -1 scale
(15) t 
GR
GR
GS
[0 -0.75 0.75 0 52.36657 131.9999] CT
0.149 GC
/Helvetica 36.667 F
GS
[1 0 0 1 0 0] CT
-21.5 -9 moveto 
1 -1 scale
(Ys) t 
GR
GR
GS
[0.75 0 0 0.75 214.96165 157.93371] CT
1 0 0 RC
N
0 -26.66 M
-23.088 13.33 L
23.088 13.33 L
cp
f
GR
GS
[0.75 0 0 0.75 214.96165 157.93371] CT
0 0 1 RC
10.0 ML
0.667 LW
N
0 -26.66 M
-23.088 13.33 L
23.088 13.33 L
cp
S
GR
GS
[0.75 0 0 0.75 201.17331 144.14536] CT
1 0 0 RC
N
/f-1996900118{0 -26.66 M
-23.088 13.33 L
23.088 13.33 L
cp}def
f-1996900118
f
GR
GS
[0.75 0 0 0.75 201.17331 144.14536] CT
0 0 1 RC
10.0 ML
0.667 LW
N
0 -26.66 M
-23.088 13.33 L
23.088 13.33 L
cp
S
GR
GS
[0.75 0 0 0.75 256.32669 157.93371] CT
1 0 0 RC
N
f-1996900118
f
GR
GS
[0.75 0 0 0.75 256.32669 157.93371] CT
0 0 1 RC
10.0 ML
0.667 LW
N
0 -26.66 M
-23.088 13.33 L
23.088 13.33 L
cp
S
GR
GS
[0.75 0 0 0.75 228.75 213.08709] CT
1 0 0 RC
N
f-1996900118
f
GR
GS
[0.75 0 0 0.75 228.75 213.08709] CT
0 0 1 RC
10.0 ML
0.667 LW
N
0 -26.66 M
-23.088 13.33 L
23.088 13.33 L
cp
S
GR
GS
[0.75 0 0 0.75 228.75 130.35702] CT
1 0 0 RC
N
f-1996900118
f
GR
GS
[0.75 0 0 0.75 228.75 130.35702] CT
0 0 1 RC
10.0 ML
0.667 LW
N
0 -26.66 M
-23.088 13.33 L
23.088 13.33 L
cp
S
GR
GS
[0.75 0 0 0.75 214.96165 185.5104] CT
1 0 0 RC
N
f-1996900118
f
GR
GS
[0.75 0 0 0.75 214.96165 185.5104] CT
0 0 1 RC
10.0 ML
0.667 LW
N
0 -26.66 M
-23.088 13.33 L
23.088 13.33 L
cp
S
GR
GS
[0.75 0 0 0.75 270.11504 213.08709] CT
1 0 0 RC
N
f-1996900118
f
GR
GS
[0.75 0 0 0.75 270.11504 213.08709] CT
0 0 1 RC
10.0 ML
0.667 LW
N
0 -26.66 M
-23.088 13.33 L
23.088 13.33 L
cp
S
GR
GS
[0.75 0 0 0.75 242.53835 144.14536] CT
1 0 0 RC
N
f-1996900118
f
GR
GS
[0.75 0 0 0.75 242.53835 144.14536] CT
0 0 1 RC
10.0 ML
0.667 LW
N
0 -26.66 M
-23.088 13.33 L
23.088 13.33 L
cp
S
GR
GS
[0.75 0 0 0.75 252.06972 67.54782] CT
1 0 0 RC
10.0 ML
0.667 LW
N
0 -5 M
0 5 L
-5 0 M
5 0 L
S
GR
GS
[0.75 0 0 0.75 240.97117 87.60076] CT
0 1 1 RC
10.0 ML
0.667 LW
N
0 -4 M
0 4 L
-4 0 M
4 0 L
-2.828 -2.828 M
2.828 2.828 L
-2.828 2.828 M
2.828 -2.828 L
S
GR
GS
[0.75 0 0 0.75 0 0] CT
0 1 1 RC
1 LJ
0.667 LW
N
320.701 115.183 M
320.69 115.065 L
320.755 115.164 L
S
GR
GS
[0.75 0 0 0.75 0 0] CT
0 1 1 RC
1 LJ
0.667 LW
N
321.295 116.801 M
320.69 115.065 L
S
GR
GS
[0.75 0 0 0.75 0 0] CT
0 1 1 RC
1 LJ
0.667 LW
N
316.871 131.358 M
313.389 129.8 L
310.405 127.426 L
308.105 124.384 L
306.634 120.865 L
306.083 117.092 L
306.489 113.299 L
307.825 109.727 L
310.007 106.6 L
312.899 104.113 L
316.318 102.424 L
320.05 101.638 L
323.86 101.805 L
327.509 102.914 L
330.767 104.895 L
333.43 107.625 L
335.331 110.931 L
336.35 114.606 L
336.423 118.419 L
335.545 122.131 L
333.772 125.507 L
331.215 128.336 L
328.034 130.441 L
324.431 131.689 L
320.63 132.001 L
316.871 131.358 L
S
GR
GS
[0.75 0 0 0.75 229.41451 76.04411] CT
0 1 1 RC
10.0 ML
0.667 LW
N
0 -4 M
0 4 L
-4 0 M
4 0 L
-2.828 -2.828 M
2.828 2.828 L
-2.828 2.828 M
2.828 -2.828 L
S
GR
GS
[0.75 0 0 0.75 0 0] CT
0 1 1 RC
1 LJ
0.667 LW
N
305.292 99.774 M
305.281 99.656 L
305.346 99.755 L
S
GR
GS
[0.75 0 0 0.75 0 0] CT
0 1 1 RC
1 LJ
0.667 LW
N
305.886 101.392 M
305.281 99.656 L
S
GR
GS
[0.75 0 0 0.75 0 0] CT
0 1 1 RC
1 LJ
0.667 LW
N
320.368 106.056 M
321.073 102.308 L
320.823 98.502 L
319.635 94.878 L
317.583 91.664 L
314.796 89.06 L
311.45 87.232 L
307.753 86.293 L
303.94 86.303 L
300.248 87.261 L
296.911 89.107 L
294.138 91.725 L
292.103 94.95 L
290.934 98.581 L
290.704 102.387 L
291.429 106.132 L
293.062 109.578 L
295.5 112.51 L
298.592 114.744 L
302.141 116.138 L
305.926 116.606 L
309.708 116.118 L
313.25 114.705 L
316.33 112.455 L
318.753 109.511 L
320.368 106.056 L
S
GR
GS
[0.75 0 0 0.75 252.52773 64.48771] CT
0 1 1 RC
10.0 ML
0.667 LW
N
0 -4 M
0 4 L
-4 0 M
4 0 L
-2.828 -2.828 M
2.828 2.828 L
-2.828 2.828 M
2.828 -2.828 L
S
GR
GS
[0.75 0 0 0.75 0 0] CT
0 1 1 RC
1 LJ
0.667 LW
N
336.109 84.365 M
336.099 84.248 L
336.164 84.346 L
S
GR
GS
[0.75 0 0 0.75 0 0] CT
0 1 1 RC
1 LJ
0.667 LW
N
336.704 85.984 M
336.099 84.248 L
S
GR
GS
[0.75 0 0 0.75 0 0] CT
0 1 1 RC
1 LJ
0.667 LW
N
351.296 90.287 M
351.908 86.523 L
351.565 82.725 L
350.288 79.132 L
348.157 75.969 L
345.306 73.435 L
341.915 71.69 L
338.197 70.843 L
334.385 70.947 L
330.718 71.996 L
327.428 73.924 L
324.72 76.61 L
322.765 79.885 L
321.687 83.543 L
321.551 87.354 L
322.368 91.079 L
324.086 94.484 L
326.596 97.355 L
329.742 99.511 L
333.325 100.818 L
337.12 101.192 L
340.889 100.611 L
344.395 99.11 L
347.418 96.785 L
349.768 93.781 L
351.296 90.287 L
S
GR
GS
[0.75 0 0 0.75 264.08448 76.04413] CT
0 1 1 RC
10.0 ML
0.667 LW
N
0 -4 M
0 4 L
-4 0 M
4 0 L
-2.828 -2.828 M
2.828 2.828 L
-2.828 2.828 M
2.828 -2.828 L
S
GR
GS
[0.75 0 0 0.75 0 0] CT
0 1 1 RC
1 LJ
0.667 LW
N
351.518 99.774 M
351.508 99.656 L
351.573 99.755 L
S
GR
GS
[0.75 0 0 0.75 0 0] CT
0 1 1 RC
1 LJ
0.667 LW
N
352.113 101.392 M
351.508 99.656 L
S
GR
GS
[0.75 0 0 0.75 0 0] CT
0 1 1 RC
1 LJ
0.667 LW
N
366.778 105.441 M
367.324 101.666 L
366.915 97.875 L
365.575 94.304 L
363.389 91.179 L
360.495 88.695 L
357.074 87.01 L
353.341 86.228 L
349.532 86.399 L
345.884 87.512 L
342.628 89.497 L
339.967 92.229 L
338.07 95.537 L
337.055 99.214 L
336.987 103.027 L
337.868 106.737 L
339.645 110.112 L
342.205 112.938 L
345.388 115.039 L
348.993 116.283 L
352.794 116.591 L
356.553 115.944 L
360.032 114.383 L
363.014 112.005 L
365.311 108.961 L
366.778 105.441 L
S
GR
GS
[0.75 0 0 0.75 227.54409 74.17384] CT
0 1 1 RC
10.0 ML
0.667 LW
N
0 -4 M
0 4 L
-4 0 M
4 0 L
-2.828 -2.828 M
2.828 2.828 L
-2.828 2.828 M
2.828 -2.828 L
S
GR
GS
[0.75 0 0 0.75 0 0] CT
0 1 1 RC
1 LJ
0.667 LW
N
302.798 97.28 M
302.787 97.162 L
302.852 97.261 L
S
GR
GS
[0.75 0 0 0.75 0 0] CT
0 1 1 RC
1 LJ
0.667 LW
N
303.392 98.898 M
302.787 97.162 L
S
GR
GS
[0.75 0 0 0.75 0 0] CT
0 1 1 RC
1 LJ
0.667 LW
N
317.936 103.363 M
318.59 99.606 L
318.288 95.804 L
317.051 92.197 L
314.955 89.011 L
312.133 86.446 L
308.761 84.663 L
305.053 83.775 L
301.239 83.837 L
297.562 84.846 L
294.25 86.737 L
291.513 89.393 L
289.522 92.646 L
288.403 96.292 L
288.226 100.101 L
289.001 103.835 L
290.681 107.259 L
293.16 110.157 L
296.281 112.348 L
299.849 113.694 L
303.64 114.111 L
307.415 113.571 L
310.938 112.109 L
313.986 109.818 L
316.369 106.84 L
317.936 103.363 L
S
GR
GS
[0.75 0 0 0.75 240.97115 87.69891] CT
0 1 1 RC
10.0 ML
0.667 LW
N
0 -4 M
0 4 L
-4 0 M
4 0 L
-2.828 -2.828 M
2.828 2.828 L
-2.828 2.828 M
2.828 -2.828 L
S
GR
GS
[0.75 0 0 0.75 0 0] CT
0 1 1 RC
1 LJ
0.667 LW
N
320.701 115.313 M
320.69 115.196 L
320.755 115.295 L
S
GR
GS
[0.75 0 0 0.75 0 0] CT
0 1 1 RC
1 LJ
0.667 LW
N
321.295 116.932 M
320.69 115.196 L
S
GR
GS
[0.75 0 0 0.75 0 0] CT
0 1 1 RC
1 LJ
0.667 LW
N
335.858 121.335 M
336.495 117.575 L
336.178 113.775 L
334.925 110.173 L
332.816 106.995 L
329.983 104.442 L
326.604 102.674 L
322.891 101.802 L
319.078 101.88 L
315.405 102.904 L
312.101 104.81 L
309.375 107.477 L
307.398 110.738 L
306.295 114.389 L
306.134 118.199 L
306.925 121.93 L
308.619 125.346 L
311.11 128.234 L
314.241 130.412 L
317.815 131.743 L
321.607 132.143 L
325.38 131.587 L
328.897 130.111 L
331.935 127.806 L
334.305 124.818 L
335.858 121.335 L
S
GR
GS
[0.75 0 0 0.75 252.52776 64.58563] CT
0 1 1 RC
10.0 ML
0.667 LW
N
0 -4 M
0 4 L
-4 0 M
4 0 L
-2.828 -2.828 M
2.828 2.828 L
-2.828 2.828 M
2.828 -2.828 L
S
GR
GS
[0.75 0 0 0.75 0 0] CT
0 1 1 RC
1 LJ
0.667 LW
N
336.109 84.496 M
336.099 84.378 L
336.164 84.477 L
S
GR
GS
[0.75 0 0 0.75 0 0] CT
0 1 1 RC
1 LJ
0.667 LW
N
336.704 86.114 M
336.099 84.378 L
S
GR
GS
[0.75 0 0 0.75 0 0] CT
0 1 1 RC
1 LJ
0.667 LW
N
332.405 100.709 M
328.911 99.181 L
325.906 96.833 L
323.58 93.811 L
322.078 90.305 L
321.495 86.536 L
321.868 82.741 L
323.173 79.157 L
325.328 76.011 L
328.198 73.499 L
331.603 71.781 L
335.328 70.962 L
339.139 71.096 L
342.797 72.174 L
346.073 74.127 L
348.759 76.834 L
350.689 80.123 L
351.739 83.789 L
351.845 87.602 L
350.999 91.32 L
349.255 94.712 L
346.723 97.563 L
343.561 99.695 L
339.968 100.974 L
336.17 101.319 L
332.405 100.709 L
S
GR
GS
[0.75 0 0 0.75 252.52009 64.4799] CT
0 1 1 RC
10.0 ML
0.667 LW
N
0 -4 M
0 4 L
-4 0 M
4 0 L
-2.828 -2.828 M
2.828 2.828 L
-2.828 2.828 M
2.828 -2.828 L
S
GR
GS
[0.75 0 0 0.75 0 0] CT
0 1 1 RC
1 LJ
0.667 LW
N
336.099 84.355 M
336.089 84.237 L
336.153 84.336 L
S
GR
GS
[0.75 0 0 0.75 0 0] CT
0 1 1 RC
1 LJ
0.667 LW
N
336.693 85.973 M
336.089 84.237 L
S
GR
GS
[0.75 0 0 0.75 0 0] CT
0 1 1 RC
1 LJ
0.667 LW
N
351.289 90.268 M
351.898 86.503 L
351.552 82.705 L
350.273 79.112 L
348.14 75.951 L
345.288 73.419 L
341.896 71.676 L
338.177 70.832 L
334.365 70.938 L
330.699 71.99 L
327.41 73.92 L
324.704 76.607 L
322.751 79.883 L
321.675 83.542 L
321.542 87.353 L
322.361 91.078 L
324.081 94.482 L
326.593 97.351 L
329.74 99.505 L
333.324 100.81 L
337.119 101.181 L
340.888 100.598 L
344.393 99.095 L
347.415 96.768 L
349.762 93.762 L
351.289 90.268 L
S
GR
GS
[0.75 0 0 0.75 240.96957 87.59952] CT
0 1 1 RC
10.0 ML
0.667 LW
N
0 -4 M
0 4 L
-4 0 M
4 0 L
-2.828 -2.828 M
2.828 2.828 L
-2.828 2.828 M
2.828 -2.828 L
S
GR
GS
[0.75 0 0 0.75 0 0] CT
0 1 1 RC
1 LJ
0.667 LW
N
320.699 115.181 M
320.688 115.063 L
320.753 115.162 L
S
GR
GS
[0.75 0 0 0.75 0 0] CT
0 1 1 RC
1 LJ
0.667 LW
N
321.293 116.799 M
320.688 115.063 L
S
GR
GS
[0.75 0 0 0.75 0 0] CT
0 1 1 RC
1 LJ
0.667 LW
N
316.88 131.36 M
313.398 129.805 L
310.411 127.433 L
308.109 124.393 L
306.635 120.875 L
306.082 117.102 L
306.484 113.31 L
307.817 109.737 L
309.997 106.607 L
312.887 104.118 L
316.304 102.426 L
320.036 101.637 L
323.846 101.801 L
327.496 102.907 L
330.756 104.886 L
333.421 107.614 L
335.324 110.918 L
336.346 114.593 L
336.422 118.406 L
335.547 122.118 L
333.777 125.495 L
331.222 128.327 L
328.043 130.434 L
324.44 131.684 L
320.64 131.999 L
316.88 131.36 L
S
GR
GS
[0.75 0 0 0.75 229.41312 76.04308] CT
0 1 1 RC
10.0 ML
0.667 LW
N
0 -4 M
0 4 L
-4 0 M
4 0 L
-2.828 -2.828 M
2.828 2.828 L
-2.828 2.828 M
2.828 -2.828 L
S
GR
GS
[0.75 0 0 0.75 0 0] CT
0 1 1 RC
1 LJ
0.667 LW
N
305.29 99.772 M
305.279 99.655 L
305.344 99.753 L
S
GR
GS
[0.75 0 0 0.75 0 0] CT
0 1 1 RC
1 LJ
0.667 LW
N
305.884 101.391 M
305.279 99.655 L
S
GR
GS
[0.75 0 0 0.75 0 0] CT
0 1 1 RC
1 LJ
0.667 LW
N
320.393 105.969 M
321.076 102.217 L
320.804 98.413 L
319.595 94.796 L
317.524 91.594 L
314.722 89.007 L
311.365 87.198 L
307.663 86.281 L
303.849 86.313 L
300.164 87.293 L
296.838 89.158 L
294.08 91.793 L
292.064 95.03 L
290.916 98.667 L
290.709 102.475 L
291.455 106.215 L
293.108 109.651 L
295.564 112.569 L
298.668 114.785 L
302.226 116.158 L
306.013 116.604 L
309.793 116.094 L
313.326 114.66 L
316.393 112.393 L
318.799 109.434 L
320.393 105.969 L
S
GR
GS
[0.75 0 0 0.75 252.52641 64.48626] CT
0 1 1 RC
10.0 ML
0.667 LW
N
0 -4 M
0 4 L
-4 0 M
4 0 L
-2.828 -2.828 M
2.828 2.828 L
-2.828 2.828 M
2.828 -2.828 L
S
GR
GS
[0.75 0 0 0.75 0 0] CT
0 1 1 RC
1 LJ
0.667 LW
N
336.108 84.363 M
336.097 84.246 L
336.162 84.344 L
S
GR
GS
[0.75 0 0 0.75 0 0] CT
0 1 1 RC
1 LJ
0.667 LW
N
336.702 85.982 M
336.097 84.246 L
S
GR
GS
[0.75 0 0 0.75 0 0] CT
0 1 1 RC
1 LJ
0.667 LW
N
351.297 90.278 M
351.907 86.513 L
351.561 82.715 L
350.282 79.123 L
348.15 75.961 L
345.298 73.429 L
341.906 71.685 L
338.187 70.84 L
334.375 70.947 L
330.709 71.998 L
327.419 73.927 L
324.713 76.614 L
322.76 79.89 L
321.684 83.549 L
321.55 87.36 L
322.369 91.085 L
324.088 94.489 L
326.6 97.358 L
329.747 99.513 L
333.331 100.818 L
337.126 101.19 L
340.895 100.607 L
344.4 99.104 L
347.422 96.778 L
349.77 93.772 L
351.297 90.278 L
S
GR
GS
[0.75 0 0 0.75 264.08297 76.04287] CT
0 1 1 RC
10.0 ML
0.667 LW
N
0 -4 M
0 4 L
-4 0 M
4 0 L
-2.828 -2.828 M
2.828 2.828 L
-2.828 2.828 M
2.828 -2.828 L
S
GR
GS
[0.75 0 0 0.75 0 0] CT
0 1 1 RC
1 LJ
0.667 LW
N
351.516 99.772 M
351.506 99.654 L
351.571 99.753 L
S
GR
GS
[0.75 0 0 0.75 0 0] CT
0 1 1 RC
1 LJ
0.667 LW
N
352.111 101.39 M
351.506 99.654 L
S
GR
GS
[0.75 0 0 0.75 0 0] CT
0 1 1 RC
1 LJ
0.667 LW
N
366.782 105.418 M
367.323 101.643 L
366.908 97.852 L
365.563 94.283 L
363.372 91.161 L
360.475 88.682 L
357.051 87.001 L
353.318 86.224 L
349.508 86.401 L
345.862 87.519 L
342.608 89.509 L
339.952 92.245 L
338.06 95.556 L
337.05 99.234 L
336.987 103.047 L
337.874 106.756 L
339.656 110.128 L
342.22 112.951 L
345.405 115.047 L
349.012 116.286 L
352.814 116.588 L
356.572 115.936 L
360.049 114.37 L
363.027 111.988 L
365.32 108.94 L
366.782 105.418 L
S
GR
GS
[0.75 0 0 0.75 240.96293 87.59197] CT
0 1 1 RC
10.0 ML
0.667 LW
N
0 -4 M
0 4 L
-4 0 M
4 0 L
-2.828 -2.828 M
2.828 2.828 L
-2.828 2.828 M
2.828 -2.828 L
S
GR
GS
[0.75 0 0 0.75 0 0] CT
0 1 1 RC
1 LJ
0.667 LW
N
320.69 115.171 M
320.679 115.053 L
320.744 115.152 L
S
GR
GS
[0.75 0 0 0.75 0 0] CT
0 1 1 RC
1 LJ
0.667 LW
N
321.284 116.789 M
320.679 115.053 L
S
GR
GS
[0.75 0 0 0.75 0 0] CT
0 1 1 RC
1 LJ
0.667 LW
N
316.873 131.35 M
313.39 129.796 L
310.404 127.424 L
308.101 124.384 L
306.626 120.867 L
306.073 117.094 L
306.475 113.301 L
307.808 109.728 L
309.987 106.598 L
312.876 104.109 L
316.294 102.417 L
320.025 101.627 L
323.835 101.791 L
327.485 102.896 L
330.745 104.875 L
333.411 107.602 L
335.315 110.907 L
336.337 114.581 L
336.413 118.394 L
335.539 122.106 L
333.769 125.484 L
331.214 128.316 L
328.036 130.423 L
324.433 131.674 L
320.633 131.99 L
316.873 131.35 L
S
GR
GS
[0.75 0 0 0.75 229.40403 76.03449] CT
0 1 1 RC
10.0 ML
0.667 LW
N
0 -4 M
0 4 L
-4 0 M
4 0 L
-2.828 -2.828 M
2.828 2.828 L
-2.828 2.828 M
2.828 -2.828 L
S
GR
GS
[0.75 0 0 0.75 0 0] CT
0 1 1 RC
1 LJ
0.667 LW
N
305.278 99.761 M
305.267 99.643 L
305.332 99.742 L
S
GR
GS
[0.75 0 0 0.75 0 0] CT
0 1 1 RC
1 LJ
0.667 LW
N
305.872 101.379 M
305.267 99.643 L
S
GR
GS
[0.75 0 0 0.75 0 0] CT
0 1 1 RC
1 LJ
0.667 LW
N
301.292 115.888 M
297.828 114.293 L
294.869 111.887 L
292.602 108.821 L
291.168 105.287 L
290.658 101.507 L
291.105 97.72 L
292.479 94.162 L
294.694 91.058 L
297.612 88.603 L
301.049 86.95 L
304.789 86.204 L
308.597 86.411 L
312.234 87.559 L
315.471 89.575 L
318.105 92.333 L
319.97 95.66 L
320.95 99.346 L
320.982 103.159 L
320.064 106.861 L
318.255 110.218 L
315.668 113.02 L
312.465 115.091 L
308.848 116.299 L
305.044 116.571 L
301.292 115.888 L
S
GR
GS
[0.75 0 0 0.75 252.51874 64.47857] CT
0 1 1 RC
10.0 ML
0.667 LW
N
0 -4 M
0 4 L
-4 0 M
4 0 L
-2.828 -2.828 M
2.828 2.828 L
-2.828 2.828 M
2.828 -2.828 L
S
GR
GS
[0.75 0 0 0.75 0 0] CT
0 1 1 RC
1 LJ
0.667 LW
N
336.097 84.353 M
336.087 84.235 L
336.152 84.334 L
S
GR
GS
[0.75 0 0 0.75 0 0] CT
0 1 1 RC
1 LJ
0.667 LW
N
336.692 85.971 M
336.087 84.235 L
S
GR
GS
[0.75 0 0 0.75 0 0] CT
0 1 1 RC
1 LJ
0.667 LW
N
351.287 90.266 M
351.897 86.501 L
351.551 82.703 L
350.271 79.11 L
348.138 75.949 L
345.286 73.417 L
341.894 71.674 L
338.175 70.83 L
334.363 70.937 L
330.697 71.988 L
327.408 73.918 L
324.702 76.606 L
322.749 79.882 L
321.673 83.54 L
321.54 87.352 L
322.359 91.076 L
324.079 94.48 L
326.592 97.349 L
329.739 99.504 L
333.322 100.808 L
337.118 101.18 L
340.887 100.596 L
344.392 99.093 L
347.413 96.766 L
349.761 93.761 L
351.287 90.266 L
S
GR
GS
[0.75 0 0 0.75 264.07551 76.03495] CT
0 1 1 RC
10.0 ML
0.667 LW
N
0 -4 M
0 4 L
-4 0 M
4 0 L
-2.828 -2.828 M
2.828 2.828 L
-2.828 2.828 M
2.828 -2.828 L
S
GR
GS
[0.75 0 0 0.75 0 0] CT
0 1 1 RC
1 LJ
0.667 LW
N
351.506 99.761 M
351.496 99.644 L
351.561 99.743 L
S
GR
GS
[0.75 0 0 0.75 0 0] CT
0 1 1 RC
1 LJ
0.667 LW
N
352.101 101.38 M
351.496 99.644 L
S
GR
GS
[0.75 0 0 0.75 0 0] CT
0 1 1 RC
1 LJ
0.667 LW
N
348.075 116.052 M
344.553 114.59 L
341.505 112.298 L
339.123 109.32 L
337.556 105.843 L
336.903 102.085 L
337.205 98.284 L
338.443 94.676 L
340.539 91.491 L
343.362 88.926 L
346.733 87.144 L
350.442 86.256 L
354.256 86.319 L
357.933 87.328 L
361.245 89.22 L
363.981 91.876 L
365.972 95.129 L
367.09 98.775 L
367.267 102.585 L
366.491 106.319 L
364.811 109.742 L
362.332 112.64 L
359.21 114.831 L
355.641 116.176 L
351.85 116.592 L
348.075 116.052 L
S
GR
GS
[0.75 0 0 0.75 227.53363 74.16429] CT
0 1 1 RC
10.0 ML
0.667 LW
N
0 -4 M
0 4 L
-4 0 M
4 0 L
-2.828 -2.828 M
2.828 2.828 L
-2.828 2.828 M
2.828 -2.828 L
S
GR
GS
[0.75 0 0 0.75 0 0] CT
0 1 1 RC
1 LJ
0.667 LW
N
302.784 97.267 M
302.773 97.15 L
302.838 97.248 L
S
GR
GS
[0.75 0 0 0.75 0 0] CT
0 1 1 RC
1 LJ
0.667 LW
N
303.378 98.886 M
302.773 97.15 L
S
GR
GS
[0.75 0 0 0.75 0 0] CT
0 1 1 RC
1 LJ
0.667 LW
N
317.932 103.32 M
318.577 99.561 L
318.268 95.76 L
317.023 92.155 L
314.92 88.973 L
312.092 86.414 L
308.717 84.639 L
305.006 83.759 L
301.193 83.829 L
297.518 84.846 L
294.21 86.744 L
291.479 89.406 L
289.495 92.663 L
288.383 96.311 L
288.214 100.121 L
288.998 103.853 L
290.685 107.273 L
293.17 110.166 L
296.296 112.351 L
299.867 113.689 L
303.659 114.097 L
307.433 113.55 L
310.952 112.081 L
313.996 109.782 L
316.372 106.8 L
317.932 103.32 L
S
GR
GS
[0.75 0 0 0.75 252.46983 64.42944] CT
0 1 1 RC
10.0 ML
0.667 LW
N
0 -4 M
0 4 L
-4 0 M
4 0 L
-2.828 -2.828 M
2.828 2.828 L
-2.828 2.828 M
2.828 -2.828 L
S
GR
GS
[0.75 0 0 0.75 0 0] CT
0 1 1 RC
1 LJ
0.667 LW
N
336.032 84.287 M
336.022 84.17 L
336.086 84.269 L
S
GR
GS
[0.75 0 0 0.75 0 0] CT
0 1 1 RC
1 LJ
0.667 LW
N
336.626 85.906 M
336.022 84.17 L
S
GR
GS
[0.75 0 0 0.75 0 0] CT
0 1 1 RC
1 LJ
0.667 LW
N
332.345 100.505 M
328.848 98.982 L
325.841 96.636 L
323.511 93.617 L
322.006 90.113 L
321.419 86.345 L
321.787 82.549 L
323.088 78.964 L
325.24 75.816 L
328.107 73.301 L
331.509 71.578 L
335.233 70.756 L
339.045 70.885 L
342.704 71.959 L
345.982 73.908 L
348.672 76.612 L
350.605 79.899 L
351.659 83.564 L
351.769 87.376 L
350.928 91.096 L
349.188 94.49 L
346.659 97.344 L
343.499 99.479 L
339.907 100.762 L
336.11 101.111 L
332.345 100.505 L
S
GR
GS
[0.75 0 0 0.75 252.16649 64.1265] CT
0 1 1 RC
10.0 ML
0.667 LW
N
0 -4 M
0 4 L
-4 0 M
4 0 L
-2.828 -2.828 M
2.828 2.828 L
-2.828 2.828 M
2.828 -2.828 L
S
GR
GS
[0.75 0 0 0.75 0 0] CT
0 1 1 RC
1 LJ
0.667 LW
N
335.628 83.884 M
335.617 83.766 L
335.682 83.865 L
S
GR
GS
[0.75 0 0 0.75 0 0] CT
0 1 1 RC
1 LJ
0.667 LW
N
336.222 85.502 M
335.617 83.766 L
S
GR
GS
[0.75 0 0 0.75 0 0] CT
0 1 1 RC
1 LJ
0.667 LW
N
331.99 100.116 M
328.489 98.604 L
325.473 96.269 L
323.133 93.258 L
321.616 89.759 L
321.016 85.993 L
321.371 82.196 L
322.66 78.607 L
324.801 75.451 L
327.659 72.926 L
331.056 71.192 L
334.777 70.357 L
338.589 70.473 L
342.252 71.534 L
345.536 73.472 L
348.235 76.167 L
350.18 79.448 L
351.247 83.109 L
351.37 86.921 L
350.541 90.643 L
348.813 94.043 L
346.293 96.906 L
343.141 99.052 L
339.554 100.347 L
335.757 100.709 L
331.99 100.116 L
S
GR
GS
[0.75 0 0 0.75 227.18237 73.81264] CT
0 1 1 RC
10.0 ML
0.667 LW
N
0 -4 M
0 4 L
-4 0 M
4 0 L
-2.828 -2.828 M
2.828 2.828 L
-2.828 2.828 M
2.828 -2.828 L
S
GR
GS
[0.75 0 0 0.75 0 0] CT
0 1 1 RC
1 LJ
0.667 LW
N
302.316 96.798 M
302.305 96.681 L
302.37 96.78 L
S
GR
GS
[0.75 0 0 0.75 0 0] CT
0 1 1 RC
1 LJ
0.667 LW
N
302.91 98.417 M
302.305 96.681 L
S
GR
GS
[0.75 0 0 0.75 0 0] CT
0 1 1 RC
1 LJ
0.667 LW
N
298.495 112.976 M
295.013 111.421 L
292.027 109.048 L
289.725 106.008 L
288.251 102.49 L
287.699 98.717 L
288.102 94.925 L
289.436 91.352 L
291.616 88.223 L
294.506 85.734 L
297.924 84.043 L
301.655 83.255 L
305.465 83.419 L
309.115 84.526 L
312.375 86.505 L
315.039 89.233 L
316.942 92.538 L
317.963 96.213 L
318.039 100.026 L
317.163 103.737 L
315.392 107.115 L
312.837 109.946 L
309.658 112.053 L
306.055 113.302 L
302.254 113.617 L
298.495 112.976 L
S
GR
GS
[0.75 0 0 0.75 250.29616 62.25607] CT
0 1 1 RC
10.0 ML
0.667 LW
N
0 -4 M
0 4 L
-4 0 M
4 0 L
-2.828 -2.828 M
2.828 2.828 L
-2.828 2.828 M
2.828 -2.828 L
S
GR
GS
[0.75 0 0 0.75 0 0] CT
0 1 1 RC
1 LJ
0.667 LW
N
333.134 81.39 M
333.123 81.272 L
333.188 81.371 L
S
GR
GS
[0.75 0 0 0.75 0 0] CT
0 1 1 RC
1 LJ
0.667 LW
N
333.728 83.008 M
333.123 81.272 L
S
GR
GS
[0.75 0 0 0.75 0 0] CT
0 1 1 RC
1 LJ
0.667 LW
N
329.697 97.678 M
326.175 96.215 L
323.128 93.922 L
320.747 90.942 L
319.181 87.465 L
318.53 83.707 L
318.834 79.906 L
320.073 76.299 L
322.171 73.114 L
324.994 70.551 L
328.367 68.77 L
332.076 67.884 L
335.889 67.948 L
339.567 68.959 L
342.877 70.852 L
345.613 73.509 L
347.602 76.763 L
348.719 80.41 L
348.894 84.219 L
348.116 87.953 L
346.435 91.376 L
343.954 94.273 L
340.832 96.462 L
337.263 97.806 L
333.472 98.22 L
329.697 97.678 L
S
GR
GS
[0.75 0 0 0.75 252.51851 64.47819] CT
0 1 1 RC
10.0 ML
0.667 LW
N
0 -4 M
0 4 L
-4 0 M
4 0 L
-2.828 -2.828 M
2.828 2.828 L
-2.828 2.828 M
2.828 -2.828 L
S
GR
GS
[0.75 0 0 0.75 0 0] CT
0 1 1 RC
1 LJ
0.667 LW
N
336.097 84.352 M
336.086 84.235 L
336.151 84.334 L
S
GR
GS
[0.75 0 0 0.75 0 0] CT
0 1 1 RC
1 LJ
0.667 LW
N
336.691 85.971 M
336.086 84.235 L
S
GR
GS
[0.75 0 0 0.75 0 0] CT
0 1 1 RC
1 LJ
0.667 LW
N
351.287 90.266 M
351.896 86.502 L
351.551 82.704 L
350.271 79.111 L
348.139 75.949 L
345.287 73.417 L
341.895 71.674 L
338.176 70.829 L
334.363 70.936 L
330.698 71.987 L
327.408 73.917 L
324.702 76.604 L
322.75 79.88 L
321.673 83.539 L
321.54 87.35 L
322.359 91.075 L
324.078 94.479 L
326.59 97.348 L
329.737 99.503 L
333.321 100.807 L
337.116 101.179 L
340.885 100.596 L
344.39 99.093 L
347.412 96.766 L
349.76 93.761 L
351.287 90.266 L
S
GR
GS
[0.75 0 0 0.75 227.18289 73.81244] CT
0 1 1 RC
10.0 ML
0.667 LW
N
0 -4 M
0 4 L
-4 0 M
4 0 L
-2.828 -2.828 M
2.828 2.828 L
-2.828 2.828 M
2.828 -2.828 L
S
GR
GS
[0.75 0 0 0.75 0 0] CT
0 1 1 RC
1 LJ
0.667 LW
N
302.316 96.798 M
302.306 96.68 L
302.37 96.779 L
S
GR
GS
[0.75 0 0 0.75 0 0] CT
0 1 1 RC
1 LJ
0.667 LW
N
302.911 98.417 M
302.306 96.68 L
S
GR
GS
[0.75 0 0 0.75 0 0] CT
0 1 1 RC
1 LJ
0.667 LW
N
298.486 112.973 M
295.005 111.416 L
292.021 109.041 L
289.721 105.999 L
288.249 102.481 L
287.699 98.707 L
288.105 94.915 L
289.441 91.343 L
291.623 88.215 L
294.515 85.729 L
297.934 84.039 L
301.665 83.253 L
305.475 83.42 L
309.124 84.529 L
312.383 86.511 L
315.046 89.241 L
316.947 92.547 L
317.966 96.222 L
318.038 100.035 L
317.161 103.746 L
315.388 107.123 L
312.83 109.952 L
309.65 112.057 L
306.046 113.304 L
302.245 113.616 L
298.486 112.973 L
S
GR
GS
[0.75 0 0 0.75 240.98165 87.58221] CT
0 1 1 RC
10.0 ML
0.667 LW
N
0 -4 M
0 4 L
-4 0 M
4 0 L
-2.828 -2.828 M
2.828 2.828 L
-2.828 2.828 M
2.828 -2.828 L
S
GR
GS
[0.75 0 0 0.75 0 0] CT
0 1 1 RC
1 LJ
0.667 LW
N
320.715 115.158 M
320.704 115.04 L
320.769 115.139 L
S
GR
GS
[0.75 0 0 0.75 0 0] CT
0 1 1 RC
1 LJ
0.667 LW
N
321.309 116.776 M
320.704 115.04 L
S
GR
GS
[0.75 0 0 0.75 0 0] CT
0 1 1 RC
1 LJ
0.667 LW
N
335.869 121.189 M
336.509 117.43 L
336.194 113.629 L
334.944 110.026 L
332.837 106.847 L
330.005 104.293 L
326.627 102.522 L
322.915 101.647 L
319.103 101.723 L
315.428 102.745 L
312.123 104.648 L
309.396 107.313 L
307.417 110.573 L
306.31 114.223 L
306.147 118.033 L
306.936 121.764 L
308.628 125.182 L
311.116 128.072 L
314.246 130.252 L
317.819 131.585 L
321.611 131.987 L
325.384 131.434 L
328.902 129.96 L
331.942 127.658 L
334.314 124.672 L
335.869 121.189 L
S
GR
GS
[0.75 0 0 0.75 229.42419 76.02526] CT
0 1 1 RC
10.0 ML
0.667 LW
N
0 -4 M
0 4 L
-4 0 M
4 0 L
-2.828 -2.828 M
2.828 2.828 L
-2.828 2.828 M
2.828 -2.828 L
S
GR
GS
[0.75 0 0 0.75 0 0] CT
0 1 1 RC
1 LJ
0.667 LW
N
305.305 99.749 M
305.294 99.631 L
305.359 99.73 L
S
GR
GS
[0.75 0 0 0.75 0 0] CT
0 1 1 RC
1 LJ
0.667 LW
N
305.899 101.367 M
305.294 99.631 L
S
GR
GS
[0.75 0 0 0.75 0 0] CT
0 1 1 RC
1 LJ
0.667 LW
N
320.378 106.039 M
321.085 102.291 L
320.838 98.486 L
319.652 94.861 L
317.602 91.645 L
314.816 89.04 L
311.471 87.21 L
307.775 86.269 L
303.961 86.277 L
300.269 87.233 L
296.931 89.077 L
294.156 91.693 L
292.12 94.917 L
290.948 98.547 L
290.717 102.353 L
291.439 106.098 L
293.07 109.545 L
295.507 112.479 L
298.597 114.714 L
302.145 116.111 L
305.93 116.581 L
309.713 116.095 L
313.256 114.684 L
316.336 112.436 L
318.761 109.493 L
320.378 106.039 L
S
GR
GS
[0.75 0 0 0.75 252.53602 64.46848] CT
0 1 1 RC
10.0 ML
0.667 LW
N
0 -4 M
0 4 L
-4 0 M
4 0 L
-2.828 -2.828 M
2.828 2.828 L
-2.828 2.828 M
2.828 -2.828 L
S
GR
GS
[0.75 0 0 0.75 0 0] CT
0 1 1 RC
1 LJ
0.667 LW
N
336.12 84.34 M
336.11 84.222 L
336.175 84.321 L
S
GR
GS
[0.75 0 0 0.75 0 0] CT
0 1 1 RC
1 LJ
0.667 LW
N
336.715 85.958 M
336.11 84.222 L
S
GR
GS
[0.75 0 0 0.75 0 0] CT
0 1 1 RC
1 LJ
0.667 LW
N
332.392 100.545 M
328.901 99.012 L
325.9 96.659 L
323.578 93.633 L
322.082 90.125 L
321.506 86.355 L
321.885 82.56 L
323.196 78.979 L
325.356 75.836 L
328.23 73.329 L
331.637 71.616 L
335.363 70.804 L
339.175 70.944 L
342.831 72.027 L
346.103 73.986 L
348.786 76.697 L
350.71 79.99 L
351.754 83.658 L
351.854 87.47 L
351.002 91.188 L
349.252 94.576 L
346.715 97.424 L
343.55 99.55 L
339.955 100.823 L
336.156 101.162 L
332.392 100.545 L
S
GR
GS
[0.75 0 0 0.75 252.06972 67.54782] CT
1 0 0 RC
10.0 ML
0.667 LW
N
0 -5 M
0 5 L
-5 0 M
5 0 L
S
GR
GS
[0.75 0 0 0.75 243.74364 98.63757] CT
0 0 1 RC
10.0 ML
0.667 LW
N
0 -4 M
0 4 L
-4 0 M
4 0 L
-2.828 -2.828 M
2.828 2.828 L
-2.828 2.828 M
2.828 -2.828 L
S
GR
GS
[0.75 0 0 0.75 0 0] CT
0 0 1 RC
1 LJ
0.667 LW
N
324.397 129.898 M
324.387 129.781 L
324.451 129.879 L
S
GR
GS
[0.75 0 0 0.75 0 0] CT
0 0 1 RC
1 LJ
0.667 LW
N
324.992 131.517 M
324.387 129.781 L
S
GR
GS
[0.75 0 0 0.75 0 0] CT
0 0 1 RC
1 LJ
0.667 LW
N
330.523 134.138 M
331.001 132.68 L
331.101 131.149 L
330.818 129.641 L
330.168 128.251 L
329.193 127.066 L
327.954 126.161 L
326.529 125.592 L
325.008 125.396 L
323.485 125.584 L
322.057 126.145 L
320.813 127.044 L
319.832 128.223 L
319.175 129.61 L
318.884 131.116 L
318.976 132.648 L
319.446 134.108 L
320.265 135.406 L
321.381 136.459 L
322.723 137.202 L
324.208 137.587 L
325.743 137.591 L
327.23 137.214 L
328.576 136.478 L
329.697 135.431 L
330.523 134.138 L
S
GR
GS
[0.75 0 0 0.75 232.18666 87.08085] CT
0 0 1 RC
10.0 ML
0.667 LW
N
0 -4 M
0 4 L
-4 0 M
4 0 L
-2.828 -2.828 M
2.828 2.828 L
-2.828 2.828 M
2.828 -2.828 L
S
GR
GS
[0.75 0 0 0.75 0 0] CT
0 0 1 RC
1 LJ
0.667 LW
N
308.988 114.489 M
308.977 114.372 L
309.042 114.47 L
S
GR
GS
[0.75 0 0 0.75 0 0] CT
0 0 1 RC
1 LJ
0.667 LW
N
309.582 116.108 M
308.977 114.372 L
S
GR
GS
[0.75 0 0 0.75 0 0] CT
0 0 1 RC
1 LJ
0.667 LW
N
315.044 118.871 M
315.559 117.426 L
315.7 115.898 L
315.455 114.384 L
314.842 112.977 L
313.898 111.767 L
312.683 110.831 L
311.273 110.225 L
309.757 109.989 L
308.23 110.138 L
306.788 110.662 L
305.521 111.528 L
304.51 112.682 L
303.817 114.051 L
303.487 115.549 L
303.539 117.082 L
303.972 118.555 L
304.756 119.873 L
305.844 120.955 L
307.167 121.732 L
308.642 122.156 L
310.175 122.2 L
311.672 121.861 L
313.037 121.161 L
314.185 120.143 L
315.044 118.871 L
S
GR
GS
[0.75 0 0 0.75 230.31656 85.21049] CT
0 0 1 RC
10.0 ML
0.667 LW
N
0 -4 M
0 4 L
-4 0 M
4 0 L
-2.828 -2.828 M
2.828 2.828 L
-2.828 2.828 M
2.828 -2.828 L
S
GR
GS
[0.75 0 0 0.75 0 0] CT
0 0 1 RC
1 LJ
0.667 LW
N
306.495 111.996 M
306.484 111.878 L
306.549 111.977 L
S
GR
GS
[0.75 0 0 0.75 0 0] CT
0 0 1 RC
1 LJ
0.667 LW
N
307.089 113.614 M
306.484 111.878 L
S
GR
GS
[0.75 0 0 0.75 0 0] CT
0 0 1 RC
1 LJ
0.667 LW
N
304.446 119.135 M
303.156 118.304 L
302.113 117.179 L
301.383 115.829 L
301.011 114.341 L
301.021 112.806 L
301.413 111.323 L
302.161 109.983 L
303.219 108.872 L
304.52 108.058 L
305.982 107.594 L
307.514 107.508 L
309.019 107.805 L
310.403 108.468 L
311.579 109.454 L
312.472 110.701 L
313.027 112.131 L
313.21 113.655 L
313.007 115.176 L
312.433 116.599 L
311.523 117.834 L
310.334 118.804 L
308.941 119.448 L
307.432 119.725 L
305.902 119.619 L
304.446 119.135 L
S
GR
GS
[0.75 0 0 0.75 257.17067 71.78344] CT
0 1 0 RC
10.0 ML
0.667 LW
N
0 -4 M
0 4 L
-4 0 M
4 0 L
-2.828 -2.828 M
2.828 2.828 L
-2.828 2.828 M
2.828 -2.828 L
S
GR
GS
[0.75 0 0 0.75 0 0] CT
0 1 0 RC
1 LJ
0.667 LW
N
342.3 94.093 M
342.289 93.975 L
342.354 94.074 L
S
GR
GS
[0.75 0 0 0.75 0 0] CT
0 1 0 RC
1 LJ
0.667 LW
N
342.894 95.711 M
342.289 93.975 L
S
GR
GS
[0.75 0 0 0.75 0 0] CT
0 1 0 RC
1 LJ
0.667 LW
N
348.425 98.334 M
348.903 96.876 L
349.004 95.345 L
348.721 93.837 L
348.072 92.447 L
347.097 91.262 L
345.859 90.356 L
344.434 89.787 L
342.912 89.59 L
341.389 89.778 L
339.961 90.339 L
338.717 91.237 L
337.736 92.416 L
337.078 93.803 L
336.786 95.309 L
336.878 96.841 L
337.348 98.301 L
338.167 99.599 L
339.282 100.653 L
340.624 101.396 L
342.109 101.782 L
343.644 101.786 L
345.131 101.409 L
346.477 100.674 L
347.599 99.627 L
348.425 98.334 L
S
GR
GS
[0.75 0 0 0.75 259.04089 73.65372] CT
0 0 1 RC
10.0 ML
0.667 LW
N
0 -4 M
0 4 L
-4 0 M
4 0 L
-2.828 -2.828 M
2.828 2.828 L
-2.828 2.828 M
2.828 -2.828 L
S
GR
GS
[0.75 0 0 0.75 0 0] CT
0 0 1 RC
1 LJ
0.667 LW
N
344.794 96.586 M
344.783 96.469 L
344.848 96.568 L
S
GR
GS
[0.75 0 0 0.75 0 0] CT
0 0 1 RC
1 LJ
0.667 LW
N
345.388 98.205 M
344.783 96.469 L
S
GR
GS
[0.75 0 0 0.75 0 0] CT
0 0 1 RC
1 LJ
0.667 LW
N
350.865 100.938 M
351.372 99.49 L
351.504 97.962 L
351.251 96.448 L
350.63 95.045 L
349.68 93.841 L
348.46 92.911 L
347.046 92.313 L
345.529 92.086 L
344.003 92.243 L
342.564 92.775 L
341.302 93.648 L
340.297 94.807 L
339.612 96.18 L
339.29 97.68 L
339.351 99.213 L
339.791 100.683 L
340.583 101.997 L
341.677 103.073 L
343.004 103.843 L
344.481 104.258 L
346.015 104.294 L
347.509 103.946 L
348.87 103.239 L
350.013 102.214 L
350.865 100.938 L
S
GR
GS
[0.75 0 0 0.75 270.5977 85.2105] CT
0 0 1 RC
10.0 ML
0.667 LW
N
0 -4 M
0 4 L
-4 0 M
4 0 L
-2.828 -2.828 M
2.828 2.828 L
-2.828 2.828 M
2.828 -2.828 L
S
GR
GS
[0.75 0 0 0.75 0 0] CT
0 0 1 RC
1 LJ
0.667 LW
N
360.203 111.996 M
360.192 111.878 L
360.257 111.977 L
S
GR
GS
[0.75 0 0 0.75 0 0] CT
0 0 1 RC
1 LJ
0.667 LW
N
360.797 113.614 M
360.192 111.878 L
S
GR
GS
[0.75 0 0 0.75 0 0] CT
0 0 1 RC
1 LJ
0.667 LW
N
366.338 116.215 M
366.81 114.756 L
366.905 113.224 L
366.617 111.718 L
365.962 110.33 L
364.983 109.148 L
363.741 108.248 L
362.314 107.684 L
360.792 107.493 L
359.27 107.687 L
357.844 108.253 L
356.603 109.156 L
355.626 110.339 L
354.974 111.727 L
354.688 113.235 L
354.785 114.766 L
355.261 116.225 L
356.084 117.52 L
357.203 118.569 L
358.548 119.307 L
360.035 119.687 L
361.569 119.686 L
363.055 119.303 L
364.399 118.563 L
365.517 117.512 L
366.338 116.215 L
S
GR
GS
[0.75 0 0 0.75 232.18671 87.09671] CT
0 0 1 RC
10.0 ML
0.667 LW
N
0 -4 M
0 4 L
-4 0 M
4 0 L
-2.828 -2.828 M
2.828 2.828 L
-2.828 2.828 M
2.828 -2.828 L
S
GR
GS
[0.75 0 0 0.75 0 0] CT
0 0 1 RC
1 LJ
0.667 LW
N
308.988 114.511 M
308.977 114.393 L
309.042 114.492 L
S
GR
GS
[0.75 0 0 0.75 0 0] CT
0 0 1 RC
1 LJ
0.667 LW
N
309.582 116.129 M
308.977 114.393 L
S
GR
GS
[0.75 0 0 0.75 0 0] CT
0 0 1 RC
1 LJ
0.667 LW
N
315.03 118.92 M
315.553 117.478 L
315.701 115.951 L
315.464 114.435 L
314.858 113.025 L
313.92 111.811 L
312.71 110.868 L
311.304 110.255 L
309.789 110.012 L
308.261 110.152 L
306.816 110.669 L
305.545 111.528 L
304.528 112.677 L
303.828 114.042 L
303.49 115.539 L
303.535 117.073 L
303.959 118.547 L
304.737 119.869 L
305.82 120.957 L
307.138 121.741 L
308.611 122.172 L
310.144 122.224 L
311.642 121.893 L
313.011 121.199 L
314.164 120.187 L
315.03 118.92 L
S
GR
GS
[0.75 0 0 0.75 257.17069 71.79933] CT
0 0 1 RC
10.0 ML
0.667 LW
N
0 -4 M
0 4 L
-4 0 M
4 0 L
-2.828 -2.828 M
2.828 2.828 L
-2.828 2.828 M
2.828 -2.828 L
S
GR
GS
[0.75 0 0 0.75 0 0] CT
0 0 1 RC
1 LJ
0.667 LW
N
342.3 94.114 M
342.289 93.996 L
342.354 94.095 L
S
GR
GS
[0.75 0 0 0.75 0 0] CT
0 0 1 RC
1 LJ
0.667 LW
N
342.894 95.732 M
342.289 93.996 L
S
GR
GS
[0.75 0 0 0.75 0 0] CT
0 0 1 RC
1 LJ
0.667 LW
N
348.425 98.355 M
348.903 96.898 L
349.004 95.367 L
348.721 93.859 L
348.072 92.468 L
347.098 91.283 L
345.859 90.378 L
344.434 89.808 L
342.913 89.612 L
341.39 89.799 L
339.962 90.36 L
338.718 91.258 L
337.736 92.437 L
337.079 93.823 L
336.787 95.33 L
336.878 96.861 L
337.348 98.322 L
338.166 99.62 L
339.281 100.673 L
340.624 101.417 L
342.109 101.803 L
343.643 101.807 L
345.13 101.43 L
346.477 100.695 L
347.599 99.648 L
348.425 98.355 L
S
GR
GS
[0.75 0 0 0.75 257.16957 71.78226] CT
0 0 1 RC
10.0 ML
0.667 LW
N
0 -4 M
0 4 L
-4 0 M
4 0 L
-2.828 -2.828 M
2.828 2.828 L
-2.828 2.828 M
2.828 -2.828 L
S
GR
GS
[0.75 0 0 0.75 0 0] CT
0 0 1 RC
1 LJ
0.667 LW
N
342.299 94.091 M
342.288 93.974 L
342.353 94.072 L
S
GR
GS
[0.75 0 0 0.75 0 0] CT
0 0 1 RC
1 LJ
0.667 LW
N
342.893 95.71 M
342.288 93.974 L
S
GR
GS
[0.75 0 0 0.75 0 0] CT
0 0 1 RC
1 LJ
0.667 LW
N
340.27 101.24 M
338.977 100.414 L
337.93 99.293 L
337.195 97.946 L
336.818 96.459 L
336.822 94.925 L
337.208 93.44 L
337.951 92.097 L
339.005 90.982 L
340.303 90.164 L
341.764 89.694 L
343.295 89.602 L
344.801 89.894 L
346.188 90.551 L
347.367 91.533 L
348.265 92.777 L
348.826 94.205 L
349.014 95.728 L
348.817 97.249 L
348.248 98.674 L
347.342 99.913 L
346.157 100.887 L
344.767 101.537 L
343.259 101.82 L
341.728 101.719 L
340.27 101.24 L
S
GR
GS
[0.75 0 0 0.75 243.74304 98.63718] CT
0 0 1 RC
10.0 ML
0.667 LW
N
0 -4 M
0 4 L
-4 0 M
4 0 L
-2.828 -2.828 M
2.828 2.828 L
-2.828 2.828 M
2.828 -2.828 L
S
GR
GS
[0.75 0 0 0.75 0 0] CT
0 0 1 RC
1 LJ
0.667 LW
N
324.396 129.898 M
324.386 129.78 L
324.451 129.879 L
S
GR
GS
[0.75 0 0 0.75 0 0] CT
0 0 1 RC
1 LJ
0.667 LW
N
324.991 131.516 M
324.386 129.78 L
S
GR
GS
[0.75 0 0 0.75 0 0] CT
0 0 1 RC
1 LJ
0.667 LW
N
322.37 137.048 M
321.077 136.222 L
320.03 135.101 L
319.294 133.755 L
318.916 132.268 L
318.92 130.733 L
319.305 129.248 L
320.048 127.906 L
321.101 126.79 L
322.399 125.971 L
323.859 125.501 L
325.391 125.408 L
326.897 125.7 L
328.284 126.357 L
329.464 127.338 L
330.362 128.581 L
330.923 130.009 L
331.112 131.532 L
330.915 133.054 L
330.347 134.479 L
329.442 135.718 L
328.257 136.693 L
326.867 137.342 L
325.359 137.626 L
323.828 137.526 L
322.37 137.048 L
S
GR
GS
[0.75 0 0 0.75 232.18657 87.08061] CT
0 0 1 RC
10.0 ML
0.667 LW
N
0 -4 M
0 4 L
-4 0 M
4 0 L
-2.828 -2.828 M
2.828 2.828 L
-2.828 2.828 M
2.828 -2.828 L
S
GR
GS
[0.75 0 0 0.75 0 0] CT
0 0 1 RC
1 LJ
0.667 LW
N
308.988 114.489 M
308.977 114.371 L
309.042 114.47 L
S
GR
GS
[0.75 0 0 0.75 0 0] CT
0 0 1 RC
1 LJ
0.667 LW
N
309.582 116.107 M
308.977 114.371 L
S
GR
GS
[0.75 0 0 0.75 0 0] CT
0 0 1 RC
1 LJ
0.667 LW
N
315.078 118.802 M
315.575 117.351 L
315.696 115.822 L
315.433 114.31 L
314.802 112.911 L
313.843 111.714 L
312.617 110.792 L
311.2 110.204 L
309.681 109.987 L
308.156 110.155 L
306.72 110.697 L
305.464 111.579 L
304.468 112.745 L
303.792 114.123 L
303.48 115.625 L
303.552 117.157 L
304.003 118.624 L
304.804 119.933 L
305.905 121.001 L
307.237 121.762 L
308.717 122.167 L
310.251 122.192 L
311.743 121.834 L
313.1 121.117 L
314.235 120.085 L
315.078 118.802 L
S
GR
GS
[0.75 0 0 0.75 230.31633 85.21028] CT
0 0 1 RC
10.0 ML
0.667 LW
N
0 -4 M
0 4 L
-4 0 M
4 0 L
-2.828 -2.828 M
2.828 2.828 L
-2.828 2.828 M
2.828 -2.828 L
S
GR
GS
[0.75 0 0 0.75 0 0] CT
0 0 1 RC
1 LJ
0.667 LW
N
306.494 111.995 M
306.484 111.878 L
306.548 111.976 L
S
GR
GS
[0.75 0 0 0.75 0 0] CT
0 0 1 RC
1 LJ
0.667 LW
N
307.088 113.614 M
306.484 111.878 L
S
GR
GS
[0.75 0 0 0.75 0 0] CT
0 0 1 RC
1 LJ
0.667 LW
N
312.613 116.249 M
313.095 114.792 L
313.199 113.262 L
312.92 111.753 L
312.274 110.361 L
311.302 109.174 L
310.066 108.266 L
308.642 107.693 L
307.121 107.493 L
305.598 107.677 L
304.168 108.234 L
302.922 109.13 L
301.938 110.307 L
301.277 111.691 L
300.982 113.197 L
301.07 114.729 L
301.536 116.191 L
302.352 117.49 L
303.464 118.547 L
304.805 119.293 L
306.289 119.682 L
307.823 119.69 L
309.312 119.317 L
310.66 118.585 L
311.784 117.54 L
312.613 116.249 L
S
GR
GS
[0.75 0 0 0.75 257.17044 71.78323] CT
0 0 1 RC
10.0 ML
0.667 LW
N
0 -4 M
0 4 L
-4 0 M
4 0 L
-2.828 -2.828 M
2.828 2.828 L
-2.828 2.828 M
2.828 -2.828 L
S
GR
GS
[0.75 0 0 0.75 0 0] CT
0 0 1 RC
1 LJ
0.667 LW
N
342.3 94.093 M
342.289 93.975 L
342.354 94.074 L
S
GR
GS
[0.75 0 0 0.75 0 0] CT
0 0 1 RC
1 LJ
0.667 LW
N
342.894 95.711 M
342.289 93.975 L
S
GR
GS
[0.75 0 0 0.75 0 0] CT
0 0 1 RC
1 LJ
0.667 LW
N
348.425 98.334 M
348.903 96.876 L
349.004 95.345 L
348.721 93.837 L
348.072 92.447 L
347.097 91.261 L
345.859 90.356 L
344.434 89.787 L
342.912 89.59 L
341.389 89.778 L
339.961 90.338 L
338.717 91.237 L
337.736 92.416 L
337.078 93.802 L
336.786 95.309 L
336.878 96.84 L
337.348 98.301 L
338.166 99.599 L
339.281 100.652 L
340.624 101.395 L
342.109 101.781 L
343.643 101.786 L
345.13 101.409 L
346.477 100.674 L
347.599 99.627 L
348.425 98.334 L
S
GR
GS
[0.75 0 0 0.75 259.04068 73.65351] CT
0 0 1 RC
10.0 ML
0.667 LW
N
0 -4 M
0 4 L
-4 0 M
4 0 L
-2.828 -2.828 M
2.828 2.828 L
-2.828 2.828 M
2.828 -2.828 L
S
GR
GS
[0.75 0 0 0.75 0 0] CT
0 0 1 RC
1 LJ
0.667 LW
N
344.793 96.586 M
344.783 96.469 L
344.847 96.567 L
S
GR
GS
[0.75 0 0 0.75 0 0] CT
0 0 1 RC
1 LJ
0.667 LW
N
345.388 98.205 M
344.783 96.469 L
S
GR
GS
[0.75 0 0 0.75 0 0] CT
0 0 1 RC
1 LJ
0.667 LW
N
342.654 103.681 M
341.378 102.829 L
340.353 101.687 L
339.646 100.325 L
339.299 98.831 L
339.334 97.297 L
339.75 95.82 L
340.521 94.493 L
341.596 93.399 L
342.911 92.607 L
344.381 92.167 L
345.914 92.106 L
347.414 92.429 L
348.786 93.114 L
349.946 94.119 L
350.818 95.381 L
351.35 96.821 L
351.507 98.347 L
351.279 99.864 L
350.681 101.277 L
349.751 102.497 L
348.546 103.447 L
347.143 104.068 L
345.63 104.321 L
344.101 104.189 L
342.654 103.681 L
S
GR
GS
[0.75 0 0 0.75 270.59747 85.21028] CT
0 0 1 RC
10.0 ML
0.667 LW
N
0 -4 M
0 4 L
-4 0 M
4 0 L
-2.828 -2.828 M
2.828 2.828 L
-2.828 2.828 M
2.828 -2.828 L
S
GR
GS
[0.75 0 0 0.75 0 0] CT
0 0 1 RC
1 LJ
0.667 LW
N
360.202 111.995 M
360.192 111.878 L
360.257 111.976 L
S
GR
GS
[0.75 0 0 0.75 0 0] CT
0 0 1 RC
1 LJ
0.667 LW
N
360.797 113.614 M
360.192 111.878 L
S
GR
GS
[0.75 0 0 0.75 0 0] CT
0 0 1 RC
1 LJ
0.667 LW
N
366.337 116.215 M
366.81 114.755 L
366.905 113.224 L
366.616 111.717 L
365.962 110.329 L
364.982 109.148 L
363.74 108.247 L
362.313 107.684 L
360.791 107.493 L
359.269 107.687 L
357.843 108.253 L
356.602 109.156 L
355.625 110.339 L
354.973 111.728 L
354.687 113.235 L
354.785 114.766 L
355.261 116.225 L
356.084 117.52 L
357.204 118.569 L
358.549 119.307 L
360.035 119.687 L
361.57 119.686 L
363.055 119.303 L
364.399 118.562 L
365.517 117.511 L
366.337 116.215 L
S
GR
GS
[0.75 0 0 0.75 243.74279 98.63639] CT
0 0 1 RC
10.0 ML
0.667 LW
N
0 -4 M
0 4 L
-4 0 M
4 0 L
-2.828 -2.828 M
2.828 2.828 L
-2.828 2.828 M
2.828 -2.828 L
S
GR
GS
[0.75 0 0 0.75 0 0] CT
0 0 1 RC
1 LJ
0.667 LW
N
324.396 129.897 M
324.386 129.779 L
324.45 129.878 L
S
GR
GS
[0.75 0 0 0.75 0 0] CT
0 0 1 RC
1 LJ
0.667 LW
N
324.99 131.515 M
324.386 129.779 L
S
GR
GS
[0.75 0 0 0.75 0 0] CT
0 0 1 RC
1 LJ
0.667 LW
N
322.37 137.047 M
321.077 136.221 L
320.029 135.1 L
319.293 133.754 L
318.916 132.267 L
318.92 130.732 L
319.305 129.247 L
320.048 127.905 L
321.101 126.789 L
322.399 125.97 L
323.859 125.5 L
325.391 125.407 L
326.897 125.699 L
328.284 126.356 L
329.463 127.337 L
330.362 128.58 L
330.923 130.008 L
331.111 131.531 L
330.915 133.053 L
330.347 134.478 L
329.441 135.717 L
328.257 136.692 L
326.867 137.341 L
325.359 137.625 L
323.828 137.525 L
322.37 137.047 L
S
GR
GS
[0.75 0 0 0.75 232.18444 87.07896] CT
0 0 1 RC
10.0 ML
0.667 LW
N
0 -4 M
0 4 L
-4 0 M
4 0 L
-2.828 -2.828 M
2.828 2.828 L
-2.828 2.828 M
2.828 -2.828 L
S
GR
GS
[0.75 0 0 0.75 0 0] CT
0 0 1 RC
1 LJ
0.667 LW
N
308.985 114.487 M
308.974 114.369 L
309.039 114.468 L
S
GR
GS
[0.75 0 0 0.75 0 0] CT
0 0 1 RC
1 LJ
0.667 LW
N
309.579 116.105 M
308.974 114.369 L
S
GR
GS
[0.75 0 0 0.75 0 0] CT
0 0 1 RC
1 LJ
0.667 LW
N
306.883 121.601 M
305.602 120.758 L
304.57 119.622 L
303.852 118.266 L
303.495 116.774 L
303.52 115.24 L
303.926 113.76 L
304.686 112.428 L
305.755 111.326 L
307.063 110.525 L
308.53 110.075 L
310.063 110.004 L
311.565 110.315 L
312.943 110.991 L
314.109 111.988 L
314.99 113.244 L
315.532 114.68 L
315.699 116.205 L
315.482 117.724 L
314.894 119.141 L
313.973 120.367 L
312.775 121.326 L
311.376 121.957 L
309.864 122.22 L
308.335 122.098 L
306.883 121.601 L
S
GR
GS
[0.75 0 0 0.75 230.31386 85.20843] CT
0 0 1 RC
10.0 ML
0.667 LW
N
0 -4 M
0 4 L
-4 0 M
4 0 L
-2.828 -2.828 M
2.828 2.828 L
-2.828 2.828 M
2.828 -2.828 L
S
GR
GS
[0.75 0 0 0.75 0 0] CT
0 0 1 RC
1 LJ
0.667 LW
N
306.491 111.993 M
306.48 111.875 L
306.545 111.974 L
S
GR
GS
[0.75 0 0 0.75 0 0] CT
0 0 1 RC
1 LJ
0.667 LW
N
307.085 113.611 M
306.48 111.875 L
S
GR
GS
[0.75 0 0 0.75 0 0] CT
0 0 1 RC
1 LJ
0.667 LW
N
312.61 116.247 M
313.091 114.79 L
313.196 113.259 L
312.916 111.751 L
312.271 110.359 L
311.299 109.172 L
310.062 108.263 L
308.639 107.691 L
307.118 107.49 L
305.594 107.675 L
304.165 108.232 L
302.919 109.127 L
301.935 110.304 L
301.274 111.689 L
300.978 113.195 L
301.067 114.726 L
301.533 116.188 L
302.348 117.488 L
303.461 118.544 L
304.802 119.29 L
306.286 119.68 L
307.82 119.688 L
309.308 119.314 L
310.657 118.582 L
311.781 117.538 L
312.61 116.247 L
S
GR
GS
[0.75 0 0 0.75 257.16936 71.78205] CT
0 0 1 RC
10.0 ML
0.667 LW
N
0 -4 M
0 4 L
-4 0 M
4 0 L
-2.828 -2.828 M
2.828 2.828 L
-2.828 2.828 M
2.828 -2.828 L
S
GR
GS
[0.75 0 0 0.75 0 0] CT
0 0 1 RC
1 LJ
0.667 LW
N
342.298 94.091 M
342.288 93.973 L
342.352 94.072 L
S
GR
GS
[0.75 0 0 0.75 0 0] CT
0 0 1 RC
1 LJ
0.667 LW
N
342.892 95.709 M
342.288 93.973 L
S
GR
GS
[0.75 0 0 0.75 0 0] CT
0 0 1 RC
1 LJ
0.667 LW
N
340.27 101.24 M
338.977 100.414 L
337.93 99.293 L
337.195 97.946 L
336.818 96.459 L
336.822 94.924 L
337.208 93.439 L
337.951 92.097 L
339.005 90.982 L
340.303 90.163 L
341.763 89.694 L
343.295 89.602 L
344.801 89.894 L
346.187 90.551 L
347.367 91.532 L
348.265 92.776 L
348.826 94.205 L
349.013 95.727 L
348.817 97.249 L
348.248 98.674 L
347.342 99.913 L
346.157 100.887 L
344.767 101.536 L
343.259 101.819 L
341.728 101.719 L
340.27 101.24 L
S
GR
GS
[0.75 0 0 0.75 259.03949 73.65228] CT
0 0 1 RC
10.0 ML
0.667 LW
N
0 -4 M
0 4 L
-4 0 M
4 0 L
-2.828 -2.828 M
2.828 2.828 L
-2.828 2.828 M
2.828 -2.828 L
S
GR
GS
[0.75 0 0 0.75 0 0] CT
0 0 1 RC
1 LJ
0.667 LW
N
344.792 96.585 M
344.781 96.467 L
344.846 96.566 L
S
GR
GS
[0.75 0 0 0.75 0 0] CT
0 0 1 RC
1 LJ
0.667 LW
N
345.386 98.203 M
344.781 96.467 L
S
GR
GS
[0.75 0 0 0.75 0 0] CT
0 0 1 RC
1 LJ
0.667 LW
N
342.652 103.679 M
341.376 102.827 L
340.352 101.685 L
339.644 100.324 L
339.297 98.829 L
339.333 97.295 L
339.749 95.818 L
340.519 94.491 L
341.595 93.398 L
342.909 92.606 L
344.379 92.166 L
345.912 92.105 L
347.412 92.427 L
348.785 93.112 L
349.944 94.118 L
350.817 95.38 L
351.348 96.819 L
351.505 98.345 L
351.278 99.862 L
350.68 101.275 L
349.75 102.495 L
348.545 103.446 L
347.142 104.067 L
345.629 104.319 L
344.1 104.187 L
342.652 103.679 L
S
GR
GS
[0.75 0 0 0.75 270.59642 85.2091] CT
0 0 1 RC
10.0 ML
0.667 LW
N
0 -4 M
0 4 L
-4 0 M
4 0 L
-2.828 -2.828 M
2.828 2.828 L
-2.828 2.828 M
2.828 -2.828 L
S
GR
GS
[0.75 0 0 0.75 0 0] CT
0 0 1 RC
1 LJ
0.667 LW
N
360.201 111.994 M
360.19 111.876 L
360.255 111.975 L
S
GR
GS
[0.75 0 0 0.75 0 0] CT
0 0 1 RC
1 LJ
0.667 LW
N
360.795 113.612 M
360.19 111.876 L
S
GR
GS
[0.75 0 0 0.75 0 0] CT
0 0 1 RC
1 LJ
0.667 LW
N
358.194 119.153 M
356.898 118.332 L
355.847 117.215 L
355.106 115.871 L
354.723 114.385 L
354.722 112.851 L
355.102 111.364 L
355.84 110.019 L
356.889 108.9 L
358.184 108.076 L
359.642 107.601 L
361.174 107.503 L
362.681 107.789 L
364.07 108.441 L
365.253 109.418 L
366.156 110.658 L
366.722 112.084 L
366.916 113.606 L
366.725 115.129 L
366.162 116.556 L
365.261 117.798 L
364.08 118.777 L
362.692 119.432 L
361.185 119.721 L
359.654 119.626 L
358.194 119.153 L
S
GR
GS
[0.75 0 0 0.75 257.16147 71.77413] CT
0 0 1 RC
10.0 ML
0.667 LW
N
0 -4 M
0 4 L
-4 0 M
4 0 L
-2.828 -2.828 M
2.828 2.828 L
-2.828 2.828 M
2.828 -2.828 L
S
GR
GS
[0.75 0 0 0.75 0 0] CT
0 0 1 RC
1 LJ
0.667 LW
N
342.288 94.08 M
342.277 93.963 L
342.342 94.062 L
S
GR
GS
[0.75 0 0 0.75 0 0] CT
0 0 1 RC
1 LJ
0.667 LW
N
342.882 95.699 M
342.277 93.963 L
S
GR
GS
[0.75 0 0 0.75 0 0] CT
0 0 1 RC
1 LJ
0.667 LW
N
340.26 101.23 M
338.967 100.404 L
337.92 99.283 L
337.185 97.936 L
336.807 96.449 L
336.811 94.915 L
337.197 93.43 L
337.94 92.087 L
338.994 90.972 L
340.291 90.153 L
341.752 89.683 L
343.283 89.591 L
344.79 89.883 L
346.176 90.54 L
347.356 91.521 L
348.254 92.765 L
348.815 94.193 L
349.003 95.716 L
348.806 97.238 L
348.238 98.663 L
347.332 99.901 L
346.147 100.876 L
344.757 101.525 L
343.249 101.809 L
341.718 101.708 L
340.26 101.23 L
S
GR
GS
[0.75 0 0 0.75 257.11203 71.72491] CT
0 0 1 RC
10.0 ML
0.667 LW
N
0 -4 M
0 4 L
-4 0 M
4 0 L
-2.828 -2.828 M
2.828 2.828 L
-2.828 2.828 M
2.828 -2.828 L
S
GR
GS
[0.75 0 0 0.75 0 0] CT
0 0 1 RC
1 LJ
0.667 LW
N
342.222 94.015 M
342.211 93.897 L
342.276 93.996 L
S
GR
GS
[0.75 0 0 0.75 0 0] CT
0 0 1 RC
1 LJ
0.667 LW
N
342.816 95.633 M
342.211 93.897 L
S
GR
GS
[0.75 0 0 0.75 0 0] CT
0 0 1 RC
1 LJ
0.667 LW
N
348.349 98.251 M
348.826 96.793 L
348.926 95.262 L
348.641 93.754 L
347.991 92.364 L
347.015 91.18 L
345.776 90.276 L
344.351 89.708 L
342.829 89.512 L
341.306 89.701 L
339.878 90.263 L
338.635 91.163 L
337.655 92.343 L
336.999 93.73 L
336.708 95.236 L
336.801 96.768 L
337.272 98.228 L
338.092 99.525 L
339.208 100.578 L
340.551 101.32 L
342.036 101.704 L
343.571 101.707 L
345.057 101.329 L
346.404 100.593 L
347.524 99.545 L
348.349 98.251 L
S
GR
GS
[0.75 0 0 0.75 229.95438 84.84885] CT
0 0 1 RC
10.0 ML
0.667 LW
N
0 -4 M
0 4 L
-4 0 M
4 0 L
-2.828 -2.828 M
2.828 2.828 L
-2.828 2.828 M
2.828 -2.828 L
S
GR
GS
[0.75 0 0 0.75 0 0] CT
0 0 1 RC
1 LJ
0.667 LW
N
306.012 111.513 M
306.001 111.396 L
306.066 111.494 L
S
GR
GS
[0.75 0 0 0.75 0 0] CT
0 0 1 RC
1 LJ
0.667 LW
N
306.606 113.132 M
306.001 111.396 L
S
GR
GS
[0.75 0 0 0.75 0 0] CT
0 0 1 RC
1 LJ
0.667 LW
N
303.986 118.664 M
302.692 117.838 L
301.645 116.717 L
300.909 115.371 L
300.531 113.884 L
300.535 112.349 L
300.92 110.864 L
301.663 109.522 L
302.716 108.406 L
304.014 107.587 L
305.474 107.116 L
307.005 107.024 L
308.512 107.315 L
309.898 107.972 L
311.078 108.953 L
311.977 110.196 L
312.538 111.624 L
312.727 113.147 L
312.531 114.669 L
311.962 116.094 L
311.057 117.333 L
309.873 118.308 L
308.483 118.958 L
306.975 119.242 L
305.444 119.141 L
303.986 118.664 L
S
GR
GS
[0.75 0 0 0.75 257.1693 71.782] CT
0 0 1 RC
10.0 ML
0.667 LW
N
0 -4 M
0 4 L
-4 0 M
4 0 L
-2.828 -2.828 M
2.828 2.828 L
-2.828 2.828 M
2.828 -2.828 L
S
GR
GS
[0.75 0 0 0.75 0 0] CT
0 0 1 RC
1 LJ
0.667 LW
N
342.298 94.091 M
342.288 93.973 L
342.352 94.072 L
S
GR
GS
[0.75 0 0 0.75 0 0] CT
0 0 1 RC
1 LJ
0.667 LW
N
342.892 95.709 M
342.288 93.973 L
S
GR
GS
[0.75 0 0 0.75 0 0] CT
0 0 1 RC
1 LJ
0.667 LW
N
348.423 98.332 M
348.902 96.874 L
349.002 95.343 L
348.719 93.835 L
348.07 92.445 L
347.096 91.26 L
345.857 90.354 L
344.432 89.785 L
342.91 89.588 L
341.388 89.776 L
339.959 90.337 L
338.715 91.235 L
337.734 92.414 L
337.077 93.801 L
336.785 95.307 L
336.877 96.839 L
337.346 98.299 L
338.165 99.597 L
339.28 100.651 L
340.622 101.394 L
342.107 101.78 L
343.642 101.784 L
345.129 101.407 L
346.476 100.672 L
347.597 99.625 L
348.423 98.332 L
S
GR
GS
[0.75 0 0 0.75 243.74588 98.6347] CT
0 0 1 RC
10.0 ML
0.667 LW
N
0 -4 M
0 4 L
-4 0 M
4 0 L
-2.828 -2.828 M
2.828 2.828 L
-2.828 2.828 M
2.828 -2.828 L
S
GR
GS
[0.75 0 0 0.75 0 0] CT
0 0 1 RC
1 LJ
0.667 LW
N
324.4 129.894 M
324.39 129.777 L
324.454 129.876 L
S
GR
GS
[0.75 0 0 0.75 0 0] CT
0 0 1 RC
1 LJ
0.667 LW
N
324.995 131.513 M
324.39 129.777 L
S
GR
GS
[0.75 0 0 0.75 0 0] CT
0 0 1 RC
1 LJ
0.667 LW
N
322.375 137.045 M
321.081 136.219 L
320.034 135.098 L
319.298 133.752 L
318.92 132.265 L
318.924 130.731 L
319.309 129.245 L
320.052 127.903 L
321.105 126.787 L
322.402 125.968 L
323.863 125.498 L
325.394 125.405 L
326.9 125.696 L
328.287 126.353 L
329.467 127.334 L
330.366 128.578 L
330.927 130.006 L
331.115 131.528 L
330.919 133.05 L
330.351 134.475 L
329.446 135.714 L
328.261 136.689 L
326.871 137.339 L
325.364 137.623 L
323.833 137.523 L
322.375 137.045 L
S
GR
GS
[0.75 0 0 0.75 232.18854 87.07799] CT
0 0 1 RC
10.0 ML
0.667 LW
N
0 -4 M
0 4 L
-4 0 M
4 0 L
-2.828 -2.828 M
2.828 2.828 L
-2.828 2.828 M
2.828 -2.828 L
S
GR
GS
[0.75 0 0 0.75 0 0] CT
0 0 1 RC
1 LJ
0.667 LW
N
308.991 114.486 M
308.98 114.368 L
309.045 114.467 L
S
GR
GS
[0.75 0 0 0.75 0 0] CT
0 0 1 RC
1 LJ
0.667 LW
N
309.585 116.104 M
308.98 114.368 L
S
GR
GS
[0.75 0 0 0.75 0 0] CT
0 0 1 RC
1 LJ
0.667 LW
N
306.799 121.554 M
305.531 120.69 L
304.518 119.538 L
303.823 118.17 L
303.49 116.673 L
303.54 115.139 L
303.97 113.666 L
304.753 112.347 L
305.839 111.263 L
307.161 110.484 L
308.634 110.057 L
310.168 110.011 L
311.665 110.347 L
313.031 111.046 L
314.181 112.062 L
315.042 113.332 L
315.56 114.776 L
315.702 116.304 L
315.461 117.819 L
314.849 119.226 L
313.908 120.437 L
312.694 121.376 L
311.285 121.984 L
309.77 122.222 L
308.242 122.076 L
306.799 121.554 L
S
GR
GS
[0.75 0 0 0.75 257.17106 71.78005] CT
0 0 1 RC
10.0 ML
0.667 LW
N
0 -4 M
0 4 L
-4 0 M
4 0 L
-2.828 -2.828 M
2.828 2.828 L
-2.828 2.828 M
2.828 -2.828 L
S
GR
GS
[0.75 0 0 0.75 0 0] CT
0 0 1 RC
1 LJ
0.667 LW
N
342.301 94.088 M
342.29 93.971 L
342.355 94.069 L
S
GR
GS
[0.75 0 0 0.75 0 0] CT
0 0 1 RC
1 LJ
0.667 LW
N
342.895 95.707 M
342.29 93.971 L
S
GR
GS
[0.75 0 0 0.75 0 0] CT
0 0 1 RC
1 LJ
0.667 LW
N
348.426 98.328 M
348.904 96.871 L
349.005 95.34 L
348.721 93.832 L
348.072 92.441 L
347.097 91.257 L
345.859 90.351 L
344.434 89.782 L
342.912 89.586 L
341.389 89.774 L
339.961 90.335 L
338.717 91.233 L
337.736 92.412 L
337.079 93.799 L
336.787 95.305 L
336.879 96.837 L
337.349 98.297 L
338.168 99.595 L
339.283 100.649 L
340.626 101.391 L
342.111 101.777 L
343.645 101.782 L
345.132 101.404 L
346.479 100.669 L
347.6 99.622 L
348.426 98.328 L
S
GR
GS
[0.75 0 0 0.75 0 0] CT
1 GC
N
/f159554590{478 198 M
478 42 L
285 42 L
285 198 L
cp}def
f159554590
f
GR
GS
[0.75 0 0 0.75 249 47.25] CT
/Helvetica-Bold 30 F
GS
[1 0 0 1 0 0] CT
0 12 moveto 
1 -1 scale
(LandMark) t 
GR
GR
GS
[0.75 0 0 0.75 231.75 47.25] CT
1 0 0 RC
N
/f-1214359511{0 -19.995 M
-17.316 9.998 L
17.316 9.998 L
cp}def
f-1214359511
f
GR
GS
[0.75 0 0 0.75 231.75 47.25] CT
0 0 1 RC
10.0 ML
0.667 LW
N
0 -19.995 M
-17.316 9.998 L
17.316 9.998 L
cp
S
GR
GS
[0.75 0 0 0.75 249 92.25] CT
/Helvetica-Bold 30 F
GS
[1 0 0 1 0 0] CT
0 0 moveto 
1 -1 scale
(b) t 
GR
GR
GS
[0.75 0 0 0.75 263.25 81] CT
/Helvetica-Bold 24 F
GS
[1 0 0 1 0 0] CT
0 0 moveto 
1 -1 scale
(-) t 
GR
GR
GS
[0.75 0 0 0.75 269.25 92.25] CT
/Helvetica-Bold 30 F
GS
[1 0 0 1 0 0] CT
0 0 moveto 
1 -1 scale
([X) t 
GR
GR
GS
[0.75 0 0 0.75 291.75 103.5] CT
/Helvetica-Bold 24 F
GS
[1 0 0 1 0 0] CT
0 0 moveto 
1 -1 scale
(k) t 
GR
GR
GS
[0.75 0 0 0.75 302.25 92.25] CT
/Helvetica-Bold 30 F
GS
[1 0 0 1 0 0] CT
0 0 moveto 
1 -1 scale
(]) t 
GR
GR
GS
[0.75 0 0 0.75 0 0] CT
0 1 1 RC
1 LJ
0.667 LW
N
289 113 M
329 113 L
S
GR
GS
[0.75 0 0 0.75 0 0] CT
0 1 1 RC
1 LJ
0.667 LW
N
317 117.8 M
329 113 L
317 108.2 L
S
GR
GS
[0.75 0 0 0.75 249 131.25] CT
/Helvetica-Bold 30 F
GS
[1 0 0 1 0 0] CT
0 0 moveto 
1 -1 scale
(b[X) t 
GR
GR
GS
[0.75 0 0 0.75 285.75 142.5] CT
/Helvetica-Bold 24 F
GS
[1 0 0 1 0 0] CT
0 0 moveto 
1 -1 scale
(k) t 
GR
GR
GS
[0.75 0 0 0.75 296.25 131.25] CT
/Helvetica-Bold 30 F
GS
[1 0 0 1 0 0] CT
0 0 moveto 
1 -1 scale
(]) t 
GR
GR
GS
[0.75 0 0 0.75 0 0] CT
0 0 1 RC
1 LJ
0.667 LW
N
289 170 M
329 170 L
S
GR
GS
[0.75 0 0 0.75 0 0] CT
0.149 GC
10.0 ML
0.667 LW
N
285 198 M
285 42 L
478 42 L
478 198 L
cp
S
GR
%%Trailer
%%Pages: 1
%%EOF
