%!PS-Adobe-3.0 EPSF-3.0
%%Creator: (MATLAB, The Mathworks, Inc. Version 9.10.0.1649659 \(R2021a\) Update 1. Operating System: Windows 10)
%%Title: C:/Users/ohads/ANPL/Code/da_bsp_future_smoothing/TestCases/ChosenTestCase/TestCases_56/Figures/Robots_estimation_k_6.eps
%%CreationDate: 2021-07-05T23:43:25
%%Pages: (atend)
%%BoundingBox:    25     6   379   293
%%LanguageLevel: 3
%%EndComments
%%BeginProlog
%%BeginResource: procset (Apache XML Graphics Std ProcSet) 1.2 0
%%Version: 1.2 0
%%Copyright: (Copyright 2001-2003,2010 The Apache Software Foundation. License terms: http://www.apache.org/licenses/LICENSE-2.0)
/bd{bind def}bind def
/ld{load def}bd
/GR/grestore ld
/GS/gsave ld
/RM/rmoveto ld
/C/curveto ld
/t/show ld
/L/lineto ld
/ML/setmiterlimit ld
/CT/concat ld
/f/fill ld
/N/newpath ld
/S/stroke ld
/CC/setcmykcolor ld
/A/ashow ld
/cp/closepath ld
/RC/setrgbcolor ld
/LJ/setlinejoin ld
/GC/setgray ld
/LW/setlinewidth ld
/M/moveto ld
/re {4 2 roll M
1 index 0 rlineto
0 exch rlineto
neg 0 rlineto
cp } bd
/_ctm matrix def
/_tm matrix def
/BT { _ctm currentmatrix pop matrix _tm copy pop 0 0 moveto } bd
/ET { _ctm setmatrix } bd
/iTm { _ctm setmatrix _tm concat } bd
/Tm { _tm astore pop iTm 0 0 moveto } bd
/ux 0.0 def
/uy 0.0 def
/F {
  /Tp exch def
  /Tf exch def
  Tf findfont Tp scalefont setfont
  /cf Tf def  /cs Tp def
} bd
/ULS {currentpoint /uy exch def /ux exch def} bd
/ULE {
  /Tcx currentpoint pop def
  gsave
  newpath
  cf findfont cs scalefont dup
  /FontMatrix get 0 get /Ts exch def /FontInfo get dup
  /UnderlinePosition get Ts mul /To exch def
  /UnderlineThickness get Ts mul /Tt exch def
  ux uy To add moveto  Tcx uy To add lineto
  Tt setlinewidth stroke
  grestore
} bd
/OLE {
  /Tcx currentpoint pop def
  gsave
  newpath
  cf findfont cs scalefont dup
  /FontMatrix get 0 get /Ts exch def /FontInfo get dup
  /UnderlinePosition get Ts mul /To exch def
  /UnderlineThickness get Ts mul /Tt exch def
  ux uy To add cs add moveto Tcx uy To add cs add lineto
  Tt setlinewidth stroke
  grestore
} bd
/SOE {
  /Tcx currentpoint pop def
  gsave
  newpath
  cf findfont cs scalefont dup
  /FontMatrix get 0 get /Ts exch def /FontInfo get dup
  /UnderlinePosition get Ts mul /To exch def
  /UnderlineThickness get Ts mul /Tt exch def
  ux uy To add cs 10 mul 26 idiv add moveto Tcx uy To add cs 10 mul 26 idiv add lineto
  Tt setlinewidth stroke
  grestore
} bd
/QT {
/Y22 exch store
/X22 exch store
/Y21 exch store
/X21 exch store
currentpoint
/Y21 load 2 mul add 3 div exch
/X21 load 2 mul add 3 div exch
/X21 load 2 mul /X22 load add 3 div
/Y21 load 2 mul /Y22 load add 3 div
/X22 load /Y22 load curveto
} bd
/SSPD {
dup length /d exch dict def
{
/v exch def
/k exch def
currentpagedevice k known {
/cpdv currentpagedevice k get def
v cpdv ne {
/upd false def
/nullv v type /nulltype eq def
/nullcpdv cpdv type /nulltype eq def
nullv nullcpdv or
{
/upd true def
} {
/sametype v type cpdv type eq def
sametype {
v type /arraytype eq {
/vlen v length def
/cpdvlen cpdv length def
vlen cpdvlen eq {
0 1 vlen 1 sub {
/i exch def
/obj v i get def
/cpdobj cpdv i get def
obj cpdobj ne {
/upd true def
exit
} if
} for
} {
/upd true def
} ifelse
} {
v type /dicttype eq {
v {
/dv exch def
/dk exch def
/cpddv cpdv dk get def
dv cpddv ne {
/upd true def
exit
} if
} forall
} {
/upd true def
} ifelse
} ifelse
} if
} ifelse
upd true eq {
d k v put
} if
} if
} if
} forall
d length 0 gt {
d setpagedevice
} if
} bd
/RE { % /NewFontName [NewEncodingArray] /FontName RE -
  findfont dup length dict begin
  {
    1 index /FID ne
    {def} {pop pop} ifelse
  } forall
  /Encoding exch def
  /FontName 1 index def
  currentdict definefont pop
  end
} bind def
%%EndResource
%%BeginResource: procset (Apache XML Graphics EPS ProcSet) 1.0 0
%%Version: 1.0 0
%%Copyright: (Copyright 2002-2003 The Apache Software Foundation. License terms: http://www.apache.org/licenses/LICENSE-2.0)
/BeginEPSF { %def
/b4_Inc_state save def         % Save state for cleanup
/dict_count countdictstack def % Count objects on dict stack
/op_count count 1 sub def      % Count objects on operand stack
userdict begin                 % Push userdict on dict stack
/showpage { } def              % Redefine showpage, { } = null proc
0 setgray 0 setlinecap         % Prepare graphics state
1 setlinewidth 0 setlinejoin
10 setmiterlimit [ ] 0 setdash newpath
/languagelevel where           % If level not equal to 1 then
{pop languagelevel             % set strokeadjust and
1 ne                           % overprint to their defaults.
{false setstrokeadjust false setoverprint
} if
} if
} bd
/EndEPSF { %def
count op_count sub {pop} repeat            % Clean up stacks
countdictstack dict_count sub {end} repeat
b4_Inc_state restore
} bd
%%EndResource
%FOPBeginFontDict
%%IncludeResource: font Courier-Oblique
%%IncludeResource: font Courier-BoldOblique
%%IncludeResource: font Courier-Bold
%%IncludeResource: font ZapfDingbats
%%IncludeResource: font Symbol
%%IncludeResource: font Helvetica
%%IncludeResource: font Helvetica-Oblique
%%IncludeResource: font Helvetica-Bold
%%IncludeResource: font Helvetica-BoldOblique
%%IncludeResource: font Times-Roman
%%IncludeResource: font Times-Italic
%%IncludeResource: font Times-Bold
%%IncludeResource: font Times-BoldItalic
%%IncludeResource: font Courier
%FOPEndFontDict
%%BeginResource: encoding WinAnsiEncoding
/WinAnsiEncoding [
/.notdef /.notdef /.notdef /.notdef /.notdef
/.notdef /.notdef /.notdef /.notdef /.notdef
/.notdef /.notdef /.notdef /.notdef /.notdef
/.notdef /.notdef /.notdef /.notdef /.notdef
/.notdef /.notdef /.notdef /.notdef /.notdef
/.notdef /.notdef /.notdef /.notdef /.notdef
/.notdef /.notdef /space /exclam /quotedbl
/numbersign /dollar /percent /ampersand /quotesingle
/parenleft /parenright /asterisk /plus /comma
/hyphen /period /slash /zero /one
/two /three /four /five /six
/seven /eight /nine /colon /semicolon
/less /equal /greater /question /at
/A /B /C /D /E
/F /G /H /I /J
/K /L /M /N /O
/P /Q /R /S /T
/U /V /W /X /Y
/Z /bracketleft /backslash /bracketright /asciicircum
/underscore /quoteleft /a /b /c
/d /e /f /g /h
/i /j /k /l /m
/n /o /p /q /r
/s /t /u /v /w
/x /y /z /braceleft /bar
/braceright /asciitilde /bullet /Euro /bullet
/quotesinglbase /florin /quotedblbase /ellipsis /dagger
/daggerdbl /circumflex /perthousand /Scaron /guilsinglleft
/OE /bullet /Zcaron /bullet /bullet
/quoteleft /quoteright /quotedblleft /quotedblright /bullet
/endash /emdash /asciitilde /trademark /scaron
/guilsinglright /oe /bullet /zcaron /Ydieresis
/space /exclamdown /cent /sterling /currency
/yen /brokenbar /section /dieresis /copyright
/ordfeminine /guillemotleft /logicalnot /sfthyphen /registered
/macron /degree /plusminus /twosuperior /threesuperior
/acute /mu /paragraph /middot /cedilla
/onesuperior /ordmasculine /guillemotright /onequarter /onehalf
/threequarters /questiondown /Agrave /Aacute /Acircumflex
/Atilde /Adieresis /Aring /AE /Ccedilla
/Egrave /Eacute /Ecircumflex /Edieresis /Igrave
/Iacute /Icircumflex /Idieresis /Eth /Ntilde
/Ograve /Oacute /Ocircumflex /Otilde /Odieresis
/multiply /Oslash /Ugrave /Uacute /Ucircumflex
/Udieresis /Yacute /Thorn /germandbls /agrave
/aacute /acircumflex /atilde /adieresis /aring
/ae /ccedilla /egrave /eacute /ecircumflex
/edieresis /igrave /iacute /icircumflex /idieresis
/eth /ntilde /ograve /oacute /ocircumflex
/otilde /odieresis /divide /oslash /ugrave
/uacute /ucircumflex /udieresis /yacute /thorn
/ydieresis
] def
%%EndResource
%FOPBeginFontReencode
/Courier-Oblique findfont
dup length dict begin
  {1 index /FID ne {def} {pop pop} ifelse} forall
  /Encoding WinAnsiEncoding def
  currentdict
end
/Courier-Oblique exch definefont pop
/Courier-BoldOblique findfont
dup length dict begin
  {1 index /FID ne {def} {pop pop} ifelse} forall
  /Encoding WinAnsiEncoding def
  currentdict
end
/Courier-BoldOblique exch definefont pop
/Courier-Bold findfont
dup length dict begin
  {1 index /FID ne {def} {pop pop} ifelse} forall
  /Encoding WinAnsiEncoding def
  currentdict
end
/Courier-Bold exch definefont pop
/Helvetica findfont
dup length dict begin
  {1 index /FID ne {def} {pop pop} ifelse} forall
  /Encoding WinAnsiEncoding def
  currentdict
end
/Helvetica exch definefont pop
/Helvetica-Oblique findfont
dup length dict begin
  {1 index /FID ne {def} {pop pop} ifelse} forall
  /Encoding WinAnsiEncoding def
  currentdict
end
/Helvetica-Oblique exch definefont pop
/Helvetica-Bold findfont
dup length dict begin
  {1 index /FID ne {def} {pop pop} ifelse} forall
  /Encoding WinAnsiEncoding def
  currentdict
end
/Helvetica-Bold exch definefont pop
/Helvetica-BoldOblique findfont
dup length dict begin
  {1 index /FID ne {def} {pop pop} ifelse} forall
  /Encoding WinAnsiEncoding def
  currentdict
end
/Helvetica-BoldOblique exch definefont pop
/Times-Roman findfont
dup length dict begin
  {1 index /FID ne {def} {pop pop} ifelse} forall
  /Encoding WinAnsiEncoding def
  currentdict
end
/Times-Roman exch definefont pop
/Times-Italic findfont
dup length dict begin
  {1 index /FID ne {def} {pop pop} ifelse} forall
  /Encoding WinAnsiEncoding def
  currentdict
end
/Times-Italic exch definefont pop
/Times-Bold findfont
dup length dict begin
  {1 index /FID ne {def} {pop pop} ifelse} forall
  /Encoding WinAnsiEncoding def
  currentdict
end
/Times-Bold exch definefont pop
/Times-BoldItalic findfont
dup length dict begin
  {1 index /FID ne {def} {pop pop} ifelse} forall
  /Encoding WinAnsiEncoding def
  currentdict
end
/Times-BoldItalic exch definefont pop
/Courier findfont
dup length dict begin
  {1 index /FID ne {def} {pop pop} ifelse} forall
  /Encoding WinAnsiEncoding def
  currentdict
end
/Courier exch definefont pop
%FOPEndFontReencode
%%EndProlog
%%Page: 1 1
%%PageBoundingBox: 0 0 428 315
%%BeginPageSetup
[1 0 0 -1 0 315] CT
%%EndPageSetup
GS
[0.75 0 0 0.75 0 0] CT
1 GC
N
0 0 570 420 re
f
GR
GS
[0.75 0 0 0.75 0 0] CT
1 GC
N
0 0 570 420 re
f
GR
GS
[0.75 0 0 0.75 0 0] CT
1 GC
N
121.155 321 M
488.845 321 L
488.845 31 L
121.155 31 L
cp
f
GR
GS
[0.75 0 0 0.75 0 0] CT
0.149 GC
2 setlinecap
1 LJ
0.667 LW
N
121.155 321 M
488.845 321 L
S
GR
GS
[0.75 0 0 0.75 0 0] CT
0.149 GC
2 setlinecap
1 LJ
0.667 LW
N
121.155 321 M
121.155 317.323 L
S
GR
GS
[0.75 0 0 0.75 0 0] CT
0.149 GC
2 setlinecap
1 LJ
0.667 LW
N
213.078 321 M
213.078 317.323 L
S
GR
GS
[0.75 0 0 0.75 0 0] CT
0.149 GC
2 setlinecap
1 LJ
0.667 LW
N
305 321 M
305 317.323 L
S
GR
GS
[0.75 0 0 0.75 0 0] CT
0.149 GC
2 setlinecap
1 LJ
0.667 LW
N
396.922 321 M
396.922 317.323 L
S
GR
GS
[0.75 0 0 0.75 0 0] CT
0.149 GC
2 setlinecap
1 LJ
0.667 LW
N
488.845 321 M
488.845 317.323 L
S
GR
GS
[0.75 0 0 0.75 90.86656 247.75001] CT
0.149 GC
/Helvetica 33.333 F
GS
[1 0 0 1 0 0] CT
-15 34 moveto 
1 -1 scale
(-5) t 
GR
GR
GS
[0.75 0 0 0.75 159.80828 247.75001] CT
0.149 GC
/Helvetica 33.333 F
GS
[1 0 0 1 0 0] CT
-9.5 34 moveto 
1 -1 scale
(0) t 
GR
GR
GS
[0.75 0 0 0.75 228.75 247.75001] CT
0.149 GC
/Helvetica 33.333 F
GS
[1 0 0 1 0 0] CT
-9.5 34 moveto 
1 -1 scale
(5) t 
GR
GR
GS
[0.75 0 0 0.75 297.69173 247.75001] CT
0.149 GC
/Helvetica 33.333 F
GS
[1 0 0 1 0 0] CT
-19 34 moveto 
1 -1 scale
(10) t 
GR
GR
GS
[0.75 0 0 0.75 366.63343 247.75001] CT
0.149 GC
/Helvetica 33.333 F
GS
[1 0 0 1 0 0] CT
-19 34 moveto 
1 -1 scale
(15) t 
GR
GR
GS
[0.75 0 0 0.75 228.75014 280.24999] CT
0.149 GC
/Helvetica 36.667 F
GS
[1 0 0 1 0 0] CT
-21.5 37 moveto 
1 -1 scale
(Xs) t 
GR
GR
GS
[0.75 0 0 0.75 0 0] CT
0.149 GC
2 setlinecap
1 LJ
0.667 LW
N
121.155 321 M
121.155 31 L
S
GR
GS
[0.75 0 0 0.75 0 0] CT
0.149 GC
2 setlinecap
1 LJ
0.667 LW
N
121.155 229.636 M
124.832 229.636 L
S
GR
GS
[0.75 0 0 0.75 0 0] CT
0.149 GC
2 setlinecap
1 LJ
0.667 LW
N
121.155 137.714 M
124.832 137.714 L
S
GR
GS
[0.75 0 0 0.75 0 0] CT
0.149 GC
2 setlinecap
1 LJ
0.667 LW
N
121.155 45.791 M
124.832 45.791 L
S
GR
GS
[0.75 0 0 0.75 83.86656 172.22688] CT
0.149 GC
/Helvetica 33.333 F
GS
[1 0 0 1 0 0] CT
-19 13 moveto 
1 -1 scale
(5) t 
GR
GR
GS
[0.75 0 0 0.75 83.86656 103.28515] CT
0.149 GC
/Helvetica 33.333 F
GS
[1 0 0 1 0 0] CT
-38 13 moveto 
1 -1 scale
(10) t 
GR
GR
GS
[0.75 0 0 0.75 83.86656 34.34344] CT
0.149 GC
/Helvetica 33.333 F
GS
[1 0 0 1 0 0] CT
-38 13 moveto 
1 -1 scale
(15) t 
GR
GR
GS
[0 -0.75 0.75 0 52.36657 131.9999] CT
0.149 GC
/Helvetica 36.667 F
GS
[1 0 0 1 0 0] CT
-21.5 -9 moveto 
1 -1 scale
(Ys) t 
GR
GR
GS
[0.75 0 0 0.75 214.96165 144.65018] CT
1 0 0 RC
N
0 -26.66 M
-23.088 13.33 L
23.088 13.33 L
cp
f
GR
GS
[0.75 0 0 0.75 214.96165 144.65018] CT
0 0 1 RC
10.0 ML
0.667 LW
N
0 -26.66 M
-23.088 13.33 L
23.088 13.33 L
cp
S
GR
GS
[0.75 0 0 0.75 201.17331 130.86184] CT
1 0 0 RC
N
/f-1996900118{0 -26.66 M
-23.088 13.33 L
23.088 13.33 L
cp}def
f-1996900118
f
GR
GS
[0.75 0 0 0.75 201.17331 130.86184] CT
0 0 1 RC
10.0 ML
0.667 LW
N
0 -26.66 M
-23.088 13.33 L
23.088 13.33 L
cp
S
GR
GS
[0.75 0 0 0.75 256.32669 144.65018] CT
1 0 0 RC
N
f-1996900118
f
GR
GS
[0.75 0 0 0.75 256.32669 144.65018] CT
0 0 1 RC
10.0 ML
0.667 LW
N
0 -26.66 M
-23.088 13.33 L
23.088 13.33 L
cp
S
GR
GS
[0.75 0 0 0.75 228.75 199.80357] CT
1 0 0 RC
N
f-1996900118
f
GR
GS
[0.75 0 0 0.75 228.75 199.80357] CT
0 0 1 RC
10.0 ML
0.667 LW
N
0 -26.66 M
-23.088 13.33 L
23.088 13.33 L
cp
S
GR
GS
[0.75 0 0 0.75 228.75 117.07349] CT
1 0 0 RC
N
f-1996900118
f
GR
GS
[0.75 0 0 0.75 228.75 117.07349] CT
0 0 1 RC
10.0 ML
0.667 LW
N
0 -26.66 M
-23.088 13.33 L
23.088 13.33 L
cp
S
GR
GS
[0.75 0 0 0.75 214.96165 172.22688] CT
1 0 0 RC
N
f-1996900118
f
GR
GS
[0.75 0 0 0.75 214.96165 172.22688] CT
0 0 1 RC
10.0 ML
0.667 LW
N
0 -26.66 M
-23.088 13.33 L
23.088 13.33 L
cp
S
GR
GS
[0.75 0 0 0.75 270.11504 199.80357] CT
1 0 0 RC
N
f-1996900118
f
GR
GS
[0.75 0 0 0.75 270.11504 199.80357] CT
0 0 1 RC
10.0 ML
0.667 LW
N
0 -26.66 M
-23.088 13.33 L
23.088 13.33 L
cp
S
GR
GS
[0.75 0 0 0.75 242.53835 130.86184] CT
1 0 0 RC
N
f-1996900118
f
GR
GS
[0.75 0 0 0.75 242.53835 130.86184] CT
0 0 1 RC
10.0 ML
0.667 LW
N
0 -26.66 M
-23.088 13.33 L
23.088 13.33 L
cp
S
GR
GS
[0.75 0 0 0.75 276.55907 99.13138] CT
1 0 0 RC
10.0 ML
0.667 LW
N
0 -5 M
0 5 L
-5 0 M
5 0 L
S
GR
GS
[0.75 0 0 0.75 276.72432 103.11154] CT
0 1 1 RC
10.0 ML
0.667 LW
N
0 -4 M
0 4 L
-4 0 M
4 0 L
-2.828 -2.828 M
2.828 2.828 L
-2.828 2.828 M
2.828 -2.828 L
S
GR
GS
[0.75 0 0 0.75 0 0] CT
0 1 1 RC
1 LJ
0.667 LW
N
367.595 136.403 M
367.537 136.326 L
367.625 136.367 L
S
GR
GS
[0.75 0 0 0.75 0 0] CT
0 1 1 RC
1 LJ
0.667 LW
N
368.966 137.482 M
367.537 136.326 L
S
GR
GS
[0.75 0 0 0.75 0 0] CT
0 1 1 RC
1 LJ
0.667 LW
N
356.232 145.808 M
354.562 142.38 L
353.796 138.644 L
353.984 134.835 L
355.113 131.192 L
357.112 127.945 L
359.856 125.296 L
363.173 123.414 L
366.853 122.415 L
370.667 122.363 L
374.373 123.261 L
377.74 125.053 L
380.555 127.625 L
382.642 130.817 L
383.87 134.428 L
384.161 138.23 L
383.498 141.986 L
381.921 145.458 L
379.531 148.43 L
376.476 150.713 L
372.95 152.165 L
369.173 152.695 L
365.383 152.268 L
361.819 150.913 L
358.703 148.714 L
356.232 145.808 L
S
GR
GS
[0.75 0 0 0.75 299.83855 91.55609] CT
0 1 1 RC
10.0 ML
0.667 LW
N
0 -4 M
0 4 L
-4 0 M
4 0 L
-2.828 -2.828 M
2.828 2.828 L
-2.828 2.828 M
2.828 -2.828 L
S
GR
GS
[0.75 0 0 0.75 0 0] CT
0 1 1 RC
1 LJ
0.667 LW
N
398.414 120.996 M
398.356 120.918 L
398.444 120.959 L
S
GR
GS
[0.75 0 0 0.75 0 0] CT
0 1 1 RC
1 LJ
0.667 LW
N
399.785 122.075 M
398.356 120.918 L
S
GR
GS
[0.75 0 0 0.75 0 0] CT
0 1 1 RC
1 LJ
0.667 LW
N
387.143 130.54 M
385.435 127.13 L
384.629 123.402 L
384.775 119.592 L
385.864 115.937 L
387.828 112.667 L
390.543 109.989 L
393.839 108.071 L
397.508 107.032 L
401.321 106.938 L
405.037 107.796 L
408.423 109.551 L
411.266 112.092 L
413.388 115.261 L
414.655 118.858 L
414.988 122.657 L
414.365 126.42 L
412.827 129.909 L
410.469 132.907 L
407.439 135.223 L
403.929 136.714 L
400.158 137.284 L
396.364 136.899 L
392.785 135.583 L
389.645 133.418 L
387.143 130.54 L
S
GR
GS
[0.75 0 0 0.75 276.72466 106.85274] CT
0 1 1 RC
10.0 ML
0.667 LW
N
0 -4 M
0 4 L
-4 0 M
4 0 L
-2.828 -2.828 M
2.828 2.828 L
-2.828 2.828 M
2.828 -2.828 L
S
GR
GS
[0.75 0 0 0.75 0 0] CT
0 1 1 RC
1 LJ
0.667 LW
N
367.596 141.391 M
367.537 141.314 L
367.625 141.355 L
S
GR
GS
[0.75 0 0 0.75 0 0] CT
0 1 1 RC
1 LJ
0.667 LW
N
368.966 142.47 M
367.537 141.314 L
S
GR
GS
[0.75 0 0 0.75 0 0] CT
0 1 1 RC
1 LJ
0.667 LW
N
356.139 150.651 M
354.507 147.204 L
353.784 143.46 L
354.015 139.653 L
355.186 136.023 L
357.222 132.799 L
359.996 130.182 L
363.334 128.337 L
367.025 127.38 L
370.839 127.372 L
374.535 128.312 L
377.881 130.142 L
380.667 132.746 L
382.718 135.962 L
383.904 139.586 L
384.152 143.392 L
383.446 147.139 L
381.83 150.594 L
379.406 153.538 L
376.326 155.786 L
372.783 157.198 L
369 157.684 L
365.216 157.215 L
361.667 155.819 L
358.576 153.584 L
356.139 150.651 L
S
GR
GS
[0.75 0 0 0.75 276.72512 129.96695] CT
0 1 1 RC
10.0 ML
0.667 LW
N
0 -4 M
0 4 L
-4 0 M
4 0 L
-2.828 -2.828 M
2.828 2.828 L
-2.828 2.828 M
2.828 -2.828 L
S
GR
GS
[0.75 0 0 0.75 0 0] CT
0 1 1 RC
1 LJ
0.667 LW
N
367.596 172.21 M
367.538 172.133 L
367.626 172.174 L
S
GR
GS
[0.75 0 0 0.75 0 0] CT
0 1 1 RC
1 LJ
0.667 LW
N
368.967 173.289 M
367.538 172.133 L
S
GR
GS
[0.75 0 0 0.75 0 0] CT
0 1 1 RC
1 LJ
0.667 LW
N
356.254 181.647 M
358.732 184.546 L
361.853 186.738 L
365.42 188.084 L
369.211 188.501 L
372.987 187.963 L
376.51 186.502 L
379.559 184.211 L
381.942 181.234 L
383.51 177.758 L
384.164 174 L
383.864 170.199 L
382.627 166.591 L
380.532 163.404 L
377.711 160.839 L
374.34 159.055 L
370.631 158.166 L
366.818 158.228 L
363.14 159.235 L
359.828 161.126 L
357.09 163.781 L
355.098 167.033 L
353.978 170.679 L
353.8 174.488 L
354.575 178.223 L
356.254 181.647 L
S
GR
GS
[0.75 0 0 0.75 276.42245 102.81016] CT
0 1 1 RC
10.0 ML
0.667 LW
N
0 -4 M
0 4 L
-4 0 M
4 0 L
-2.828 -2.828 M
2.828 2.828 L
-2.828 2.828 M
2.828 -2.828 L
S
GR
GS
[0.75 0 0 0.75 0 0] CT
0 1 1 RC
1 LJ
0.667 LW
N
367.193 136.001 M
367.134 135.924 L
367.222 135.965 L
S
GR
GS
[0.75 0 0 0.75 0 0] CT
0 1 1 RC
1 LJ
0.667 LW
N
368.563 137.08 M
367.134 135.924 L
S
GR
GS
[0.75 0 0 0.75 0 0] CT
0 1 1 RC
1 LJ
0.667 LW
N
355.789 145.344 M
354.135 141.908 L
353.388 138.168 L
353.594 134.36 L
354.741 130.723 L
356.756 127.485 L
359.514 124.85 L
362.839 122.984 L
366.525 122.003 L
370.338 121.97 L
374.04 122.886 L
377.398 124.694 L
380.201 127.28 L
382.272 130.482 L
383.483 134.099 L
383.755 137.903 L
383.073 141.655 L
381.48 145.12 L
379.074 148.08 L
376.009 150.348 L
372.475 151.783 L
368.696 152.294 L
364.908 151.849 L
361.35 150.476 L
358.246 148.261 L
355.789 145.344 L
S
GR
GS
[0.75 0 0 0.75 284.04936 131.81457] CT
0 1 1 RC
10.0 ML
0.667 LW
N
0 -4 M
0 4 L
-4 0 M
4 0 L
-2.828 -2.828 M
2.828 2.828 L
-2.828 2.828 M
2.828 -2.828 L
S
GR
GS
[0.75 0 0 0.75 0 0] CT
0 1 1 RC
1 LJ
0.667 LW
N
377.362 174.674 M
377.303 174.596 L
377.392 174.637 L
S
GR
GS
[0.75 0 0 0.75 0 0] CT
0 1 1 RC
1 LJ
0.667 LW
N
378.732 175.753 M
377.303 174.596 L
S
GR
GS
[0.75 0 0 0.75 0 0] CT
0 1 1 RC
1 LJ
0.667 LW
N
365.493 183.248 M
364.045 179.72 L
363.519 175.942 L
363.95 172.153 L
365.31 168.59 L
367.513 165.477 L
370.421 163.01 L
373.851 161.343 L
377.588 160.582 L
381.397 160.774 L
385.038 161.907 L
388.283 163.91 L
390.929 166.657 L
392.807 169.976 L
393.802 173.658 L
393.849 177.471 L
392.947 181.177 L
391.152 184.541 L
388.576 187.354 L
385.382 189.437 L
381.769 190.661 L
377.967 190.948 L
374.212 190.28 L
370.741 188.699 L
367.773 186.305 L
365.493 183.248 L
S
GR
GS
[0.75 0 0 0.75 282.17651 106.82339] CT
0 1 1 RC
10.0 ML
0.667 LW
N
0 -4 M
0 4 L
-4 0 M
4 0 L
-2.828 -2.828 M
2.828 2.828 L
-2.828 2.828 M
2.828 -2.828 L
S
GR
GS
[0.75 0 0 0.75 0 0] CT
0 1 1 RC
1 LJ
0.667 LW
N
374.865 141.352 M
374.806 141.275 L
374.895 141.316 L
S
GR
GS
[0.75 0 0 0.75 0 0] CT
0 1 1 RC
1 LJ
0.667 LW
N
376.235 142.431 M
374.806 141.275 L
S
GR
GS
[0.75 0 0 0.75 0 0] CT
0 1 1 RC
1 LJ
0.667 LW
N
362.842 149.649 M
361.468 146.091 L
361.022 142.304 L
361.531 138.524 L
362.965 134.99 L
365.232 131.924 L
368.191 129.518 L
371.655 127.923 L
375.407 127.24 L
379.211 127.511 L
382.828 128.72 L
386.031 130.79 L
388.618 133.592 L
390.428 136.949 L
391.345 140.651 L
391.313 144.464 L
390.334 148.15 L
388.469 151.477 L
385.835 154.235 L
382.598 156.251 L
378.961 157.399 L
375.153 157.607 L
371.413 156.861 L
367.976 155.208 L
365.058 152.753 L
362.842 149.649 L
S
GR
GS
[0.75 0 0 0.75 276.37331 102.76099] CT
0 1 1 RC
10.0 ML
0.667 LW
N
0 -4 M
0 4 L
-4 0 M
4 0 L
-2.828 -2.828 M
2.828 2.828 L
-2.828 2.828 M
2.828 -2.828 L
S
GR
GS
[0.75 0 0 0.75 0 0] CT
0 1 1 RC
1 LJ
0.667 LW
N
367.127 135.936 M
367.069 135.858 L
367.157 135.899 L
S
GR
GS
[0.75 0 0 0.75 0 0] CT
0 1 1 RC
1 LJ
0.667 LW
N
368.498 137.015 M
367.069 135.858 L
S
GR
GS
[0.75 0 0 0.75 0 0] CT
0 1 1 RC
1 LJ
0.667 LW
N
355.729 145.287 M
354.073 141.852 L
353.323 138.113 L
353.527 134.305 L
354.671 130.667 L
356.684 127.428 L
359.44 124.791 L
362.764 122.922 L
366.449 121.939 L
370.262 121.903 L
373.965 122.817 L
377.324 124.622 L
380.129 127.207 L
382.202 130.407 L
383.415 134.023 L
383.69 137.827 L
383.011 141.58 L
381.42 145.046 L
379.017 148.007 L
375.952 150.277 L
372.42 151.715 L
368.641 152.228 L
364.853 151.786 L
361.294 150.415 L
358.188 148.203 L
355.729 145.287 L
S
GR
GS
[0.75 0 0 0.75 274.50304 100.89011] CT
0 1 1 RC
10.0 ML
0.667 LW
N
0 -4 M
0 4 L
-4 0 M
4 0 L
-2.828 -2.828 M
2.828 2.828 L
-2.828 2.828 M
2.828 -2.828 L
S
GR
GS
[0.75 0 0 0.75 0 0] CT
0 1 1 RC
1 LJ
0.667 LW
N
364.633 133.441 M
364.575 133.364 L
364.663 133.405 L
S
GR
GS
[0.75 0 0 0.75 0 0] CT
0 1 1 RC
1 LJ
0.667 LW
N
366.004 134.52 M
364.575 133.364 L
S
GR
GS
[0.75 0 0 0.75 0 0] CT
0 1 1 RC
1 LJ
0.667 LW
N
353.361 142.983 M
355.863 145.861 L
359.002 148.027 L
362.581 149.344 L
366.375 149.73 L
370.146 149.16 L
373.656 147.67 L
376.686 145.354 L
379.045 142.357 L
380.584 138.867 L
381.207 135.105 L
380.875 131.306 L
379.608 127.709 L
377.487 124.539 L
374.644 121.997 L
371.258 120.242 L
367.542 119.384 L
363.73 119.477 L
360.06 120.515 L
356.764 122.433 L
354.048 125.111 L
352.084 128.38 L
350.994 132.034 L
350.848 135.845 L
351.653 139.573 L
353.361 142.983 L
S
GR
GS
[0.75 0 0 0.75 262.94456 89.33135] CT
0 1 1 RC
10.0 ML
0.667 LW
N
0 -4 M
0 4 L
-4 0 M
4 0 L
-2.828 -2.828 M
2.828 2.828 L
-2.828 2.828 M
2.828 -2.828 L
S
GR
GS
[0.75 0 0 0.75 0 0] CT
0 1 1 RC
1 LJ
0.667 LW
N
349.222 118.03 M
349.164 117.952 L
349.252 117.993 L
S
GR
GS
[0.75 0 0 0.75 0 0] CT
0 1 1 RC
1 LJ
0.667 LW
N
350.593 119.108 M
349.164 117.952 L
S
GR
GS
[0.75 0 0 0.75 0 0] CT
0 1 1 RC
1 LJ
0.667 LW
N
337.822 127.377 M
336.167 123.942 L
335.418 120.202 L
335.623 116.394 L
336.768 112.756 L
338.782 109.518 L
341.538 106.882 L
344.863 105.014 L
348.548 104.032 L
352.362 103.997 L
356.064 104.912 L
359.423 106.719 L
362.227 109.304 L
364.299 112.505 L
365.511 116.121 L
365.785 119.925 L
365.105 123.678 L
363.512 127.143 L
361.108 130.104 L
358.043 132.373 L
354.511 133.81 L
350.731 134.322 L
346.944 133.879 L
343.385 132.507 L
340.279 130.294 L
337.822 127.377 L
S
GR
GS
[0.75 0 0 0.75 276.36465 102.75189] CT
0 1 1 RC
10.0 ML
0.667 LW
N
0 -4 M
0 4 L
-4 0 M
4 0 L
-2.828 -2.828 M
2.828 2.828 L
-2.828 2.828 M
2.828 -2.828 L
S
GR
GS
[0.75 0 0 0.75 0 0] CT
0 1 1 RC
1 LJ
0.667 LW
N
367.116 135.924 M
367.057 135.846 L
367.145 135.887 L
S
GR
GS
[0.75 0 0 0.75 0 0] CT
0 1 1 RC
1 LJ
0.667 LW
N
368.486 137.003 M
367.057 135.846 L
S
GR
GS
[0.75 0 0 0.75 0 0] CT
0 1 1 RC
1 LJ
0.667 LW
N
355.767 145.351 M
358.243 148.252 L
361.363 150.446 L
364.93 151.795 L
368.72 152.215 L
372.496 151.679 L
376.02 150.22 L
379.07 147.932 L
381.456 144.956 L
383.026 141.481 L
383.683 137.724 L
383.385 133.922 L
382.151 130.314 L
380.058 127.125 L
377.238 124.558 L
373.869 122.772 L
370.161 121.881 L
366.347 121.939 L
362.668 122.945 L
359.355 124.833 L
356.616 127.486 L
354.622 130.737 L
353.499 134.382 L
353.319 138.191 L
354.091 141.926 L
355.767 145.351 L
S
GR
GS
[0.75 0 0 0.75 262.93684 89.32354] CT
0 1 1 RC
10.0 ML
0.667 LW
N
0 -4 M
0 4 L
-4 0 M
4 0 L
-2.828 -2.828 M
2.828 2.828 L
-2.828 2.828 M
2.828 -2.828 L
S
GR
GS
[0.75 0 0 0.75 0 0] CT
0 1 1 RC
1 LJ
0.667 LW
N
349.212 118.019 M
349.153 117.942 L
349.241 117.983 L
S
GR
GS
[0.75 0 0 0.75 0 0] CT
0 1 1 RC
1 LJ
0.667 LW
N
350.582 119.098 M
349.153 117.942 L
S
GR
GS
[0.75 0 0 0.75 0 0] CT
0 1 1 RC
1 LJ
0.667 LW
N
337.849 127.424 M
336.178 123.996 L
335.413 120.26 L
335.6 116.451 L
336.729 112.808 L
338.729 109.561 L
341.473 106.912 L
344.79 105.03 L
348.47 104.031 L
352.284 103.979 L
355.99 104.877 L
359.357 106.669 L
362.172 109.241 L
364.259 112.433 L
365.487 116.044 L
365.778 119.847 L
365.115 123.602 L
363.538 127.075 L
361.147 130.046 L
358.093 132.329 L
354.566 133.781 L
350.79 134.311 L
347 133.884 L
343.435 132.529 L
340.32 130.329 L
337.849 127.424 L
S
GR
GS
[0.75 0 0 0.75 277.08559 102.39091] CT
0 1 1 RC
10.0 ML
0.667 LW
N
0 -4 M
0 4 L
-4 0 M
4 0 L
-2.828 -2.828 M
2.828 2.828 L
-2.828 2.828 M
2.828 -2.828 L
S
GR
GS
[0.75 0 0 0.75 0 0] CT
0 1 1 RC
1 LJ
0.667 LW
N
368.077 135.442 M
368.018 135.365 L
368.107 135.406 L
S
GR
GS
[0.75 0 0 0.75 0 0] CT
0 1 1 RC
1 LJ
0.667 LW
N
369.447 136.521 M
368.018 135.365 L
S
GR
GS
[0.75 0 0 0.75 0 0] CT
0 1 1 RC
1 LJ
0.667 LW
N
356.725 144.865 M
355.05 141.439 L
354.279 137.704 L
354.462 133.895 L
355.586 130.251 L
357.58 127 L
360.321 124.348 L
363.635 122.461 L
367.314 121.457 L
371.128 121.4 L
374.835 122.293 L
378.204 124.08 L
381.023 126.648 L
383.115 129.837 L
384.348 133.446 L
384.644 137.249 L
383.986 141.005 L
382.414 144.48 L
380.028 147.454 L
376.976 149.742 L
373.452 151.199 L
369.676 151.734 L
365.885 151.313 L
362.319 149.962 L
359.2 147.767 L
356.725 144.865 L
S
GR
GS
[0.75 0 0 0.75 288.64153 79.27682] CT
0 1 1 RC
10.0 ML
0.667 LW
N
0 -4 M
0 4 L
-4 0 M
4 0 L
-2.828 -2.828 M
2.828 2.828 L
-2.828 2.828 M
2.828 -2.828 L
S
GR
GS
[0.75 0 0 0.75 0 0] CT
0 1 1 RC
1 LJ
0.667 LW
N
383.485 104.624 M
383.426 104.546 L
383.514 104.587 L
S
GR
GS
[0.75 0 0 0.75 0 0] CT
0 1 1 RC
1 LJ
0.667 LW
N
384.855 105.702 M
383.426 104.546 L
S
GR
GS
[0.75 0 0 0.75 0 0] CT
0 1 1 RC
1 LJ
0.667 LW
N
372.054 113.924 M
370.412 110.483 L
369.677 106.74 L
369.895 102.933 L
371.054 99.3 L
373.08 96.069 L
375.846 93.443 L
379.178 91.587 L
382.866 90.619 L
386.68 90.598 L
390.379 91.526 L
393.731 93.345 L
396.525 95.941 L
398.586 99.15 L
399.784 102.77 L
400.045 106.575 L
399.35 110.325 L
397.745 113.784 L
395.33 116.736 L
392.257 118.995 L
388.719 120.418 L
384.938 120.916 L
381.152 120.459 L
377.599 119.074 L
374.501 116.85 L
372.054 113.924 L
S
GR
GS
[0.75 0 0 0.75 300.19938 90.83507] CT
0 1 1 RC
10.0 ML
0.667 LW
N
0 -4 M
0 4 L
-4 0 M
4 0 L
-2.828 -2.828 M
2.828 2.828 L
-2.828 2.828 M
2.828 -2.828 L
S
GR
GS
[0.75 0 0 0.75 0 0] CT
0 1 1 RC
1 LJ
0.667 LW
N
398.895 120.035 M
398.837 119.957 L
398.925 119.998 L
S
GR
GS
[0.75 0 0 0.75 0 0] CT
0 1 1 RC
1 LJ
0.667 LW
N
400.266 121.113 M
398.837 119.957 L
S
GR
GS
[0.75 0 0 0.75 0 0] CT
0 1 1 RC
1 LJ
0.667 LW
N
387.718 129.716 M
385.972 126.326 L
385.125 122.607 L
385.229 118.795 L
386.278 115.128 L
388.206 111.838 L
390.892 109.13 L
394.167 107.175 L
397.824 106.096 L
401.636 105.961 L
405.361 106.778 L
408.766 108.495 L
411.637 111.006 L
413.793 114.151 L
415.1 117.734 L
415.474 121.529 L
414.893 125.298 L
413.393 128.805 L
411.068 131.827 L
408.064 134.177 L
404.57 135.706 L
400.806 136.318 L
397.008 135.975 L
393.414 134.697 L
390.251 132.567 L
387.718 129.716 L
S
GR
GS
[0.75 0 0 0.75 290.51177 75.53554] CT
0 1 1 RC
10.0 ML
0.667 LW
N
0 -4 M
0 4 L
-4 0 M
4 0 L
-2.828 -2.828 M
2.828 2.828 L
-2.828 2.828 M
2.828 -2.828 L
S
GR
GS
[0.75 0 0 0.75 0 0] CT
0 1 1 RC
1 LJ
0.667 LW
N
385.978 99.635 M
385.92 99.558 L
386.008 99.599 L
S
GR
GS
[0.75 0 0 0.75 0 0] CT
0 1 1 RC
1 LJ
0.667 LW
N
387.349 100.714 M
385.92 99.558 L
S
GR
GS
[0.75 0 0 0.75 0 0] CT
0 1 1 RC
1 LJ
0.667 LW
N
374.616 109.04 M
372.945 105.612 L
372.179 101.876 L
372.367 98.067 L
373.496 94.424 L
375.495 91.177 L
378.24 88.528 L
381.556 86.646 L
385.237 85.647 L
389.05 85.595 L
392.757 86.493 L
396.123 88.285 L
398.939 90.857 L
401.026 94.049 L
402.254 97.66 L
402.545 101.462 L
401.881 105.218 L
400.305 108.69 L
397.914 111.662 L
394.859 113.945 L
391.333 115.397 L
387.556 115.927 L
383.767 115.5 L
380.202 114.145 L
377.086 111.946 L
374.616 109.04 L
S
GR
GS
[0.75 0 0 0.75 302.0698 87.09309] CT
0 1 1 RC
10.0 ML
0.667 LW
N
0 -4 M
0 4 L
-4 0 M
4 0 L
-2.828 -2.828 M
2.828 2.828 L
-2.828 2.828 M
2.828 -2.828 L
S
GR
GS
[0.75 0 0 0.75 0 0] CT
0 1 1 RC
1 LJ
0.667 LW
N
401.389 115.045 M
401.331 114.968 L
401.419 115.009 L
S
GR
GS
[0.75 0 0 0.75 0 0] CT
0 1 1 RC
1 LJ
0.667 LW
N
402.76 116.124 M
401.331 114.968 L
S
GR
GS
[0.75 0 0 0.75 0 0] CT
0 1 1 RC
1 LJ
0.667 LW
N
390.24 124.769 M
388.484 121.384 L
387.624 117.668 L
387.716 113.856 L
388.752 110.186 L
390.669 106.889 L
393.346 104.172 L
396.614 102.207 L
400.268 101.115 L
404.079 100.967 L
407.807 101.771 L
411.218 103.478 L
414.097 105.978 L
416.264 109.116 L
417.582 112.695 L
417.97 116.489 L
417.401 120.26 L
415.912 123.771 L
413.597 126.802 L
410.602 129.162 L
407.113 130.702 L
403.351 131.327 L
399.551 130.996 L
395.954 129.731 L
392.784 127.611 L
390.24 124.769 L
S
GR
GS
[0.75 0 0 0.75 315.49763 100.52087] CT
0 1 1 RC
10.0 ML
0.667 LW
N
0 -4 M
0 4 L
-4 0 M
4 0 L
-2.828 -2.828 M
2.828 2.828 L
-2.828 2.828 M
2.828 -2.828 L
S
GR
GS
[0.75 0 0 0.75 0 0] CT
0 1 1 RC
1 LJ
0.667 LW
N
419.293 132.949 M
419.234 132.871 L
419.323 132.912 L
S
GR
GS
[0.75 0 0 0.75 0 0] CT
0 1 1 RC
1 LJ
0.667 LW
N
420.664 134.028 M
419.234 132.871 L
S
GR
GS
[0.75 0 0 0.75 0 0] CT
0 1 1 RC
1 LJ
0.667 LW
N
408.275 142.859 M
410.861 145.663 L
414.062 147.735 L
417.678 148.946 L
421.482 149.22 L
425.235 148.539 L
428.7 146.946 L
431.66 144.542 L
433.929 141.477 L
435.365 137.944 L
435.877 134.165 L
435.433 130.377 L
434.061 126.819 L
431.847 123.713 L
428.931 121.256 L
425.495 119.601 L
421.755 118.853 L
417.947 119.058 L
414.31 120.204 L
411.072 122.218 L
408.436 124.975 L
406.569 128.3 L
405.587 131.985 L
405.553 135.799 L
406.468 139.501 L
408.275 142.859 L
S
GR
GS
[0.75 0 0 0.75 303.9397 88.96386] CT
0 1 1 RC
10.0 ML
0.667 LW
N
0 -4 M
0 4 L
-4 0 M
4 0 L
-2.828 -2.828 M
2.828 2.828 L
-2.828 2.828 M
2.828 -2.828 L
S
GR
GS
[0.75 0 0 0.75 0 0] CT
0 1 1 RC
1 LJ
0.667 LW
N
403.882 117.54 M
403.824 117.462 L
403.912 117.503 L
S
GR
GS
[0.75 0 0 0.75 0 0] CT
0 1 1 RC
1 LJ
0.667 LW
N
405.253 118.618 M
403.824 117.462 L
S
GR
GS
[0.75 0 0 0.75 0 0] CT
0 1 1 RC
1 LJ
0.667 LW
N
392.534 126.967 M
390.858 123.542 L
390.085 119.807 L
390.266 115.998 L
391.389 112.353 L
393.382 109.102 L
396.122 106.449 L
399.435 104.561 L
403.114 103.555 L
406.927 103.497 L
410.635 104.388 L
414.005 106.174 L
416.825 108.741 L
418.918 111.929 L
420.152 115.538 L
420.45 119.34 L
419.793 123.097 L
418.223 126.572 L
415.837 129.547 L
412.787 131.836 L
409.263 133.295 L
405.487 133.831 L
401.697 133.411 L
398.13 132.062 L
395.01 129.868 L
392.534 126.967 L
S
GR
GS
[0.75 0 0 0.75 317.66933 102.69342] CT
0 1 1 RC
10.0 ML
0.667 LW
N
0 -4 M
0 4 L
-4 0 M
4 0 L
-2.828 -2.828 M
2.828 2.828 L
-2.828 2.828 M
2.828 -2.828 L
S
GR
GS
[0.75 0 0 0.75 0 0] CT
0 1 1 RC
1 LJ
0.667 LW
N
422.188 135.846 M
422.13 135.768 L
422.218 135.809 L
S
GR
GS
[0.75 0 0 0.75 0 0] CT
0 1 1 RC
1 LJ
0.667 LW
N
423.559 136.925 M
422.13 135.768 L
S
GR
GS
[0.75 0 0 0.75 0 0] CT
0 1 1 RC
1 LJ
0.667 LW
N
410.851 145.289 M
413.33 148.187 L
416.452 150.377 L
420.021 151.722 L
423.812 152.137 L
427.587 151.596 L
431.109 150.133 L
434.157 147.841 L
436.538 144.862 L
438.105 141.385 L
438.757 137.628 L
438.454 133.826 L
437.216 130.219 L
435.119 127.033 L
432.296 124.469 L
428.924 122.688 L
425.215 121.801 L
421.402 121.864 L
417.724 122.874 L
414.413 124.766 L
411.677 127.423 L
409.687 130.676 L
408.569 134.322 L
408.393 138.132 L
409.17 141.866 L
410.851 145.289 L
S
GR
GS
[0.75 0 0 0.75 315.79905 100.82276] CT
0 1 1 RC
10.0 ML
0.667 LW
N
0 -4 M
0 4 L
-4 0 M
4 0 L
-2.828 -2.828 M
2.828 2.828 L
-2.828 2.828 M
2.828 -2.828 L
S
GR
GS
[0.75 0 0 0.75 0 0] CT
0 1 1 RC
1 LJ
0.667 LW
N
419.695 133.351 M
419.636 133.274 L
419.724 133.315 L
S
GR
GS
[0.75 0 0 0.75 0 0] CT
0 1 1 RC
1 LJ
0.667 LW
N
421.065 134.43 M
419.636 133.274 L
S
GR
GS
[0.75 0 0 0.75 0 0] CT
0 1 1 RC
1 LJ
0.667 LW
N
408.627 143.192 M
406.839 139.823 L
405.945 136.116 L
406.001 132.302 L
407.003 128.623 L
408.889 125.308 L
411.54 122.567 L
414.79 120.571 L
418.434 119.445 L
422.243 119.262 L
425.978 120.031 L
429.405 121.705 L
432.307 124.179 L
434.504 127.297 L
435.855 130.863 L
436.278 134.653 L
435.745 138.43 L
434.289 141.954 L
432.002 145.007 L
429.028 147.394 L
425.554 148.967 L
421.798 149.627 L
417.996 149.332 L
414.386 148.1 L
411.197 146.01 L
408.627 143.192 L
S
GR
GS
[0.75 0 0 0.75 309.36367 92.70505] CT
0 1 1 RC
10.0 ML
0.667 LW
N
0 -4 M
0 4 L
-4 0 M
4 0 L
-2.828 -2.828 M
2.828 2.828 L
-2.828 2.828 M
2.828 -2.828 L
S
GR
GS
[0.75 0 0 0.75 0 0] CT
0 1 1 RC
1 LJ
0.667 LW
N
411.114 122.528 M
411.056 122.45 L
411.144 122.491 L
S
GR
GS
[0.75 0 0 0.75 0 0] CT
0 1 1 RC
1 LJ
0.667 LW
N
412.485 123.607 M
411.056 122.45 L
S
GR
GS
[0.75 0 0 0.75 0 0] CT
0 1 1 RC
1 LJ
0.667 LW
N
399.162 130.953 M
397.753 127.409 L
397.271 123.626 L
397.744 119.841 L
399.144 116.294 L
401.381 113.206 L
404.317 110.771 L
407.766 109.143 L
411.511 108.424 L
415.317 108.659 L
418.946 109.833 L
422.168 111.872 L
424.782 114.649 L
426.624 117.988 L
427.577 121.681 L
427.581 125.495 L
426.638 129.19 L
424.805 132.534 L
422.197 135.317 L
418.98 137.365 L
415.354 138.548 L
411.548 138.792 L
407.801 138.082 L
404.349 136.463 L
401.407 134.035 L
399.162 130.953 L
S
GR
GS
[0.75 0 0 0.75 276.55907 99.13138] CT
1 0 0 RC
10.0 ML
0.667 LW
N
0 -5 M
0 5 L
-5 0 M
5 0 L
S
GR
GS
[0.75 0 0 0.75 276.72432 103.11154] CT
0 1 0 RC
10.0 ML
0.667 LW
N
0 -4 M
0 4 L
-4 0 M
4 0 L
-2.828 -2.828 M
2.828 2.828 L
-2.828 2.828 M
2.828 -2.828 L
S
GR
GS
[0.75 0 0 0.75 0 0] CT
0 1 0 RC
1 LJ
0.667 LW
N
367.595 136.403 M
367.537 136.326 L
367.625 136.367 L
S
GR
GS
[0.75 0 0 0.75 0 0] CT
0 1 0 RC
1 LJ
0.667 LW
N
368.966 137.482 M
367.537 136.326 L
S
GR
GS
[0.75 0 0 0.75 0 0] CT
0 1 0 RC
1 LJ
0.667 LW
N
374.193 140.667 M
374.82 139.267 L
375.081 137.755 L
374.956 136.226 L
374.456 134.776 L
373.61 133.495 L
372.473 132.466 L
371.115 131.751 L
369.622 131.396 L
368.088 131.424 L
366.609 131.833 L
365.279 132.596 L
364.179 133.667 L
363.381 134.977 L
362.933 136.445 L
362.865 137.977 L
363.18 139.479 L
363.858 140.855 L
364.858 142.019 L
366.115 142.899 L
367.552 143.437 L
369.077 143.602 L
370.595 143.382 L
372.012 142.791 L
373.236 141.867 L
374.193 140.667 L
S
GR
GS
[0.75 0 0 0.75 263.65196 92.14328] CT
0 0 1 RC
10.0 ML
0.667 LW
N
0 -4 M
0 4 L
-4 0 M
4 0 L
-2.828 -2.828 M
2.828 2.828 L
-2.828 2.828 M
2.828 -2.828 L
S
GR
GS
[0.75 0 0 0.75 0 0] CT
0 0 1 RC
1 LJ
0.667 LW
N
350.165 121.779 M
350.107 121.701 L
350.195 121.742 L
S
GR
GS
[0.75 0 0 0.75 0 0] CT
0 0 1 RC
1 LJ
0.667 LW
N
351.536 122.858 M
350.107 121.701 L
S
GR
GS
[0.75 0 0 0.75 0 0] CT
0 0 1 RC
1 LJ
0.667 LW
N
348.362 128.091 M
347.16 127.137 L
346.233 125.915 L
345.639 124.5 L
345.416 122.982 L
345.578 121.456 L
346.113 120.018 L
346.99 118.759 L
348.152 117.757 L
349.527 117.076 L
351.028 116.758 L
352.561 116.823 L
354.029 117.268 L
355.341 118.063 L
356.414 119.16 L
357.18 120.489 L
357.592 121.967 L
357.623 123.501 L
357.272 124.995 L
356.56 126.354 L
355.533 127.494 L
354.254 128.342 L
352.805 128.846 L
351.276 128.973 L
349.763 128.716 L
348.362 128.091 L
S
GR
GS
[0.75 0 0 0.75 276.72466 106.85274] CT
0 0 1 RC
10.0 ML
0.667 LW
N
0 -4 M
0 4 L
-4 0 M
4 0 L
-2.828 -2.828 M
2.828 2.828 L
-2.828 2.828 M
2.828 -2.828 L
S
GR
GS
[0.75 0 0 0.75 0 0] CT
0 0 1 RC
1 LJ
0.667 LW
N
367.596 141.391 M
367.537 141.314 L
367.625 141.355 L
S
GR
GS
[0.75 0 0 0.75 0 0] CT
0 0 1 RC
1 LJ
0.667 LW
N
368.966 142.47 M
367.537 141.314 L
S
GR
GS
[0.75 0 0 0.75 0 0] CT
0 0 1 RC
1 LJ
0.667 LW
N
374.131 145.756 M
374.786 144.368 L
375.075 142.861 L
374.98 141.33 L
374.507 139.87 L
373.687 138.574 L
372.569 137.522 L
371.225 136.782 L
369.74 136.399 L
368.206 136.397 L
366.719 136.777 L
365.374 137.515 L
364.254 138.564 L
363.431 139.858 L
362.955 141.317 L
362.857 142.848 L
363.143 144.356 L
363.795 145.745 L
364.771 146.928 L
366.012 147.831 L
367.438 148.397 L
368.96 148.591 L
370.482 148.401 L
371.909 147.837 L
373.152 146.937 L
374.131 145.756 L
S
GR
GS
[0.75 0 0 0.75 276.42245 102.81016] CT
0 0 1 RC
10.0 ML
0.667 LW
N
0 -4 M
0 4 L
-4 0 M
4 0 L
-2.828 -2.828 M
2.828 2.828 L
-2.828 2.828 M
2.828 -2.828 L
S
GR
GS
[0.75 0 0 0.75 0 0] CT
0 0 1 RC
1 LJ
0.667 LW
N
367.193 136.001 M
367.134 135.924 L
367.222 135.965 L
S
GR
GS
[0.75 0 0 0.75 0 0] CT
0 0 1 RC
1 LJ
0.667 LW
N
368.563 137.08 M
367.134 135.924 L
S
GR
GS
[0.75 0 0 0.75 0 0] CT
0 0 1 RC
1 LJ
0.667 LW
N
365.517 142.389 M
364.292 141.465 L
363.336 140.265 L
362.708 138.865 L
362.448 137.353 L
362.573 135.823 L
363.074 134.373 L
363.919 133.093 L
365.057 132.063 L
366.415 131.349 L
367.908 130.995 L
369.442 131.023 L
370.92 131.431 L
372.251 132.195 L
373.35 133.266 L
374.148 134.576 L
374.596 136.044 L
374.664 137.576 L
374.349 139.078 L
373.67 140.454 L
372.671 141.618 L
371.413 142.497 L
369.977 143.036 L
368.451 143.2 L
366.933 142.98 L
365.517 142.389 L
S
GR
GS
[0.75 0 0 0.75 275.20077 103.69211] CT
0 0 1 RC
10.0 ML
0.667 LW
N
0 -4 M
0 4 L
-4 0 M
4 0 L
-2.828 -2.828 M
2.828 2.828 L
-2.828 2.828 M
2.828 -2.828 L
S
GR
GS
[0.75 0 0 0.75 0 0] CT
0 0 1 RC
1 LJ
0.667 LW
N
365.564 137.177 M
365.505 137.1 L
365.593 137.141 L
S
GR
GS
[0.75 0 0 0.75 0 0] CT
0 0 1 RC
1 LJ
0.667 LW
N
366.934 138.256 M
365.505 137.1 L
S
GR
GS
[0.75 0 0 0.75 0 0] CT
0 0 1 RC
1 LJ
0.667 LW
N
363.958 143.604 M
362.721 142.696 L
361.749 141.509 L
361.103 140.117 L
360.824 138.609 L
360.928 137.078 L
361.41 135.621 L
362.239 134.33 L
363.362 133.286 L
364.711 132.553 L
366.199 132.18 L
367.733 132.188 L
369.217 132.577 L
370.558 133.323 L
371.671 134.379 L
372.486 135.679 L
372.953 137.141 L
373.041 138.672 L
372.746 140.178 L
372.085 141.563 L
371.101 142.74 L
369.855 143.635 L
368.426 144.193 L
366.902 144.377 L
365.381 144.177 L
363.958 143.604 L
S
GR
GS
[0.75 0 0 0.75 276.37331 102.76099] CT
0 0 1 RC
10.0 ML
0.667 LW
N
0 -4 M
0 4 L
-4 0 M
4 0 L
-2.828 -2.828 M
2.828 2.828 L
-2.828 2.828 M
2.828 -2.828 L
S
GR
GS
[0.75 0 0 0.75 0 0] CT
0 0 1 RC
1 LJ
0.667 LW
N
367.127 135.936 M
367.069 135.858 L
367.157 135.899 L
S
GR
GS
[0.75 0 0 0.75 0 0] CT
0 0 1 RC
1 LJ
0.667 LW
N
368.498 137.015 M
367.069 135.858 L
S
GR
GS
[0.75 0 0 0.75 0 0] CT
0 0 1 RC
1 LJ
0.667 LW
N
373.811 140.054 M
374.4 138.637 L
374.618 137.119 L
374.451 135.593 L
373.911 134.157 L
373.03 132.901 L
371.865 131.903 L
370.488 131.226 L
368.986 130.913 L
367.453 130.984 L
365.986 131.433 L
364.677 132.233 L
363.608 133.333 L
362.846 134.665 L
362.439 136.145 L
362.413 137.679 L
362.769 139.171 L
363.486 140.528 L
364.517 141.664 L
365.798 142.508 L
367.249 143.007 L
368.778 143.129 L
370.29 142.867 L
371.689 142.238 L
372.888 141.28 L
373.811 140.054 L
S
GR
GS
[0.75 0 0 0.75 263.59538 92.08658] CT
0 0 1 RC
10.0 ML
0.667 LW
N
0 -4 M
0 4 L
-4 0 M
4 0 L
-2.828 -2.828 M
2.828 2.828 L
-2.828 2.828 M
2.828 -2.828 L
S
GR
GS
[0.75 0 0 0.75 0 0] CT
0 0 1 RC
1 LJ
0.667 LW
N
350.09 121.703 M
350.031 121.626 L
350.12 121.667 L
S
GR
GS
[0.75 0 0 0.75 0 0] CT
0 0 1 RC
1 LJ
0.667 LW
N
351.461 122.782 M
350.031 121.626 L
S
GR
GS
[0.75 0 0 0.75 0 0] CT
0 0 1 RC
1 LJ
0.667 LW
N
348.339 128.047 M
347.127 127.105 L
346.188 125.892 L
345.581 124.483 L
345.342 122.967 L
345.489 121.44 L
346.01 119.997 L
346.874 118.729 L
348.026 117.716 L
349.394 117.021 L
350.891 116.688 L
352.425 116.738 L
353.898 117.167 L
355.218 117.95 L
356.301 119.036 L
357.081 120.358 L
357.507 121.831 L
357.554 123.365 L
357.217 124.862 L
356.519 126.228 L
355.503 127.378 L
354.233 128.239 L
352.789 128.757 L
351.261 128.9 L
349.746 128.658 L
348.339 128.047 L
S
GR
GS
[0.75 0 0 0.75 274.50304 100.89011] CT
0 0 1 RC
10.0 ML
0.667 LW
N
0 -4 M
0 4 L
-4 0 M
4 0 L
-2.828 -2.828 M
2.828 2.828 L
-2.828 2.828 M
2.828 -2.828 L
S
GR
GS
[0.75 0 0 0.75 0 0] CT
0 0 1 RC
1 LJ
0.667 LW
N
364.633 133.441 M
364.575 133.364 L
364.663 133.405 L
S
GR
GS
[0.75 0 0 0.75 0 0] CT
0 0 1 RC
1 LJ
0.667 LW
N
366.004 134.52 M
364.575 133.364 L
S
GR
GS
[0.75 0 0 0.75 0 0] CT
0 0 1 RC
1 LJ
0.667 LW
N
363.254 139.988 M
361.98 139.133 L
360.96 137.987 L
360.256 136.624 L
359.913 135.128 L
359.954 133.594 L
360.374 132.119 L
361.148 130.794 L
362.227 129.703 L
363.544 128.915 L
365.015 128.48 L
366.548 128.423 L
368.047 128.75 L
369.418 129.44 L
370.574 130.448 L
371.443 131.713 L
371.971 133.154 L
372.123 134.68 L
371.891 136.197 L
371.289 137.608 L
370.355 138.826 L
369.147 139.772 L
367.742 140.389 L
366.228 140.637 L
364.7 140.501 L
363.254 139.988 L
S
GR
GS
[0.75 0 0 0.75 272.97826 101.46973] CT
0 0 1 RC
10.0 ML
0.667 LW
N
0 -4 M
0 4 L
-4 0 M
4 0 L
-2.828 -2.828 M
2.828 2.828 L
-2.828 2.828 M
2.828 -2.828 L
S
GR
GS
[0.75 0 0 0.75 0 0] CT
0 0 1 RC
1 LJ
0.667 LW
N
362.6 134.214 M
362.542 134.136 L
362.63 134.177 L
S
GR
GS
[0.75 0 0 0.75 0 0] CT
0 0 1 RC
1 LJ
0.667 LW
N
363.971 135.293 M
362.542 134.136 L
S
GR
GS
[0.75 0 0 0.75 0 0] CT
0 0 1 RC
1 LJ
0.667 LW
N
369.383 138.153 M
369.924 136.717 L
370.091 135.192 L
369.874 133.673 L
369.285 132.256 L
368.363 131.03 L
367.165 130.071 L
365.766 129.441 L
364.254 129.179 L
362.725 129.3 L
361.274 129.799 L
359.992 130.642 L
358.96 131.778 L
358.243 133.134 L
357.887 134.626 L
357.912 136.161 L
358.318 137.64 L
359.079 138.972 L
360.148 140.073 L
361.457 140.874 L
362.924 141.324 L
364.456 141.395 L
365.959 141.082 L
367.336 140.406 L
368.502 139.409 L
369.383 138.153 L
S
GR
GS
[0.75 0 0 0.75 249.86474 78.35617] CT
0 0 1 RC
10.0 ML
0.667 LW
N
0 -4 M
0 4 L
-4 0 M
4 0 L
-2.828 -2.828 M
2.828 2.828 L
-2.828 2.828 M
2.828 -2.828 L
S
GR
GS
[0.75 0 0 0.75 0 0] CT
0 0 1 RC
1 LJ
0.667 LW
N
331.782 103.396 M
331.724 103.318 L
331.812 103.359 L
S
GR
GS
[0.75 0 0 0.75 0 0] CT
0 0 1 RC
1 LJ
0.667 LW
N
333.153 104.475 M
331.724 103.318 L
S
GR
GS
[0.75 0 0 0.75 0 0] CT
0 0 1 RC
1 LJ
0.667 LW
N
338.408 107.614 M
339.023 106.208 L
339.27 104.694 L
339.132 103.166 L
338.619 101.72 L
337.762 100.447 L
336.616 99.428 L
335.252 98.725 L
333.756 98.384 L
332.222 98.425 L
330.747 98.847 L
329.423 99.622 L
328.333 100.702 L
327.546 102.019 L
327.112 103.491 L
327.057 105.024 L
327.385 106.523 L
328.075 107.893 L
329.085 109.048 L
330.35 109.916 L
331.792 110.442 L
333.318 110.594 L
334.835 110.36 L
336.246 109.757 L
337.462 108.822 L
338.408 107.614 L
S
GR
GS
[0.75 0 0 0.75 262.94456 89.33135] CT
0 0 1 RC
10.0 ML
0.667 LW
N
0 -4 M
0 4 L
-4 0 M
4 0 L
-2.828 -2.828 M
2.828 2.828 L
-2.828 2.828 M
2.828 -2.828 L
S
GR
GS
[0.75 0 0 0.75 0 0] CT
0 0 1 RC
1 LJ
0.667 LW
N
349.222 118.03 M
349.164 117.952 L
349.252 117.993 L
S
GR
GS
[0.75 0 0 0.75 0 0] CT
0 0 1 RC
1 LJ
0.667 LW
N
350.593 119.108 M
349.164 117.952 L
S
GR
GS
[0.75 0 0 0.75 0 0] CT
0 0 1 RC
1 LJ
0.667 LW
N
347.48 124.379 M
346.267 123.439 L
345.326 122.227 L
344.716 120.82 L
344.475 119.304 L
344.618 117.777 L
345.137 116.333 L
345.999 115.063 L
347.149 114.048 L
348.516 113.351 L
350.013 113.015 L
351.547 113.062 L
353.02 113.49 L
354.341 114.27 L
355.427 115.354 L
356.209 116.674 L
356.638 118.147 L
356.687 119.681 L
356.353 121.179 L
355.657 122.546 L
354.643 123.697 L
353.375 124.561 L
351.931 125.081 L
350.404 125.226 L
348.888 124.987 L
347.48 124.379 L
S
GR
GS
[0.75 0 0 0.75 276.36465 102.75189] CT
0 0 1 RC
10.0 ML
0.667 LW
N
0 -4 M
0 4 L
-4 0 M
4 0 L
-2.828 -2.828 M
2.828 2.828 L
-2.828 2.828 M
2.828 -2.828 L
S
GR
GS
[0.75 0 0 0.75 0 0] CT
0 0 1 RC
1 LJ
0.667 LW
N
367.116 135.924 M
367.057 135.846 L
367.145 135.887 L
S
GR
GS
[0.75 0 0 0.75 0 0] CT
0 0 1 RC
1 LJ
0.667 LW
N
368.486 137.003 M
367.057 135.846 L
S
GR
GS
[0.75 0 0 0.75 0 0] CT
0 0 1 RC
1 LJ
0.667 LW
N
373.79 140.057 M
374.383 138.642 L
374.606 137.124 L
374.444 135.598 L
373.908 134.161 L
373.031 132.902 L
371.868 131.901 L
370.493 131.22 L
368.992 130.903 L
367.459 130.968 L
365.991 131.413 L
364.679 132.21 L
363.607 133.307 L
362.841 134.637 L
362.43 136.115 L
362.4 137.649 L
362.752 139.142 L
363.464 140.501 L
364.492 141.64 L
365.771 142.488 L
367.22 142.991 L
368.749 143.118 L
370.262 142.86 L
371.663 142.235 L
372.864 141.28 L
373.79 140.057 L
S
GR
GS
[0.75 0 0 0.75 262.93684 89.32354] CT
0 0 1 RC
10.0 ML
0.667 LW
N
0 -4 M
0 4 L
-4 0 M
4 0 L
-2.828 -2.828 M
2.828 2.828 L
-2.828 2.828 M
2.828 -2.828 L
S
GR
GS
[0.75 0 0 0.75 0 0] CT
0 0 1 RC
1 LJ
0.667 LW
N
349.212 118.019 M
349.153 117.942 L
349.241 117.983 L
S
GR
GS
[0.75 0 0 0.75 0 0] CT
0 0 1 RC
1 LJ
0.667 LW
N
350.582 119.098 M
349.153 117.942 L
S
GR
GS
[0.75 0 0 0.75 0 0] CT
0 0 1 RC
1 LJ
0.667 LW
N
355.809 122.283 M
356.437 120.883 L
356.697 119.371 L
356.573 117.842 L
356.073 116.392 L
355.227 115.111 L
354.09 114.082 L
352.732 113.367 L
351.239 113.012 L
349.705 113.04 L
348.226 113.449 L
346.895 114.212 L
345.796 115.283 L
344.998 116.593 L
344.55 118.06 L
344.482 119.593 L
344.796 121.095 L
345.475 122.471 L
346.474 123.635 L
347.732 124.514 L
349.168 125.053 L
350.694 125.218 L
352.212 124.998 L
353.628 124.407 L
354.853 123.483 L
355.809 122.283 L
S
GR
GS
[0.75 0 0 0.75 277.08559 102.39091] CT
0 0 1 RC
10.0 ML
0.667 LW
N
0 -4 M
0 4 L
-4 0 M
4 0 L
-2.828 -2.828 M
2.828 2.828 L
-2.828 2.828 M
2.828 -2.828 L
S
GR
GS
[0.75 0 0 0.75 0 0] CT
0 0 1 RC
1 LJ
0.667 LW
N
368.077 135.442 M
368.018 135.365 L
368.107 135.406 L
S
GR
GS
[0.75 0 0 0.75 0 0] CT
0 0 1 RC
1 LJ
0.667 LW
N
369.447 136.521 M
368.018 135.365 L
S
GR
GS
[0.75 0 0 0.75 0 0] CT
0 0 1 RC
1 LJ
0.667 LW
N
374.725 139.621 M
375.331 138.211 L
375.566 136.695 L
375.417 135.168 L
374.893 133.726 L
374.026 132.459 L
372.872 131.448 L
371.503 130.756 L
370.005 130.426 L
368.471 130.479 L
366.999 130.911 L
365.681 131.696 L
364.599 132.785 L
363.823 134.108 L
363.399 135.582 L
363.355 137.116 L
363.695 138.612 L
364.396 139.977 L
365.414 141.125 L
366.685 141.983 L
368.131 142.499 L
369.659 142.638 L
371.173 142.394 L
372.579 141.78 L
373.789 140.836 L
374.725 139.621 L
S
GR
GS
[0.75 0 0 0.75 0 0] CT
1 GC
N
/f159554590{478 198 M
478 42 L
285 42 L
285 198 L
cp}def
f159554590
f
GR
GS
[0.75 0 0 0.75 249 47.25] CT
/Helvetica-Bold 30 F
GS
[1 0 0 1 0 0] CT
0 12 moveto 
1 -1 scale
(LandMark) t 
GR
GR
GS
[0.75 0 0 0.75 231.75 47.25] CT
1 0 0 RC
N
/f-1214359511{0 -19.995 M
-17.316 9.998 L
17.316 9.998 L
cp}def
f-1214359511
f
GR
GS
[0.75 0 0 0.75 231.75 47.25] CT
0 0 1 RC
10.0 ML
0.667 LW
N
0 -19.995 M
-17.316 9.998 L
17.316 9.998 L
cp
S
GR
GS
[0.75 0 0 0.75 249 92.25] CT
/Helvetica-Bold 30 F
GS
[1 0 0 1 0 0] CT
0 0 moveto 
1 -1 scale
(b) t 
GR
GR
GS
[0.75 0 0 0.75 263.25 81] CT
/Helvetica-Bold 24 F
GS
[1 0 0 1 0 0] CT
0 0 moveto 
1 -1 scale
(-) t 
GR
GR
GS
[0.75 0 0 0.75 269.25 92.25] CT
/Helvetica-Bold 30 F
GS
[1 0 0 1 0 0] CT
0 0 moveto 
1 -1 scale
([X) t 
GR
GR
GS
[0.75 0 0 0.75 291.75 103.5] CT
/Helvetica-Bold 24 F
GS
[1 0 0 1 0 0] CT
0 0 moveto 
1 -1 scale
(k) t 
GR
GR
GS
[0.75 0 0 0.75 302.25 92.25] CT
/Helvetica-Bold 30 F
GS
[1 0 0 1 0 0] CT
0 0 moveto 
1 -1 scale
(]) t 
GR
GR
GS
[0.75 0 0 0.75 0 0] CT
0 1 1 RC
1 LJ
0.667 LW
N
289 113 M
329 113 L
S
GR
GS
[0.75 0 0 0.75 0 0] CT
0 1 1 RC
1 LJ
0.667 LW
N
317 117.8 M
329 113 L
317 108.2 L
S
GR
GS
[0.75 0 0 0.75 249 131.25] CT
/Helvetica-Bold 30 F
GS
[1 0 0 1 0 0] CT
0 0 moveto 
1 -1 scale
(b[X) t 
GR
GR
GS
[0.75 0 0 0.75 285.75 142.5] CT
/Helvetica-Bold 24 F
GS
[1 0 0 1 0 0] CT
0 0 moveto 
1 -1 scale
(k) t 
GR
GR
GS
[0.75 0 0 0.75 296.25 131.25] CT
/Helvetica-Bold 30 F
GS
[1 0 0 1 0 0] CT
0 0 moveto 
1 -1 scale
(]) t 
GR
GR
GS
[0.75 0 0 0.75 0 0] CT
0 0 1 RC
1 LJ
0.667 LW
N
289 170 M
329 170 L
S
GR
GS
[0.75 0 0 0.75 0 0] CT
0.149 GC
10.0 ML
0.667 LW
N
285 198 M
285 42 L
478 42 L
478 198 L
cp
S
GR
%%Trailer
%%Pages: 1
%%EOF
