%!PS-Adobe-3.0 EPSF-3.0
%%Creator: (MATLAB, The Mathworks, Inc. Version 9.10.0.1649659 \(R2021a\) Update 1. Operating System: Windows 10)
%%Title: (C:/Users/ohads/OneDrive - NVIDIA Corporation/Documents/personal/MSc/research_new/2022 ICRA/Figures/TestCase_2/eps/WeightCompresent.eps)
%%CreationDate: 2021-07-21T14:19:54
%%Pages: (atend)
%%BoundingBox:     0     0  1440   722
%%LanguageLevel: 3
%%EndComments
%%BeginProlog
%%BeginResource: procset (Apache XML Graphics Std ProcSet) 1.2 0
%%Version: 1.2 0
%%Copyright: (Copyright 2001-2003,2010 The Apache Software Foundation. License terms: http://www.apache.org/licenses/LICENSE-2.0)
/bd{bind def}bind def
/ld{load def}bd
/GR/grestore ld
/GS/gsave ld
/RM/rmoveto ld
/C/curveto ld
/t/show ld
/L/lineto ld
/ML/setmiterlimit ld
/CT/concat ld
/f/fill ld
/N/newpath ld
/S/stroke ld
/CC/setcmykcolor ld
/A/ashow ld
/cp/closepath ld
/RC/setrgbcolor ld
/LJ/setlinejoin ld
/GC/setgray ld
/LW/setlinewidth ld
/M/moveto ld
/re {4 2 roll M
1 index 0 rlineto
0 exch rlineto
neg 0 rlineto
cp } bd
/_ctm matrix def
/_tm matrix def
/BT { _ctm currentmatrix pop matrix _tm copy pop 0 0 moveto } bd
/ET { _ctm setmatrix } bd
/iTm { _ctm setmatrix _tm concat } bd
/Tm { _tm astore pop iTm 0 0 moveto } bd
/ux 0.0 def
/uy 0.0 def
/F {
  /Tp exch def
  /Tf exch def
  Tf findfont Tp scalefont setfont
  /cf Tf def  /cs Tp def
} bd
/ULS {currentpoint /uy exch def /ux exch def} bd
/ULE {
  /Tcx currentpoint pop def
  gsave
  newpath
  cf findfont cs scalefont dup
  /FontMatrix get 0 get /Ts exch def /FontInfo get dup
  /UnderlinePosition get Ts mul /To exch def
  /UnderlineThickness get Ts mul /Tt exch def
  ux uy To add moveto  Tcx uy To add lineto
  Tt setlinewidth stroke
  grestore
} bd
/OLE {
  /Tcx currentpoint pop def
  gsave
  newpath
  cf findfont cs scalefont dup
  /FontMatrix get 0 get /Ts exch def /FontInfo get dup
  /UnderlinePosition get Ts mul /To exch def
  /UnderlineThickness get Ts mul /Tt exch def
  ux uy To add cs add moveto Tcx uy To add cs add lineto
  Tt setlinewidth stroke
  grestore
} bd
/SOE {
  /Tcx currentpoint pop def
  gsave
  newpath
  cf findfont cs scalefont dup
  /FontMatrix get 0 get /Ts exch def /FontInfo get dup
  /UnderlinePosition get Ts mul /To exch def
  /UnderlineThickness get Ts mul /Tt exch def
  ux uy To add cs 10 mul 26 idiv add moveto Tcx uy To add cs 10 mul 26 idiv add lineto
  Tt setlinewidth stroke
  grestore
} bd
/QT {
/Y22 exch store
/X22 exch store
/Y21 exch store
/X21 exch store
currentpoint
/Y21 load 2 mul add 3 div exch
/X21 load 2 mul add 3 div exch
/X21 load 2 mul /X22 load add 3 div
/Y21 load 2 mul /Y22 load add 3 div
/X22 load /Y22 load curveto
} bd
/SSPD {
dup length /d exch dict def
{
/v exch def
/k exch def
currentpagedevice k known {
/cpdv currentpagedevice k get def
v cpdv ne {
/upd false def
/nullv v type /nulltype eq def
/nullcpdv cpdv type /nulltype eq def
nullv nullcpdv or
{
/upd true def
} {
/sametype v type cpdv type eq def
sametype {
v type /arraytype eq {
/vlen v length def
/cpdvlen cpdv length def
vlen cpdvlen eq {
0 1 vlen 1 sub {
/i exch def
/obj v i get def
/cpdobj cpdv i get def
obj cpdobj ne {
/upd true def
exit
} if
} for
} {
/upd true def
} ifelse
} {
v type /dicttype eq {
v {
/dv exch def
/dk exch def
/cpddv cpdv dk get def
dv cpddv ne {
/upd true def
exit
} if
} forall
} {
/upd true def
} ifelse
} ifelse
} if
} ifelse
upd true eq {
d k v put
} if
} if
} if
} forall
d length 0 gt {
d setpagedevice
} if
} bd
/RE { % /NewFontName [NewEncodingArray] /FontName RE -
  findfont dup length dict begin
  {
    1 index /FID ne
    {def} {pop pop} ifelse
  } forall
  /Encoding exch def
  /FontName 1 index def
  currentdict definefont pop
  end
} bind def
%%EndResource
%%BeginResource: procset (Apache XML Graphics EPS ProcSet) 1.0 0
%%Version: 1.0 0
%%Copyright: (Copyright 2002-2003 The Apache Software Foundation. License terms: http://www.apache.org/licenses/LICENSE-2.0)
/BeginEPSF { %def
/b4_Inc_state save def         % Save state for cleanup
/dict_count countdictstack def % Count objects on dict stack
/op_count count 1 sub def      % Count objects on operand stack
userdict begin                 % Push userdict on dict stack
/showpage { } def              % Redefine showpage, { } = null proc
0 setgray 0 setlinecap         % Prepare graphics state
1 setlinewidth 0 setlinejoin
10 setmiterlimit [ ] 0 setdash newpath
/languagelevel where           % If level not equal to 1 then
{pop languagelevel             % set strokeadjust and
1 ne                           % overprint to their defaults.
{false setstrokeadjust false setoverprint
} if
} if
} bd
/EndEPSF { %def
count op_count sub {pop} repeat            % Clean up stacks
countdictstack dict_count sub {end} repeat
b4_Inc_state restore
} bd
%%EndResource
%FOPBeginFontDict
%%IncludeResource: font Courier-Oblique
%%IncludeResource: font Courier-BoldOblique
%%IncludeResource: font Courier-Bold
%%IncludeResource: font ZapfDingbats
%%IncludeResource: font Symbol
%%IncludeResource: font Helvetica
%%IncludeResource: font Helvetica-Oblique
%%IncludeResource: font Helvetica-Bold
%%IncludeResource: font Helvetica-BoldOblique
%%IncludeResource: font Times-Roman
%%IncludeResource: font Times-Italic
%%IncludeResource: font Times-Bold
%%IncludeResource: font Times-BoldItalic
%%IncludeResource: font Courier
%FOPEndFontDict
%%BeginResource: encoding WinAnsiEncoding
/WinAnsiEncoding [
/.notdef /.notdef /.notdef /.notdef /.notdef
/.notdef /.notdef /.notdef /.notdef /.notdef
/.notdef /.notdef /.notdef /.notdef /.notdef
/.notdef /.notdef /.notdef /.notdef /.notdef
/.notdef /.notdef /.notdef /.notdef /.notdef
/.notdef /.notdef /.notdef /.notdef /.notdef
/.notdef /.notdef /space /exclam /quotedbl
/numbersign /dollar /percent /ampersand /quotesingle
/parenleft /parenright /asterisk /plus /comma
/hyphen /period /slash /zero /one
/two /three /four /five /six
/seven /eight /nine /colon /semicolon
/less /equal /greater /question /at
/A /B /C /D /E
/F /G /H /I /J
/K /L /M /N /O
/P /Q /R /S /T
/U /V /W /X /Y
/Z /bracketleft /backslash /bracketright /asciicircum
/underscore /quoteleft /a /b /c
/d /e /f /g /h
/i /j /k /l /m
/n /o /p /q /r
/s /t /u /v /w
/x /y /z /braceleft /bar
/braceright /asciitilde /bullet /Euro /bullet
/quotesinglbase /florin /quotedblbase /ellipsis /dagger
/daggerdbl /circumflex /perthousand /Scaron /guilsinglleft
/OE /bullet /Zcaron /bullet /bullet
/quoteleft /quoteright /quotedblleft /quotedblright /bullet
/endash /emdash /asciitilde /trademark /scaron
/guilsinglright /oe /bullet /zcaron /Ydieresis
/space /exclamdown /cent /sterling /currency
/yen /brokenbar /section /dieresis /copyright
/ordfeminine /guillemotleft /logicalnot /sfthyphen /registered
/macron /degree /plusminus /twosuperior /threesuperior
/acute /mu /paragraph /middot /cedilla
/onesuperior /ordmasculine /guillemotright /onequarter /onehalf
/threequarters /questiondown /Agrave /Aacute /Acircumflex
/Atilde /Adieresis /Aring /AE /Ccedilla
/Egrave /Eacute /Ecircumflex /Edieresis /Igrave
/Iacute /Icircumflex /Idieresis /Eth /Ntilde
/Ograve /Oacute /Ocircumflex /Otilde /Odieresis
/multiply /Oslash /Ugrave /Uacute /Ucircumflex
/Udieresis /Yacute /Thorn /germandbls /agrave
/aacute /acircumflex /atilde /adieresis /aring
/ae /ccedilla /egrave /eacute /ecircumflex
/edieresis /igrave /iacute /icircumflex /idieresis
/eth /ntilde /ograve /oacute /ocircumflex
/otilde /odieresis /divide /oslash /ugrave
/uacute /ucircumflex /udieresis /yacute /thorn
/ydieresis
] def
%%EndResource
%FOPBeginFontReencode
/Courier-Oblique findfont
dup length dict begin
  {1 index /FID ne {def} {pop pop} ifelse} forall
  /Encoding WinAnsiEncoding def
  currentdict
end
/Courier-Oblique exch definefont pop
/Courier-BoldOblique findfont
dup length dict begin
  {1 index /FID ne {def} {pop pop} ifelse} forall
  /Encoding WinAnsiEncoding def
  currentdict
end
/Courier-BoldOblique exch definefont pop
/Courier-Bold findfont
dup length dict begin
  {1 index /FID ne {def} {pop pop} ifelse} forall
  /Encoding WinAnsiEncoding def
  currentdict
end
/Courier-Bold exch definefont pop
/Helvetica findfont
dup length dict begin
  {1 index /FID ne {def} {pop pop} ifelse} forall
  /Encoding WinAnsiEncoding def
  currentdict
end
/Helvetica exch definefont pop
/Helvetica-Oblique findfont
dup length dict begin
  {1 index /FID ne {def} {pop pop} ifelse} forall
  /Encoding WinAnsiEncoding def
  currentdict
end
/Helvetica-Oblique exch definefont pop
/Helvetica-Bold findfont
dup length dict begin
  {1 index /FID ne {def} {pop pop} ifelse} forall
  /Encoding WinAnsiEncoding def
  currentdict
end
/Helvetica-Bold exch definefont pop
/Helvetica-BoldOblique findfont
dup length dict begin
  {1 index /FID ne {def} {pop pop} ifelse} forall
  /Encoding WinAnsiEncoding def
  currentdict
end
/Helvetica-BoldOblique exch definefont pop
/Times-Roman findfont
dup length dict begin
  {1 index /FID ne {def} {pop pop} ifelse} forall
  /Encoding WinAnsiEncoding def
  currentdict
end
/Times-Roman exch definefont pop
/Times-Italic findfont
dup length dict begin
  {1 index /FID ne {def} {pop pop} ifelse} forall
  /Encoding WinAnsiEncoding def
  currentdict
end
/Times-Italic exch definefont pop
/Times-Bold findfont
dup length dict begin
  {1 index /FID ne {def} {pop pop} ifelse} forall
  /Encoding WinAnsiEncoding def
  currentdict
end
/Times-Bold exch definefont pop
/Times-BoldItalic findfont
dup length dict begin
  {1 index /FID ne {def} {pop pop} ifelse} forall
  /Encoding WinAnsiEncoding def
  currentdict
end
/Times-BoldItalic exch definefont pop
/Courier findfont
dup length dict begin
  {1 index /FID ne {def} {pop pop} ifelse} forall
  /Encoding WinAnsiEncoding def
  currentdict
end
/Courier exch definefont pop
%FOPEndFontReencode
%%EndProlog
%%Page: 1 1
%%PageBoundingBox: 0 0 1440 722
%%BeginPageSetup
[1 0 0 -1 0 722] CT
%%EndPageSetup
GS
[0.75 0 0 0.75 0 -0.25] CT
1 GC
N
0 0 1920 963 re
f
GR
GS
[0.75 0 0 0.75 0 -0.25] CT
1 GC
N
0 0 1920 963 re
f
GR
GS
[0.75 0 0 0.75 0 -0.25] CT
1 GC
N
250 857 M
1738 857 L
1738 72 L
250 72 L
cp
f
GR
GS
[0.75 0 0 0.75 0 -0.25] CT
0.149 GC
2 setlinecap
1 LJ
0.667 LW
N
250 857 M
1738 857 L
S
GR
GS
[0.75 0 0 0.75 0 -0.25] CT
0.149 GC
2 setlinecap
1 LJ
0.667 LW
N
622 857 M
622 842.12 L
S
GR
GS
[0.75 0 0 0.75 0 -0.25] CT
0.149 GC
2 setlinecap
1 LJ
0.667 LW
N
1366 857 M
1366 842.12 L
S
GR
GS
[0.75 0 0 0.75 423 674.75] CT
0.149 GC
/Helvetica 33.333 F
GS
[1 0 0 1 0 0] CT
0 0 moveto 
1 -1 scale
(w) t 
GR
GR
GS
[0.75 0 0 0.75 441.75 686.75] CT
0.149 GC
/Helvetica 26.667 F
GS
[1 0 0 1 0 0] CT
0 0 moveto 
1 -1 scale
(k-9) t 
GR
GR
GS
[0.75 0 0 0.75 470.25 686.75] CT
0.149 GC
N
3.219 6.266 M
3.219 -19.766 L
3.219 -19.969 3.375 -20.109 QT
3.531 -20.25 3.75 -20.25 QT
3.953 -20.25 4.125 -20.109 QT
4.297 -19.969 4.297 -19.766 QT
4.297 6.266 L
4.297 6.469 4.125 6.609 QT
3.953 6.75 3.75 6.75 QT
3.531 6.75 3.375 6.609 QT
3.219 6.469 3.219 6.266 QT
cp
f
GR
GS
[0.75 0 0 0.75 476.25 686.75] CT
0.149 GC
/Helvetica 26.667 F
GS
[1 0 0 1 0 0] CT
0 0 moveto 
1 -1 scale
( k-9) t 
GR
GR
GS
[0.75 0 0 0.75 990 674.75] CT
0.149 GC
/Helvetica 33.333 F
GS
[1 0 0 1 0 0] CT
0 0 moveto 
1 -1 scale
(w) t 
GR
GR
GS
[0.75 0 0 0.75 1008.75 686.75] CT
0.149 GC
/Helvetica 26.667 F
GS
[1 0 0 1 0 0] CT
0 0 moveto 
1 -1 scale
(k-9) t 
GR
GR
GS
[0.75 0 0 0.75 1037.25 686.75] CT
0.149 GC
N
/f-537824069{3.219 6.266 M
3.219 -19.766 L
3.219 -19.969 3.375 -20.109 QT
3.531 -20.25 3.75 -20.25 QT
3.953 -20.25 4.125 -20.109 QT
4.297 -19.969 4.297 -19.766 QT
4.297 6.266 L
4.297 6.469 4.125 6.609 QT
3.953 6.75 3.75 6.75 QT
3.531 6.75 3.375 6.609 QT
3.219 6.469 3.219 6.266 QT
cp}def
f-537824069
f
GR
GS
[0.75 0 0 0.75 1043.25 686.75] CT
0.149 GC
/Helvetica 26.667 F
GS
[1 0 0 1 0 0] CT
0 0 moveto 
1 -1 scale
( k) t 
GR
GR
GS
[0.75 0 0 0.75 0 -0.25] CT
0.149 GC
2 setlinecap
1 LJ
0.667 LW
N
250 857 M
250 72 L
S
GR
GS
[0.75 0 0 0.75 0 -0.25] CT
0.149 GC
2 setlinecap
1 LJ
0.667 LW
N
250 857 M
264.88 857 L
S
GR
GS
[0.75 0 0 0.75 0 -0.25] CT
0.149 GC
2 setlinecap
1 LJ
0.667 LW
N
250 595.333 M
264.88 595.333 L
S
GR
GS
[0.75 0 0 0.75 0 -0.25] CT
0.149 GC
2 setlinecap
1 LJ
0.667 LW
N
250 333.667 M
264.88 333.667 L
S
GR
GS
[0.75 0 0 0.75 0 -0.25] CT
0.149 GC
2 setlinecap
1 LJ
0.667 LW
N
250 72 M
264.88 72 L
S
GR
GS
[0.75 0 0 0.75 180.49999 642.5] CT
0.149 GC
/Helvetica 33.333 F
GS
[1 0 0 1 0 0] CT
-19 13 moveto 
1 -1 scale
(0) t 
GR
GR
GS
[0.75 0 0 0.75 180.49999 446.24998] CT
0.149 GC
/Helvetica 33.333 F
GS
[1 0 0 1 0 0] CT
-47 13 moveto 
1 -1 scale
(0.5) t 
GR
GR
GS
[0.75 0 0 0.75 180.49999 249.99999] CT
0.149 GC
/Helvetica 33.333 F
GS
[1 0 0 1 0 0] CT
-19 13 moveto 
1 -1 scale
(1) t 
GR
GR
GS
[0.75 0 0 0.75 180.49999 53.75] CT
0.149 GC
/Helvetica 33.333 F
GS
[1 0 0 1 0 0] CT
-47 13 moveto 
1 -1 scale
(1.5) t 
GR
GR
GS
[0.75 0 0 0.75 0 -0.25] CT
0.149 GC
1 LJ
0.667 LW
N
250 857 M
1738 857 L
S
GR
GS
[0.75 0 0 0.75 0 -0.25] CT
0 0.447 0.741 RC
N
473.2 857 M
473.2 674.082 L
364.982 674.082 L
364.982 857 L
cp
1217.2 857 M
1217.2 347.871 L
1108.982 347.871 L
1108.982 857 L
cp
f
GR
GS
[0.75 0 0 0.75 0 -0.25] CT
10.0 ML
0.667 LW
N
364.982 857 M
364.982 674.082 L
473.2 674.082 L
473.2 857 L
cp
S
GR
GS
[0.75 0 0 0.75 0 -0.25] CT
10.0 ML
0.667 LW
N
1108.982 857 M
1108.982 347.871 L
1217.2 347.871 L
1217.2 857 L
cp
S
GR
GS
[0.75 0 0 0.75 0 -0.25] CT
0.851 0.325 0.098 RC
N
608.473 857 M
608.473 839.771 L
500.255 839.771 L
500.255 857 L
cp
1352.473 857 M
1352.473 842.795 L
1244.255 842.795 L
1244.255 857 L
cp
f
GR
GS
[0.75 0 0 0.75 0 -0.25] CT
10.0 ML
0.667 LW
N
500.255 857 M
500.255 839.771 L
608.473 839.771 L
608.473 857 L
cp
S
GR
GS
[0.75 0 0 0.75 0 -0.25] CT
10.0 ML
0.667 LW
N
1244.255 857 M
1244.255 842.795 L
1352.473 842.795 L
1352.473 857 L
cp
S
GR
GS
[0.75 0 0 0.75 0 -0.25] CT
0.929 0.694 0.125 RC
N
743.745 857 M
743.745 536.823 L
635.527 536.823 L
635.527 857 L
cp
f
GR
GS
[0.75 0 0 0.75 0 -0.25] CT
10.0 ML
0.667 LW
N
635.527 857 M
635.527 536.823 L
743.745 536.823 L
743.745 857 L
cp
S
GR
GS
[0.75 0 0 0.75 0 -0.25] CT
10.0 ML
0.667 LW
N
1379.527 857 M
1379.527 857 L
1487.745 857 L
1487.745 857 L
cp
S
GR
GS
[0.75 0 0 0.75 0 -0.25] CT
0.494 0.184 0.557 RC
N
879.018 857 M
879.018 853.99 L
770.8 853.99 L
770.8 857 L
cp
f
GR
GS
[0.75 0 0 0.75 0 -0.25] CT
10.0 ML
0.667 LW
N
770.8 857 M
770.8 853.99 L
879.018 853.99 L
879.018 857 L
cp
S
GR
GS
[0.75 0 0 0.75 0 -0.25] CT
10.0 ML
0.667 LW
N
1514.8 857 M
1514.8 857 L
1623.018 857 L
1623.018 857 L
cp
S
GR
GS
[0.75 0 0 0.75 0 -0.25] CT
1 GC
N
1727 276 M
1727 83 L
1640 83 L
1640 276 L
cp
f
GR
GS
[0.75 0 0 0.75 1265.25 93.5] CT
/Helvetica 30 F
GS
[1 0 0 1 0 0] CT
0 0 moveto 
1 -1 scale
(w) t 
GR
GR
GS
[0.75 0 0 0.75 1281.75 82.25] CT
/Helvetica 24 F
GS
[1 0 0 1 0 0] CT
0 0 moveto 
1 -1 scale
(1) t 
GR
GR
GS
[0.75 0 0 0.75 0 -0.25] CT
0 0.447 0.741 RC
N
1684 120.403 M
1684 96.465 L
1644 96.465 L
1644 120.403 L
cp
f
GR
GS
[0.75 0 0 0.75 0 -0.25] CT
10.0 ML
0.667 LW
N
1644 120.403 M
1644 96.465 L
1684 96.465 L
1684 120.403 L
cp
S
GR
GS
[0.75 0 0 0.75 1265.25 129.5] CT
/Helvetica 30 F
GS
[1 0 0 1 0 0] CT
0 0 moveto 
1 -1 scale
(w) t 
GR
GR
GS
[0.75 0 0 0.75 1281.75 118.25] CT
/Helvetica 24 F
GS
[1 0 0 1 0 0] CT
0 0 moveto 
1 -1 scale
(2) t 
GR
GR
GS
[0.75 0 0 0.75 0 -0.25] CT
0.851 0.325 0.098 RC
N
1684 167.78 M
1684 143.842 L
1644 143.842 L
1644 167.78 L
cp
f
GR
GS
[0.75 0 0 0.75 0 -0.25] CT
10.0 ML
0.667 LW
N
1644 167.78 M
1644 143.842 L
1684 143.842 L
1684 167.78 L
cp
S
GR
GS
[0.75 0 0 0.75 1265.25 164.75] CT
/Helvetica 30 F
GS
[1 0 0 1 0 0] CT
0 0 moveto 
1 -1 scale
(w) t 
GR
GR
GS
[0.75 0 0 0.75 1281.75 153.5] CT
/Helvetica 24 F
GS
[1 0 0 1 0 0] CT
0 0 moveto 
1 -1 scale
(3) t 
GR
GR
GS
[0.75 0 0 0.75 0 -0.25] CT
0.929 0.694 0.125 RC
N
1684 215.158 M
1684 191.22 L
1644 191.22 L
1644 215.158 L
cp
f
GR
GS
[0.75 0 0 0.75 0 -0.25] CT
10.0 ML
0.667 LW
N
1644 215.158 M
1644 191.22 L
1684 191.22 L
1684 215.158 L
cp
S
GR
GS
[0.75 0 0 0.75 1265.25 200.75] CT
/Helvetica 30 F
GS
[1 0 0 1 0 0] CT
0 0 moveto 
1 -1 scale
(w) t 
GR
GR
GS
[0.75 0 0 0.75 1281.75 189.5] CT
/Helvetica 24 F
GS
[1 0 0 1 0 0] CT
0 0 moveto 
1 -1 scale
(4) t 
GR
GR
GS
[0.75 0 0 0.75 0 -0.25] CT
0.494 0.184 0.557 RC
N
1684 262.535 M
1684 238.597 L
1644 238.597 L
1644 262.535 L
cp
f
GR
GS
[0.75 0 0 0.75 0 -0.25] CT
10.0 ML
0.667 LW
N
1644 262.535 M
1644 238.597 L
1684 238.597 L
1684 262.535 L
cp
S
GR
GS
[0.75 0 0 0.75 0 -0.25] CT
0.149 GC
10.0 ML
0.667 LW
N
1640 276 M
1640 83 L
1727 83 L
1727 276 L
cp
S
GR
GS
[0.75 0 0 0.75 0 -0.25] CT
0 1 0 RC
1 LJ
8 LW
N
430 857.5 M
429.942 856.44 L
429.769 855.388 L
429.482 854.35 L
429.084 853.336 L
428.576 852.351 L
427.963 851.404 L
427.249 850.5 L
426.44 849.647 L
425.54 848.851 L
424.557 848.117 L
423.498 847.45 L
422.37 846.856 L
421.181 846.338 L
419.941 845.901 L
418.657 845.548 L
417.339 845.281 L
415.997 845.101 L
414.641 845.011 L
413.279 845.011 L
411.923 845.101 L
410.581 845.281 L
409.263 845.548 L
407.979 845.901 L
406.739 846.338 L
405.55 846.856 L
404.422 847.45 L
403.363 848.117 L
402.38 848.851 L
401.48 849.647 L
400.671 850.5 L
399.957 851.404 L
399.344 852.351 L
398.836 853.336 L
398.438 854.35 L
398.151 855.388 L
397.978 856.44 L
397.92 857.5 L
397.978 858.56 L
398.151 859.612 L
398.438 860.65 L
398.836 861.664 L
399.344 862.649 L
399.957 863.596 L
400.671 864.5 L
401.48 865.353 L
402.38 866.149 L
403.363 866.883 L
404.422 867.55 L
405.55 868.144 L
406.739 868.662 L
407.979 869.099 L
409.263 869.452 L
410.581 869.719 L
411.923 869.899 L
413.279 869.989 L
414.641 869.989 L
415.997 869.899 L
417.339 869.719 L
418.657 869.452 L
419.941 869.099 L
421.181 868.662 L
422.37 868.144 L
423.498 867.55 L
424.557 866.883 L
425.54 866.149 L
426.44 865.353 L
427.249 864.5 L
427.963 863.596 L
428.576 862.649 L
429.084 861.664 L
429.482 860.65 L
429.769 859.612 L
429.942 858.56 L
430 857.5 L
cp
S
GR
GS
[0.75 0 0 0.75 0 -0.25] CT
0 1 0 RC
1 LJ
8 LW
N
1179 857.5 M
1178.942 856.44 L
1178.769 855.388 L
1178.482 854.35 L
1178.084 853.336 L
1177.576 852.351 L
1176.963 851.404 L
1176.249 850.5 L
1175.44 849.647 L
1174.54 848.851 L
1173.557 848.117 L
1172.498 847.45 L
1171.37 846.856 L
1170.181 846.338 L
1168.941 845.901 L
1167.657 845.548 L
1166.339 845.281 L
1164.997 845.101 L
1163.641 845.011 L
1162.279 845.011 L
1160.923 845.101 L
1159.581 845.281 L
1158.263 845.548 L
1156.979 845.901 L
1155.739 846.338 L
1154.55 846.856 L
1153.422 847.45 L
1152.363 848.117 L
1151.38 848.851 L
1150.48 849.647 L
1149.671 850.5 L
1148.957 851.404 L
1148.344 852.351 L
1147.836 853.336 L
1147.438 854.35 L
1147.151 855.388 L
1146.978 856.44 L
1146.92 857.5 L
1146.978 858.56 L
1147.151 859.612 L
1147.438 860.65 L
1147.836 861.664 L
1148.344 862.649 L
1148.957 863.596 L
1149.671 864.5 L
1150.48 865.353 L
1151.38 866.149 L
1152.363 866.883 L
1153.422 867.55 L
1154.55 868.144 L
1155.739 868.662 L
1156.979 869.099 L
1158.263 869.452 L
1159.581 869.719 L
1160.923 869.899 L
1162.279 869.989 L
1163.641 869.989 L
1164.997 869.899 L
1166.339 869.719 L
1167.657 869.452 L
1168.941 869.099 L
1170.181 868.662 L
1171.37 868.144 L
1172.498 867.55 L
1173.557 866.883 L
1174.54 866.149 L
1175.44 865.353 L
1176.249 864.5 L
1176.963 863.596 L
1177.576 862.649 L
1178.084 861.664 L
1178.482 860.65 L
1178.769 859.612 L
1178.942 858.56 L
1179 857.5 L
cp
S
GR
%%Trailer
%%Pages: 1
%%EOF
